0.73754, 82.750
0.76877, 76.500
0.80000, 70.250
0.83123, 66.000
0.86246, 62.750
0.89369, 58.750
0.89369, 58.750
0.92492, 55.000
0.97177, 51.000
1.0186, 47.000
1.0811, 43.000
1.1435, 39.000
1.2372, 34.750
1.3309, 31.000
1.4402, 27.500
1.5652, 24.250
1.6745, 21.750
1.8306, 19.000
2.0024, 17.000
2.1429, 15.250
2.3147, 13.500
2.5021, 12.000
2.6895, 10.750
2.8925, 9.5000
3.1111, 8.5000
3.2673, 7.7500
3.4859, 7.0000
3.6733, 6.5000
3.8607, 5.7500
4.0949, 5.0000
4.2823, 4.7500
4.5634, 4.2500
4.9069, 3.2500
5.3598, 2.7500
6.0000, 2.0000
