%!PS-Adobe-3.0 EPSF-3.0
%%Creator: MATLAB, The MathWorks, Inc. Version 8.1.0.604 (R2013a). Operating System: Darwin 14.1.0 Darwin Kernel Version 14.1.0: Thu Feb 26 19:26:47 PST 2015; root:xnu-2782.10.73~1/RELEASE_X86_64 x86_64.
%%Title: /Users/le/Work/3.Projects/project3/Matlab/Result2015_03_24/Analysis/cdfQ11.eps
%%CreationDate: 03/31/2015  12:07:12
%%DocumentNeededFonts: Helvetica
%%DocumentProcessColors: Cyan Magenta Yellow Black
%%LanguageLevel: 2
%%Pages: 1
%%BoundingBox:    25   185   585   605
%%EndComments

%%BeginProlog
% MathWorks dictionary
/MathWorks 160 dict begin
% definition operators
/bdef {bind def} bind def
/ldef {load def} bind def
/xdef {exch def} bdef
/xstore {exch store} bdef
% operator abbreviations
/c  /clip ldef
/cc /concat ldef
/cp /closepath ldef
/gr /grestore ldef
/gs /gsave ldef
/mt /moveto ldef
/np /newpath ldef
/cm /currentmatrix ldef
/sm /setmatrix ldef
/rm /rmoveto ldef
/rl /rlineto ldef
/s {show newpath} bdef
/sc {setcmykcolor} bdef
/sr /setrgbcolor ldef
/sg /setgray ldef
/w /setlinewidth ldef
/j /setlinejoin ldef
/cap /setlinecap ldef
/rc {rectclip} bdef
/rf {rectfill} bdef
% page state control
/pgsv () def
/bpage {/pgsv save def} bdef
/epage {pgsv restore} bdef
/bplot /gsave ldef
/eplot {stroke grestore} bdef
% orientation switch
/portraitMode 0 def /landscapeMode 1 def /rotateMode 2 def
% coordinate system mappings
/dpi2point 0 def
% font control
/FontSize 0 def
/FMS {/FontSize xstore findfont [FontSize 0 0 FontSize neg 0 0]
  makefont setfont} bdef
/reencode {exch dup where {pop load} {pop StandardEncoding} ifelse
  exch dup 3 1 roll findfont dup length dict begin
  { 1 index /FID ne {def}{pop pop} ifelse } forall
  /Encoding exch def currentdict end definefont pop} bdef
/isroman {findfont /CharStrings get /Agrave known} bdef
/FMSR {3 1 roll 1 index dup isroman {reencode} {pop pop} ifelse
  exch FMS} bdef
/csm {1 dpi2point div -1 dpi2point div scale neg translate
 dup landscapeMode eq {pop -90 rotate}
  {rotateMode eq {90 rotate} if} ifelse} bdef
% line types: solid, dotted, dashed, dotdash
/SO { [] 0 setdash } bdef
/DO { [.5 dpi2point mul 4 dpi2point mul] 0 setdash } bdef
/DA { [6 dpi2point mul] 0 setdash } bdef
/DD { [.5 dpi2point mul 4 dpi2point mul 6 dpi2point mul 4
  dpi2point mul] 0 setdash } bdef
% macros for lines and objects
/L {lineto stroke} bdef
/MP {3 1 roll moveto 1 sub {rlineto} repeat} bdef
/AP {{rlineto} repeat} bdef
/PDlw -1 def
/W {/PDlw currentlinewidth def setlinewidth} def
/PP {closepath eofill} bdef
/DP {closepath stroke} bdef
/MR {4 -2 roll moveto dup  0 exch rlineto exch 0 rlineto
  neg 0 exch rlineto closepath} bdef
/FR {MR stroke} bdef
/PR {MR fill} bdef
/L1i {{currentfile picstr readhexstring pop} image} bdef
/tMatrix matrix def
/MakeOval {newpath tMatrix currentmatrix pop translate scale
0 0 1 0 360 arc tMatrix setmatrix} bdef
/FO {MakeOval stroke} bdef
/PO {MakeOval fill} bdef
/PD {currentlinewidth 2 div 0 360 arc fill
   PDlw -1 eq not {PDlw w /PDlw -1 def} if} def
/FA {newpath tMatrix currentmatrix pop translate scale
  0 0 1 5 -2 roll arc tMatrix setmatrix stroke} bdef
/PA {newpath tMatrix currentmatrix pop	translate 0 0 moveto scale
  0 0 1 5 -2 roll arc closepath tMatrix setmatrix fill} bdef
/FAn {newpath tMatrix currentmatrix pop translate scale
  0 0 1 5 -2 roll arcn tMatrix setmatrix stroke} bdef
/PAn {newpath tMatrix currentmatrix pop translate 0 0 moveto scale
  0 0 1 5 -2 roll arcn closepath tMatrix setmatrix fill} bdef
/vradius 0 def /hradius 0 def /lry 0 def
/lrx 0 def /uly 0 def /ulx 0 def /rad 0 def
/MRR {/vradius xdef /hradius xdef /lry xdef /lrx xdef /uly xdef
  /ulx xdef newpath tMatrix currentmatrix pop ulx hradius add uly
  vradius add translate hradius vradius scale 0 0 1 180 270 arc 
  tMatrix setmatrix lrx hradius sub uly vradius add translate
  hradius vradius scale 0 0 1 270 360 arc tMatrix setmatrix
  lrx hradius sub lry vradius sub translate hradius vradius scale
  0 0 1 0 90 arc tMatrix setmatrix ulx hradius add lry vradius sub
  translate hradius vradius scale 0 0 1 90 180 arc tMatrix setmatrix
  closepath} bdef
/FRR {MRR stroke } bdef
/PRR {MRR fill } bdef
/MlrRR {/lry xdef /lrx xdef /uly xdef /ulx xdef /rad lry uly sub 2 div def
  newpath tMatrix currentmatrix pop ulx rad add uly rad add translate
  rad rad scale 0 0 1 90 270 arc tMatrix setmatrix lrx rad sub lry rad
  sub translate rad rad scale 0 0 1 270 90 arc tMatrix setmatrix
  closepath} bdef
/FlrRR {MlrRR stroke } bdef
/PlrRR {MlrRR fill } bdef
/MtbRR {/lry xdef /lrx xdef /uly xdef /ulx xdef /rad lrx ulx sub 2 div def
  newpath tMatrix currentmatrix pop ulx rad add uly rad add translate
  rad rad scale 0 0 1 180 360 arc tMatrix setmatrix lrx rad sub lry rad
  sub translate rad rad scale 0 0 1 0 180 arc tMatrix setmatrix
  closepath} bdef
/FtbRR {MtbRR stroke } bdef
/PtbRR {MtbRR fill } bdef
/stri 6 array def /dtri 6 array def
/smat 6 array def /dmat 6 array def
/tmat1 6 array def /tmat2 6 array def /dif 3 array def
/asub {/ind2 exch def /ind1 exch def dup dup
  ind1 get exch ind2 get sub exch } bdef
/tri_to_matrix {
  2 0 asub 3 1 asub 4 0 asub 5 1 asub
  dup 0 get exch 1 get 7 -1 roll astore } bdef
/compute_transform {
  dmat dtri tri_to_matrix tmat1 invertmatrix 
  smat stri tri_to_matrix tmat2 concatmatrix } bdef
/ds {stri astore pop} bdef
/dt {dtri astore pop} bdef
/db {2 copy /cols xdef /rows xdef mul dup 3 mul string
  currentfile 
  3 index 0 eq {/ASCIIHexDecode filter}
  {/ASCII85Decode filter 3 index 2 eq {/RunLengthDecode filter} if }
  ifelse exch readstring pop
  dup 0 3 index getinterval /rbmap xdef
  dup 2 index dup getinterval /gbmap xdef
  1 index dup 2 mul exch getinterval /bbmap xdef pop pop}bdef
/it {gs np dtri aload pop moveto lineto lineto cp c
  cols rows 8 compute_transform 
  rbmap gbmap bbmap true 3 colorimage gr}bdef
/il {newpath moveto lineto stroke}bdef
currentdict end def
%%EndProlog

%%BeginSetup
MathWorks begin

0 cap

end
%%EndSetup

%%Page: 1 1
%%BeginPageSetup
%%PageBoundingBox:    25   185   585   605
MathWorks begin
bpage
%%EndPageSetup

%%BeginObject: obj1
bplot

/dpi2point 12 def
portraitMode 0300 7260 csm

    0     0  6721  5039 rc
85 dict begin %Colortable dictionary
/c0 { 0.000000 0.000000 0.000000 sr} bdef
/c1 { 1.000000 1.000000 1.000000 sr} bdef
/c2 { 0.900000 0.000000 0.000000 sr} bdef
/c3 { 0.000000 0.820000 0.000000 sr} bdef
/c4 { 0.000000 0.000000 0.800000 sr} bdef
/c5 { 0.910000 0.820000 0.320000 sr} bdef
/c6 { 1.000000 0.260000 0.820000 sr} bdef
/c7 { 0.000000 0.820000 0.820000 sr} bdef
c0
1 j
1 sg
   0    0 6722 5040 rf
6 w
0 4107 5209 0 0 -4107 874 4485 4 MP
PP
-5209 0 0 4107 5209 0 0 -4107 874 4485 5 MP stroke
4 w
DO
0 sg
 874 4485 mt  874  378 L
 874  378 mt  874  378 L
1618 4485 mt 1618  378 L
1618  378 mt 1618  378 L
2362 4485 mt 2362  378 L
2362  378 mt 2362  378 L
3106 4485 mt 3106  378 L
3106  378 mt 3106  378 L
3850 4485 mt 3850  378 L
3850  378 mt 3850  378 L
4594 4485 mt 4594  378 L
4594  378 mt 4594  378 L
5338 4485 mt 5338  378 L
5338  378 mt 5338  378 L
6083 4485 mt 6083  378 L
6083  378 mt 6083  378 L
 874 4485 mt 6083 4485 L
6083 4485 mt 6083 4485 L
 874 4074 mt 6083 4074 L
6083 4074 mt 6083 4074 L
 874 3663 mt 6083 3663 L
6083 3663 mt 6083 3663 L
 874 3252 mt 6083 3252 L
6083 3252 mt 6083 3252 L
 874 2842 mt 6083 2842 L
6083 2842 mt 6083 2842 L
 874 2431 mt 6083 2431 L
6083 2431 mt 6083 2431 L
 874 2020 mt 6083 2020 L
6083 2020 mt 6083 2020 L
 874 1610 mt 6083 1610 L
6083 1610 mt 6083 1610 L
 874 1199 mt 6083 1199 L
6083 1199 mt 6083 1199 L
 874  788 mt 6083  788 L
6083  788 mt 6083  788 L
 874  378 mt 6083  378 L
6083  378 mt 6083  378 L
SO
6 w
 874 4485 mt 6083 4485 L
 874  378 mt 6083  378 L
 874 4485 mt  874  378 L
6083 4485 mt 6083  378 L
 874 4485 mt 6083 4485 L
 874 4485 mt  874  378 L
 874 4485 mt  874 4432 L
 874  378 mt  874  430 L
%%IncludeResource: font Helvetica
/Helvetica /ISOLatin1Encoding 192 FMSR

 768 4697 mt 
(18) s
1618 4485 mt 1618 4432 L
1618  378 mt 1618  430 L
1512 4697 mt 
(20) s
2362 4485 mt 2362 4432 L
2362  378 mt 2362  430 L
2256 4697 mt 
(22) s
3106 4485 mt 3106 4432 L
3106  378 mt 3106  430 L
3000 4697 mt 
(24) s
3850 4485 mt 3850 4432 L
3850  378 mt 3850  430 L
3744 4697 mt 
(26) s
4594 4485 mt 4594 4432 L
4594  378 mt 4594  430 L
4488 4697 mt 
(28) s
5338 4485 mt 5338 4432 L
5338  378 mt 5338  430 L
5232 4697 mt 
(30) s
6083 4485 mt 6083 4432 L
6083  378 mt 6083  430 L
5977 4697 mt 
(32) s
 874 4485 mt  926 4485 L
6083 4485 mt 6030 4485 L
 733 4556 mt 
(0) s
 874 4074 mt  926 4074 L
6083 4074 mt 6030 4074 L
 573 4145 mt 
(0.1) s
 874 3663 mt  926 3663 L
6083 3663 mt 6030 3663 L
 573 3734 mt 
(0.2) s
 874 3252 mt  926 3252 L
6083 3252 mt 6030 3252 L
 573 3323 mt 
(0.3) s
 874 2842 mt  926 2842 L
6083 2842 mt 6030 2842 L
 573 2913 mt 
(0.4) s
 874 2431 mt  926 2431 L
6083 2431 mt 6030 2431 L
 573 2502 mt 
(0.5) s
 874 2020 mt  926 2020 L
6083 2020 mt 6030 2020 L
 573 2091 mt 
(0.6) s
 874 1610 mt  926 1610 L
6083 1610 mt 6030 1610 L
 573 1681 mt 
(0.7) s
 874 1199 mt  926 1199 L
6083 1199 mt 6030 1199 L
 573 1270 mt 
(0.8) s
 874  788 mt  926  788 L
6083  788 mt 6030  788 L
 573  859 mt 
(0.9) s
 874  378 mt  926  378 L
6083  378 mt 6030  378 L
 733  449 mt 
(1) s
 874 4485 mt 6083 4485 L
 874  378 mt 6083  378 L
 874 4485 mt  874  378 L
6083 4485 mt 6083  378 L
gs 874 378 5210 4108 rc
/c8 { 0.000000 0.000000 1.000000 sr} bdef
c8
0 -68 141 0 0 -34 30 0 0 -34 92 0 0 -35 31 0 
0 -34 16 0 0 -34 17 0 0 -103 16 0 0 -34 50 0 
0 -34 17 0 0 -34 34 0 0 -69 35 0 0 -171 18 0 
0 -68 18 0 0 -35 18 0 0 -34 55 0 0 -68 77 0 
0 -69 20 0 0 -68 1111 0 0 -34 133 0 0 -35 46 0 
0 -34 1 0 0 -34 36 0 0 -34 27 0 0 -35 16 0 
0 -34 17 0 0 -34 1 0 0 -34 13 0 0 -35 13 0 
0 -34 23 0 0 -34 28 0 0 -34 14 0 0 -137 10 0 
0 -34 16 0 0 -69 1 0 0 -68 13 0 0 -69 5 0 
0 -34 8 0 0 -68 14 0 0 -35 13 0 0 -34 1 0 
0 -68 13 0 0 -69 5 0 0 -68 9 0 0 -69 10 0 
0 -136 18 0 0 -137 15 0 0 -35 4 0 0 -68 19 0 
0 -34 5 0 0 -35 30 0 0 -34 14 0 0 -68 10 0 
0 -34 20 0 0 -69 61 0 0 -68 131 0 0 -35 158 0 
0 -34 701 0 0 -34 196 0 0 -34 99 0 0 -34 69 0 
0 -35 53 0 0 -34 320 0 0 -34 113 0 0 -34 48 0 
0 -69 25 0 0 -34 24 0 0 -68 51 0 0 -103 26 0 
0 -103 26 0 0 -137 27 0 0 -68 27 0 0 -69 28 0 
0 -34 28 0 0 -34 29 0 0 -69 1211 4485 150 MP stroke
gr

c8
0 sg
3013 4893 mt 
(PSNR [dB]) s
 475 2629 mt  -90 rotate
(CDF) s
90 rotate
1785  226 mt 
(Empirical CDF of PSNR, Solution OP11) s

end %%Color Dict

eplot
%%EndObject

epage
end

showpage

%%Trailer
%%EOF
