%!PS-Adobe-3.0 EPSF-3.0
%%Creator: MATLAB, The MathWorks, Inc. Version 8.1.0.604 (R2013a). Operating System: Darwin 14.1.0 Darwin Kernel Version 14.1.0: Thu Feb 26 19:26:47 PST 2015; root:xnu-2782.10.73~1/RELEASE_X86_64 x86_64.
%%Title: /Users/le/Work/3.Projects/project3/Matlab/Result2015_03_24/Analysis/cdfQ.eps
%%CreationDate: 03/31/2015  11:55:31
%%DocumentNeededFonts: Helvetica
%%DocumentProcessColors: Cyan Magenta Yellow Black
%%LanguageLevel: 2
%%Pages: 1
%%BoundingBox:    43   242   567   548
%%EndComments

%%BeginProlog
% MathWorks dictionary
/MathWorks 160 dict begin
% definition operators
/bdef {bind def} bind def
/ldef {load def} bind def
/xdef {exch def} bdef
/xstore {exch store} bdef
% operator abbreviations
/c  /clip ldef
/cc /concat ldef
/cp /closepath ldef
/gr /grestore ldef
/gs /gsave ldef
/mt /moveto ldef
/np /newpath ldef
/cm /currentmatrix ldef
/sm /setmatrix ldef
/rm /rmoveto ldef
/rl /rlineto ldef
/s {show newpath} bdef
/sc {setcmykcolor} bdef
/sr /setrgbcolor ldef
/sg /setgray ldef
/w /setlinewidth ldef
/j /setlinejoin ldef
/cap /setlinecap ldef
/rc {rectclip} bdef
/rf {rectfill} bdef
% page state control
/pgsv () def
/bpage {/pgsv save def} bdef
/epage {pgsv restore} bdef
/bplot /gsave ldef
/eplot {stroke grestore} bdef
% orientation switch
/portraitMode 0 def /landscapeMode 1 def /rotateMode 2 def
% coordinate system mappings
/dpi2point 0 def
% font control
/FontSize 0 def
/FMS {/FontSize xstore findfont [FontSize 0 0 FontSize neg 0 0]
  makefont setfont} bdef
/reencode {exch dup where {pop load} {pop StandardEncoding} ifelse
  exch dup 3 1 roll findfont dup length dict begin
  { 1 index /FID ne {def}{pop pop} ifelse } forall
  /Encoding exch def currentdict end definefont pop} bdef
/isroman {findfont /CharStrings get /Agrave known} bdef
/FMSR {3 1 roll 1 index dup isroman {reencode} {pop pop} ifelse
  exch FMS} bdef
/csm {1 dpi2point div -1 dpi2point div scale neg translate
 dup landscapeMode eq {pop -90 rotate}
  {rotateMode eq {90 rotate} if} ifelse} bdef
% line types: solid, dotted, dashed, dotdash
/SO { [] 0 setdash } bdef
/DO { [.5 dpi2point mul 4 dpi2point mul] 0 setdash } bdef
/DA { [6 dpi2point mul] 0 setdash } bdef
/DD { [.5 dpi2point mul 4 dpi2point mul 6 dpi2point mul 4
  dpi2point mul] 0 setdash } bdef
% macros for lines and objects
/L {lineto stroke} bdef
/MP {3 1 roll moveto 1 sub {rlineto} repeat} bdef
/AP {{rlineto} repeat} bdef
/PDlw -1 def
/W {/PDlw currentlinewidth def setlinewidth} def
/PP {closepath eofill} bdef
/DP {closepath stroke} bdef
/MR {4 -2 roll moveto dup  0 exch rlineto exch 0 rlineto
  neg 0 exch rlineto closepath} bdef
/FR {MR stroke} bdef
/PR {MR fill} bdef
/L1i {{currentfile picstr readhexstring pop} image} bdef
/tMatrix matrix def
/MakeOval {newpath tMatrix currentmatrix pop translate scale
0 0 1 0 360 arc tMatrix setmatrix} bdef
/FO {MakeOval stroke} bdef
/PO {MakeOval fill} bdef
/PD {currentlinewidth 2 div 0 360 arc fill
   PDlw -1 eq not {PDlw w /PDlw -1 def} if} def
/FA {newpath tMatrix currentmatrix pop translate scale
  0 0 1 5 -2 roll arc tMatrix setmatrix stroke} bdef
/PA {newpath tMatrix currentmatrix pop	translate 0 0 moveto scale
  0 0 1 5 -2 roll arc closepath tMatrix setmatrix fill} bdef
/FAn {newpath tMatrix currentmatrix pop translate scale
  0 0 1 5 -2 roll arcn tMatrix setmatrix stroke} bdef
/PAn {newpath tMatrix currentmatrix pop translate 0 0 moveto scale
  0 0 1 5 -2 roll arcn closepath tMatrix setmatrix fill} bdef
/vradius 0 def /hradius 0 def /lry 0 def
/lrx 0 def /uly 0 def /ulx 0 def /rad 0 def
/MRR {/vradius xdef /hradius xdef /lry xdef /lrx xdef /uly xdef
  /ulx xdef newpath tMatrix currentmatrix pop ulx hradius add uly
  vradius add translate hradius vradius scale 0 0 1 180 270 arc 
  tMatrix setmatrix lrx hradius sub uly vradius add translate
  hradius vradius scale 0 0 1 270 360 arc tMatrix setmatrix
  lrx hradius sub lry vradius sub translate hradius vradius scale
  0 0 1 0 90 arc tMatrix setmatrix ulx hradius add lry vradius sub
  translate hradius vradius scale 0 0 1 90 180 arc tMatrix setmatrix
  closepath} bdef
/FRR {MRR stroke } bdef
/PRR {MRR fill } bdef
/MlrRR {/lry xdef /lrx xdef /uly xdef /ulx xdef /rad lry uly sub 2 div def
  newpath tMatrix currentmatrix pop ulx rad add uly rad add translate
  rad rad scale 0 0 1 90 270 arc tMatrix setmatrix lrx rad sub lry rad
  sub translate rad rad scale 0 0 1 270 90 arc tMatrix setmatrix
  closepath} bdef
/FlrRR {MlrRR stroke } bdef
/PlrRR {MlrRR fill } bdef
/MtbRR {/lry xdef /lrx xdef /uly xdef /ulx xdef /rad lrx ulx sub 2 div def
  newpath tMatrix currentmatrix pop ulx rad add uly rad add translate
  rad rad scale 0 0 1 180 360 arc tMatrix setmatrix lrx rad sub lry rad
  sub translate rad rad scale 0 0 1 0 180 arc tMatrix setmatrix
  closepath} bdef
/FtbRR {MtbRR stroke } bdef
/PtbRR {MtbRR fill } bdef
/stri 6 array def /dtri 6 array def
/smat 6 array def /dmat 6 array def
/tmat1 6 array def /tmat2 6 array def /dif 3 array def
/asub {/ind2 exch def /ind1 exch def dup dup
  ind1 get exch ind2 get sub exch } bdef
/tri_to_matrix {
  2 0 asub 3 1 asub 4 0 asub 5 1 asub
  dup 0 get exch 1 get 7 -1 roll astore } bdef
/compute_transform {
  dmat dtri tri_to_matrix tmat1 invertmatrix 
  smat stri tri_to_matrix tmat2 concatmatrix } bdef
/ds {stri astore pop} bdef
/dt {dtri astore pop} bdef
/db {2 copy /cols xdef /rows xdef mul dup 3 mul string
  currentfile 
  3 index 0 eq {/ASCIIHexDecode filter}
  {/ASCII85Decode filter 3 index 2 eq {/RunLengthDecode filter} if }
  ifelse exch readstring pop
  dup 0 3 index getinterval /rbmap xdef
  dup 2 index dup getinterval /gbmap xdef
  1 index dup 2 mul exch getinterval /bbmap xdef pop pop}bdef
/it {gs np dtri aload pop moveto lineto lineto cp c
  cols rows 8 compute_transform 
  rbmap gbmap bbmap true 3 colorimage gr}bdef
/il {newpath moveto lineto stroke}bdef
currentdict end def
%%EndProlog

%%BeginSetup
MathWorks begin

0 cap

end
%%EndSetup

%%Page: 1 1
%%BeginPageSetup
%%PageBoundingBox:    43   242   567   548
MathWorks begin
bpage
%%EndPageSetup

%%BeginObject: obj1
bplot

/dpi2point 12 def
portraitMode 0516 6576 csm

    0     0  6288  3671 rc
85 dict begin %Colortable dictionary
/c0 { 0.000000 0.000000 0.000000 sr} bdef
/c1 { 1.000000 1.000000 1.000000 sr} bdef
/c2 { 0.900000 0.000000 0.000000 sr} bdef
/c3 { 0.000000 0.820000 0.000000 sr} bdef
/c4 { 0.000000 0.000000 0.800000 sr} bdef
/c5 { 0.910000 0.820000 0.320000 sr} bdef
/c6 { 1.000000 0.260000 0.820000 sr} bdef
/c7 { 0.000000 0.820000 0.820000 sr} bdef
c0
1 j
1 sg
   0    0 6289 3672 rf
6 w
0 2888 4874 0 0 -2888 817 3218 4 MP
PP
-4874 0 0 2888 4874 0 0 -2888 817 3218 5 MP stroke
4 w
DO
0 sg
 817 3218 mt  817  330 L
 817  330 mt  817  330 L
1791 3218 mt 1791  330 L
1791  330 mt 1791  330 L
2766 3218 mt 2766  330 L
2766  330 mt 2766  330 L
3741 3218 mt 3741  330 L
3741  330 mt 3741  330 L
4716 3218 mt 4716  330 L
4716  330 mt 4716  330 L
5691 3218 mt 5691  330 L
5691  330 mt 5691  330 L
 817 3218 mt 5691 3218 L
5691 3218 mt 5691 3218 L
 817 2640 mt 5691 2640 L
5691 2640 mt 5691 2640 L
 817 2062 mt 5691 2062 L
5691 2062 mt 5691 2062 L
 817 1485 mt 5691 1485 L
5691 1485 mt 5691 1485 L
 817  907 mt 5691  907 L
5691  907 mt 5691  907 L
 817  330 mt 5691  330 L
5691  330 mt 5691  330 L
SO
6 w
 817 3218 mt 5691 3218 L
 817  330 mt 5691  330 L
 817 3218 mt  817  330 L
5691 3218 mt 5691  330 L
 817 3218 mt 5691 3218 L
 817 3218 mt  817  330 L
 817 3218 mt  817 3169 L
 817  330 mt  817  378 L
%%IncludeResource: font Helvetica
/Helvetica /ISOLatin1Encoding 192 FMSR

 711 3430 mt 
(10) s
1791 3218 mt 1791 3169 L
1791  330 mt 1791  378 L
1685 3430 mt 
(15) s
2766 3218 mt 2766 3169 L
2766  330 mt 2766  378 L
2660 3430 mt 
(20) s
3741 3218 mt 3741 3169 L
3741  330 mt 3741  378 L
3635 3430 mt 
(25) s
4716 3218 mt 4716 3169 L
4716  330 mt 4716  378 L
4610 3430 mt 
(30) s
5691 3218 mt 5691 3169 L
5691  330 mt 5691  378 L
5585 3430 mt 
(35) s
 817 3218 mt  865 3218 L
5691 3218 mt 5642 3218 L
 676 3289 mt 
(0) s
 817 2640 mt  865 2640 L
5691 2640 mt 5642 2640 L
 516 2711 mt 
(0.2) s
 817 2062 mt  865 2062 L
5691 2062 mt 5642 2062 L
 516 2133 mt 
(0.4) s
 817 1485 mt  865 1485 L
5691 1485 mt 5642 1485 L
 516 1556 mt 
(0.6) s
 817  907 mt  865  907 L
5691  907 mt 5642  907 L
 516  978 mt 
(0.8) s
 817  330 mt  865  330 L
5691  330 mt 5642  330 L
 676  401 mt 
(1) s
 817 3218 mt 5691 3218 L
 817  330 mt 5691  330 L
 817 3218 mt  817  330 L
5691 3218 mt 5691  330 L
gs 817 330 4875 2889 rc
24 w
/c8 { 0.000000 0.000000 1.000000 sr} bdef
c8
15 0 0 -3 7 0 0 -1 8 0 7 0 0 -2 8 0 
0 -2 8 0 0 -2 7 0 0 -3 16 0 0 -2 8 0 
0 -3 8 0 0 -3 8 0 0 -4 8 0 0 -4 9 0 
0 -4 8 0 0 -5 8 0 0 -2 9 0 0 -4 8 0 
9 0 0 -8 9 0 0 -4 9 0 0 -4 8 0 0 -5 
9 0 0 -7 9 0 0 -5 10 0 0 -2 9 0 0 -7 
9 0 0 -7 9 0 0 -5 10 0 0 -6 10 0 0 -10 
9 0 0 -5 10 0 0 -7 10 0 0 -4 10 0 0 -10 
10 0 0 -6 10 0 0 -16 10 0 0 -17 11 0 0 -11 
10 0 0 -7 11 0 0 -5 11 0 0 -6 11 0 0 -7 
11 0 0 -12 11 0 0 -12 11 0 0 -13 12 0 0 -11 
11 0 0 -12 12 0 0 -8 12 0 0 -14 12 0 0 -10 
12 0 0 -9 13 0 0 -11 12 0 0 -6 13 0 0 -12 
13 0 0 -7 13 0 0 -12 13 0 0 -11 14 0 0 -10 
13 0 0 -8 14 0 0 -16 14 0 0 -15 15 0 0 -12 
14 0 0 -9 15 0 0 -10 15 0 0 -11 15 0 0 -11 
16 0 0 -13 16 0 0 -9 16 0 0 -13 16 0 0 -7 
17 0 0 -8 17 0 0 -13 17 0 0 -11 18 0 0 -8 
18 0 0 -8 10 0 8 0 0 -8 6 0 0 -1 13 0 
0 -8 1 0 0 -2 8 0 0 -2 7 0 0 -3 3 0 
0 -7 12 0 0 -1 7 0 0 -2 1 0 0 -5 7 0 
0 -5 8 0 0 -1 5 0 0 -6 2 0 0 -3 8 0 
0 -3 8 0 0 -4 3 0 0 -7 5 0 0 -4 7 0 
0 -4 8 0 0 -4 1 0 0 -7 7 0 0 -3 9 0 
0 -3 5 0 0 -8 3 0 0 -8 8 0 0 -1 8 0 
0 -7 3 0 0 -9 6 0 0 -8 7 0 1 -1 0 -8 
9 0 0 -12 3 0 0 -2 5 0 0 -7 8 0 1 -1 
0 -11 6 0 0 -4 3 0 0 -8 3 0 0 -1 6 0 
0 -5 1 0 0 -3 7 0 0 -2 1 0 0 -8 3 0 
0 -6 3 0 0 -4 3 0 0 -6 3 0 0 -2 6 0 
0 -7 1 0 0 -3 7 0 0 -5 1 0 0 -12 1 0 
0 -3 5 0 0 -2 3 0 0 -4 4 0 0 -7 6 0 
0 -7 2 0 0 -5 5 0 0 -4 2 0 0 -15 7 0 
0 -10 3 0 0 -6 4 0 0 -3 5 0 0 -11 3 0 
0 -7 2 0 0 -5 5 0 0 -16 8 0 0 -6 2 0 
0 -11 5 0 0 -9 5 0 0 -11 1 0 0 -6 2 0 
0 -7 7 0 0 -12 8 0 0 -4 2 0 0 -12 6 0 
0 -8 3 0 0 -6 3739 1346 300 MP stroke
2 0 0 -11 3 0 0 -11 7 0 0 -16 8 0 0 -16 
3 0 0 -12 5 0 0 -12 1 0 0 -2 4 0 0 -13 
4 0 0 -11 7 0 0 -11 1 0 0 -11 8 0 0 -12 
2 0 0 -8 3 0 0 -2 3 0 0 -8 5 0 0 -12 
4 0 0 -9 7 0 0 -15 1 0 0 -10 9 0 0 -14 
1 0 0 -4 1 0 0 -14 6 0 0 -7 5 0 0 -16 
4 0 0 -11 8 0 0 -9 1 0 0 -10 7 0 0 -6 
2 0 0 -14 1 0 0 -11 7 0 0 -11 5 0 0 -15 
4 0 0 -15 8 0 0 -13 2 0 0 -10 4 0 0 -3 
5 0 0 -15 2 0 0 -9 7 0 0 -14 5 0 0 -17 
4 0 0 -11 9 0 0 -14 1 0 0 -11 9 0 0 -10 
2 0 0 -15 8 0 0 -11 5 0 0 -10 5 0 0 -9 
5 0 0 -3 3 0 0 -11 2 0 0 -12 10 0 0 -12 
2 0 0 -10 8 0 0 -12 5 0 0 -7 5 0 0 -10 
9 0 0 -13 1 0 0 -7 3 0 0 -2 8 0 0 -12 
2 0 0 -11 8 0 0 -13 6 0 0 -1 5 0 0 -12 
9 0 0 -9 2 0 0 -11 8 0 0 -2 3 0 0 -6 
2 0 0 -8 9 0 0 -6 5 0 0 -10 6 0 0 -7 
9 0 0 -6 2 0 0 -13 12 0 0 -12 2 0 0 -6 
9 0 0 -9 6 0 0 -5 6 0 0 -11 10 0 0 -8 
2 0 0 -6 12 0 0 -8 1 0 0 -2 1 0 0 -5 
10 0 0 -6 7 0 0 -2 6 0 0 -8 10 0 0 -5 
2 0 0 -6 12 0 0 -4 1 0 0 -10 2 0 0 -8 
11 0 0 -8 7 0 0 -9 6 0 0 -9 11 0 0 -6 
2 0 0 -8 8 0 4 0 0 -2 2 0 0 -8 3 0 
0 -7 10 0 1 0 0 -6 6 0 1 -1 0 -9 6 0 
0 -10 13 0 0 -5 2 0 0 -9 7 0 0 -3 7 0 
0 -8 3 -1 0 -4 5 0 0 -1 7 0 0 -3 1 0 
0 -4 7 0 0 -13 6 0 0 -8 2 0 0 -4 3 0 
5 0 0 -6 4 0 0 -3 1 0 0 -8 3 0 0 -5 
8 0 0 -6 5 0 3 0 0 -13 8 0 0 -5 4 0 
0 -5 4 0 0 -6 3 0 0 -2 2 0 0 -4 3 0 
0 -6 4 0 0 -4 5 0 0 -6 8 0 0 -8 2 0 
0 -7 1 0 0 -3 6 0 0 -8 8 0 0 -5 3 0 
0 -3 4 0 0 -4 2 0 0 -9 8 0 0 -5 3 0 
0 -3 6 0 0 -8 4 0 0 -8 5 0 0 -10 2 0 
0 -3 7 0 0 -5 9 0 0 -10 1 0 0 -2 2 0 
0 -1 6 0 0 -9 2986 2560 300 MP stroke
10 0 0 -7 5 0 0 -4 4 0 0 -5 9 0 0 -4 
1 0 0 -11 9 0 0 -9 2 0 0 -1 7 0 0 -5 
1 0 0 -11 10 0 0 -16 7 0 0 -4 3 0 0 -17 
10 0 0 -11 7 0 0 -1 3 0 0 -13 2 0 0 -3 
8 -1 0 -13 7 0 0 -1 3 0 0 -9 10 0 0 -4 
1 0 0 -6 6 0 0 -2 4 0 0 -6 9 0 0 -1 
2 0 0 -10 5 0 0 -5 6 0 0 -14 11 0 0 -9 
11 0 0 -8 11 -1 0 -4 2 0 0 -1 10 0 0 -14 
12 0 0 -8 6 0 0 -1 5 0 0 -8 12 0 0 -20 
3 0 0 -1 3 0 0 -3 6 0 0 -12 12 0 1 0 
0 -13 12 0 0 -8 9 0 0 -1 4 0 0 -8 12 -1 
0 -6 2 0 0 -2 11 0 0 -10 11 0 2 0 0 -10 
14 0 0 -10 13 0 0 -15 11 0 0 -2 3 0 0 -11 
14 0 0 -12 15 0 0 -13 8 0 0 -2 6 0 0 -14 
13 0 0 -1 2 0 0 -11 15 0 0 -12 4 0 0 -2 
11 0 0 -6 16 0 0 -5 13 0 0 -1 2 0 0 -9 
16 0 0 -10 17 -1 0 -7 5 0 0 -2 12 0 0 -6 
7 0 10 0 0 -8 11 0 0 -1 6 0 0 -6 14 0 
0 -1 4 0 0 -11 16 0 0 -1 2 0 0 -3 18 0 
0 -1 0 1 1 -6 18 0 0 -8 20 0 0 -8 10 0 
0 -1 9 0 0 -10 21 0 0 -5 20 0 0 -6 22 0 
0 -7 20 0 0 -3 24 -1 0 -3 16 0 0 -1 7 0 
0 -7 5 0 0 -1 18 0 0 -4 10 0 14 0 0 -4 
6 0 0 -2 19 0 0 -2 26 -1 0 -5 15 0 0 -1 
11 0 0 -2 10 0 0 -1 18 0 0 -4 28 0 0 -3 
13 0 0 -1 16 0 0 -2 24 0 6 0 0 -4 16 0 
16 0 0 -1 32 0 0 -2 10 0 0 -1 31 0 0 -3 
31 0 0 -1 30 0 0 -2 31 0 0 -3 31 0 0 -2 
30 0 0 -1 31 0 31 0 0 -1 61 0 0 -2 13 0 
0 -1 17 0 31 0 0 -2 31 0 0 -2 122 0 123 0 
0 -1 91 0 0 -2 154 0 0 -1 162 0 817 3217 247 MP stroke
gr

24 w
c8
0 sg
2789 3626 mt 
(PSNR [dB]) s
 418 1972 mt  -90 rotate
(CDF) s
90 rotate
2233  178 mt 
(Empirical CDF of PSNR) s
gs 817 330 4875 2889 rc
DA
/c9 { 0.000000 0.500000 0.000000 sr} bdef
c9
82 0 0 -1 33 0 0 -1 35 0 0 -1 28 0 0 -3 
15 0 0 -2 7 0 8 0 0 -2 15 0 0 -2 15 0 
0 -7 8 0 0 -1 7 0 0 -8 8 0 0 -1 8 0 
0 -8 8 0 0 -2 8 0 0 -9 8 0 0 -4 8 0 
0 -17 9 0 0 -4 8 0 0 -17 8 0 0 -12 9 0 
0 -23 8 0 0 -8 9 0 0 -14 9 0 0 -7 9 0 
0 -24 8 0 0 -16 9 0 0 -20 9 0 0 -16 10 0 
0 -29 9 0 0 -19 9 0 0 -24 9 0 0 -19 10 0 
0 -23 10 0 0 -26 9 0 0 -27 10 0 0 -18 10 0 
0 -29 10 0 0 -22 10 0 0 -30 10 0 0 -20 10 0 
0 -31 11 0 0 -18 10 0 0 -27 11 0 0 -12 11 0 
0 -12 11 0 0 -16 11 0 0 -12 11 0 0 -9 11 0 
0 -11 12 0 0 -9 11 0 0 -9 12 0 0 -6 12 0 
0 -6 12 0 0 -2 12 0 0 -8 13 0 0 -2 12 0 
0 -5 13 0 0 -2 13 0 0 -2 13 0 0 -3 13 0 
0 -3 55 0 0 -1 116 0 71 0 0 -1 2 0 0 -1 
5 0 0 -1 55 0 0 -1 7 0 0 -1 7 0 0 -4 
15 0 0 -3 7 0 0 -2 8 0 0 -5 7 0 0 -4 
8 0 0 -5 8 0 0 -2 7 0 0 -6 3 0 0 -1 
5 0 0 -3 8 0 0 -8 8 0 0 -8 7 0 0 -12 
8 0 0 -5 8 0 0 -22 5 0 0 -1 4 0 0 -5 
8 0 0 -25 6 0 0 -1 2 0 0 -12 8 0 0 -15 
3 0 0 -3 6 0 0 -13 7 0 1 -1 0 -22 9 0 
0 -23 3 0 0 -1 5 0 0 -24 8 -1 1 -1 0 -15 
6 0 0 -2 3 0 0 -31 3 0 0 -5 6 0 0 -10 
1 0 0 -4 7 0 0 -3 1 0 0 -29 6 0 0 -1 
3 0 0 -26 3 0 0 -5 6 0 0 -35 1 0 0 -4 
7 0 0 -7 1 0 0 -22 6 0 0 -5 3 0 0 -20 
4 0 0 -14 6 0 0 -16 9 0 0 -27 7 0 0 -7 
3 0 0 -19 4 0 0 -23 5 0 0 -28 3 0 0 -7 
7 0 0 -40 8 0 0 -8 2 0 0 -24 5 0 0 -25 
5 0 0 -12 3 0 0 -13 7 0 0 -52 8 0 0 -13 
2 0 0 -12 6 0 0 -25 5 0 0 -17 3 0 0 -17 
7 0 0 -36 8 0 0 -25 3 0 0 -17 5 0 0 -33 
5 0 0 -9 4 0 0 -15 7 0 0 -10 1 0 0 -32 
8 0 0 -13 2 0 0 -10 6 0 0 -28 5 0 0 -8 
4 0 0 -19 7 0 0 -6 1 0 0 -31 9 0 0 -17 
2 0 0 -6 6 0 3644 2233 300 MP stroke
0 -26 5 0 0 -4 4 0 0 -13 8 0 0 -5 1 0 
0 -25 9 0 0 -13 1 0 0 -6 7 0 0 -22 5 0 
0 -3 4 0 0 -19 8 0 0 -2 2 0 0 -18 9 0 
0 -9 2 0 0 -1 7 0 0 -12 5 0 0 -3 4 0 
0 -10 10 0 0 -13 9 0 0 -6 10 0 0 -11 10 0 
0 -8 8 0 0 -1 2 0 0 -4 10 0 0 -3 10 0 
0 -8 10 0 0 -3 10 0 0 -6 11 0 0 -2 10 0 
0 -2 22 0 0 -1 11 0 0 -1 11 0 0 -1 22 0 
0 -1 14 0 0 -1 79 0 33 0 0 -1 14 0 0 -1 
20 0 0 -4 8 0 0 -1 7 0 0 -3 7 0 0 -1 
7 0 0 -1 7 0 8 0 0 -4 15 0 0 -4 7 0 
0 -4 8 0 0 -9 7 0 0 -4 8 0 0 -8 8 0 
0 -2 8 0 0 -14 8 0 0 -6 8 0 0 -22 8 0 
0 -8 8 0 0 -26 8 0 0 -12 9 0 0 -16 8 0 
0 -11 9 0 0 -24 8 0 0 -16 9 0 0 -22 8 0 
0 -14 9 0 0 -31 9 0 0 -19 9 0 0 -41 9 0 
0 -23 9 0 0 -22 10 0 0 -19 9 0 0 -25 10 0 
0 -18 9 0 0 -20 10 0 0 -19 10 0 0 -25 10 0 
0 -20 10 0 0 -17 10 0 0 -16 10 0 0 -23 10 0 
0 -12 11 0 0 -19 10 0 0 -17 11 0 0 -19 11 0 
0 -12 11 0 0 -11 11 0 0 -5 11 0 0 -8 12 0 
0 -8 12 0 0 -9 11 0 0 -3 12 0 0 -3 12 0 
0 -3 13 0 0 -2 12 0 0 -1 13 0 0 -1 12 0 
0 -3 13 0 0 -3 13 0 0 -2 14 0 0 -1 13 0 
0 -1 57 0 0 -2 45 0 0 -1 2538 3218 198 MP stroke
DO
/c10 { 1.000000 0.000000 0.000000 sr} bdef
c10
14 0 0 -1 26 0 0 -2 7 0 0 -1 35 0 0 -2 
14 0 0 -6 7 0 7 0 0 -6 7 0 0 -2 8 0 
0 -6 7 0 0 -2 8 0 0 -8 7 0 0 -1 8 0 
0 -5 7 0 0 -2 8 0 0 -8 8 0 0 -3 7 0 
0 -9 8 0 0 -4 8 0 0 -3 8 0 0 -5 8 0 
0 -1 16 0 0 -2 9 0 0 -4 8 0 0 -4 8 0 
0 -2 9 0 0 -3 8 0 0 -2 9 0 0 -3 9 0 
0 -2 9 0 0 -4 8 0 0 -2 9 0 0 -4 9 0 
0 -1 10 0 0 -4 9 0 0 -3 9 0 0 -2 9 0 
0 -2 10 0 0 -4 10 0 0 -2 9 0 0 -1 10 0 
0 -1 10 0 0 -1 10 0 0 -1 10 0 0 -1 10 0 
0 -2 21 0 0 -1 10 0 0 -2 11 0 33 0 0 -4 
34 0 35 0 0 -1 24 0 0 -1 132 0 0 -1 122 0 
0 -1 16 0 0 -1 9 0 7 0 0 -1 26 0 0 -2 
11 0 0 -1 10 0 6 0 0 -1 7 0 0 -1 6 0 
0 -1 5 -1 0 -1 3 0 0 -1 7 0 0 -1 7 0 
0 -1 3 0 4 0 0 -6 4 0 0 -2 3 0 0 -1 
2 0 0 -1 5 0 0 -6 8 0 7 0 0 -6 15 0 
0 -6 3 0 3 0 1 -1 0 -3 4 0 3 0 1 -1 
0 -7 5 0 3 0 0 -4 6 0 1 -1 0 -7 8 0 
0 -2 8 0 0 -8 8 0 0 -3 7 0 0 -4 2 0 
0 -1 6 0 0 -3 6 0 0 -2 2 0 0 -4 4 0 
0 -1 5 0 0 -2 8 0 0 -5 3 0 0 -1 5 0 
0 -4 5 0 0 -1 3 0 0 -5 3 0 0 -3 4 0 
0 -1 2 0 0 -4 8 0 0 -3 9 0 0 -5 3 -1 
0 -2 4 0 1 -1 0 -2 8 0 0 -2 1 0 0 -3 
9 0 0 -2 2 0 0 -1 7 -1 0 -3 1 0 0 -2 
7 0 0 -4 4 -1 0 -4 6 0 0 -3 3 0 0 -5 
6 0 0 -3 8 -1 0 -8 1 0 0 -3 1 0 0 -2 
5 0 0 -5 3 0 0 -3 4 0 0 -11 4 0 0 -2 
2 0 0 -2 2 0 0 -10 3 0 0 -2 2 0 0 -10 
2 0 0 -15 4 0 0 -3 3 0 0 -8 3 0 0 -4 
1 0 0 -3 3 0 0 -7 1 0 0 -7 4 0 0 -6 
3 0 0 -3 1 0 0 -3 1 0 0 -11 2 0 0 -1 
3 0 0 -18 1 0 0 -7 4 0 0 -7 3 0 0 -5 
1 0 0 -3 1 0 0 -11 3 0 0 -4 2 0 0 -10 
2 0 0 -13 3 0 0 -7 1 0 0 -40 2 0 0 -7 
1 0 0 -10 4 0 3760 914 300 MP stroke
0 -7 2 0 0 -20 2 0 0 -9 4 0 0 -8 2 0 
0 -4 2 0 0 -15 4 0 0 -9 2 0 0 -21 2 0 
0 -11 1 0 0 -29 2 0 0 -24 1 0 0 -13 2 0 
0 -8 2 0 0 -13 4 0 0 -7 1 0 0 -36 3 0 
0 -13 4 0 0 -7 1 0 0 -20 3 0 0 -21 1 0 
0 -9 4 0 0 -36 1 0 0 -77 3 0 0 -10 1 0 
0 -16 3 0 0 -9 1 0 0 -21 3 0 0 -14 4 0 
0 -40 1 0 0 -25 4 0 0 -13 4 0 0 -43 2 0 
0 -12 2 0 0 -13 1 0 0 -60 3 0 0 -37 5 0 
0 -44 4 0 0 -31 4 0 0 -10 3 0 0 -21 1 0 
0 -32 1 0 0 -13 4 0 0 -12 4 0 0 -22 1 0 
0 -115 1 0 0 -39 3 0 0 -8 3 0 0 -23 1 0 
0 -8 4 0 0 -22 1 0 0 -4 3 0 0 -17 1 0 
0 -8 5 0 0 -10 2 0 0 -39 1 0 0 -34 1 0 
0 -9 5 0 0 -8 1 0 0 -71 2 0 0 -13 1 0 
0 -32 1 0 0 -8 4 0 0 -15 2 0 0 -30 3 0 
0 -3 2 0 0 -29 3 0 0 -7 1 0 0 -18 3 0 
0 -4 5 0 0 -39 2 0 0 -16 3 0 0 -5 1 0 
0 -75 3 0 0 -7 2 0 0 -15 2 0 0 -40 1 0 
0 -5 5 0 0 -2 1 0 0 -14 4 0 1 0 0 -17 
4 0 0 -16 4 0 0 -1 5 0 0 -20 1 0 0 -12 
4 0 0 -7 5 0 0 -19 2 0 0 -11 3 0 0 -2 
5 0 0 -12 5 0 0 -19 5 0 0 -9 5 0 0 -29 
3 0 0 -13 2 0 0 -19 6 0 0 -1 4 0 0 -15 
1 0 0 -5 1 0 0 -13 4 0 0 -1 4 0 0 -4 
1 0 0 -2 4 0 0 -12 1 0 0 -2 4 0 0 -5 
9 0 0 -11 1 0 0 -5 2 0 0 -2 1 0 0 -22 
5 0 0 -1 3 0 0 -6 2 0 0 -8 6 0 2 0 
0 -6 3 0 0 -1 3 0 0 -8 5 0 0 -1 3 0 
6 0 0 -3 2 0 0 -3 8 0 0 -10 3 0 2 0 
0 -5 8 0 0 -1 5 0 1 -1 0 -3 6 0 0 -1 
9 0 0 -1 2 0 0 -1 12 0 0 -8 2 0 0 -1 
9 0 0 -1 6 0 0 -1 16 0 0 -1 14 0 1 -1 
0 -1 36 -1 0 -2 12 0 0 -2 21 -1 6 0 0 -1 
12 0 1 -1 0 -2 17 0 0 -1 11 0 0 -1 13 0 
0 -1 15 0 0 -4 15 0 0 -2 15 0 0 -4 7 0 
0 -1 6 0 0 -1 2 0 0 -1 16 0 0 -4 16 0 
0 -5 8 0 0 -1 3098 3037 300 MP stroke
4 0 0 -2 4 0 0 -2 8 0 0 -1 4 0 0 -1 
5 0 0 -6 8 0 0 -2 2 0 0 -2 7 -1 0 -3 
8 0 0 -4 3 0 0 -2 4 0 0 -3 2 0 0 -6 
11 0 0 -1 6 0 0 -7 4 0 0 -1 5 0 0 -3 
9 0 0 -6 9 0 0 -6 9 -1 0 -5 10 0 0 -6 
5 0 0 -1 4 0 0 -5 9 0 0 -1 10 -1 0 -4 
2 0 0 -3 8 0 0 -2 10 0 0 -7 7 0 0 -3 
3 0 0 -4 10 0 0 -1 10 0 0 -4 3 0 0 -1 
7 0 0 -3 7 0 0 -1 3 0 0 -2 10 0 0 -2 
1 0 0 -8 10 0 0 -2 11 0 0 -2 11 0 0 -3 
11 0 0 -1 11 0 0 -3 11 -1 0 -2 12 0 0 -2 
12 0 0 -1 11 0 0 -2 12 0 0 -1 6 0 6 0 
0 -1 13 0 0 -1 12 0 0 -1 13 0 0 -1 12 -1 
0 -1 13 0 0 -2 13 0 11 0 0 -1 27 0 0 -1 
3 0 0 -1 18 0 0 -4 11 0 0 -1 14 0 23 0 
0 -1 48 0 0 -5 38 0 0 -1 10 0 0 -1 24 0 
0 -1 24 0 0 -6 48 0 0 -1 48 0 0 -2 96 0 
0 -1 48 0 0 -1 48 0 0 -1 2128 3218 142 MP stroke
DD
/c11 { 0.000000 0.750000 0.750000 sr} bdef
c11
5 0 0 -1 30 0 0 -1 31 0 0 -1 16 0 0 -1 
37 0 4 0 0 -1 17 0 0 -1 16 0 0 -2 13 0 
0 -2 22 0 0 -1 4 0 0 -1 5 0 0 -1 4 0 
0 -2 5 0 0 -2 9 0 0 -2 13 0 0 -1 14 0 
0 -2 5 0 0 -1 4 0 0 -1 10 0 0 -3 9 0 
0 -1 5 0 0 -1 5 0 0 -4 4 0 0 -1 5 0 
0 -3 5 0 0 -1 5 0 0 -2 5 0 0 -4 5 0 
0 -4 5 0 0 -3 4 0 0 -3 5 0 0 -3 5 0 
0 -1 5 0 0 -2 5 0 0 -2 6 0 0 -3 5 0 
0 -4 5 0 0 -1 5 0 0 -3 5 0 0 -1 5 0 
0 -2 5 0 0 -3 6 0 0 -6 5 0 0 -1 5 0 
0 -6 5 0 0 -2 6 0 0 -7 5 0 0 -3 5 0 
0 -1 6 0 0 -4 5 0 0 -4 6 0 5 0 0 -4 
6 0 0 -5 5 0 0 -5 12 0 0 -6 5 0 0 -2 
6 0 0 -3 6 0 0 -3 5 0 0 -4 6 0 0 -2 
6 0 0 -5 6 0 0 -2 6 0 0 -3 6 0 0 -1 
5 0 0 -8 6 0 0 -4 6 0 0 -8 7 0 0 -1 
6 0 0 -3 6 0 0 -2 6 0 0 -4 6 0 0 -2 
6 0 0 -5 7 0 0 -7 6 0 0 -4 6 0 0 -4 
7 0 0 -4 6 0 0 -3 6 0 0 -7 7 0 0 -7 
7 0 0 -7 6 0 0 -3 7 0 0 -4 6 0 0 -7 
7 0 0 -7 7 0 0 -7 7 0 0 -5 7 0 0 -4 
7 0 0 -11 7 0 0 -6 7 0 0 -7 7 0 0 -5 
7 0 0 -7 7 0 0 -4 7 0 0 -13 7 0 0 -7 
8 0 0 -5 7 0 0 -3 8 0 0 -9 7 0 0 -3 
8 0 0 -9 7 0 0 -1 8 0 0 -8 8 0 0 -1 
7 0 0 -3 8 0 0 -3 8 0 0 -9 8 0 0 -3 
8 0 0 -8 8 -1 0 -4 8 0 0 -10 9 0 0 -1 
8 0 0 -6 8 0 0 -3 9 0 0 -7 8 0 0 -2 
9 0 0 -4 9 0 0 -3 9 0 0 -6 8 0 0 -2 
9 0 0 -9 9 0 0 -4 10 0 0 -4 8 0 1 0 
0 -4 9 0 0 -4 2 0 0 -1 7 0 0 -4 10 0 
0 -7 10 0 0 -3 9 -1 0 -6 8 0 0 -1 2 0 
0 -1 10 0 0 -5 4 0 0 -1 6 0 0 -3 10 0 
0 -4 5 -1 0 -1 5 0 0 -6 4 0 4 0 0 -2 
2 0 0 -4 6 0 0 -1 5 0 0 -2 8 0 0 -1 
2 0 0 -8 11 0 0 -3 9 0 0 -2 2 0 0 -7 
3 0 0 -1 4 0 4585 880 300 MP stroke
0 -4 4 0 0 -1 10 0 0 -2 1 0 0 -8 3 0 
0 -1 5 0 0 -2 3 0 0 -3 1 0 9 0 1 -1 
0 -9 4 0 0 -1 5 0 0 -2 3 0 0 -4 6 -1 
0 -1 5 0 0 -12 4 0 0 -4 5 0 0 -1 3 0 
0 -3 2 0 0 -1 9 0 0 -2 1 0 0 -7 4 0 
0 -1 5 0 0 -3 3 0 0 -3 2 0 0 -1 2 0 
3 0 0 -3 5 0 0 -8 4 0 0 -4 5 0 0 -1 
4 0 0 -2 1 0 0 -3 5 -1 0 -3 5 0 0 -6 
1 0 0 -5 4 -1 1 -1 0 -2 4 0 1 -1 0 -2 
3 0 0 -2 2 0 0 -3 2 0 0 -1 3 0 0 -4 
6 0 0 -9 4 0 0 -4 5 0 0 -4 2 0 0 -1 
2 0 1 -1 0 -5 6 0 0 -4 3 0 2 0 0 -8 
1 0 0 -2 4 -1 0 -5 6 0 0 -5 5 0 0 -4 
3 0 2 0 0 -6 2 0 0 -2 4 0 0 -1 1 -1 
0 -2 4 0 0 -4 4 0 0 -1 2 0 0 -3 2 0 
0 -1 2 0 1 -1 0 -6 6 0 0 -5 4 0 1 -1 
0 -4 2 0 0 -2 4 -1 0 -3 5 0 0 -3 5 -1 
0 -4 1 0 0 -7 3 0 0 -2 3 0 0 -6 2 0 
0 -2 3 0 0 -2 3 -1 0 -5 3 0 0 -6 4 0 
0 -2 2 0 0 -2 3 0 0 -1 3 0 0 -5 1 0 
0 -2 5 0 0 -1 4 0 0 -2 1 0 0 -3 4 0 
0 -5 2 0 0 -2 2 0 0 -1 4 0 0 -4 5 -1 
0 -2 1 0 0 -2 4 -1 0 -2 2 0 0 -5 3 0 
0 -1 3 0 0 -2 1 0 0 -2 4 0 0 -6 1 0 
0 -5 5 0 1 -1 0 -3 3 0 0 -1 3 0 0 -7 
7 0 0 -10 6 0 0 -4 3 0 0 -3 3 0 0 -7 
6 0 0 -8 1 0 5 0 0 -3 4 -1 1 -1 0 -5 
2 0 0 -3 3 0 0 -1 4 0 0 -6 6 -1 0 -6 
1 0 0 -5 4 0 0 -2 8 -1 0 -10 2 0 0 -6 
3 0 0 -2 2 0 0 -4 5 0 0 -4 1 0 0 -11 
4 0 0 -1 3 0 0 -3 2 0 0 -7 5 0 0 -11 
5 0 1 -1 0 -3 5 0 0 -3 2 0 0 -6 3 0 
0 -10 4 0 0 -2 1 0 0 -2 5 0 0 -2 1 0 
0 -3 4 0 0 -7 3 -1 0 -2 3 0 0 -6 4 0 
0 -4 7 -1 0 -8 7 0 0 -9 4 0 0 -2 3 0 
0 -1 2 0 0 -3 4 0 0 -3 1 0 0 -5 1 0 
0 -4 5 0 0 -4 2 0 0 -2 4 0 0 -5 3 0 
0 -6 3 0 0 -2 4064 1451 300 MP stroke
4 0 0 -5 1 0 0 -5 6 0 0 -4 1 0 0 -4 
4 0 0 -6 3 0 0 -3 1 0 0 -2 7 0 0 -6 
1 0 0 -11 6 0 0 -4 1 0 0 -4 4 0 0 -6 
3 0 0 -5 3 0 0 -2 5 0 0 -6 1 0 0 -6 
6 0 1 -1 0 -8 3 0 0 -2 2 0 0 -4 3 0 
0 -2 3 0 0 -2 4 0 0 -5 2 0 0 -5 6 0 
0 -8 6 0 0 -5 2 0 0 -7 5 0 0 -1 4 0 
0 -4 2 0 0 -10 3 0 0 -3 3 0 0 -8 6 0 
0 -4 1 0 1 -1 0 -3 5 0 0 -1 3 0 0 -7 
3 0 0 -12 6 0 0 -5 7 0 0 -10 1 0 0 -10 
5 0 0 -6 4 0 0 -3 3 0 0 -5 5 0 0 -5 
1 0 0 -3 7 0 0 -6 1 0 0 -2 6 0 0 -6 
3 0 0 -11 3 0 0 -12 6 0 1 -1 0 -3 7 0 
0 -4 1 0 0 -10 3 0 0 -3 3 0 0 -1 3 0 
0 -4 3 0 0 -10 6 0 0 -8 1 0 0 -2 7 0 
0 -8 1 0 0 -2 6 -1 0 -4 3 0 0 -7 4 0 
0 -9 6 0 0 -2 2 0 0 -2 3 0 0 -1 2 0 
0 -1 2 0 0 -16 7 0 0 -4 3 0 0 -3 4 0 
0 -7 5 0 0 -4 3 0 7 0 0 -9 8 0 0 -4 
1 0 1 0 0 -8 5 0 0 -12 5 0 0 -1 1 -1 
0 -5 2 0 0 -5 1 0 4 0 0 -1 2 0 0 -13 
2 0 0 -1 4 0 0 -1 2 0 2 0 0 -4 4 0 
0 -1 2 0 0 -14 3 0 0 -1 2 0 0 -7 3 0 
0 -2 7 0 0 -12 3 0 5 0 0 -7 3 0 0 -7 
5 0 0 -6 4 -1 0 -2 8 -1 4 0 0 -7 1 0 
0 -9 4 0 0 -2 4 0 0 -2 2 0 0 -3 2 0 
0 -1 4 0 0 -6 5 0 0 -12 4 0 0 -6 4 0 
0 -1 3 0 1 -1 0 -5 5 0 0 -1 4 0 0 -4 
2 -2 0 -3 3 0 0 -4 3 0 0 -9 1 0 0 -3 
4 0 0 -4 1 0 0 -2 3 0 0 -2 6 0 0 -2 
2 0 0 -10 1 0 0 -5 6 -1 0 -2 3 -1 0 -3 
1 0 0 -3 5 -1 0 -4 2 0 0 -8 3 0 0 -1 
2 0 0 -4 3 0 0 -2 1 0 0 -2 3 0 0 -2 
5 0 0 -4 2 0 0 -8 3 0 1 -1 0 -3 3 0 
0 -6 2 0 0 -4 2 0 0 -4 6 -1 0 -5 1 0 
0 -9 5 0 0 -3 4 0 0 -2 4 0 0 -1 5 0 
0 -5 1 0 0 -7 4 0 0 -3 5 0 0 -6 5 0 
0 -3 5 0 0 -16 3534 2191 300 MP stroke
5 0 0 -12 5 0 0 -5 5 0 3 0 0 -2 2 0 
0 -14 6 0 0 -3 4 0 0 -5 1 0 0 -7 1 0 
0 -4 8 0 0 -6 1 0 0 -7 4 0 1 0 0 -3 
4 0 0 -3 2 0 0 -3 5 0 0 -1 2 0 0 -8 
1 0 0 -7 2 0 0 -4 1 0 5 0 0 -1 3 0 
0 -3 2 0 0 -4 6 0 0 -2 2 0 0 -6 3 0 
0 -7 3 0 0 -3 3 0 0 -3 2 0 0 -3 3 0 
0 -7 6 0 0 -5 2 0 0 -6 3 0 0 -9 5 0 
1 -1 0 -4 2 0 0 -2 2 0 0 -6 2 0 0 -7 
6 0 0 -3 1 0 0 -6 4 0 0 -4 6 -1 0 -3 
1 0 0 -2 5 0 0 -4 4 0 0 -2 2 0 0 -9 
6 0 0 -3 6 0 0 -8 2 0 0 -6 4 0 0 -3 
5 0 0 -9 1 0 0 -2 5 0 0 -3 1 0 0 -7 
5 0 0 -2 1 0 0 -4 6 0 0 -5 3 0 0 -1 
2 0 0 -2 1 0 0 -3 6 0 0 -10 5 0 0 -1 
2 0 0 -8 6 0 0 -4 4 0 0 -4 2 0 0 -4 
5 0 0 -2 2 0 0 -9 4 0 0 -1 2 0 0 -1 
7 0 0 -4 1 0 0 -10 2 0 0 -3 3 0 0 -6 
7 0 0 -5 2 0 0 -3 5 -1 0 -2 6 0 0 -3 
3 0 0 -3 4 0 0 -7 3 0 0 -4 4 0 0 -9 
2 0 5 0 0 -3 6 0 1 -1 0 -11 1 0 0 -3 
5 0 0 -3 7 0 0 -8 5 0 0 -8 3 0 0 -4 
7 0 0 -8 1 0 0 -5 6 0 0 -3 7 -1 0 -6 
7 0 0 -6 6 0 0 -6 2 0 0 -14 7 0 0 -1 
7 0 0 -5 1 0 0 -9 2 0 0 -1 5 0 0 -2 
7 0 0 -6 1 0 0 -7 7 0 0 -9 6 0 0 -3 
2 0 0 -10 8 0 0 -3 4 0 1 -1 0 -5 3 0 
0 -11 8 0 0 -3 5 0 0 -1 3 0 0 -13 8 0 
0 -3 4 0 0 -5 4 0 0 -6 3 0 0 -1 2 0 
0 -2 3 0 0 -2 4 0 0 -1 5 0 0 -5 8 0 
0 -2 2 0 0 -3 1 0 0 -2 6 0 0 -3 8 0 
3 0 0 -1 6 0 0 -7 8 0 0 -4 3 0 0 -2 
6 0 0 -8 4 0 0 -3 5 0 0 -1 2 0 0 -3 
7 0 0 -8 9 0 1 -1 0 -4 2 0 0 -2 6 0 
0 -5 10 0 0 -4 5 0 0 -2 4 0 0 -8 9 0 
0 -1 10 -1 0 -6 4 0 0 -1 5 0 1 -1 0 -4 
10 0 0 -8 7 0 0 -5 3 0 0 -4 10 0 0 -7 
7 0 0 -1 3 0 2898 2877 300 MP stroke
0 -2 2 0 0 -3 8 -1 0 -12 7 0 0 -2 3 0 
0 -6 10 0 0 -3 1 0 0 -6 10 0 0 -5 11 0 
0 -3 5 0 0 -2 6 0 0 -2 11 0 0 -7 11 0 
0 -3 1 0 0 -4 10 0 0 -11 2 0 0 -1 10 0 
0 -3 12 0 0 -9 6 0 17 0 0 -6 3 0 0 -1 
9 0 0 -1 12 0 0 -4 1 0 0 -2 12 0 0 -3 
9 0 0 -3 4 0 0 -8 12 0 2 0 0 -4 11 0 
0 -4 13 0 0 -3 14 0 0 -8 2 0 0 -2 11 0 
0 -1 11 0 0 -2 3 0 0 -3 14 0 0 -2 1 0 
3 0 0 -1 11 0 0 -7 8 0 0 -1 6 0 0 -3 
13 0 0 -1 2 0 0 -3 15 0 4 0 0 -1 11 0 
0 -3 8 0 8 0 0 -4 10 0 5 0 0 -6 16 0 
0 -2 17 -1 0 -4 5 0 0 -1 5 0 0 -1 7 0 
0 -3 17 0 0 -3 11 0 0 -1 20 0 0 -4 4 0 
0 -6 16 0 0 -2 2 0 0 -3 18 0 0 -4 39 0 
0 -5 10 0 0 -3 9 0 3 0 0 -2 18 0 0 -2 
22 -1 0 -1 20 0 0 -5 20 0 0 -4 4 -1 0 -1 
16 0 0 -1 4 0 0 -3 36 0 0 -3 10 0 0 -3 
49 0 0 -3 22 0 0 -2 4 0 0 -2 15 0 0 -2 
11 0 0 -4 50 0 0 -2 19 0 0 -1 16 0 0 -1 
5 0 25 0 0 -4 6 0 0 -1 10 0 0 -2 16 0 
0 -1 2 0 0 -3 30 0 0 -2 38 0 0 -1 12 0 
0 -1 22 0 0 -4 30 0 0 -2 11 0 17 0 0 -1 
3 0 0 -2 20 0 0 -1 11 0 29 0 1 -1 0 -2 
16 0 0 -1 19 0 0 -1 21 0 0 -1 24 0 0 -2 
12 0 0 -1 4 0 0 -1 27 0 0 -1 8 0 0 -1 
5 0 17 0 0 -1 7 0 0 -2 24 0 0 -1 31 0 
26 0 0 -2 4 0 0 -2 51 0 11 0 0 -2 61 0 
0 -2 34 0 0 -1 27 0 0 -1 53 0 0 -1 8 0 
0 -1 31 0 0 -1 92 0 0 -2 30 0 0 -1 13 0 
18 0 0 -2 10 0 0 -1 40 0 0 -1 11 0 0 -2 
61 0 0 -1 20 0 0 -1 42 0 9 0 817 3201 255 MP stroke
gr

c11
DD
0 sg
%%IncludeResource: font Helvetica
/Helvetica /ISOLatin1Encoding 120 FMSR

 800 3261 mt 
( ) s
5675  372 mt 
( ) s
SO
6 w
1 sg
0 1073 1451 0 0 -1073 888 1481 4 MP
PP
-1451 0 0 1073 1451 0 0 -1073 888 1481 5 MP stroke
4 w
DO
SO
6 w
0 sg
 888 1481 mt 2339 1481 L
 888  408 mt 2339  408 L
 888 1481 mt  888  408 L
2339 1481 mt 2339  408 L
 888 1481 mt 2339 1481 L
 888 1481 mt  888  408 L
 888 1481 mt 2339 1481 L
 888  408 mt 2339  408 L
 888 1481 mt  888  408 L
2339 1481 mt 2339  408 L
%%IncludeResource: font Helvetica
/Helvetica /ISOLatin1Encoding 192 FMSR

1356  626 mt 
(BW + RA) s
gs 888 408 1452 1074 rc
24 w
c8
360 0 959 557 2 MP stroke
gr

24 w
c8
0 sg
1356  884 mt 
(MMT + RA) s
gs 888 408 1452 1074 rc
DA
c9
360 0 959 815 2 MP stroke
SO
gr

c9
0 sg
1356 1142 mt 
(CLA) s
gs 888 408 1452 1074 rc
DO
c10
360 0 959 1073 2 MP stroke
SO
gr

c10
0 sg
1356 1400 mt 
(PF + RA) s
gs 888 408 1452 1074 rc
DD
c11
360 0 959 1331 2 MP stroke
SO
6 w
gr

6 w
c11

end %%Color Dict

eplot
%%EndObject

epage
end

showpage

%%Trailer
%%EOF
