%!PS-Adobe-3.0 EPSF-3.0
%%Creator: MATLAB, The MathWorks, Inc. Version 8.1.0.604 (R2013a). Operating System: Darwin 14.1.0 Darwin Kernel Version 14.1.0: Thu Feb 26 19:26:47 PST 2015; root:xnu-2782.10.73~1/RELEASE_X86_64 x86_64.
%%Title: /Users/le/Work/3.Projects/project3/Matlab/Result2015_03_24/Analysis/cdfR.eps
%%CreationDate: 03/31/2015  13:07:19
%%DocumentNeededFonts: Helvetica
%%DocumentProcessColors: Cyan Magenta Yellow Black
%%LanguageLevel: 2
%%Pages: 1
%%BoundingBox:    43   242   567   548
%%EndComments

%%BeginProlog
% MathWorks dictionary
/MathWorks 160 dict begin
% definition operators
/bdef {bind def} bind def
/ldef {load def} bind def
/xdef {exch def} bdef
/xstore {exch store} bdef
% operator abbreviations
/c  /clip ldef
/cc /concat ldef
/cp /closepath ldef
/gr /grestore ldef
/gs /gsave ldef
/mt /moveto ldef
/np /newpath ldef
/cm /currentmatrix ldef
/sm /setmatrix ldef
/rm /rmoveto ldef
/rl /rlineto ldef
/s {show newpath} bdef
/sc {setcmykcolor} bdef
/sr /setrgbcolor ldef
/sg /setgray ldef
/w /setlinewidth ldef
/j /setlinejoin ldef
/cap /setlinecap ldef
/rc {rectclip} bdef
/rf {rectfill} bdef
% page state control
/pgsv () def
/bpage {/pgsv save def} bdef
/epage {pgsv restore} bdef
/bplot /gsave ldef
/eplot {stroke grestore} bdef
% orientation switch
/portraitMode 0 def /landscapeMode 1 def /rotateMode 2 def
% coordinate system mappings
/dpi2point 0 def
% font control
/FontSize 0 def
/FMS {/FontSize xstore findfont [FontSize 0 0 FontSize neg 0 0]
  makefont setfont} bdef
/reencode {exch dup where {pop load} {pop StandardEncoding} ifelse
  exch dup 3 1 roll findfont dup length dict begin
  { 1 index /FID ne {def}{pop pop} ifelse } forall
  /Encoding exch def currentdict end definefont pop} bdef
/isroman {findfont /CharStrings get /Agrave known} bdef
/FMSR {3 1 roll 1 index dup isroman {reencode} {pop pop} ifelse
  exch FMS} bdef
/csm {1 dpi2point div -1 dpi2point div scale neg translate
 dup landscapeMode eq {pop -90 rotate}
  {rotateMode eq {90 rotate} if} ifelse} bdef
% line types: solid, dotted, dashed, dotdash
/SO { [] 0 setdash } bdef
/DO { [.5 dpi2point mul 4 dpi2point mul] 0 setdash } bdef
/DA { [6 dpi2point mul] 0 setdash } bdef
/DD { [.5 dpi2point mul 4 dpi2point mul 6 dpi2point mul 4
  dpi2point mul] 0 setdash } bdef
% macros for lines and objects
/L {lineto stroke} bdef
/MP {3 1 roll moveto 1 sub {rlineto} repeat} bdef
/AP {{rlineto} repeat} bdef
/PDlw -1 def
/W {/PDlw currentlinewidth def setlinewidth} def
/PP {closepath eofill} bdef
/DP {closepath stroke} bdef
/MR {4 -2 roll moveto dup  0 exch rlineto exch 0 rlineto
  neg 0 exch rlineto closepath} bdef
/FR {MR stroke} bdef
/PR {MR fill} bdef
/L1i {{currentfile picstr readhexstring pop} image} bdef
/tMatrix matrix def
/MakeOval {newpath tMatrix currentmatrix pop translate scale
0 0 1 0 360 arc tMatrix setmatrix} bdef
/FO {MakeOval stroke} bdef
/PO {MakeOval fill} bdef
/PD {currentlinewidth 2 div 0 360 arc fill
   PDlw -1 eq not {PDlw w /PDlw -1 def} if} def
/FA {newpath tMatrix currentmatrix pop translate scale
  0 0 1 5 -2 roll arc tMatrix setmatrix stroke} bdef
/PA {newpath tMatrix currentmatrix pop	translate 0 0 moveto scale
  0 0 1 5 -2 roll arc closepath tMatrix setmatrix fill} bdef
/FAn {newpath tMatrix currentmatrix pop translate scale
  0 0 1 5 -2 roll arcn tMatrix setmatrix stroke} bdef
/PAn {newpath tMatrix currentmatrix pop translate 0 0 moveto scale
  0 0 1 5 -2 roll arcn closepath tMatrix setmatrix fill} bdef
/vradius 0 def /hradius 0 def /lry 0 def
/lrx 0 def /uly 0 def /ulx 0 def /rad 0 def
/MRR {/vradius xdef /hradius xdef /lry xdef /lrx xdef /uly xdef
  /ulx xdef newpath tMatrix currentmatrix pop ulx hradius add uly
  vradius add translate hradius vradius scale 0 0 1 180 270 arc 
  tMatrix setmatrix lrx hradius sub uly vradius add translate
  hradius vradius scale 0 0 1 270 360 arc tMatrix setmatrix
  lrx hradius sub lry vradius sub translate hradius vradius scale
  0 0 1 0 90 arc tMatrix setmatrix ulx hradius add lry vradius sub
  translate hradius vradius scale 0 0 1 90 180 arc tMatrix setmatrix
  closepath} bdef
/FRR {MRR stroke } bdef
/PRR {MRR fill } bdef
/MlrRR {/lry xdef /lrx xdef /uly xdef /ulx xdef /rad lry uly sub 2 div def
  newpath tMatrix currentmatrix pop ulx rad add uly rad add translate
  rad rad scale 0 0 1 90 270 arc tMatrix setmatrix lrx rad sub lry rad
  sub translate rad rad scale 0 0 1 270 90 arc tMatrix setmatrix
  closepath} bdef
/FlrRR {MlrRR stroke } bdef
/PlrRR {MlrRR fill } bdef
/MtbRR {/lry xdef /lrx xdef /uly xdef /ulx xdef /rad lrx ulx sub 2 div def
  newpath tMatrix currentmatrix pop ulx rad add uly rad add translate
  rad rad scale 0 0 1 180 360 arc tMatrix setmatrix lrx rad sub lry rad
  sub translate rad rad scale 0 0 1 0 180 arc tMatrix setmatrix
  closepath} bdef
/FtbRR {MtbRR stroke } bdef
/PtbRR {MtbRR fill } bdef
/stri 6 array def /dtri 6 array def
/smat 6 array def /dmat 6 array def
/tmat1 6 array def /tmat2 6 array def /dif 3 array def
/asub {/ind2 exch def /ind1 exch def dup dup
  ind1 get exch ind2 get sub exch } bdef
/tri_to_matrix {
  2 0 asub 3 1 asub 4 0 asub 5 1 asub
  dup 0 get exch 1 get 7 -1 roll astore } bdef
/compute_transform {
  dmat dtri tri_to_matrix tmat1 invertmatrix 
  smat stri tri_to_matrix tmat2 concatmatrix } bdef
/ds {stri astore pop} bdef
/dt {dtri astore pop} bdef
/db {2 copy /cols xdef /rows xdef mul dup 3 mul string
  currentfile 
  3 index 0 eq {/ASCIIHexDecode filter}
  {/ASCII85Decode filter 3 index 2 eq {/RunLengthDecode filter} if }
  ifelse exch readstring pop
  dup 0 3 index getinterval /rbmap xdef
  dup 2 index dup getinterval /gbmap xdef
  1 index dup 2 mul exch getinterval /bbmap xdef pop pop}bdef
/it {gs np dtri aload pop moveto lineto lineto cp c
  cols rows 8 compute_transform 
  rbmap gbmap bbmap true 3 colorimage gr}bdef
/il {newpath moveto lineto stroke}bdef
currentdict end def
%%EndProlog

%%BeginSetup
MathWorks begin

0 cap

end
%%EndSetup

%%Page: 1 1
%%BeginPageSetup
%%PageBoundingBox:    43   242   567   548
MathWorks begin
bpage
%%EndPageSetup

%%BeginObject: obj1
bplot

/dpi2point 12 def
portraitMode 0516 6576 csm

    0     0  6288  3671 rc
85 dict begin %Colortable dictionary
/c0 { 0.000000 0.000000 0.000000 sr} bdef
/c1 { 1.000000 1.000000 1.000000 sr} bdef
/c2 { 0.900000 0.000000 0.000000 sr} bdef
/c3 { 0.000000 0.820000 0.000000 sr} bdef
/c4 { 0.000000 0.000000 0.800000 sr} bdef
/c5 { 0.910000 0.820000 0.320000 sr} bdef
/c6 { 1.000000 0.260000 0.820000 sr} bdef
/c7 { 0.000000 0.820000 0.820000 sr} bdef
c0
1 j
1 sg
   0    0 6289 3672 rf
6 w
0 2943 4874 0 0 -2943 817 3218 4 MP
PP
-4874 0 0 2943 4874 0 0 -2943 817 3218 5 MP stroke
4 w
DO
0 sg
 817 3218 mt  817  275 L
 817  275 mt  817  275 L
1791 3218 mt 1791  275 L
1791  275 mt 1791  275 L
2766 3218 mt 2766  275 L
2766  275 mt 2766  275 L
3741 3218 mt 3741  275 L
3741  275 mt 3741  275 L
4716 3218 mt 4716  275 L
4716  275 mt 4716  275 L
5691 3218 mt 5691  275 L
5691  275 mt 5691  275 L
 817 3218 mt 5691 3218 L
5691 3218 mt 5691 3218 L
 817 2629 mt 5691 2629 L
5691 2629 mt 5691 2629 L
 817 2040 mt 5691 2040 L
5691 2040 mt 5691 2040 L
 817 1452 mt 5691 1452 L
5691 1452 mt 5691 1452 L
 817  863 mt 5691  863 L
5691  863 mt 5691  863 L
 817  275 mt 5691  275 L
5691  275 mt 5691  275 L
SO
6 w
 817 3218 mt 5691 3218 L
 817  275 mt 5691  275 L
 817 3218 mt  817  275 L
5691 3218 mt 5691  275 L
 817 3218 mt 5691 3218 L
 817 3218 mt  817  275 L
 817 3218 mt  817 3169 L
 817  275 mt  817  323 L
%%IncludeResource: font Helvetica
/Helvetica /ISOLatin1Encoding 192 FMSR

 764 3430 mt 
(0) s
1791 3218 mt 1791 3169 L
1791  275 mt 1791  323 L
1658 3430 mt 
(0.5) s
2766 3218 mt 2766 3169 L
2766  275 mt 2766  323 L
2713 3430 mt 
(1) s
3741 3218 mt 3741 3169 L
3741  275 mt 3741  323 L
3608 3430 mt 
(1.5) s
4716 3218 mt 4716 3169 L
4716  275 mt 4716  323 L
4663 3430 mt 
(2) s
5691 3218 mt 5691 3169 L
5691  275 mt 5691  323 L
5558 3430 mt 
(2.5) s
 817 3218 mt  865 3218 L
5691 3218 mt 5642 3218 L
 676 3289 mt 
(0) s
 817 2629 mt  865 2629 L
5691 2629 mt 5642 2629 L
 516 2700 mt 
(0.2) s
 817 2040 mt  865 2040 L
5691 2040 mt 5642 2040 L
 516 2111 mt 
(0.4) s
 817 1452 mt  865 1452 L
5691 1452 mt 5642 1452 L
 516 1523 mt 
(0.6) s
 817  863 mt  865  863 L
5691  863 mt 5642  863 L
 516  934 mt 
(0.8) s
 817  275 mt  865  275 L
5691  275 mt 5642  275 L
 676  346 mt 
(1) s
 817 3218 mt 5691 3218 L
 817  275 mt 5691  275 L
 817 3218 mt  817  275 L
5691 3218 mt 5691  275 L
gs 817 275 4875 2944 rc
24 w
/c8 { 0.000000 0.000000 1.000000 sr} bdef
c8
0 -1 20 0 0 -5 20 0 0 -6 10 0 0 -3 10 0 
0 -7 10 0 0 -5 10 0 0 -7 10 0 0 -11 10 0 
0 -11 10 0 0 -5 10 0 0 -14 10 0 0 -11 10 0 
0 -19 10 0 0 -20 10 0 0 -17 10 0 0 -24 10 0 
0 -19 10 0 0 -16 10 0 0 -23 10 0 0 -16 10 0 
0 -29 10 0 0 -28 10 0 0 -26 10 0 0 -19 10 0 
0 -30 10 0 0 -33 10 0 0 -27 10 0 0 -38 10 0 
0 -32 10 0 0 -29 9 0 0 -33 10 0 0 -41 10 0 
0 -22 10 0 0 -35 10 0 0 -35 10 0 0 -40 10 0 
0 -41 10 0 0 -56 10 0 0 -50 10 0 0 -50 10 0 
0 -38 10 0 0 -43 10 0 0 -33 10 0 0 -37 10 0 
0 -50 10 0 0 -50 10 0 0 -44 10 0 0 -38 10 0 
0 -39 10 0 0 -46 10 0 0 -50 10 0 0 -47 10 0 
0 -51 10 0 0 -44 10 0 0 -42 10 0 0 -46 10 0 
0 -38 10 0 0 -47 10 0 0 -47 10 0 0 -42 10 0 
0 -35 10 0 0 -51 10 0 0 -50 10 0 0 -42 10 0 
0 -45 10 0 0 -48 10 0 0 -30 10 0 0 -40 10 0 
0 -32 10 0 0 -33 10 0 0 -33 10 0 0 -34 10 0 
0 -27 10 0 0 -36 10 0 0 -33 10 0 0 -24 10 0 
0 -31 10 0 0 -28 10 0 0 -29 10 0 0 -29 10 0 
0 -23 10 0 0 -33 10 0 0 -26 10 0 0 -18 10 0 
0 -31 10 0 0 -18 9 0 0 -20 10 0 0 -17 10 0 
0 -21 10 0 0 -15 10 0 0 -18 10 0 0 -16 10 0 
0 -17 10 0 0 -16 10 0 0 -11 10 0 0 -7 10 0 
0 -12 10 0 0 -10 10 0 0 -9 10 0 0 -11 10 0 
0 -5 10 0 0 -6 10 0 0 -8 10 0 0 -5 10 0 
0 -9 10 0 0 -2 10 0 0 -4 10 0 0 -3 10 0 
0 -4 10 0 0 -2 10 0 0 -3 10 0 0 -1 10 0 
0 -5 10 0 0 -2 10 0 0 -1 10 0 0 -4 10 0 
0 -1 10 0 0 -1 10 0 0 -1 10 0 0 -2 10 0 
10 0 0 -1 10 0 0 -2 10 0 0 -1 10 0 30 0 
0 -2 10 0 0 -1 10 0 0 -1 60 0 0 -1 1425 3218 256 MP stroke
gr

24 w
c8
0 sg
2202 3626 mt 
(Throughput \(x10e5[bps]\)) s
 418 2537 mt  -90 rotate
(CDF of throughput) s
90 rotate
gs 817 275 4875 2944 rc
DA
/c9 { 0.000000 0.500000 0.000000 sr} bdef
c9
130 0 0 -1 89 0 0 -1 30 0 0 -1 10 0 0 -1 
50 0 10 0 0 -1 10 0 0 -2 10 0 0 -1 20 0 
0 -1 10 0 0 -1 10 0 0 -3 10 0 10 0 0 -5 
20 0 0 -8 10 0 0 -4 10 0 0 -10 10 0 0 -4 
10 0 0 -10 10 0 0 -8 10 0 0 -18 10 0 0 -6 
10 0 0 -24 10 0 0 -10 10 0 0 -32 10 0 0 -13 
10 0 0 -39 10 0 0 -15 10 0 0 -53 10 0 0 -22 
10 0 0 -85 10 0 0 -33 10 0 0 -94 10 0 0 -40 
10 0 0 -72 10 0 0 -44 10 0 0 -95 10 0 0 -68 
10 0 0 -94 10 0 0 -62 10 0 0 -119 10 0 0 -74 
10 0 0 -130 10 0 0 -84 9 0 0 -114 10 0 0 -83 
10 0 0 -101 10 0 0 -72 10 0 0 -100 10 0 0 -80 
10 0 0 -110 10 0 0 -76 10 0 0 -100 10 0 0 -60 
10 0 0 -103 10 0 0 -56 10 0 0 -67 10 0 0 -56 
10 0 0 -60 10 0 0 -41 10 0 0 -46 10 0 0 -32 
10 0 0 -36 10 0 0 -27 10 0 0 -27 10 0 0 -12 
10 0 0 -24 10 0 0 -14 10 0 0 -17 10 0 0 -8 
10 0 0 -6 10 0 0 -8 10 0 0 -7 10 0 0 -3 
10 0 0 -2 10 0 0 -2 10 0 0 -1 30 0 0 -2 
30 0 0 -1 30 0 0 -1 2064 3218 157 MP stroke
DO
/c10 { 1.000000 0.000000 0.000000 sr} bdef
c10
99 0 0 -1 130 0 0 -2 40 0 0 -1 40 0 70 0 
0 -1 20 0 0 -1 60 0 0 -1 10 0 0 -1 30 0 
0 -1 10 0 0 -1 10 0 0 -1 129 0 0 -1 10 0 
0 -1 20 0 10 0 0 -1 20 0 0 -1 30 0 0 -1 
110 0 0 -1 40 0 20 0 0 -1 50 0 0 -1 30 0 
0 -1 30 0 0 -2 60 0 20 0 0 -1 60 0 0 -1 
79 0 0 -1 20 0 0 -1 20 0 0 -1 20 0 0 -4 
20 0 0 -1 10 0 0 -2 10 0 0 -8 10 0 0 -2 
10 0 0 -5 10 0 0 -2 10 0 0 -4 10 0 0 -3 
10 0 0 -7 10 0 0 -2 10 0 0 -3 10 0 0 -1 
10 0 0 -8 10 0 0 -6 10 0 0 -4 10 0 0 -4 
10 0 0 -13 10 0 0 -5 10 0 0 -11 10 0 0 -7 
10 0 0 -9 10 0 0 -8 10 0 0 -8 10 0 0 -9 
10 0 0 -11 10 0 0 -13 10 0 0 -13 10 0 0 -6 
10 0 0 -13 10 0 0 -8 10 0 0 -10 10 0 0 -8 
10 0 0 -10 10 0 0 -9 10 0 0 -14 10 0 0 -10 
10 0 0 -13 10 0 0 -16 10 0 0 -14 10 0 0 -9 
10 0 0 -12 9 0 0 -13 10 0 0 -11 10 0 0 -13 
10 0 0 -12 10 0 0 -8 10 0 0 -8 10 0 0 -8 
10 0 0 -5 10 0 0 -8 10 0 0 -10 10 0 0 -9 
10 0 0 -8 10 0 0 -9 10 0 0 -15 10 0 0 -3 
10 0 0 -8 10 0 0 -4 10 0 0 -11 10 0 0 -6 
10 0 0 -7 10 0 0 -5 10 0 0 -3 10 0 0 -1 
10 0 0 -1 10 0 0 -2 10 0 0 -4 10 0 0 -6 
10 0 0 -3 10 0 0 -2 10 0 0 -3 10 0 0 -1 
10 0 0 -2 10 0 0 -2 10 0 0 -5 10 0 0 -2 
10 0 0 -5 10 0 0 -1 10 0 0 -1 10 0 0 -3 
30 0 0 -2 10 0 10 0 0 -1 10 0 0 -1 10 0 
0 -1 20 0 0 -1 50 0 10 0 0 -1 99 0 0 -1 
20 0 0 -1 10 0 0 -1 10 0 0 -1 20 0 0 -1 
10 0 0 -1 10 0 0 -1 40 0 0 -3 10 0 0 -1 
10 0 0 -10 10 0 0 -1 10 0 0 -8 10 0 0 -1 
10 0 0 -15 10 0 0 -3 10 0 0 -16 10 0 0 -2 
10 0 0 -13 10 0 0 -4 10 0 0 -18 10 0 0 -6 
10 0 0 -24 10 0 0 -8 10 0 0 -21 10 0 0 -9 
10 0 0 -20 10 0 0 -4 10 0 0 -19 10 0 0 -11 
10 0 0 -20 10 0 0 -9 10 0 0 -24 10 0 0 -13 
10 0 0 -26 10 0 2563 1178 300 MP stroke
0 -15 10 0 0 -23 10 0 0 -17 10 0 0 -35 10 0 
0 -13 10 0 0 -42 10 0 0 -29 10 0 0 -37 10 0 
0 -30 9 0 0 -37 10 0 0 -37 10 0 0 -38 10 0 
0 -23 10 0 0 -42 10 0 0 -31 10 0 0 -36 10 0 
0 -27 10 0 0 -46 10 0 0 -21 10 0 0 -41 10 0 
0 -28 10 0 0 -48 10 0 0 -25 10 0 0 -41 10 0 
0 -32 10 0 0 -45 10 0 0 -33 10 0 0 -44 10 0 
0 -31 10 0 0 -55 10 0 0 -39 10 0 0 -45 10 0 
0 -38 10 0 0 -34 10 0 0 -35 10 0 0 -48 10 0 
0 -19 10 0 0 -21 10 0 0 -13 10 0 0 -18 10 0 
0 -15 10 0 0 -17 10 0 0 -15 10 0 0 -13 10 0 
0 -7 10 0 0 -8 10 0 0 -3 10 0 0 -5 10 0 
0 -4 10 0 0 -3 10 0 0 -2 10 0 0 -3 10 0 
0 -1 10 0 0 -3 20 0 0 -1 20 0 0 -4 20 0 
0 -1 10 0 0 -1 30 0 0 -3 10 0 0 -1 9 0 
0 -2 10 0 0 -2 10 0 0 -6 10 0 0 -6 10 0 
0 -13 10 0 0 -12 10 0 0 -43 10 0 0 -33 10 0 
0 -82 10 0 0 -61 10 0 0 -113 10 0 0 -72 10 0 
0 -78 10 0 0 -28 10 0 0 -23 10 0 0 -10 10 0 
0 -7 10 0 10 0 0 -2 120 0 0 -1 10 0 0 -1 
10 0 0 -4 10 0 0 -1 10 0 0 -4 10 0 0 -2 
10 0 0 -6 10 0 0 -1 10 0 0 -2 20 0 0 -1 
10 0 0 -1 10 0 0 -1 1495 3218 181 MP stroke
DD
/c11 { 0.000000 0.750000 0.750000 sr} bdef
c11
0 -1 40 0 0 -1 90 0 0 -1 60 0 0 -1 10 0 
30 0 0 -1 39 0 0 -1 80 0 0 -2 30 0 10 0 
0 -1 20 0 0 -1 10 0 0 -2 20 0 0 -1 10 0 
0 -2 30 0 0 -1 10 0 0 -1 10 0 0 -1 30 0 
0 -4 10 0 0 -1 10 0 0 -1 10 0 0 -2 10 0 
0 -5 10 0 0 -1 10 0 0 -1 10 0 0 -3 10 0 
0 -2 10 0 0 -2 10 0 20 0 0 -2 10 0 0 -3 
10 0 0 -2 10 0 0 -2 10 0 0 -2 10 0 0 -1 
10 0 0 -6 10 0 0 -2 10 0 0 -6 10 0 0 -1 
10 0 0 -4 10 0 0 -1 10 0 0 -5 10 0 0 -4 
10 0 0 -7 9 0 0 -1 10 0 0 -5 10 0 0 -5 
10 0 0 -6 10 0 0 -6 10 0 0 -9 10 0 0 -8 
10 0 0 -11 10 0 0 -3 10 0 0 -7 10 0 0 -6 
10 0 0 -11 10 0 0 -5 10 0 0 -11 10 0 0 -6 
10 0 0 -6 10 0 0 -7 10 0 0 -10 10 0 0 -8 
10 0 0 -13 10 0 0 -5 10 0 0 -17 10 0 0 -2 
10 0 0 -10 10 0 0 -7 10 0 0 -18 10 0 0 -4 
10 0 0 -14 10 0 0 -13 10 0 0 -25 10 0 0 -8 
10 0 0 -13 10 0 0 -12 10 0 0 -19 10 0 0 -8 
10 0 0 -23 10 0 0 -6 10 0 0 -19 10 0 0 -7 
10 0 0 -20 10 0 0 -8 10 0 0 -13 10 0 0 -8 
10 0 0 -19 10 0 0 -10 10 0 0 -21 10 0 0 -8 
10 0 0 -22 10 0 0 -9 10 0 0 -26 10 0 0 -8 
10 0 0 -20 10 0 0 -10 10 0 0 -16 10 0 0 -11 
10 0 0 -19 9 0 0 -6 10 0 0 -19 10 0 0 -16 
10 0 0 -21 10 0 0 -11 10 0 0 -26 10 0 0 -15 
10 0 0 -27 10 0 0 -13 10 0 0 -26 10 0 0 -13 
10 0 0 -16 10 0 0 -13 10 0 0 -33 10 0 0 -17 
10 0 0 -25 10 0 0 -14 10 0 0 -36 10 0 0 -13 
10 0 0 -21 10 0 0 -15 10 0 0 -31 10 0 0 -12 
10 0 0 -39 10 0 0 -20 10 0 0 -28 10 0 0 -10 
10 0 0 -30 10 0 0 -14 10 0 0 -33 10 0 0 -16 
10 0 0 -27 10 0 0 -7 10 0 0 -29 10 0 0 -11 
10 0 0 -29 10 0 0 -18 10 0 0 -36 10 0 0 -10 
10 0 0 -35 10 0 0 -10 10 0 0 -30 10 0 0 -11 
10 0 0 -22 10 0 0 -10 10 0 0 -28 10 0 0 -12 
10 0 0 -26 10 0 0 -3 10 0 0 -35 10 0 0 -10 
10 0 0 -35 10 0 2503 2048 300 MP stroke
0 -12 10 0 0 -29 10 0 0 -10 9 0 0 -29 10 0 
0 -10 10 0 0 -27 10 0 0 -9 10 0 0 -23 10 0 
0 -13 10 0 0 -27 10 0 0 -17 10 0 0 -23 10 0 
0 -9 10 0 0 -35 10 0 0 -14 10 0 0 -28 10 0 
0 -11 10 0 0 -28 10 0 0 -6 10 0 0 -30 10 0 
0 -12 10 0 0 -39 10 0 0 -10 10 0 0 -25 10 0 
0 -12 10 0 0 -28 10 0 0 -10 10 0 0 -18 10 0 
0 -8 10 0 0 -27 10 0 0 -8 10 0 0 -15 10 0 
0 -4 10 0 0 -27 10 0 0 -6 10 0 0 -15 10 0 
0 -9 10 0 0 -27 10 0 0 -9 10 0 0 -11 10 0 
0 -3 10 0 0 -19 10 0 0 -6 10 0 0 -14 10 0 
0 -11 10 0 0 -15 10 0 0 -8 10 0 0 -16 10 0 
0 -4 10 0 0 -27 10 0 0 -3 10 0 0 -15 10 0 
0 -7 10 0 0 -20 10 0 0 -5 10 0 0 -14 10 0 
0 -3 10 0 0 -16 10 0 0 -7 9 0 0 -12 10 0 
0 -4 10 0 0 -11 10 0 0 -3 10 0 0 -10 10 0 
0 -3 10 0 0 -12 10 0 0 -3 10 0 0 -7 10 0 
0 -3 10 0 0 -12 10 0 0 -4 10 0 0 -11 10 0 
0 -1 10 0 0 -12 10 0 0 -5 10 0 0 -8 10 0 
0 -3 10 0 0 -7 10 0 0 -1 10 0 0 -3 10 0 
0 -3 10 0 0 -9 10 0 0 -1 10 0 0 -4 10 0 
0 -4 10 0 0 -10 10 0 0 -1 10 0 0 -7 10 0 
0 -1 10 0 0 -6 20 0 0 -5 10 0 0 -1 10 0 
0 -6 10 0 0 -2 10 0 0 -1 20 0 0 -6 10 0 
10 0 0 -5 10 0 0 -1 10 0 0 -4 10 0 0 -1 
10 0 0 -2 20 0 0 -4 10 0 0 -1 10 0 0 -2 
20 0 0 -3 20 0 0 -2 20 0 0 -1 19 0 0 -1 
10 0 0 -1 10 0 0 -2 20 0 0 -1 20 0 10 0 
0 -1 10 0 0 -1 20 0 0 -2 10 0 0 -1 10 0 
0 -2 20 0 0 -1 40 0 0 -1 40 0 20 0 0 -2 
40 0 0 -2 50 0 0 -1 1026 3218 245 MP stroke
gr

c11
DD
0 sg
%%IncludeResource: font Helvetica
/Helvetica /ISOLatin1Encoding 120 FMSR

 800 3261 mt 
( ) s
5675  317 mt 
( ) s
SO
6 w
1 sg
0 958 1322 0 0 -958 4310 1293 4 MP
PP
-1322 0 0 958 1322 0 0 -958 4310 1293 5 MP stroke
4 w
DO
SO
6 w
0 sg
4310 1293 mt 5632 1293 L
4310  335 mt 5632  335 L
4310 1293 mt 4310  335 L
5632 1293 mt 5632  335 L
4310 1293 mt 5632 1293 L
4310 1293 mt 4310  335 L
4310 1293 mt 5632 1293 L
4310  335 mt 5632  335 L
4310 1293 mt 4310  335 L
5632 1293 mt 5632  335 L
%%IncludeResource: font Helvetica
/Helvetica /ISOLatin1Encoding 192 FMSR

4767  537 mt 
(BW+RA) s
gs 4310 335 1323 959 rc
24 w
c8
351 0 4380 468 2 MP stroke
gr

24 w
c8
0 sg
4767  767 mt 
(MMT+RA) s
gs 4310 335 1323 959 rc
DA
c9
351 0 4380 698 2 MP stroke
SO
gr

c9
0 sg
4767  998 mt 
(CLA) s
gs 4310 335 1323 959 rc
DO
c10
351 0 4380 929 2 MP stroke
SO
gr

c10
0 sg
4767 1228 mt 
(PF+RA) s
gs 4310 335 1323 959 rc
DD
c11
351 0 4380 1159 2 MP stroke
SO
6 w
gr

6 w
c11

end %%Color Dict

eplot
%%EndObject

epage
end

showpage

%%Trailer
%%EOF
