%!PS-Adobe-3.0 EPSF-3.0
%%Creator: MATLAB, The MathWorks, Inc. Version 8.1.0.604 (R2013a). Operating System: Darwin 14.1.0 Darwin Kernel Version 14.1.0: Thu Feb 26 19:26:47 PST 2015; root:xnu-2782.10.73~1/RELEASE_X86_64 x86_64.
%%Title: /Users/le/Work/3.Projects/project3/Matlab/Result2015_03_24/Analysis/qoe.eps
%%CreationDate: 03/31/2015  11:51:42
%%DocumentNeededFonts: Helvetica
%%DocumentProcessColors: Cyan Magenta Yellow Black
%%LanguageLevel: 2
%%Pages: 1
%%BoundingBox:    43   243   567   550
%%EndComments

%%BeginProlog
% MathWorks dictionary
/MathWorks 160 dict begin
% definition operators
/bdef {bind def} bind def
/ldef {load def} bind def
/xdef {exch def} bdef
/xstore {exch store} bdef
% operator abbreviations
/c  /clip ldef
/cc /concat ldef
/cp /closepath ldef
/gr /grestore ldef
/gs /gsave ldef
/mt /moveto ldef
/np /newpath ldef
/cm /currentmatrix ldef
/sm /setmatrix ldef
/rm /rmoveto ldef
/rl /rlineto ldef
/s {show newpath} bdef
/sc {setcmykcolor} bdef
/sr /setrgbcolor ldef
/sg /setgray ldef
/w /setlinewidth ldef
/j /setlinejoin ldef
/cap /setlinecap ldef
/rc {rectclip} bdef
/rf {rectfill} bdef
% page state control
/pgsv () def
/bpage {/pgsv save def} bdef
/epage {pgsv restore} bdef
/bplot /gsave ldef
/eplot {stroke grestore} bdef
% orientation switch
/portraitMode 0 def /landscapeMode 1 def /rotateMode 2 def
% coordinate system mappings
/dpi2point 0 def
% font control
/FontSize 0 def
/FMS {/FontSize xstore findfont [FontSize 0 0 FontSize neg 0 0]
  makefont setfont} bdef
/reencode {exch dup where {pop load} {pop StandardEncoding} ifelse
  exch dup 3 1 roll findfont dup length dict begin
  { 1 index /FID ne {def}{pop pop} ifelse } forall
  /Encoding exch def currentdict end definefont pop} bdef
/isroman {findfont /CharStrings get /Agrave known} bdef
/FMSR {3 1 roll 1 index dup isroman {reencode} {pop pop} ifelse
  exch FMS} bdef
/csm {1 dpi2point div -1 dpi2point div scale neg translate
 dup landscapeMode eq {pop -90 rotate}
  {rotateMode eq {90 rotate} if} ifelse} bdef
% line types: solid, dotted, dashed, dotdash
/SO { [] 0 setdash } bdef
/DO { [.5 dpi2point mul 4 dpi2point mul] 0 setdash } bdef
/DA { [6 dpi2point mul] 0 setdash } bdef
/DD { [.5 dpi2point mul 4 dpi2point mul 6 dpi2point mul 4
  dpi2point mul] 0 setdash } bdef
% macros for lines and objects
/L {lineto stroke} bdef
/MP {3 1 roll moveto 1 sub {rlineto} repeat} bdef
/AP {{rlineto} repeat} bdef
/PDlw -1 def
/W {/PDlw currentlinewidth def setlinewidth} def
/PP {closepath eofill} bdef
/DP {closepath stroke} bdef
/MR {4 -2 roll moveto dup  0 exch rlineto exch 0 rlineto
  neg 0 exch rlineto closepath} bdef
/FR {MR stroke} bdef
/PR {MR fill} bdef
/L1i {{currentfile picstr readhexstring pop} image} bdef
/tMatrix matrix def
/MakeOval {newpath tMatrix currentmatrix pop translate scale
0 0 1 0 360 arc tMatrix setmatrix} bdef
/FO {MakeOval stroke} bdef
/PO {MakeOval fill} bdef
/PD {currentlinewidth 2 div 0 360 arc fill
   PDlw -1 eq not {PDlw w /PDlw -1 def} if} def
/FA {newpath tMatrix currentmatrix pop translate scale
  0 0 1 5 -2 roll arc tMatrix setmatrix stroke} bdef
/PA {newpath tMatrix currentmatrix pop	translate 0 0 moveto scale
  0 0 1 5 -2 roll arc closepath tMatrix setmatrix fill} bdef
/FAn {newpath tMatrix currentmatrix pop translate scale
  0 0 1 5 -2 roll arcn tMatrix setmatrix stroke} bdef
/PAn {newpath tMatrix currentmatrix pop translate 0 0 moveto scale
  0 0 1 5 -2 roll arcn closepath tMatrix setmatrix fill} bdef
/vradius 0 def /hradius 0 def /lry 0 def
/lrx 0 def /uly 0 def /ulx 0 def /rad 0 def
/MRR {/vradius xdef /hradius xdef /lry xdef /lrx xdef /uly xdef
  /ulx xdef newpath tMatrix currentmatrix pop ulx hradius add uly
  vradius add translate hradius vradius scale 0 0 1 180 270 arc 
  tMatrix setmatrix lrx hradius sub uly vradius add translate
  hradius vradius scale 0 0 1 270 360 arc tMatrix setmatrix
  lrx hradius sub lry vradius sub translate hradius vradius scale
  0 0 1 0 90 arc tMatrix setmatrix ulx hradius add lry vradius sub
  translate hradius vradius scale 0 0 1 90 180 arc tMatrix setmatrix
  closepath} bdef
/FRR {MRR stroke } bdef
/PRR {MRR fill } bdef
/MlrRR {/lry xdef /lrx xdef /uly xdef /ulx xdef /rad lry uly sub 2 div def
  newpath tMatrix currentmatrix pop ulx rad add uly rad add translate
  rad rad scale 0 0 1 90 270 arc tMatrix setmatrix lrx rad sub lry rad
  sub translate rad rad scale 0 0 1 270 90 arc tMatrix setmatrix
  closepath} bdef
/FlrRR {MlrRR stroke } bdef
/PlrRR {MlrRR fill } bdef
/MtbRR {/lry xdef /lrx xdef /uly xdef /ulx xdef /rad lrx ulx sub 2 div def
  newpath tMatrix currentmatrix pop ulx rad add uly rad add translate
  rad rad scale 0 0 1 180 360 arc tMatrix setmatrix lrx rad sub lry rad
  sub translate rad rad scale 0 0 1 0 180 arc tMatrix setmatrix
  closepath} bdef
/FtbRR {MtbRR stroke } bdef
/PtbRR {MtbRR fill } bdef
/stri 6 array def /dtri 6 array def
/smat 6 array def /dmat 6 array def
/tmat1 6 array def /tmat2 6 array def /dif 3 array def
/asub {/ind2 exch def /ind1 exch def dup dup
  ind1 get exch ind2 get sub exch } bdef
/tri_to_matrix {
  2 0 asub 3 1 asub 4 0 asub 5 1 asub
  dup 0 get exch 1 get 7 -1 roll astore } bdef
/compute_transform {
  dmat dtri tri_to_matrix tmat1 invertmatrix 
  smat stri tri_to_matrix tmat2 concatmatrix } bdef
/ds {stri astore pop} bdef
/dt {dtri astore pop} bdef
/db {2 copy /cols xdef /rows xdef mul dup 3 mul string
  currentfile 
  3 index 0 eq {/ASCIIHexDecode filter}
  {/ASCII85Decode filter 3 index 2 eq {/RunLengthDecode filter} if }
  ifelse exch readstring pop
  dup 0 3 index getinterval /rbmap xdef
  dup 2 index dup getinterval /gbmap xdef
  1 index dup 2 mul exch getinterval /bbmap xdef pop pop}bdef
/it {gs np dtri aload pop moveto lineto lineto cp c
  cols rows 8 compute_transform 
  rbmap gbmap bbmap true 3 colorimage gr}bdef
/il {newpath moveto lineto stroke}bdef
currentdict end def
%%EndProlog

%%BeginSetup
MathWorks begin

0 cap

end
%%EndSetup

%%Page: 1 1
%%BeginPageSetup
%%PageBoundingBox:    43   243   567   550
MathWorks begin
bpage
%%EndPageSetup

%%BeginObject: obj1
bplot

/dpi2point 12 def
portraitMode 0516 6600 csm

    0     0  6288  3683 rc
86 dict begin %Colortable dictionary
/c0 { 0.000000 0.000000 0.000000 sr} bdef
/c1 { 1.000000 1.000000 1.000000 sr} bdef
/c2 { 0.900000 0.000000 0.000000 sr} bdef
/c3 { 0.000000 0.820000 0.000000 sr} bdef
/c4 { 0.000000 0.000000 0.800000 sr} bdef
/c5 { 0.910000 0.820000 0.320000 sr} bdef
/c6 { 1.000000 0.260000 0.820000 sr} bdef
/c7 { 0.000000 0.820000 0.820000 sr} bdef
c0
1 j
1 sg
   0    0 6289 3684 rf
6 w
0 3002 4874 0 0 -3002 817 3278 4 MP
PP
-4874 0 0 3002 4874 0 0 -3002 817 3278 5 MP stroke
4 w
DO
0 sg
1791 3278 mt 1791  276 L
1791  276 mt 1791  276 L
2766 3278 mt 2766  276 L
2766  276 mt 2766  276 L
3741 3278 mt 3741  276 L
3741  276 mt 3741  276 L
4716 3278 mt 4716  276 L
4716  276 mt 4716  276 L
 817 3278 mt 5691 3278 L
5691 3278 mt 5691 3278 L
 817 2677 mt 5691 2677 L
5691 2677 mt 5691 2677 L
 817 2077 mt 5691 2077 L
5691 2077 mt 5691 2077 L
 817 1476 mt 5691 1476 L
5691 1476 mt 5691 1476 L
 817  876 mt 5691  876 L
5691  876 mt 5691  876 L
 817  276 mt 5691  276 L
5691  276 mt 5691  276 L
SO
6 w
 817 3278 mt 5691 3278 L
 817  276 mt 5691  276 L
 817 3278 mt  817  276 L
5691 3278 mt 5691  276 L
 817 3278 mt 5691 3278 L
 817 3278 mt  817  276 L
1791 3278 mt 1791 3229 L
1791  276 mt 1791  324 L
%%IncludeResource: font Helvetica
/Helvetica /ISOLatin1Encoding 192 FMSR

1394 3490 mt 
(BW + RA) s
2766 3278 mt 2766 3229 L
2766  276 mt 2766  324 L
2305 3490 mt 
(MMT + RA) s
3741 3278 mt 3741 3229 L
3741  276 mt 3741  324 L
3555 3490 mt 
(CLA) s
4716 3278 mt 4716 3229 L
4716  276 mt 4716  324 L
4351 3490 mt 
(PF + RA) s
 817 3278 mt  865 3278 L
5691 3278 mt 5642 3278 L
 676 3349 mt 
(0) s
 817 2677 mt  865 2677 L
5691 2677 mt 5642 2677 L
 569 2748 mt 
(20) s
 817 2077 mt  865 2077 L
5691 2077 mt 5642 2077 L
 569 2148 mt 
(40) s
 817 1476 mt  865 1476 L
5691 1476 mt 5642 1476 L
 569 1547 mt 
(60) s
 817  876 mt  865  876 L
5691  876 mt 5642  876 L
 569  947 mt 
(80) s
 817  276 mt  865  276 L
5691  276 mt 5642  276 L
 462  347 mt 
(100) s
 817 3278 mt 5691 3278 L
 817  276 mt 5691  276 L
 817 3278 mt  817  276 L
5691 3278 mt 5691  276 L
gs 817 276 4875 3003 rc
0.941176 sg
0 1558 780 0 0 -1558 1401 3278 4 MP
PP
0 sg
-780 0 0 1558 780 0 0 -1558 1401 3278 5 MP stroke
0.941176 sg
0 1819 780 0 0 -1819 2376 3278 4 MP
PP
0 sg
-780 0 0 1819 780 0 0 -1819 2376 3278 5 MP stroke
0.941176 sg
0 2548 780 0 0 -2548 3351 3278 4 MP
PP
0 sg
-780 0 0 2548 780 0 0 -2548 3351 3278 5 MP stroke
0.941176 sg
0 1457 780 0 0 -1457 4326 3278 4 MP
PP
0 sg
-780 0 0 1457 780 0 0 -1457 4326 3278 5 MP stroke
4874 0 817 3278 2 MP stroke
0 315 1791 1562 2 MP stroke
59 0 1762 1562 2 MP stroke
59 0 1762 1877 2 MP stroke
0 89 2766 1415 2 MP stroke
58 0 2737 1415 2 MP stroke
58 0 2737 1504 2 MP stroke
0 109 3741 676 2 MP stroke
58 0 3712 676 2 MP stroke
58 0 3712 785 2 MP stroke
0 495 4716 1574 2 MP stroke
59 0 4686 1574 2 MP stroke
59 0 4686 2069 2 MP stroke
gr

 364 2426 mt  -90 rotate
(QoE Index [dB]) s
90 rotate

end %%Color Dict

eplot
%%EndObject

epage
end

showpage

%%Trailer
%%EOF
