%!PS-Adobe-3.0 EPSF-3.0
%%Creator: MATLAB, The MathWorks, Inc. Version 8.1.0.604 (R2013a). Operating System: Darwin 14.1.0 Darwin Kernel Version 14.1.0: Thu Feb 26 19:26:47 PST 2015; root:xnu-2782.10.73~1/RELEASE_X86_64 x86_64.
%%Title: /Users/le/Work/3.Projects/project3/Matlab/Result2015_03_24/stdR.eps
%%CreationDate: 03/30/2015  19:01:41
%%DocumentNeededFonts: Helvetica
%%DocumentProcessColors: Cyan Magenta Yellow Black
%%LanguageLevel: 2
%%Pages: 1
%%BoundingBox:    10   200   598   590
%%EndComments

%%BeginProlog
% MathWorks dictionary
/MathWorks 160 dict begin
% definition operators
/bdef {bind def} bind def
/ldef {load def} bind def
/xdef {exch def} bdef
/xstore {exch store} bdef
% operator abbreviations
/c  /clip ldef
/cc /concat ldef
/cp /closepath ldef
/gr /grestore ldef
/gs /gsave ldef
/mt /moveto ldef
/np /newpath ldef
/cm /currentmatrix ldef
/sm /setmatrix ldef
/rm /rmoveto ldef
/rl /rlineto ldef
/s {show newpath} bdef
/sc {setcmykcolor} bdef
/sr /setrgbcolor ldef
/sg /setgray ldef
/w /setlinewidth ldef
/j /setlinejoin ldef
/cap /setlinecap ldef
/rc {rectclip} bdef
/rf {rectfill} bdef
% page state control
/pgsv () def
/bpage {/pgsv save def} bdef
/epage {pgsv restore} bdef
/bplot /gsave ldef
/eplot {stroke grestore} bdef
% orientation switch
/portraitMode 0 def /landscapeMode 1 def /rotateMode 2 def
% coordinate system mappings
/dpi2point 0 def
% font control
/FontSize 0 def
/FMS {/FontSize xstore findfont [FontSize 0 0 FontSize neg 0 0]
  makefont setfont} bdef
/reencode {exch dup where {pop load} {pop StandardEncoding} ifelse
  exch dup 3 1 roll findfont dup length dict begin
  { 1 index /FID ne {def}{pop pop} ifelse } forall
  /Encoding exch def currentdict end definefont pop} bdef
/isroman {findfont /CharStrings get /Agrave known} bdef
/FMSR {3 1 roll 1 index dup isroman {reencode} {pop pop} ifelse
  exch FMS} bdef
/csm {1 dpi2point div -1 dpi2point div scale neg translate
 dup landscapeMode eq {pop -90 rotate}
  {rotateMode eq {90 rotate} if} ifelse} bdef
% line types: solid, dotted, dashed, dotdash
/SO { [] 0 setdash } bdef
/DO { [.5 dpi2point mul 4 dpi2point mul] 0 setdash } bdef
/DA { [6 dpi2point mul] 0 setdash } bdef
/DD { [.5 dpi2point mul 4 dpi2point mul 6 dpi2point mul 4
  dpi2point mul] 0 setdash } bdef
% macros for lines and objects
/L {lineto stroke} bdef
/MP {3 1 roll moveto 1 sub {rlineto} repeat} bdef
/AP {{rlineto} repeat} bdef
/PDlw -1 def
/W {/PDlw currentlinewidth def setlinewidth} def
/PP {closepath eofill} bdef
/DP {closepath stroke} bdef
/MR {4 -2 roll moveto dup  0 exch rlineto exch 0 rlineto
  neg 0 exch rlineto closepath} bdef
/FR {MR stroke} bdef
/PR {MR fill} bdef
/L1i {{currentfile picstr readhexstring pop} image} bdef
/tMatrix matrix def
/MakeOval {newpath tMatrix currentmatrix pop translate scale
0 0 1 0 360 arc tMatrix setmatrix} bdef
/FO {MakeOval stroke} bdef
/PO {MakeOval fill} bdef
/PD {currentlinewidth 2 div 0 360 arc fill
   PDlw -1 eq not {PDlw w /PDlw -1 def} if} def
/FA {newpath tMatrix currentmatrix pop translate scale
  0 0 1 5 -2 roll arc tMatrix setmatrix stroke} bdef
/PA {newpath tMatrix currentmatrix pop	translate 0 0 moveto scale
  0 0 1 5 -2 roll arc closepath tMatrix setmatrix fill} bdef
/FAn {newpath tMatrix currentmatrix pop translate scale
  0 0 1 5 -2 roll arcn tMatrix setmatrix stroke} bdef
/PAn {newpath tMatrix currentmatrix pop translate 0 0 moveto scale
  0 0 1 5 -2 roll arcn closepath tMatrix setmatrix fill} bdef
/vradius 0 def /hradius 0 def /lry 0 def
/lrx 0 def /uly 0 def /ulx 0 def /rad 0 def
/MRR {/vradius xdef /hradius xdef /lry xdef /lrx xdef /uly xdef
  /ulx xdef newpath tMatrix currentmatrix pop ulx hradius add uly
  vradius add translate hradius vradius scale 0 0 1 180 270 arc 
  tMatrix setmatrix lrx hradius sub uly vradius add translate
  hradius vradius scale 0 0 1 270 360 arc tMatrix setmatrix
  lrx hradius sub lry vradius sub translate hradius vradius scale
  0 0 1 0 90 arc tMatrix setmatrix ulx hradius add lry vradius sub
  translate hradius vradius scale 0 0 1 90 180 arc tMatrix setmatrix
  closepath} bdef
/FRR {MRR stroke } bdef
/PRR {MRR fill } bdef
/MlrRR {/lry xdef /lrx xdef /uly xdef /ulx xdef /rad lry uly sub 2 div def
  newpath tMatrix currentmatrix pop ulx rad add uly rad add translate
  rad rad scale 0 0 1 90 270 arc tMatrix setmatrix lrx rad sub lry rad
  sub translate rad rad scale 0 0 1 270 90 arc tMatrix setmatrix
  closepath} bdef
/FlrRR {MlrRR stroke } bdef
/PlrRR {MlrRR fill } bdef
/MtbRR {/lry xdef /lrx xdef /uly xdef /ulx xdef /rad lrx ulx sub 2 div def
  newpath tMatrix currentmatrix pop ulx rad add uly rad add translate
  rad rad scale 0 0 1 180 360 arc tMatrix setmatrix lrx rad sub lry rad
  sub translate rad rad scale 0 0 1 0 180 arc tMatrix setmatrix
  closepath} bdef
/FtbRR {MtbRR stroke } bdef
/PtbRR {MtbRR fill } bdef
/stri 6 array def /dtri 6 array def
/smat 6 array def /dmat 6 array def
/tmat1 6 array def /tmat2 6 array def /dif 3 array def
/asub {/ind2 exch def /ind1 exch def dup dup
  ind1 get exch ind2 get sub exch } bdef
/tri_to_matrix {
  2 0 asub 3 1 asub 4 0 asub 5 1 asub
  dup 0 get exch 1 get 7 -1 roll astore } bdef
/compute_transform {
  dmat dtri tri_to_matrix tmat1 invertmatrix 
  smat stri tri_to_matrix tmat2 concatmatrix } bdef
/ds {stri astore pop} bdef
/dt {dtri astore pop} bdef
/db {2 copy /cols xdef /rows xdef mul dup 3 mul string
  currentfile 
  3 index 0 eq {/ASCIIHexDecode filter}
  {/ASCII85Decode filter 3 index 2 eq {/RunLengthDecode filter} if }
  ifelse exch readstring pop
  dup 0 3 index getinterval /rbmap xdef
  dup 2 index dup getinterval /gbmap xdef
  1 index dup 2 mul exch getinterval /bbmap xdef pop pop}bdef
/it {gs np dtri aload pop moveto lineto lineto cp c
  cols rows 8 compute_transform 
  rbmap gbmap bbmap true 3 colorimage gr}bdef
/il {newpath moveto lineto stroke}bdef
currentdict end def
%%EndProlog

%%BeginSetup
MathWorks begin

0 cap

end
%%EndSetup

%%Page: 1 1
%%BeginPageSetup
%%PageBoundingBox:    10   200   598   590
MathWorks begin
bpage
%%EndPageSetup

%%BeginObject: obj1
bplot

/dpi2point 12 def
portraitMode 0120 7080 csm

    0     0  7067  4680 rc
86 dict begin %Colortable dictionary
/c0 { 0.000000 0.000000 0.000000 sr} bdef
/c1 { 1.000000 1.000000 1.000000 sr} bdef
/c2 { 0.900000 0.000000 0.000000 sr} bdef
/c3 { 0.000000 0.820000 0.000000 sr} bdef
/c4 { 0.000000 0.000000 0.800000 sr} bdef
/c5 { 0.910000 0.820000 0.320000 sr} bdef
/c6 { 1.000000 0.260000 0.820000 sr} bdef
/c7 { 0.000000 0.820000 0.820000 sr} bdef
c0
1 j
1 sg
   0    0 7068 4681 rf
6 w
0 3814 5477 0 0 -3814 919 4165 4 MP
PP
-5477 0 0 3814 5477 0 0 -3814 919 4165 5 MP stroke
4 w
DO
0 sg
2014 4165 mt 2014  351 L
2014  351 mt 2014  351 L
3109 4165 mt 3109  351 L
3109  351 mt 3109  351 L
4205 4165 mt 4205  351 L
4205  351 mt 4205  351 L
5300 4165 mt 5300  351 L
5300  351 mt 5300  351 L
 919 4165 mt 6396 4165 L
6396 4165 mt 6396 4165 L
 919 3620 mt 6396 3620 L
6396 3620 mt 6396 3620 L
 919 3075 mt 6396 3075 L
6396 3075 mt 6396 3075 L
 919 2530 mt 6396 2530 L
6396 2530 mt 6396 2530 L
 919 1985 mt 6396 1985 L
6396 1985 mt 6396 1985 L
 919 1440 mt 6396 1440 L
6396 1440 mt 6396 1440 L
 919  895 mt 6396  895 L
6396  895 mt 6396  895 L
 919  351 mt 6396  351 L
6396  351 mt 6396  351 L
SO
6 w
 919 4165 mt 6396 4165 L
 919  351 mt 6396  351 L
 919 4165 mt  919  351 L
6396 4165 mt 6396  351 L
 919 4165 mt 6396 4165 L
 919 4165 mt  919  351 L
2014 4165 mt 2014 4110 L
2014  351 mt 2014  405 L
%%IncludeResource: font Helvetica
/Helvetica /ISOLatin1Encoding 192 FMSR

1617 4377 mt 
(BW + RA) s
3109 4165 mt 3109 4110 L
3109  351 mt 3109  405 L
2648 4377 mt 
(MMT + RA) s
4205 4165 mt 4205 4110 L
4205  351 mt 4205  405 L
4019 4377 mt 
(CLA) s
5300 4165 mt 5300 4110 L
5300  351 mt 5300  405 L
4935 4377 mt 
(PF + RA) s
 919 4165 mt  973 4165 L
6396 4165 mt 6341 4165 L
 778 4236 mt 
(0) s
 919 3620 mt  973 3620 L
6396 3620 mt 6341 3620 L
 511 3691 mt 
(0.05) s
 919 3075 mt  973 3075 L
6396 3075 mt 6341 3075 L
 618 3146 mt 
(0.1) s
 919 2530 mt  973 2530 L
6396 2530 mt 6341 2530 L
 511 2601 mt 
(0.15) s
 919 1985 mt  973 1985 L
6396 1985 mt 6341 1985 L
 618 2056 mt 
(0.2) s
 919 1440 mt  973 1440 L
6396 1440 mt 6341 1440 L
 511 1511 mt 
(0.25) s
 919  895 mt  973  895 L
6396  895 mt 6341  895 L
 618  966 mt 
(0.3) s
 919  351 mt  973  351 L
6396  351 mt 6341  351 L
 511  422 mt 
(0.35) s
 919 4165 mt 6396 4165 L
 919  351 mt 6396  351 L
 919 4165 mt  919  351 L
6396 4165 mt 6396  351 L
gs 919 351 5478 3815 rc
/c8 { 0.831373 0.815686 0.784314 sr} bdef
c8
0 1334 876 0 0 -1334 1576 4165 4 MP
PP
0 sg
-876 0 0 1334 876 0 0 -1334 1576 4165 5 MP stroke
c8
0 664 876 0 0 -664 2671 4165 4 MP
PP
0 sg
-876 0 0 664 876 0 0 -664 2671 4165 5 MP stroke
c8
0 3582 876 0 0 -3582 3767 4165 4 MP
PP
0 sg
-876 0 0 3582 876 0 0 -3582 3767 4165 5 MP stroke
c8
0 2919 876 0 0 -2919 4862 4165 4 MP
PP
0 sg
-876 0 0 2919 876 0 0 -2919 4862 4165 5 MP stroke
5477 0 919 4165 2 MP stroke
gr

 413 4079 mt  -90 rotate
(Std. Dev. of Avg. Rate in GOP \(x10e5[bps]\)) s
90 rotate

end %%Color Dict

eplot
%%EndObject

epage
end

showpage

%%Trailer
%%EOF
