%!PS-Adobe-3.0 EPSF-3.0
%%Creator: MATLAB, The MathWorks, Inc. Version 8.1.0.604 (R2013a). Operating System: Darwin 13.4.0 Darwin Kernel Version 13.4.0: Sun Aug 17 19:50:11 PDT 2014; root:xnu-2422.115.4~1/RELEASE_X86_64 x86_64.
%%Title: /Users/le/Work/0924/w10/Blockwise_gopU.eps
%%CreationDate: 09/25/2014  13:36:02
%%DocumentNeededFonts: Helvetica
%%DocumentProcessColors: Cyan Magenta Yellow Black
%%LanguageLevel: 2
%%Pages: 1
%%BoundingBox:    25   185   585   605
%%EndComments

%%BeginProlog
% MathWorks dictionary
/MathWorks 160 dict begin
% definition operators
/bdef {bind def} bind def
/ldef {load def} bind def
/xdef {exch def} bdef
/xstore {exch store} bdef
% operator abbreviations
/c  /clip ldef
/cc /concat ldef
/cp /closepath ldef
/gr /grestore ldef
/gs /gsave ldef
/mt /moveto ldef
/np /newpath ldef
/cm /currentmatrix ldef
/sm /setmatrix ldef
/rm /rmoveto ldef
/rl /rlineto ldef
/s {show newpath} bdef
/sc {setcmykcolor} bdef
/sr /setrgbcolor ldef
/sg /setgray ldef
/w /setlinewidth ldef
/j /setlinejoin ldef
/cap /setlinecap ldef
/rc {rectclip} bdef
/rf {rectfill} bdef
% page state control
/pgsv () def
/bpage {/pgsv save def} bdef
/epage {pgsv restore} bdef
/bplot /gsave ldef
/eplot {stroke grestore} bdef
% orientation switch
/portraitMode 0 def /landscapeMode 1 def /rotateMode 2 def
% coordinate system mappings
/dpi2point 0 def
% font control
/FontSize 0 def
/FMS {/FontSize xstore findfont [FontSize 0 0 FontSize neg 0 0]
  makefont setfont} bdef
/reencode {exch dup where {pop load} {pop StandardEncoding} ifelse
  exch dup 3 1 roll findfont dup length dict begin
  { 1 index /FID ne {def}{pop pop} ifelse } forall
  /Encoding exch def currentdict end definefont pop} bdef
/isroman {findfont /CharStrings get /Agrave known} bdef
/FMSR {3 1 roll 1 index dup isroman {reencode} {pop pop} ifelse
  exch FMS} bdef
/csm {1 dpi2point div -1 dpi2point div scale neg translate
 dup landscapeMode eq {pop -90 rotate}
  {rotateMode eq {90 rotate} if} ifelse} bdef
% line types: solid, dotted, dashed, dotdash
/SO { [] 0 setdash } bdef
/DO { [.5 dpi2point mul 4 dpi2point mul] 0 setdash } bdef
/DA { [6 dpi2point mul] 0 setdash } bdef
/DD { [.5 dpi2point mul 4 dpi2point mul 6 dpi2point mul 4
  dpi2point mul] 0 setdash } bdef
% macros for lines and objects
/L {lineto stroke} bdef
/MP {3 1 roll moveto 1 sub {rlineto} repeat} bdef
/AP {{rlineto} repeat} bdef
/PDlw -1 def
/W {/PDlw currentlinewidth def setlinewidth} def
/PP {closepath eofill} bdef
/DP {closepath stroke} bdef
/MR {4 -2 roll moveto dup  0 exch rlineto exch 0 rlineto
  neg 0 exch rlineto closepath} bdef
/FR {MR stroke} bdef
/PR {MR fill} bdef
/L1i {{currentfile picstr readhexstring pop} image} bdef
/tMatrix matrix def
/MakeOval {newpath tMatrix currentmatrix pop translate scale
0 0 1 0 360 arc tMatrix setmatrix} bdef
/FO {MakeOval stroke} bdef
/PO {MakeOval fill} bdef
/PD {currentlinewidth 2 div 0 360 arc fill
   PDlw -1 eq not {PDlw w /PDlw -1 def} if} def
/FA {newpath tMatrix currentmatrix pop translate scale
  0 0 1 5 -2 roll arc tMatrix setmatrix stroke} bdef
/PA {newpath tMatrix currentmatrix pop	translate 0 0 moveto scale
  0 0 1 5 -2 roll arc closepath tMatrix setmatrix fill} bdef
/FAn {newpath tMatrix currentmatrix pop translate scale
  0 0 1 5 -2 roll arcn tMatrix setmatrix stroke} bdef
/PAn {newpath tMatrix currentmatrix pop translate 0 0 moveto scale
  0 0 1 5 -2 roll arcn closepath tMatrix setmatrix fill} bdef
/vradius 0 def /hradius 0 def /lry 0 def
/lrx 0 def /uly 0 def /ulx 0 def /rad 0 def
/MRR {/vradius xdef /hradius xdef /lry xdef /lrx xdef /uly xdef
  /ulx xdef newpath tMatrix currentmatrix pop ulx hradius add uly
  vradius add translate hradius vradius scale 0 0 1 180 270 arc 
  tMatrix setmatrix lrx hradius sub uly vradius add translate
  hradius vradius scale 0 0 1 270 360 arc tMatrix setmatrix
  lrx hradius sub lry vradius sub translate hradius vradius scale
  0 0 1 0 90 arc tMatrix setmatrix ulx hradius add lry vradius sub
  translate hradius vradius scale 0 0 1 90 180 arc tMatrix setmatrix
  closepath} bdef
/FRR {MRR stroke } bdef
/PRR {MRR fill } bdef
/MlrRR {/lry xdef /lrx xdef /uly xdef /ulx xdef /rad lry uly sub 2 div def
  newpath tMatrix currentmatrix pop ulx rad add uly rad add translate
  rad rad scale 0 0 1 90 270 arc tMatrix setmatrix lrx rad sub lry rad
  sub translate rad rad scale 0 0 1 270 90 arc tMatrix setmatrix
  closepath} bdef
/FlrRR {MlrRR stroke } bdef
/PlrRR {MlrRR fill } bdef
/MtbRR {/lry xdef /lrx xdef /uly xdef /ulx xdef /rad lrx ulx sub 2 div def
  newpath tMatrix currentmatrix pop ulx rad add uly rad add translate
  rad rad scale 0 0 1 180 360 arc tMatrix setmatrix lrx rad sub lry rad
  sub translate rad rad scale 0 0 1 0 180 arc tMatrix setmatrix
  closepath} bdef
/FtbRR {MtbRR stroke } bdef
/PtbRR {MtbRR fill } bdef
/stri 6 array def /dtri 6 array def
/smat 6 array def /dmat 6 array def
/tmat1 6 array def /tmat2 6 array def /dif 3 array def
/asub {/ind2 exch def /ind1 exch def dup dup
  ind1 get exch ind2 get sub exch } bdef
/tri_to_matrix {
  2 0 asub 3 1 asub 4 0 asub 5 1 asub
  dup 0 get exch 1 get 7 -1 roll astore } bdef
/compute_transform {
  dmat dtri tri_to_matrix tmat1 invertmatrix 
  smat stri tri_to_matrix tmat2 concatmatrix } bdef
/ds {stri astore pop} bdef
/dt {dtri astore pop} bdef
/db {2 copy /cols xdef /rows xdef mul dup 3 mul string
  currentfile 
  3 index 0 eq {/ASCIIHexDecode filter}
  {/ASCII85Decode filter 3 index 2 eq {/RunLengthDecode filter} if }
  ifelse exch readstring pop
  dup 0 3 index getinterval /rbmap xdef
  dup 2 index dup getinterval /gbmap xdef
  1 index dup 2 mul exch getinterval /bbmap xdef pop pop}bdef
/it {gs np dtri aload pop moveto lineto lineto cp c
  cols rows 8 compute_transform 
  rbmap gbmap bbmap true 3 colorimage gr}bdef
/il {newpath moveto lineto stroke}bdef
currentdict end def
%%EndProlog

%%BeginSetup
MathWorks begin

0 cap

end
%%EndSetup

%%Page: 1 1
%%BeginPageSetup
%%PageBoundingBox:    25   185   585   605
MathWorks begin
bpage
%%EndPageSetup

%%BeginObject: obj1
bplot

/dpi2point 12 def
portraitMode 0300 7260 csm

    0     0  6721  5039 rc
85 dict begin %Colortable dictionary
/c0 { 0.000000 0.000000 0.000000 sr} bdef
/c1 { 1.000000 1.000000 1.000000 sr} bdef
/c2 { 0.900000 0.000000 0.000000 sr} bdef
/c3 { 0.000000 0.820000 0.000000 sr} bdef
/c4 { 0.000000 0.000000 0.800000 sr} bdef
/c5 { 0.910000 0.820000 0.320000 sr} bdef
/c6 { 1.000000 0.260000 0.820000 sr} bdef
/c7 { 0.000000 0.820000 0.820000 sr} bdef
c0
1 j
1 sg
   0    0 6722 5040 rf
6 w
0 4107 5209 0 0 -4107 874 4485 4 MP
PP
-5209 0 0 4107 5209 0 0 -4107 874 4485 5 MP stroke
4 w
DO
0 sg
 874 4485 mt  874  378 L
 874  378 mt  874  378 L
1394 4485 mt 1394  378 L
1394  378 mt 1394  378 L
1915 4485 mt 1915  378 L
1915  378 mt 1915  378 L
2436 4485 mt 2436  378 L
2436  378 mt 2436  378 L
2957 4485 mt 2957  378 L
2957  378 mt 2957  378 L
3478 4485 mt 3478  378 L
3478  378 mt 3478  378 L
3999 4485 mt 3999  378 L
3999  378 mt 3999  378 L
4520 4485 mt 4520  378 L
4520  378 mt 4520  378 L
5041 4485 mt 5041  378 L
5041  378 mt 5041  378 L
5562 4485 mt 5562  378 L
5562  378 mt 5562  378 L
6083 4485 mt 6083  378 L
6083  378 mt 6083  378 L
 874 4485 mt 6083 4485 L
6083 4485 mt 6083 4485 L
 874 4028 mt 6083 4028 L
6083 4028 mt 6083 4028 L
 874 3572 mt 6083 3572 L
6083 3572 mt 6083 3572 L
 874 3116 mt 6083 3116 L
6083 3116 mt 6083 3116 L
 874 2659 mt 6083 2659 L
6083 2659 mt 6083 2659 L
 874 2203 mt 6083 2203 L
6083 2203 mt 6083 2203 L
 874 1747 mt 6083 1747 L
6083 1747 mt 6083 1747 L
 874 1290 mt 6083 1290 L
6083 1290 mt 6083 1290 L
 874  834 mt 6083  834 L
6083  834 mt 6083  834 L
 874  378 mt 6083  378 L
6083  378 mt 6083  378 L
SO
6 w
 874 4485 mt 6083 4485 L
 874  378 mt 6083  378 L
 874 4485 mt  874  378 L
6083 4485 mt 6083  378 L
 874 4485 mt 6083 4485 L
 874 4485 mt  874  378 L
 874 4485 mt  874 4432 L
 874  378 mt  874  430 L
%%IncludeResource: font Helvetica
/Helvetica /ISOLatin1Encoding 120 FMSR

 841 4630 mt 
(0) s
1394 4485 mt 1394 4432 L
1394  378 mt 1394  430 L
1361 4630 mt 
(5) s
1915 4485 mt 1915 4432 L
1915  378 mt 1915  430 L
1849 4630 mt 
(10) s
2436 4485 mt 2436 4432 L
2436  378 mt 2436  430 L
2370 4630 mt 
(15) s
2957 4485 mt 2957 4432 L
2957  378 mt 2957  430 L
2891 4630 mt 
(20) s
3478 4485 mt 3478 4432 L
3478  378 mt 3478  430 L
3412 4630 mt 
(25) s
3999 4485 mt 3999 4432 L
3999  378 mt 3999  430 L
3933 4630 mt 
(30) s
4520 4485 mt 4520 4432 L
4520  378 mt 4520  430 L
4454 4630 mt 
(35) s
5041 4485 mt 5041 4432 L
5041  378 mt 5041  430 L
4975 4630 mt 
(40) s
5562 4485 mt 5562 4432 L
5562  378 mt 5562  430 L
5496 4630 mt 
(45) s
6083 4485 mt 6083 4432 L
6083  378 mt 6083  430 L
6017 4630 mt 
(50) s
 874 4485 mt  926 4485 L
6083 4485 mt 6030 4485 L
 706 4529 mt 
(12) s
 874 4028 mt  926 4028 L
6083 4028 mt 6030 4028 L
 606 4072 mt 
(12.5) s
 874 3572 mt  926 3572 L
6083 3572 mt 6030 3572 L
 706 3616 mt 
(13) s
 874 3116 mt  926 3116 L
6083 3116 mt 6030 3116 L
 606 3160 mt 
(13.5) s
 874 2659 mt  926 2659 L
6083 2659 mt 6030 2659 L
 706 2703 mt 
(14) s
 874 2203 mt  926 2203 L
6083 2203 mt 6030 2203 L
 606 2247 mt 
(14.5) s
 874 1747 mt  926 1747 L
6083 1747 mt 6030 1747 L
 706 1791 mt 
(15) s
 874 1290 mt  926 1290 L
6083 1290 mt 6030 1290 L
 606 1334 mt 
(15.5) s
 874  834 mt  926  834 L
6083  834 mt 6030  834 L
 706  878 mt 
(16) s
 874  378 mt  926  378 L
6083  378 mt 6030  378 L
 606  422 mt 
(16.5) s
 874 4485 mt 6083 4485 L
 874  378 mt 6083  378 L
 874 4485 mt  874  378 L
6083 4485 mt 6083  378 L
gs 874 378 5210 4108 rc
/c8 { 0.000000 0.000000 1.000000 sr} bdef
c8
105 146 104 192 104 -307 104 168 104 -230 105 383 104 -305 104 376 
104 -732 104 325 104 69 105 -648 104 72 104 -27 104 634 104 -309 
105 209 104 -32 104 162 104 -372 104 131 104 316 105 44 104 -474 
104 279 104 232 104 -680 105 547 104 -84 104 16 104 -156 104 186 
104 15 105 -481 104 637 104 -15 104 15 104 -397 105 -106 104 496 
104 -264 104 153 104 -153 104 54 105 -54 104 385 104 -447 104 -104 
104 311 978 3318 50 MP stroke
/c9 { 0.000000 0.500000 0.000000 sr} bdef
c9
105 0 104 0 104 0 104 0 104 0 105 0 104 0 104 0 
104 0 104 0 104 0 105 0 104 0 104 0 104 0 104 0 
105 0 104 0 104 0 104 0 104 0 104 0 105 0 104 0 
104 0 104 0 104 0 105 0 104 -16 104 16 104 0 104 0 
104 0 105 0 104 0 104 0 104 0 104 0 105 0 104 0 
104 0 104 0 104 0 104 0 105 0 104 0 104 0 104 0 
104 0 978 812 50 MP stroke
/c10 { 1.000000 0.000000 0.000000 sr} bdef
c10
105 -415 104 625 104 -331 104 61 104 134 105 -51 104 -75 104 45 
104 -91 104 -139 104 -390 105 642 104 -213 104 -63 104 691 104 -482 
105 -131 104 415 104 62 104 -652 104 490 104 -222 105 149 104 -474 
104 540 104 -185 104 -281 105 386 104 -386 104 778 104 -581 104 181 
104 -158 105 -124 104 512 104 -707 104 265 104 300 105 -80 104 -97 
104 428 104 -527 104 144 104 96 105 -89 104 -37 104 140 104 -635 
104 199 978 3621 50 MP stroke
/c11 { 0.000000 0.750000 0.750000 sr} bdef
c11
105 114 104 200 104 -121 104 -20 104 -6 105 122 104 -201 104 -355 
104 594 104 -44 104 -103 105 702 104 -612 104 57 104 231 104 -517 
105 165 104 -39 104 134 104 209 104 48 104 -431 105 0 104 156 
104 -39 104 108 104 147 105 -49 104 -244 104 -309 104 455 104 147 
104 -268 105 -157 104 -13 104 132 104 -20 104 -153 105 256 104 137 
104 -266 104 254 104 -442 104 227 105 203 104 -145 104 -117 104 377 
104 -685 978 3113 50 MP stroke
gr

c11
0 sg
%%IncludeResource: font Helvetica
/Helvetica /ISOLatin1Encoding 168 FMSR

3290 4808 mt 
(GOP) s
 514 2838 mt  -90 rotate
(PSNR [dB]) s
90 rotate
1921  273 mt 
(PSNR for 4 UTs when Block-wise is used) s

end %%Color Dict

eplot
%%EndObject

epage
end

showpage

%%Trailer
%%EOF
