%!PS-Adobe-3.0 EPSF-3.0
%%Creator: MATLAB, The MathWorks, Inc. Version 8.1.0.604 (R2013a). Operating System: Darwin 13.4.0 Darwin Kernel Version 13.4.0: Sun Aug 17 19:50:11 PDT 2014; root:xnu-2422.115.4~1/RELEASE_X86_64 x86_64.
%%Title: /Users/le/Work/NovelOP_gopU.eps
%%CreationDate: 09/25/2014  14:08:01
%%DocumentNeededFonts: Helvetica
%%DocumentProcessColors: Cyan Magenta Yellow Black
%%LanguageLevel: 2
%%Pages: 1
%%BoundingBox:  -169   196   782   595
%%EndComments

%%BeginProlog
% MathWorks dictionary
/MathWorks 160 dict begin
% definition operators
/bdef {bind def} bind def
/ldef {load def} bind def
/xdef {exch def} bdef
/xstore {exch store} bdef
% operator abbreviations
/c  /clip ldef
/cc /concat ldef
/cp /closepath ldef
/gr /grestore ldef
/gs /gsave ldef
/mt /moveto ldef
/np /newpath ldef
/cm /currentmatrix ldef
/sm /setmatrix ldef
/rm /rmoveto ldef
/rl /rlineto ldef
/s {show newpath} bdef
/sc {setcmykcolor} bdef
/sr /setrgbcolor ldef
/sg /setgray ldef
/w /setlinewidth ldef
/j /setlinejoin ldef
/cap /setlinecap ldef
/rc {rectclip} bdef
/rf {rectfill} bdef
% page state control
/pgsv () def
/bpage {/pgsv save def} bdef
/epage {pgsv restore} bdef
/bplot /gsave ldef
/eplot {stroke grestore} bdef
% orientation switch
/portraitMode 0 def /landscapeMode 1 def /rotateMode 2 def
% coordinate system mappings
/dpi2point 0 def
% font control
/FontSize 0 def
/FMS {/FontSize xstore findfont [FontSize 0 0 FontSize neg 0 0]
  makefont setfont} bdef
/reencode {exch dup where {pop load} {pop StandardEncoding} ifelse
  exch dup 3 1 roll findfont dup length dict begin
  { 1 index /FID ne {def}{pop pop} ifelse } forall
  /Encoding exch def currentdict end definefont pop} bdef
/isroman {findfont /CharStrings get /Agrave known} bdef
/FMSR {3 1 roll 1 index dup isroman {reencode} {pop pop} ifelse
  exch FMS} bdef
/csm {1 dpi2point div -1 dpi2point div scale neg translate
 dup landscapeMode eq {pop -90 rotate}
  {rotateMode eq {90 rotate} if} ifelse} bdef
% line types: solid, dotted, dashed, dotdash
/SO { [] 0 setdash } bdef
/DO { [.5 dpi2point mul 4 dpi2point mul] 0 setdash } bdef
/DA { [6 dpi2point mul] 0 setdash } bdef
/DD { [.5 dpi2point mul 4 dpi2point mul 6 dpi2point mul 4
  dpi2point mul] 0 setdash } bdef
% macros for lines and objects
/L {lineto stroke} bdef
/MP {3 1 roll moveto 1 sub {rlineto} repeat} bdef
/AP {{rlineto} repeat} bdef
/PDlw -1 def
/W {/PDlw currentlinewidth def setlinewidth} def
/PP {closepath eofill} bdef
/DP {closepath stroke} bdef
/MR {4 -2 roll moveto dup  0 exch rlineto exch 0 rlineto
  neg 0 exch rlineto closepath} bdef
/FR {MR stroke} bdef
/PR {MR fill} bdef
/L1i {{currentfile picstr readhexstring pop} image} bdef
/tMatrix matrix def
/MakeOval {newpath tMatrix currentmatrix pop translate scale
0 0 1 0 360 arc tMatrix setmatrix} bdef
/FO {MakeOval stroke} bdef
/PO {MakeOval fill} bdef
/PD {currentlinewidth 2 div 0 360 arc fill
   PDlw -1 eq not {PDlw w /PDlw -1 def} if} def
/FA {newpath tMatrix currentmatrix pop translate scale
  0 0 1 5 -2 roll arc tMatrix setmatrix stroke} bdef
/PA {newpath tMatrix currentmatrix pop	translate 0 0 moveto scale
  0 0 1 5 -2 roll arc closepath tMatrix setmatrix fill} bdef
/FAn {newpath tMatrix currentmatrix pop translate scale
  0 0 1 5 -2 roll arcn tMatrix setmatrix stroke} bdef
/PAn {newpath tMatrix currentmatrix pop translate 0 0 moveto scale
  0 0 1 5 -2 roll arcn closepath tMatrix setmatrix fill} bdef
/vradius 0 def /hradius 0 def /lry 0 def
/lrx 0 def /uly 0 def /ulx 0 def /rad 0 def
/MRR {/vradius xdef /hradius xdef /lry xdef /lrx xdef /uly xdef
  /ulx xdef newpath tMatrix currentmatrix pop ulx hradius add uly
  vradius add translate hradius vradius scale 0 0 1 180 270 arc 
  tMatrix setmatrix lrx hradius sub uly vradius add translate
  hradius vradius scale 0 0 1 270 360 arc tMatrix setmatrix
  lrx hradius sub lry vradius sub translate hradius vradius scale
  0 0 1 0 90 arc tMatrix setmatrix ulx hradius add lry vradius sub
  translate hradius vradius scale 0 0 1 90 180 arc tMatrix setmatrix
  closepath} bdef
/FRR {MRR stroke } bdef
/PRR {MRR fill } bdef
/MlrRR {/lry xdef /lrx xdef /uly xdef /ulx xdef /rad lry uly sub 2 div def
  newpath tMatrix currentmatrix pop ulx rad add uly rad add translate
  rad rad scale 0 0 1 90 270 arc tMatrix setmatrix lrx rad sub lry rad
  sub translate rad rad scale 0 0 1 270 90 arc tMatrix setmatrix
  closepath} bdef
/FlrRR {MlrRR stroke } bdef
/PlrRR {MlrRR fill } bdef
/MtbRR {/lry xdef /lrx xdef /uly xdef /ulx xdef /rad lrx ulx sub 2 div def
  newpath tMatrix currentmatrix pop ulx rad add uly rad add translate
  rad rad scale 0 0 1 180 360 arc tMatrix setmatrix lrx rad sub lry rad
  sub translate rad rad scale 0 0 1 0 180 arc tMatrix setmatrix
  closepath} bdef
/FtbRR {MtbRR stroke } bdef
/PtbRR {MtbRR fill } bdef
/stri 6 array def /dtri 6 array def
/smat 6 array def /dmat 6 array def
/tmat1 6 array def /tmat2 6 array def /dif 3 array def
/asub {/ind2 exch def /ind1 exch def dup dup
  ind1 get exch ind2 get sub exch } bdef
/tri_to_matrix {
  2 0 asub 3 1 asub 4 0 asub 5 1 asub
  dup 0 get exch 1 get 7 -1 roll astore } bdef
/compute_transform {
  dmat dtri tri_to_matrix tmat1 invertmatrix 
  smat stri tri_to_matrix tmat2 concatmatrix } bdef
/ds {stri astore pop} bdef
/dt {dtri astore pop} bdef
/db {2 copy /cols xdef /rows xdef mul dup 3 mul string
  currentfile 
  3 index 0 eq {/ASCIIHexDecode filter}
  {/ASCII85Decode filter 3 index 2 eq {/RunLengthDecode filter} if }
  ifelse exch readstring pop
  dup 0 3 index getinterval /rbmap xdef
  dup 2 index dup getinterval /gbmap xdef
  1 index dup 2 mul exch getinterval /bbmap xdef pop pop}bdef
/it {gs np dtri aload pop moveto lineto lineto cp c
  cols rows 8 compute_transform 
  rbmap gbmap bbmap true 3 colorimage gr}bdef
/il {newpath moveto lineto stroke}bdef
currentdict end def
%%EndProlog

%%BeginSetup
MathWorks begin

0 cap

end
%%EndSetup

%%Page: 1 1
%%BeginPageSetup
%%PageBoundingBox:  -169   196   782   595
MathWorks begin
bpage
%%EndPageSetup

%%BeginObject: obj1
bplot

/dpi2point 12 def
portraitMode -2028 7140 csm

    0     0 11412  4788 rc
85 dict begin %Colortable dictionary
/c0 { 0.000000 0.000000 0.000000 sr} bdef
/c1 { 1.000000 1.000000 1.000000 sr} bdef
/c2 { 0.900000 0.000000 0.000000 sr} bdef
/c3 { 0.000000 0.820000 0.000000 sr} bdef
/c4 { 0.000000 0.000000 0.800000 sr} bdef
/c5 { 0.910000 0.820000 0.320000 sr} bdef
/c6 { 1.000000 0.260000 0.820000 sr} bdef
/c7 { 0.000000 0.820000 0.820000 sr} bdef
c0
1 j
1 sg
   0    0 11413 4789 rf
6 w
0 3902 8844 0 0 -3902 1484 4261 4 MP
PP
-8844 0 0 3902 8844 0 0 -3902 1484 4261 5 MP stroke
4 w
DO
0 sg
1484 4261 mt 1484  359 L
1484  359 mt 1484  359 L
2368 4261 mt 2368  359 L
2368  359 mt 2368  359 L
3252 4261 mt 3252  359 L
3252  359 mt 3252  359 L
4137 4261 mt 4137  359 L
4137  359 mt 4137  359 L
5021 4261 mt 5021  359 L
5021  359 mt 5021  359 L
5906 4261 mt 5906  359 L
5906  359 mt 5906  359 L
6790 4261 mt 6790  359 L
6790  359 mt 6790  359 L
7674 4261 mt 7674  359 L
7674  359 mt 7674  359 L
8559 4261 mt 8559  359 L
8559  359 mt 8559  359 L
9443 4261 mt 9443  359 L
9443  359 mt 9443  359 L
10328 4261 mt 10328  359 L
10328  359 mt 10328  359 L
1484 4261 mt 10328 4261 L
10328 4261 mt 10328 4261 L
1484 3870 mt 10328 3870 L
10328 3870 mt 10328 3870 L
1484 3480 mt 10328 3480 L
10328 3480 mt 10328 3480 L
1484 3090 mt 10328 3090 L
10328 3090 mt 10328 3090 L
1484 2700 mt 10328 2700 L
10328 2700 mt 10328 2700 L
1484 2310 mt 10328 2310 L
10328 2310 mt 10328 2310 L
1484 1919 mt 10328 1919 L
10328 1919 mt 10328 1919 L
1484 1529 mt 10328 1529 L
10328 1529 mt 10328 1529 L
1484 1139 mt 10328 1139 L
10328 1139 mt 10328 1139 L
1484  749 mt 10328  749 L
10328  749 mt 10328  749 L
1484  359 mt 10328  359 L
10328  359 mt 10328  359 L
SO
6 w
1484 4261 mt 10328 4261 L
1484  359 mt 10328  359 L
1484 4261 mt 1484  359 L
10328 4261 mt 10328  359 L
1484 4261 mt 10328 4261 L
1484 4261 mt 1484  359 L
1484 4261 mt 1484 4172 L
1484  359 mt 1484  447 L
%%IncludeResource: font Helvetica
/Helvetica /ISOLatin1Encoding 120 FMSR

1451 4406 mt 
(0) s
2368 4261 mt 2368 4172 L
2368  359 mt 2368  447 L
2335 4406 mt 
(5) s
3252 4261 mt 3252 4172 L
3252  359 mt 3252  447 L
3186 4406 mt 
(10) s
4137 4261 mt 4137 4172 L
4137  359 mt 4137  447 L
4071 4406 mt 
(15) s
5021 4261 mt 5021 4172 L
5021  359 mt 5021  447 L
4955 4406 mt 
(20) s
5906 4261 mt 5906 4172 L
5906  359 mt 5906  447 L
5840 4406 mt 
(25) s
6790 4261 mt 6790 4172 L
6790  359 mt 6790  447 L
6724 4406 mt 
(30) s
7674 4261 mt 7674 4172 L
7674  359 mt 7674  447 L
7608 4406 mt 
(35) s
8559 4261 mt 8559 4172 L
8559  359 mt 8559  447 L
8493 4406 mt 
(40) s
9443 4261 mt 9443 4172 L
9443  359 mt 9443  447 L
9377 4406 mt 
(45) s
10328 4261 mt 10328 4172 L
10328  359 mt 10328  447 L
10262 4406 mt 
(50) s
1484 4261 mt 1572 4261 L
10328 4261 mt 10239 4261 L
1216 4305 mt 
(13.8) s
1484 3870 mt 1572 3870 L
10328 3870 mt 10239 3870 L
1316 3914 mt 
(14) s
1484 3480 mt 1572 3480 L
10328 3480 mt 10239 3480 L
1216 3524 mt 
(14.2) s
1484 3090 mt 1572 3090 L
10328 3090 mt 10239 3090 L
1216 3134 mt 
(14.4) s
1484 2700 mt 1572 2700 L
10328 2700 mt 10239 2700 L
1216 2744 mt 
(14.6) s
1484 2310 mt 1572 2310 L
10328 2310 mt 10239 2310 L
1216 2354 mt 
(14.8) s
1484 1919 mt 1572 1919 L
10328 1919 mt 10239 1919 L
1316 1963 mt 
(15) s
1484 1529 mt 1572 1529 L
10328 1529 mt 10239 1529 L
1216 1573 mt 
(15.2) s
1484 1139 mt 1572 1139 L
10328 1139 mt 10239 1139 L
1216 1183 mt 
(15.4) s
1484  749 mt 1572  749 L
10328  749 mt 10239  749 L
1216  793 mt 
(15.6) s
1484  359 mt 1572  359 L
10328  359 mt 10239  359 L
1216  403 mt 
(15.8) s
1484 4261 mt 10328 4261 L
1484  359 mt 10328  359 L
1484 4261 mt 1484  359 L
10328 4261 mt 10328  359 L
gs 1484 359 8845 3903 rc
DA
/c8 { 0.000000 0.000000 1.000000 sr} bdef
c8
177 -410 177 339 177 -364 177 99 177 -199 177 523 177 -167 177 36 
176 -292 177 0 177 74 177 0 177 -161 177 -38 177 665 177 -577 
176 353 177 -132 177 -12 177 192 177 153 177 -418 177 121 177 -24 
176 168 177 83 177 -460 177 389 177 -168 177 250 177 -274 177 298 
177 -371 176 -223 177 664 177 -602 177 13 177 -189 177 201 177 329 
177 -193 176 109 177 -257 177 221 177 -24 177 36 177 -397 177 -25 
177 -64 1660 3375 50 MP stroke
gr

c8
DA
gs 1587 2460 8815 989 rc
SO
1624 3375 mt 1696 3375 L
1660 3339 mt 1660 3411 L
1801 3311 mt 1873 3311 L
1837 3275 mt 1837 3347 L
1978 3286 mt 2050 3286 L
2014 3250 mt 2014 3322 L
2155 2889 mt 2227 2889 L
2191 2853 mt 2191 2925 L
2332 2925 mt 2404 2925 L
2368 2889 mt 2368 2961 L
2509 2901 mt 2581 2901 L
2545 2865 mt 2545 2937 L
2686 3122 mt 2758 3122 L
2722 3086 mt 2722 3158 L
2863 2865 mt 2935 2865 L
2899 2829 mt 2899 2901 L
3039 2974 mt 3111 2974 L
3075 2938 mt 3075 3010 L
3216 2781 mt 3288 2781 L
3252 2745 mt 3252 2817 L
3393 3110 mt 3465 3110 L
3429 3074 mt 3429 3146 L
3570 3311 mt 3642 3311 L
3606 3275 mt 3606 3347 L
3747 3122 mt 3819 3122 L
3783 3086 mt 3783 3158 L
3924 3135 mt 3996 3135 L
3960 3099 mt 3960 3171 L
4101 2533 mt 4173 2533 L
4137 2497 mt 4137 2569 L
4278 3197 mt 4350 3197 L
4314 3161 mt 4314 3233 L
4454 2974 mt 4526 2974 L
4490 2938 mt 4490 3010 L
4631 2603 mt 4703 2603 L
4667 2567 mt 4667 2639 L
4808 2901 mt 4880 2901 L
4844 2865 mt 4844 2937 L
4985 2627 mt 5057 2627 L
5021 2591 mt 5021 2663 L
5162 2877 mt 5234 2877 L
5198 2841 mt 5198 2913 L
5339 2709 mt 5411 2709 L
5375 2673 mt 5375 2745 L
5516 3098 mt 5588 3098 L
5552 3062 mt 5552 3134 L
5693 2638 mt 5765 2638 L
5729 2602 mt 5729 2674 L
5870 2721 mt 5942 2721 L
5906 2685 mt 5906 2757 L
6046 2889 mt 6118 2889 L
6082 2853 mt 6082 2925 L
6223 2865 mt 6295 2865 L
6259 2829 mt 6259 2901 L
6400 2986 mt 6472 2986 L
6436 2950 mt 6436 3022 L
6577 2568 mt 6649 2568 L
6613 2532 mt 6613 2604 L
6754 2721 mt 6826 2721 L
6790 2685 mt 6790 2757 L
6931 2913 mt 7003 2913 L
6967 2877 mt 6967 2949 L
7108 2901 mt 7180 2901 L
7144 2865 mt 7144 2937 L
7285 2769 mt 7357 2769 L
7321 2733 mt 7321 2805 L
7461 3122 mt 7533 3122 L
7497 3086 mt 7497 3158 L
7638 2545 mt 7710 2545 L
7674 2509 mt 7674 2581 L
7815 3210 mt 7887 3210 L
7851 3174 mt 7851 3246 L
7992 3172 mt 8064 3172 L
8028 3136 mt 8028 3208 L
8169 3011 mt 8241 3011 L
8205 2975 mt 8205 3047 L
8346 3011 mt 8418 3011 L
8382 2975 mt 8382 3047 L
8523 3085 mt 8595 3085 L
8559 3049 mt 8559 3121 L
8700 3085 mt 8772 3085 L
8736 3049 mt 8736 3121 L
8876 2793 mt 8948 2793 L
8912 2757 mt 8912 2829 L
9053 2829 mt 9125 2829 L
9089 2793 mt 9089 2865 L
9230 2662 mt 9302 2662 L
9266 2626 mt 9266 2698 L
9407 3185 mt 9479 3185 L
9443 3149 mt 9443 3221 L
9584 2986 mt 9656 2986 L
9620 2950 mt 9620 3022 L
9761 3085 mt 9833 3085 L
9797 3049 mt 9797 3121 L
9938 2721 mt 10010 2721 L
9974 2685 mt 9974 2757 L
10115 3060 mt 10187 3060 L
10151 3024 mt 10151 3096 L
10292 2650 mt 10364 2650 L
10328 2614 mt 10328 2686 L
DA
gr

gs 1484 359 8845 3903 rc
/c9 { 0.000000 0.500000 0.000000 sr} bdef
c9
177 -119 177 119 177 -362 177 122 177 161 177 158 177 -238 177 40 
176 -243 177 -42 177 164 177 0 177 -331 177 84 177 527 177 -738 
176 294 177 -83 177 42 177 0 177 165 177 -375 177 -216 177 -266 
176 396 177 0 177 -487 177 269 177 -223 177 90 177 -227 177 272 
177 -365 176 -332 177 697 177 -553 177 -241 177 -148 177 197 177 287 
177 -143 176 48 177 -241 177 241 177 -96 177 -48 177 -346 177 -50 
177 -102 1660 3375 50 MP stroke
gr

c9
gs 1587 981 8815 2468 rc
SO
  36   36 1660 3375 FO
  36   36 1837 3273 FO
  36   36 2014 3223 FO
  36   36 2191 2877 FO
  36   36 2368 2829 FO
  36   36 2545 2733 FO
  36   36 2722 2974 FO
  36   36 2899 2733 FO
  36   36 3075 2781 FO
  36   36 3252 2638 FO
  36   36 3429 2925 FO
  36   36 3606 3122 FO
  36   36 3783 2974 FO
  36   36 3960 2733 FO
  36   36 4137 2180 FO
  36   36 4314 2877 FO
  36   36 4490 2545 FO
  36   36 4667 2180 FO
  36   36 4844 2452 FO
  36   36 5021 2225 FO
  36   36 5198 2315 FO
  36   36 5375 2092 FO
  36   36 5552 2361 FO
  36   36 5729 1874 FO
  36   36 5906 1874 FO
  36   36 6082 2270 FO
  36   36 6259 2004 FO
  36   36 6436 1788 FO
  36   36 6613 1413 FO
  36   36 6790 1578 FO
  36   36 6967 1578 FO
  36   36 7144 1620 FO
  36   36 7321 1537 FO
  36   36 7497 1831 FO
  36   36 7674 1093 FO
  36   36 7851 1620 FO
  36   36 8028 1704 FO
  36   36 8205 1373 FO
  36   36 8382 1373 FO
  36   36 8559 1537 FO
  36   36 8736 1495 FO
  36   36 8912 1252 FO
  36   36 9089 1292 FO
  36   36 9266 1054 FO
  36   36 9443 1212 FO
  36   36 9620 1373 FO
  36   36 9797 1495 FO
  36   36 9974 1133 FO
  36   36 10151 1252 FO
  36   36 10328 1133 FO
DA
gr

gs 1484 359 8845 3903 rc
/c10 { 1.000000 0.000000 0.000000 sr} bdef
c10
177 -116 177 196 177 -458 177 167 177 36 177 481 177 -272 177 -104 
176 -212 177 224 177 -141 177 291 177 -374 177 48 177 562 177 -539 
176 153 177 -58 177 116 177 34 177 216 177 -366 177 -154 177 12 
176 338 177 -150 177 -236 177 352 177 -280 177 303 177 -232 177 186 
177 -329 176 -279 177 733 177 -721 177 74 177 -223 177 259 177 229 
177 -168 176 120 177 -254 177 218 177 -36 177 -24 177 -382 177 0 
177 -102 1660 3337 50 MP stroke
gr

c10
gs 1587 2074 8815 1337 rc
SO
0 j
41 71 -82 0 41 -71 1660 3384 4 MP
DP
41 71 -82 0 41 -71 1837 3282 4 MP
DP
41 71 -82 0 41 -71 2014 3282 4 MP
DP
41 71 -82 0 41 -71 2191 2900 4 MP
DP
41 71 -82 0 41 -71 2368 2876 4 MP
DP
41 71 -82 0 41 -71 2545 2840 4 MP
DP
41 71 -82 0 41 -71 2722 3058 4 MP
DP
41 71 -82 0 41 -71 2899 2804 4 MP
DP
41 71 -82 0 41 -71 3075 2924 4 MP
DP
41 71 -82 0 41 -71 3252 2756 4 MP
DP
41 71 -82 0 41 -71 3429 2985 4 MP
DP
41 71 -82 0 41 -71 3606 3244 4 MP
DP
41 71 -82 0 41 -71 3783 3021 4 MP
DP
41 71 -82 0 41 -71 3960 3095 4 MP
DP
41 71 -82 0 41 -71 4137 2374 4 MP
DP
41 71 -82 0 41 -71 4314 3107 4 MP
DP
41 71 -82 0 41 -71 4490 2828 4 MP
DP
41 71 -82 0 41 -71 4667 2499 4 MP
DP
41 71 -82 0 41 -71 4844 2685 4 MP
DP
41 71 -82 0 41 -71 5021 2453 4 MP
DP
41 71 -82 0 41 -71 5198 2756 4 MP
DP
41 71 -82 0 41 -71 5375 2476 4 MP
DP
41 71 -82 0 41 -71 5552 2828 4 MP
DP
41 71 -82 0 41 -71 5729 2592 4 MP
DP
41 71 -82 0 41 -71 5906 2442 4 MP
DP
41 71 -82 0 41 -71 6082 2780 4 MP
DP
41 71 -82 0 41 -71 6259 2792 4 MP
DP
41 71 -82 0 41 -71 6436 2638 4 MP
DP
41 71 -82 0 41 -71 6613 2272 4 MP
DP
41 71 -82 0 41 -71 6790 2488 4 MP
DP
41 71 -82 0 41 -71 6967 2522 4 MP
DP
41 71 -82 0 41 -71 7144 2638 4 MP
DP
41 71 -82 0 41 -71 7321 2580 4 MP
DP
41 71 -82 0 41 -71 7497 2733 4 MP
DP
41 71 -82 0 41 -71 7674 2194 4 MP
DP
41 71 -82 0 41 -71 7851 2756 4 MP
DP
41 71 -82 0 41 -71 8028 2804 4 MP
DP
41 71 -82 0 41 -71 8205 2430 4 MP
DP
41 71 -82 0 41 -71 8382 2721 4 MP
DP
41 71 -82 0 41 -71 8559 2580 4 MP
DP
41 71 -82 0 41 -71 8736 2804 4 MP
DP
41 71 -82 0 41 -71 8912 2592 4 MP
DP
41 71 -82 0 41 -71 9089 2488 4 MP
DP
41 71 -82 0 41 -71 9266 2216 4 MP
DP
41 71 -82 0 41 -71 9443 2697 4 MP
DP
41 71 -82 0 41 -71 9620 2733 4 MP
DP
41 71 -82 0 41 -71 9797 2900 4 MP
DP
41 71 -82 0 41 -71 9974 2442 4 MP
DP
41 71 -82 0 41 -71 10151 2638 4 MP
DP
41 71 -82 0 41 -71 10328 2522 4 MP
DP
DA
gr

gs 1484 359 8845 3903 rc
/c11 { 0.000000 0.750000 0.750000 sr} bdef
c11
177 -367 177 246 177 -260 177 138 177 -110 177 313 177 -189 177 322 
176 -433 177 42 177 150 177 175 177 -175 177 -95 177 467 177 -508 
176 416 177 -458 177 232 177 344 177 90 177 -353 177 -135 177 122 
176 314 177 128 177 -389 177 427 177 -114 177 202 177 -138 177 324 
177 -363 176 -167 177 687 177 -507 177 0 177 -233 177 297 177 298 
177 -160 176 74 177 -212 177 249 177 49 177 -86 177 -353 177 52 
177 -52 1660 3401 50 MP stroke
gr

c11
gs 1587 2744 8815 1413 rc
SO
1624 3401 mt 1696 3401 L
1660 3365 mt 1660 3437 L
1801 3349 mt 1873 3349 L
1837 3313 mt 1837 3385 L
1978 3401 mt 2050 3401 L
2014 3365 mt 2014 3437 L
2155 3048 mt 2227 3048 L
2191 3012 mt 2191 3084 L
2332 2962 mt 2404 2962 L
2368 2926 mt 2368 2998 L
2509 3011 mt 2581 3011 L
2545 2975 mt 2545 3047 L
2686 3260 mt 2758 3260 L
2722 3224 mt 2722 3296 L
2863 3048 mt 2935 3048 L
2899 3012 mt 2899 3084 L
3039 3122 mt 3111 3122 L
3075 3086 mt 3075 3158 L
3216 2962 mt 3288 2962 L
3252 2926 mt 3252 2998 L
3393 3260 mt 3465 3260 L
3429 3224 mt 3429 3296 L
3570 3557 mt 3642 3557 L
3606 3521 mt 3606 3593 L
3747 3324 mt 3819 3324 L
3783 3288 mt 3783 3360 L
3924 3324 mt 3996 3324 L
3960 3288 mt 3960 3360 L
4101 2817 mt 4173 2817 L
4137 2781 mt 4137 2853 L
4278 3504 mt 4350 3504 L
4314 3468 mt 4314 3540 L
4454 3337 mt 4526 3337 L
4490 3301 mt 4490 3373 L
4631 2974 mt 4703 2974 L
4667 2938 mt 4667 3010 L
4808 3298 mt 4880 3298 L
4844 3262 mt 4844 3334 L
4985 3160 mt 5057 3160 L
5021 3124 mt 5021 3196 L
5162 3362 mt 5234 3362 L
5198 3326 mt 5198 3398 L
5339 3248 mt 5411 3248 L
5375 3212 mt 5375 3284 L
5516 3675 mt 5588 3675 L
5552 3639 mt 5552 3711 L
5693 3286 mt 5765 3286 L
5729 3250 mt 5729 3322 L
5870 3414 mt 5942 3414 L
5906 3378 mt 5906 3450 L
6046 3728 mt 6118 3728 L
6082 3692 mt 6082 3764 L
6223 3850 mt 6295 3850 L
6259 3814 mt 6259 3886 L
6400 3715 mt 6472 3715 L
6436 3679 mt 6436 3751 L
6577 3362 mt 6649 3362 L
6613 3326 mt 6613 3398 L
6754 3452 mt 6826 3452 L
6790 3416 mt 6790 3488 L
6931 3796 mt 7003 3796 L
6967 3760 mt 6967 3832 L
7108 4028 mt 7180 4028 L
7144 3992 mt 7144 4064 L
7285 3570 mt 7357 3570 L
7321 3534 mt 7321 3606 L
7461 3986 mt 7533 3986 L
7497 3950 mt 7497 4022 L
7638 3478 mt 7710 3478 L
7674 3442 mt 7674 3514 L
7815 3945 mt 7887 3945 L
7851 3909 mt 7851 3981 L
7992 3850 mt 8064 3850 L
8028 3814 mt 8028 3886 L
8169 3675 mt 8241 3675 L
8205 3639 mt 8205 3711 L
8346 3850 mt 8418 3850 L
8382 3814 mt 8382 3886 L
8523 4000 mt 8595 4000 L
8559 3964 mt 8559 4036 L
8700 4042 mt 8772 4042 L
8736 4006 mt 8736 4078 L
8876 3609 mt 8948 3609 L
8912 3573 mt 8912 3645 L
9053 3931 mt 9125 3931 L
9089 3895 mt 9089 3967 L
9230 3742 mt 9302 3742 L
9266 3706 mt 9266 3778 L
9407 4055 mt 9479 4055 L
9443 4019 mt 9443 4091 L
9584 3945 mt 9656 3945 L
9620 3909 mt 9620 3981 L
9761 4083 mt 9833 4083 L
9797 4047 mt 9797 4119 L
9938 3823 mt 10010 3823 L
9974 3787 mt 9974 3859 L
10115 4069 mt 10187 4069 L
10151 4033 mt 10151 4105 L
10292 3702 mt 10364 3702 L
10328 3666 mt 10328 3738 L
1635 3376 mt 1685 3426 L
1685 3376 mt 1635 3426 L
1812 3324 mt 1862 3374 L
1862 3324 mt 1812 3374 L
1989 3376 mt 2039 3426 L
2039 3376 mt 1989 3426 L
2166 3023 mt 2216 3073 L
2216 3023 mt 2166 3073 L
2343 2937 mt 2393 2987 L
2393 2937 mt 2343 2987 L
2520 2986 mt 2570 3036 L
2570 2986 mt 2520 3036 L
2697 3235 mt 2747 3285 L
2747 3235 mt 2697 3285 L
2874 3023 mt 2924 3073 L
2924 3023 mt 2874 3073 L
3050 3097 mt 3100 3147 L
3100 3097 mt 3050 3147 L
3227 2937 mt 3277 2987 L
3277 2937 mt 3227 2987 L
3404 3235 mt 3454 3285 L
3454 3235 mt 3404 3285 L
3581 3532 mt 3631 3582 L
3631 3532 mt 3581 3582 L
3758 3299 mt 3808 3349 L
3808 3299 mt 3758 3349 L
3935 3299 mt 3985 3349 L
3985 3299 mt 3935 3349 L
4112 2792 mt 4162 2842 L
4162 2792 mt 4112 2842 L
4289 3479 mt 4339 3529 L
4339 3479 mt 4289 3529 L
4465 3312 mt 4515 3362 L
4515 3312 mt 4465 3362 L
4642 2949 mt 4692 2999 L
4692 2949 mt 4642 2999 L
4819 3273 mt 4869 3323 L
4869 3273 mt 4819 3323 L
4996 3135 mt 5046 3185 L
5046 3135 mt 4996 3185 L
5173 3337 mt 5223 3387 L
5223 3337 mt 5173 3387 L
5350 3223 mt 5400 3273 L
5400 3223 mt 5350 3273 L
5527 3650 mt 5577 3700 L
5577 3650 mt 5527 3700 L
5704 3261 mt 5754 3311 L
5754 3261 mt 5704 3311 L
5881 3389 mt 5931 3439 L
5931 3389 mt 5881 3439 L
6057 3703 mt 6107 3753 L
6107 3703 mt 6057 3753 L
6234 3825 mt 6284 3875 L
6284 3825 mt 6234 3875 L
6411 3690 mt 6461 3740 L
6461 3690 mt 6411 3740 L
6588 3337 mt 6638 3387 L
6638 3337 mt 6588 3387 L
6765 3427 mt 6815 3477 L
6815 3427 mt 6765 3477 L
6942 3771 mt 6992 3821 L
6992 3771 mt 6942 3821 L
7119 4003 mt 7169 4053 L
7169 4003 mt 7119 4053 L
7296 3545 mt 7346 3595 L
7346 3545 mt 7296 3595 L
7472 3961 mt 7522 4011 L
7522 3961 mt 7472 4011 L
7649 3453 mt 7699 3503 L
7699 3453 mt 7649 3503 L
7826 3920 mt 7876 3970 L
7876 3920 mt 7826 3970 L
8003 3825 mt 8053 3875 L
8053 3825 mt 8003 3875 L
8180 3650 mt 8230 3700 L
8230 3650 mt 8180 3700 L
8357 3825 mt 8407 3875 L
8407 3825 mt 8357 3875 L
8534 3975 mt 8584 4025 L
8584 3975 mt 8534 4025 L
8711 4017 mt 8761 4067 L
8761 4017 mt 8711 4067 L
8887 3584 mt 8937 3634 L
8937 3584 mt 8887 3634 L
9064 3906 mt 9114 3956 L
9114 3906 mt 9064 3956 L
9241 3717 mt 9291 3767 L
9291 3717 mt 9241 3767 L
9418 4030 mt 9468 4080 L
9468 4030 mt 9418 4080 L
9595 3920 mt 9645 3970 L
9645 3920 mt 9595 3970 L
9772 4058 mt 9822 4108 L
9822 4058 mt 9772 4108 L
9949 3798 mt 9999 3848 L
9999 3798 mt 9949 3848 L
10126 4044 mt 10176 4094 L
10176 4044 mt 10126 4094 L
10303 3677 mt 10353 3727 L
10353 3677 mt 10303 3727 L
DA
gr

gs 1484 359 8845 3903 rc
gr

0 sg
%%IncludeResource: font Helvetica
/Helvetica /ISOLatin1Encoding 168 FMSR

5718 4584 mt 
(GOP) s
1124 2694 mt  -90 rotate
(PSNR[dB]) s
90 rotate
4760  254 mt 
(Novel OP with window size=10) s
%%IncludeResource: font Helvetica
/Helvetica /ISOLatin1Encoding 120 FMSR

1467 4304 mt 
( ) s
10312  401 mt 
( ) s
SO
1 sg
0 738 864 0 0 -738 1596 1170 4 MP
PP
-864 0 0 738 864 0 0 -738 1596 1170 5 MP stroke
4 w
DO
SO
6 w
0 sg
1596 1170 mt 2460 1170 L
1596  432 mt 2460  432 L
1596 1170 mt 1596  432 L
2460 1170 mt 2460  432 L
1596 1170 mt 2460 1170 L
1596 1170 mt 1596  432 L
1596 1170 mt 2460 1170 L
1596  432 mt 2460  432 L
1596 1170 mt 1596  432 L
2460 1170 mt 2460  432 L
2065  582 mt 
(data1) s
gs 1596 432 865 739 rc
DA
c8
360 0 1668 540 2 MP stroke
SO
gs 1775 467 147 147 rc
1812  540 mt 1884  540 L
1848  504 mt 1848  576 L
gr

gr

c8
0 sg
2065  756 mt 
(data2) s
gs 1596 432 865 739 rc
DA
c9
360 0 1668 714 2 MP stroke
SO
gs 1775 641 147 147 rc
  36   36 1848  714 FO
gr

gr

c9
0 sg
2065  931 mt 
(data3) s
gs 1596 432 865 739 rc
DA
c10
360 0 1668 887 2 MP stroke
SO
gs 1775 814 147 147 rc
0 j
41 71 -82 0 41 -71 1848 934 4 MP
DP
gr

gr

c10
0 sg
2065 1105 mt 
(data4) s
gs 1596 432 865 739 rc
DA
c11
360 0 1668 1061 2 MP stroke
SO
gs 1775 988 147 147 rc
1812 1061 mt 1884 1061 L
1848 1025 mt 1848 1097 L
1823 1036 mt 1873 1086 L
1873 1036 mt 1823 1086 L
gr

gr

c11

end %%Color Dict

eplot
%%EndObject

epage
end

showpage

%%Trailer
%%EOF
