%!PS-Adobe-3.0 EPSF-3.0
%%Creator: MATLAB, The MathWorks, Inc. Version 8.1.0.604 (R2013a). Operating System: Darwin 13.4.0 Darwin Kernel Version 13.4.0: Sun Aug 17 19:50:11 PDT 2014; root:xnu-2422.115.4~1/RELEASE_X86_64 x86_64.
%%Title: /Users/le/Work/0924/w10/SeqOP_gopU.eps
%%CreationDate: 09/25/2014  13:37:26
%%DocumentNeededFonts: Helvetica
%%DocumentProcessColors: Cyan Magenta Yellow Black
%%LanguageLevel: 2
%%Pages: 1
%%BoundingBox:    25   185   585   605
%%EndComments

%%BeginProlog
% MathWorks dictionary
/MathWorks 160 dict begin
% definition operators
/bdef {bind def} bind def
/ldef {load def} bind def
/xdef {exch def} bdef
/xstore {exch store} bdef
% operator abbreviations
/c  /clip ldef
/cc /concat ldef
/cp /closepath ldef
/gr /grestore ldef
/gs /gsave ldef
/mt /moveto ldef
/np /newpath ldef
/cm /currentmatrix ldef
/sm /setmatrix ldef
/rm /rmoveto ldef
/rl /rlineto ldef
/s {show newpath} bdef
/sc {setcmykcolor} bdef
/sr /setrgbcolor ldef
/sg /setgray ldef
/w /setlinewidth ldef
/j /setlinejoin ldef
/cap /setlinecap ldef
/rc {rectclip} bdef
/rf {rectfill} bdef
% page state control
/pgsv () def
/bpage {/pgsv save def} bdef
/epage {pgsv restore} bdef
/bplot /gsave ldef
/eplot {stroke grestore} bdef
% orientation switch
/portraitMode 0 def /landscapeMode 1 def /rotateMode 2 def
% coordinate system mappings
/dpi2point 0 def
% font control
/FontSize 0 def
/FMS {/FontSize xstore findfont [FontSize 0 0 FontSize neg 0 0]
  makefont setfont} bdef
/reencode {exch dup where {pop load} {pop StandardEncoding} ifelse
  exch dup 3 1 roll findfont dup length dict begin
  { 1 index /FID ne {def}{pop pop} ifelse } forall
  /Encoding exch def currentdict end definefont pop} bdef
/isroman {findfont /CharStrings get /Agrave known} bdef
/FMSR {3 1 roll 1 index dup isroman {reencode} {pop pop} ifelse
  exch FMS} bdef
/csm {1 dpi2point div -1 dpi2point div scale neg translate
 dup landscapeMode eq {pop -90 rotate}
  {rotateMode eq {90 rotate} if} ifelse} bdef
% line types: solid, dotted, dashed, dotdash
/SO { [] 0 setdash } bdef
/DO { [.5 dpi2point mul 4 dpi2point mul] 0 setdash } bdef
/DA { [6 dpi2point mul] 0 setdash } bdef
/DD { [.5 dpi2point mul 4 dpi2point mul 6 dpi2point mul 4
  dpi2point mul] 0 setdash } bdef
% macros for lines and objects
/L {lineto stroke} bdef
/MP {3 1 roll moveto 1 sub {rlineto} repeat} bdef
/AP {{rlineto} repeat} bdef
/PDlw -1 def
/W {/PDlw currentlinewidth def setlinewidth} def
/PP {closepath eofill} bdef
/DP {closepath stroke} bdef
/MR {4 -2 roll moveto dup  0 exch rlineto exch 0 rlineto
  neg 0 exch rlineto closepath} bdef
/FR {MR stroke} bdef
/PR {MR fill} bdef
/L1i {{currentfile picstr readhexstring pop} image} bdef
/tMatrix matrix def
/MakeOval {newpath tMatrix currentmatrix pop translate scale
0 0 1 0 360 arc tMatrix setmatrix} bdef
/FO {MakeOval stroke} bdef
/PO {MakeOval fill} bdef
/PD {currentlinewidth 2 div 0 360 arc fill
   PDlw -1 eq not {PDlw w /PDlw -1 def} if} def
/FA {newpath tMatrix currentmatrix pop translate scale
  0 0 1 5 -2 roll arc tMatrix setmatrix stroke} bdef
/PA {newpath tMatrix currentmatrix pop	translate 0 0 moveto scale
  0 0 1 5 -2 roll arc closepath tMatrix setmatrix fill} bdef
/FAn {newpath tMatrix currentmatrix pop translate scale
  0 0 1 5 -2 roll arcn tMatrix setmatrix stroke} bdef
/PAn {newpath tMatrix currentmatrix pop translate 0 0 moveto scale
  0 0 1 5 -2 roll arcn closepath tMatrix setmatrix fill} bdef
/vradius 0 def /hradius 0 def /lry 0 def
/lrx 0 def /uly 0 def /ulx 0 def /rad 0 def
/MRR {/vradius xdef /hradius xdef /lry xdef /lrx xdef /uly xdef
  /ulx xdef newpath tMatrix currentmatrix pop ulx hradius add uly
  vradius add translate hradius vradius scale 0 0 1 180 270 arc 
  tMatrix setmatrix lrx hradius sub uly vradius add translate
  hradius vradius scale 0 0 1 270 360 arc tMatrix setmatrix
  lrx hradius sub lry vradius sub translate hradius vradius scale
  0 0 1 0 90 arc tMatrix setmatrix ulx hradius add lry vradius sub
  translate hradius vradius scale 0 0 1 90 180 arc tMatrix setmatrix
  closepath} bdef
/FRR {MRR stroke } bdef
/PRR {MRR fill } bdef
/MlrRR {/lry xdef /lrx xdef /uly xdef /ulx xdef /rad lry uly sub 2 div def
  newpath tMatrix currentmatrix pop ulx rad add uly rad add translate
  rad rad scale 0 0 1 90 270 arc tMatrix setmatrix lrx rad sub lry rad
  sub translate rad rad scale 0 0 1 270 90 arc tMatrix setmatrix
  closepath} bdef
/FlrRR {MlrRR stroke } bdef
/PlrRR {MlrRR fill } bdef
/MtbRR {/lry xdef /lrx xdef /uly xdef /ulx xdef /rad lrx ulx sub 2 div def
  newpath tMatrix currentmatrix pop ulx rad add uly rad add translate
  rad rad scale 0 0 1 180 360 arc tMatrix setmatrix lrx rad sub lry rad
  sub translate rad rad scale 0 0 1 0 180 arc tMatrix setmatrix
  closepath} bdef
/FtbRR {MtbRR stroke } bdef
/PtbRR {MtbRR fill } bdef
/stri 6 array def /dtri 6 array def
/smat 6 array def /dmat 6 array def
/tmat1 6 array def /tmat2 6 array def /dif 3 array def
/asub {/ind2 exch def /ind1 exch def dup dup
  ind1 get exch ind2 get sub exch } bdef
/tri_to_matrix {
  2 0 asub 3 1 asub 4 0 asub 5 1 asub
  dup 0 get exch 1 get 7 -1 roll astore } bdef
/compute_transform {
  dmat dtri tri_to_matrix tmat1 invertmatrix 
  smat stri tri_to_matrix tmat2 concatmatrix } bdef
/ds {stri astore pop} bdef
/dt {dtri astore pop} bdef
/db {2 copy /cols xdef /rows xdef mul dup 3 mul string
  currentfile 
  3 index 0 eq {/ASCIIHexDecode filter}
  {/ASCII85Decode filter 3 index 2 eq {/RunLengthDecode filter} if }
  ifelse exch readstring pop
  dup 0 3 index getinterval /rbmap xdef
  dup 2 index dup getinterval /gbmap xdef
  1 index dup 2 mul exch getinterval /bbmap xdef pop pop}bdef
/it {gs np dtri aload pop moveto lineto lineto cp c
  cols rows 8 compute_transform 
  rbmap gbmap bbmap true 3 colorimage gr}bdef
/il {newpath moveto lineto stroke}bdef
currentdict end def
%%EndProlog

%%BeginSetup
MathWorks begin

0 cap

end
%%EndSetup

%%Page: 1 1
%%BeginPageSetup
%%PageBoundingBox:    25   185   585   605
MathWorks begin
bpage
%%EndPageSetup

%%BeginObject: obj1
bplot

/dpi2point 12 def
portraitMode 0300 7260 csm

    0     0  6721  5039 rc
85 dict begin %Colortable dictionary
/c0 { 0.000000 0.000000 0.000000 sr} bdef
/c1 { 1.000000 1.000000 1.000000 sr} bdef
/c2 { 0.900000 0.000000 0.000000 sr} bdef
/c3 { 0.000000 0.820000 0.000000 sr} bdef
/c4 { 0.000000 0.000000 0.800000 sr} bdef
/c5 { 0.910000 0.820000 0.320000 sr} bdef
/c6 { 1.000000 0.260000 0.820000 sr} bdef
/c7 { 0.000000 0.820000 0.820000 sr} bdef
c0
1 j
1 sg
   0    0 6722 5040 rf
6 w
0 4107 5209 0 0 -4107 874 4485 4 MP
PP
-5209 0 0 4107 5209 0 0 -4107 874 4485 5 MP stroke
4 w
DO
0 sg
 874 4485 mt  874  378 L
 874  378 mt  874  378 L
1394 4485 mt 1394  378 L
1394  378 mt 1394  378 L
1915 4485 mt 1915  378 L
1915  378 mt 1915  378 L
2436 4485 mt 2436  378 L
2436  378 mt 2436  378 L
2957 4485 mt 2957  378 L
2957  378 mt 2957  378 L
3478 4485 mt 3478  378 L
3478  378 mt 3478  378 L
3999 4485 mt 3999  378 L
3999  378 mt 3999  378 L
4520 4485 mt 4520  378 L
4520  378 mt 4520  378 L
5041 4485 mt 5041  378 L
5041  378 mt 5041  378 L
5562 4485 mt 5562  378 L
5562  378 mt 5562  378 L
6083 4485 mt 6083  378 L
6083  378 mt 6083  378 L
 874 4485 mt 6083 4485 L
6083 4485 mt 6083 4485 L
 874 4074 mt 6083 4074 L
6083 4074 mt 6083 4074 L
 874 3663 mt 6083 3663 L
6083 3663 mt 6083 3663 L
 874 3252 mt 6083 3252 L
6083 3252 mt 6083 3252 L
 874 2842 mt 6083 2842 L
6083 2842 mt 6083 2842 L
 874 2431 mt 6083 2431 L
6083 2431 mt 6083 2431 L
 874 2020 mt 6083 2020 L
6083 2020 mt 6083 2020 L
 874 1610 mt 6083 1610 L
6083 1610 mt 6083 1610 L
 874 1199 mt 6083 1199 L
6083 1199 mt 6083 1199 L
 874  788 mt 6083  788 L
6083  788 mt 6083  788 L
 874  378 mt 6083  378 L
6083  378 mt 6083  378 L
SO
6 w
 874 4485 mt 6083 4485 L
 874  378 mt 6083  378 L
 874 4485 mt  874  378 L
6083 4485 mt 6083  378 L
 874 4485 mt 6083 4485 L
 874 4485 mt  874  378 L
 874 4485 mt  874 4432 L
 874  378 mt  874  430 L
%%IncludeResource: font Helvetica
/Helvetica /ISOLatin1Encoding 120 FMSR

 841 4630 mt 
(0) s
1394 4485 mt 1394 4432 L
1394  378 mt 1394  430 L
1361 4630 mt 
(5) s
1915 4485 mt 1915 4432 L
1915  378 mt 1915  430 L
1849 4630 mt 
(10) s
2436 4485 mt 2436 4432 L
2436  378 mt 2436  430 L
2370 4630 mt 
(15) s
2957 4485 mt 2957 4432 L
2957  378 mt 2957  430 L
2891 4630 mt 
(20) s
3478 4485 mt 3478 4432 L
3478  378 mt 3478  430 L
3412 4630 mt 
(25) s
3999 4485 mt 3999 4432 L
3999  378 mt 3999  430 L
3933 4630 mt 
(30) s
4520 4485 mt 4520 4432 L
4520  378 mt 4520  430 L
4454 4630 mt 
(35) s
5041 4485 mt 5041 4432 L
5041  378 mt 5041  430 L
4975 4630 mt 
(40) s
5562 4485 mt 5562 4432 L
5562  378 mt 5562  430 L
5496 4630 mt 
(45) s
6083 4485 mt 6083 4432 L
6083  378 mt 6083  430 L
6017 4630 mt 
(50) s
 874 4485 mt  926 4485 L
6083 4485 mt 6030 4485 L
 606 4529 mt 
(13.7) s
 874 4074 mt  926 4074 L
6083 4074 mt 6030 4074 L
 606 4118 mt 
(13.8) s
 874 3663 mt  926 3663 L
6083 3663 mt 6030 3663 L
 606 3707 mt 
(13.9) s
 874 3252 mt  926 3252 L
6083 3252 mt 6030 3252 L
 706 3296 mt 
(14) s
 874 2842 mt  926 2842 L
6083 2842 mt 6030 2842 L
 606 2886 mt 
(14.1) s
 874 2431 mt  926 2431 L
6083 2431 mt 6030 2431 L
 606 2475 mt 
(14.2) s
 874 2020 mt  926 2020 L
6083 2020 mt 6030 2020 L
 606 2064 mt 
(14.3) s
 874 1610 mt  926 1610 L
6083 1610 mt 6030 1610 L
 606 1654 mt 
(14.4) s
 874 1199 mt  926 1199 L
6083 1199 mt 6030 1199 L
 606 1243 mt 
(14.5) s
 874  788 mt  926  788 L
6083  788 mt 6030  788 L
 606  832 mt 
(14.6) s
 874  378 mt  926  378 L
6083  378 mt 6030  378 L
 606  422 mt 
(14.7) s
 874 4485 mt 6083 4485 L
 874  378 mt 6083  378 L
 874 4485 mt  874  378 L
6083 4485 mt 6083  378 L
gs 874 378 5210 4108 rc
/c8 { 0.000000 0.000000 1.000000 sr} bdef
c8
105 -1020 104 810 104 -754 104 82 104 380 105 1093 104 -853 104 -785 
104 -391 104 224 104 523 105 508 104 -781 104 -222 104 1471 104 -1695 
105 280 104 920 104 -727 104 648 104 263 104 -1021 105 -363 104 335 
104 -55 104 574 104 -854 105 610 104 27 104 -497 104 84 104 1029 
104 -835 105 -1464 104 2483 104 -2040 104 375 104 563 105 -648 104 1032 
104 54 104 -577 104 -538 104 510 105 524 104 -834 104 -666 104 580 
104 -1090 978 4328 50 MP stroke
/c9 { 0.000000 0.500000 0.000000 sr} bdef
c9
105 -1055 104 535 104 -535 104 -440 104 221 105 1778 104 -1024 104 -427 
104 0 104 -327 104 327 105 427 104 -427 104 -548 104 1596 104 -833 
105 732 104 -2060 104 1221 104 424 104 -317 104 -542 105 -221 104 -112 
104 552 104 -109 104 -782 105 999 104 321 104 -538 104 -443 104 660 
104 -108 105 -777 104 448 104 -676 104 -466 104 0 105 1252 104 110 
104 -220 104 -335 104 -807 104 1362 105 -896 104 565 104 -1031 104 -237 
104 471 978 3555 50 MP stroke
/c10 { 1.000000 0.000000 0.000000 sr} bdef
c10
105 380 104 -715 104 -1465 104 1149 104 548 105 407 104 -484 104 77 
104 256 104 -1507 104 -28 105 1936 104 -811 104 -315 104 750 104 -1204 
105 -438 104 82 104 1331 104 -181 104 283 104 -1077 105 -494 104 1314 
104 -766 104 1476 104 -1693 105 1061 104 -1336 104 733 104 -568 104 885 
104 -1330 105 1330 104 490 104 -1184 104 484 104 -1433 105 257 104 1069 
104 -595 104 300 104 -774 104 828 105 188 104 -792 104 -799 104 261 
104 -349 978 3701 50 MP stroke
/c11 { 0.000000 0.750000 0.750000 sr} bdef
c11
105 -1929 104 1681 104 -1959 104 278 104 -702 105 1430 104 -510 104 -301 
104 464 104 -715 104 223 105 138 104 780 104 -973 104 1389 104 -1306 
105 1435 104 -1574 104 1160 104 -157 104 698 104 -1071 105 661 104 -1069 
104 542 104 -161 104 -409 105 -250 104 1059 104 -27 104 106 104 -53 
104 -79 105 -866 104 600 104 -1107 104 999 104 -1287 105 1368 104 556 
104 -1019 104 165 104 -754 104 -114 105 1326 104 -1354 104 1354 104 -1761 
104 29 978 3701 50 MP stroke
gr

c11
0 sg
%%IncludeResource: font Helvetica
/Helvetica /ISOLatin1Encoding 168 FMSR

3290 4808 mt 
(GOP) s
 514 2838 mt  -90 rotate
(PSNR [dB]) s
90 rotate
1800  273 mt 
(PSNR for 4 UTs when Sequential OP is used) s

end %%Color Dict

eplot
%%EndObject

epage
end

showpage

%%Trailer
%%EOF
