%!PS-Adobe-3.0 EPSF-3.0
%%Creator: MATLAB, The MathWorks, Inc. Version 8.1.0.604 (R2013a). Operating System: Darwin 13.4.0 Darwin Kernel Version 13.4.0: Sun Aug 17 19:50:11 PDT 2014; root:xnu-2422.115.4~1/RELEASE_X86_64 x86_64.
%%Title: /Users/le/Work/project3/Figures/Results/0926/Boxplot_worseU.eps
%%CreationDate: 09/27/2014  01:59:11
%%DocumentNeededFonts: Helvetica
%%DocumentProcessColors: Cyan Magenta Yellow Black
%%LanguageLevel: 2
%%Pages: 1
%%BoundingBox:    51   208   559   584
%%EndComments

%%BeginProlog
% MathWorks dictionary
/MathWorks 160 dict begin
% definition operators
/bdef {bind def} bind def
/ldef {load def} bind def
/xdef {exch def} bdef
/xstore {exch store} bdef
% operator abbreviations
/c  /clip ldef
/cc /concat ldef
/cp /closepath ldef
/gr /grestore ldef
/gs /gsave ldef
/mt /moveto ldef
/np /newpath ldef
/cm /currentmatrix ldef
/sm /setmatrix ldef
/rm /rmoveto ldef
/rl /rlineto ldef
/s {show newpath} bdef
/sc {setcmykcolor} bdef
/sr /setrgbcolor ldef
/sg /setgray ldef
/w /setlinewidth ldef
/j /setlinejoin ldef
/cap /setlinecap ldef
/rc {rectclip} bdef
/rf {rectfill} bdef
% page state control
/pgsv () def
/bpage {/pgsv save def} bdef
/epage {pgsv restore} bdef
/bplot /gsave ldef
/eplot {stroke grestore} bdef
% orientation switch
/portraitMode 0 def /landscapeMode 1 def /rotateMode 2 def
% coordinate system mappings
/dpi2point 0 def
% font control
/FontSize 0 def
/FMS {/FontSize xstore findfont [FontSize 0 0 FontSize neg 0 0]
  makefont setfont} bdef
/reencode {exch dup where {pop load} {pop StandardEncoding} ifelse
  exch dup 3 1 roll findfont dup length dict begin
  { 1 index /FID ne {def}{pop pop} ifelse } forall
  /Encoding exch def currentdict end definefont pop} bdef
/isroman {findfont /CharStrings get /Agrave known} bdef
/FMSR {3 1 roll 1 index dup isroman {reencode} {pop pop} ifelse
  exch FMS} bdef
/csm {1 dpi2point div -1 dpi2point div scale neg translate
 dup landscapeMode eq {pop -90 rotate}
  {rotateMode eq {90 rotate} if} ifelse} bdef
% line types: solid, dotted, dashed, dotdash
/SO { [] 0 setdash } bdef
/DO { [.5 dpi2point mul 4 dpi2point mul] 0 setdash } bdef
/DA { [6 dpi2point mul] 0 setdash } bdef
/DD { [.5 dpi2point mul 4 dpi2point mul 6 dpi2point mul 4
  dpi2point mul] 0 setdash } bdef
% macros for lines and objects
/L {lineto stroke} bdef
/MP {3 1 roll moveto 1 sub {rlineto} repeat} bdef
/AP {{rlineto} repeat} bdef
/PDlw -1 def
/W {/PDlw currentlinewidth def setlinewidth} def
/PP {closepath eofill} bdef
/DP {closepath stroke} bdef
/MR {4 -2 roll moveto dup  0 exch rlineto exch 0 rlineto
  neg 0 exch rlineto closepath} bdef
/FR {MR stroke} bdef
/PR {MR fill} bdef
/L1i {{currentfile picstr readhexstring pop} image} bdef
/tMatrix matrix def
/MakeOval {newpath tMatrix currentmatrix pop translate scale
0 0 1 0 360 arc tMatrix setmatrix} bdef
/FO {MakeOval stroke} bdef
/PO {MakeOval fill} bdef
/PD {currentlinewidth 2 div 0 360 arc fill
   PDlw -1 eq not {PDlw w /PDlw -1 def} if} def
/FA {newpath tMatrix currentmatrix pop translate scale
  0 0 1 5 -2 roll arc tMatrix setmatrix stroke} bdef
/PA {newpath tMatrix currentmatrix pop	translate 0 0 moveto scale
  0 0 1 5 -2 roll arc closepath tMatrix setmatrix fill} bdef
/FAn {newpath tMatrix currentmatrix pop translate scale
  0 0 1 5 -2 roll arcn tMatrix setmatrix stroke} bdef
/PAn {newpath tMatrix currentmatrix pop translate 0 0 moveto scale
  0 0 1 5 -2 roll arcn closepath tMatrix setmatrix fill} bdef
/vradius 0 def /hradius 0 def /lry 0 def
/lrx 0 def /uly 0 def /ulx 0 def /rad 0 def
/MRR {/vradius xdef /hradius xdef /lry xdef /lrx xdef /uly xdef
  /ulx xdef newpath tMatrix currentmatrix pop ulx hradius add uly
  vradius add translate hradius vradius scale 0 0 1 180 270 arc 
  tMatrix setmatrix lrx hradius sub uly vradius add translate
  hradius vradius scale 0 0 1 270 360 arc tMatrix setmatrix
  lrx hradius sub lry vradius sub translate hradius vradius scale
  0 0 1 0 90 arc tMatrix setmatrix ulx hradius add lry vradius sub
  translate hradius vradius scale 0 0 1 90 180 arc tMatrix setmatrix
  closepath} bdef
/FRR {MRR stroke } bdef
/PRR {MRR fill } bdef
/MlrRR {/lry xdef /lrx xdef /uly xdef /ulx xdef /rad lry uly sub 2 div def
  newpath tMatrix currentmatrix pop ulx rad add uly rad add translate
  rad rad scale 0 0 1 90 270 arc tMatrix setmatrix lrx rad sub lry rad
  sub translate rad rad scale 0 0 1 270 90 arc tMatrix setmatrix
  closepath} bdef
/FlrRR {MlrRR stroke } bdef
/PlrRR {MlrRR fill } bdef
/MtbRR {/lry xdef /lrx xdef /uly xdef /ulx xdef /rad lrx ulx sub 2 div def
  newpath tMatrix currentmatrix pop ulx rad add uly rad add translate
  rad rad scale 0 0 1 180 360 arc tMatrix setmatrix lrx rad sub lry rad
  sub translate rad rad scale 0 0 1 0 180 arc tMatrix setmatrix
  closepath} bdef
/FtbRR {MtbRR stroke } bdef
/PtbRR {MtbRR fill } bdef
/stri 6 array def /dtri 6 array def
/smat 6 array def /dmat 6 array def
/tmat1 6 array def /tmat2 6 array def /dif 3 array def
/asub {/ind2 exch def /ind1 exch def dup dup
  ind1 get exch ind2 get sub exch } bdef
/tri_to_matrix {
  2 0 asub 3 1 asub 4 0 asub 5 1 asub
  dup 0 get exch 1 get 7 -1 roll astore } bdef
/compute_transform {
  dmat dtri tri_to_matrix tmat1 invertmatrix 
  smat stri tri_to_matrix tmat2 concatmatrix } bdef
/ds {stri astore pop} bdef
/dt {dtri astore pop} bdef
/db {2 copy /cols xdef /rows xdef mul dup 3 mul string
  currentfile 
  3 index 0 eq {/ASCIIHexDecode filter}
  {/ASCII85Decode filter 3 index 2 eq {/RunLengthDecode filter} if }
  ifelse exch readstring pop
  dup 0 3 index getinterval /rbmap xdef
  dup 2 index dup getinterval /gbmap xdef
  1 index dup 2 mul exch getinterval /bbmap xdef pop pop}bdef
/it {gs np dtri aload pop moveto lineto lineto cp c
  cols rows 8 compute_transform 
  rbmap gbmap bbmap true 3 colorimage gr}bdef
/il {newpath moveto lineto stroke}bdef
currentdict end def
%%EndProlog

%%BeginSetup
MathWorks begin

0 cap

end
%%EndSetup

%%Page: 1 1
%%BeginPageSetup
%%PageBoundingBox:    51   208   559   584
MathWorks begin
bpage
%%EndPageSetup

%%BeginObject: obj1
bplot

/dpi2point 12 def
portraitMode 0612 7008 csm

    0     0  6096  4512 rc
85 dict begin %Colortable dictionary
/c0 { 0.000000 0.000000 0.000000 sr} bdef
/c1 { 1.000000 1.000000 1.000000 sr} bdef
/c2 { 0.900000 0.000000 0.000000 sr} bdef
/c3 { 0.000000 0.820000 0.000000 sr} bdef
/c4 { 0.000000 0.000000 0.800000 sr} bdef
/c5 { 0.910000 0.820000 0.320000 sr} bdef
/c6 { 1.000000 0.260000 0.820000 sr} bdef
/c7 { 0.000000 0.820000 0.820000 sr} bdef
c0
1 j
1 sg
   0    0 6097 4513 rf
6 w
0 3510 4725 0 0 -3510 792 3848 4 MP
PP
-4725 0 0 3510 4725 0 0 -3510 792 3848 5 MP stroke
4 w
DO
0 sg
 792 3634 mt 5517 3634 L
5517 3634 mt 5517 3634 L
 792 3080 mt 5517 3080 L
5517 3080 mt 5517 3080 L
 792 2526 mt 5517 2526 L
5517 2526 mt 5517 2526 L
 792 1971 mt 5517 1971 L
5517 1971 mt 5517 1971 L
 792 1417 mt 5517 1417 L
5517 1417 mt 5517 1417 L
 792  863 mt 5517  863 L
5517  863 mt 5517  863 L
SO
6 w
 792 3848 mt 5517 3848 L
 792  338 mt 5517  338 L
 792 3848 mt  792  338 L
5517 3848 mt 5517  338 L
 792 3848 mt 5517 3848 L
 792 3848 mt  792  338 L
 792 3634 mt  839 3634 L
5517 3634 mt 5469 3634 L
%%IncludeResource: font Helvetica
/Helvetica /ISOLatin1Encoding 168 FMSR

 571 3696 mt 
(11) s
 792 3080 mt  839 3080 L
5517 3080 mt 5469 3080 L
 571 3142 mt 
(12) s
 792 2526 mt  839 2526 L
5517 2526 mt 5469 2526 L
 571 2588 mt 
(13) s
 792 1971 mt  839 1971 L
5517 1971 mt 5469 1971 L
 571 2033 mt 
(14) s
 792 1417 mt  839 1417 L
5517 1417 mt 5469 1417 L
 571 1479 mt 
(15) s
 792  863 mt  839  863 L
5517  863 mt 5469  863 L
 571  925 mt 
(16) s
 792 3848 mt 5517 3848 L
 792  338 mt 5517  338 L
 792 3848 mt  792  338 L
5517 3848 mt 5517  338 L
gs 792 338 4726 3511 rc
DA
0 -664 1579 1514 2 MP stroke
0 -641 3154 1731 2 MP stroke
0 -553 4729 1543 2 MP stroke
0 -1124 1579 3393 2 MP stroke
0 -595 3154 2761 2 MP stroke
0 -365 4729 2330 2 MP stroke
SO
354 0 1402 850 2 MP stroke
354 0 2977 1090 2 MP stroke
354 0 4552 990 2 MP stroke
354 0 1402 3393 2 MP stroke
354 0 2977 2761 2 MP stroke
354 0 4552 2330 2 MP stroke
/c8 { 0.000000 0.000000 1.000000 sr} bdef
c8
-708 0 0 755 708 0 0 -755 1225 2269 5 MP stroke
-708 0 0 435 708 0 0 -435 2800 2166 5 MP stroke
-708 0 0 422 708 0 0 -422 4375 1965 5 MP stroke
/c9 { 1.000000 0.000000 0.000000 sr} bdef
c9
708 0 1225 1890 2 MP stroke
708 0 2800 2000 2 MP stroke
708 0 4375 1794 2 MP stroke
gs 1506 3334 147 428 rc
1543 3688 mt 1615 3688 L
1579 3652 mt 1579 3724 L
1543 3536 mt 1615 3536 L
1579 3500 mt 1579 3572 L
1543 3521 mt 1615 3521 L
1579 3485 mt 1579 3557 L
1543 3507 mt 1615 3507 L
1579 3471 mt 1579 3543 L
1543 3478 mt 1615 3478 L
1579 3442 mt 1579 3514 L
1543 3463 mt 1615 3463 L
1579 3427 mt 1579 3499 L
1543 3449 mt 1615 3449 L
1579 3413 mt 1579 3485 L
1543 3421 mt 1615 3421 L
1579 3385 mt 1579 3457 L
1543 3407 mt 1615 3407 L
1579 3371 mt 1579 3443 L
gr

gs 3081 424 147 713 rc
3118 1063 mt 3190 1063 L
3154 1027 mt 3154 1099 L
3118 1057 mt 3190 1057 L
3154 1021 mt 3154 1093 L
3118 1052 mt 3190 1052 L
3154 1016 mt 3154 1088 L
3118 1047 mt 3190 1047 L
3154 1011 mt 3154 1083 L
3118 1042 mt 3190 1042 L
3154 1006 mt 3154 1078 L
3118 1036 mt 3190 1036 L
3154 1000 mt 3154 1072 L
3118 1031 mt 3190 1031 L
3154  995 mt 3154 1067 L
3118 1026 mt 3190 1026 L
3154  990 mt 3154 1062 L
3118 1010 mt 3190 1010 L
3154  974 mt 3154 1046 L
3118  984 mt 3190  984 L
3154  948 mt 3154 1020 L
3118  874 mt 3190  874 L
3154  838 mt 3154  910 L
3118  854 mt 3190  854 L
3154  818 mt 3154  890 L
3118  850 mt 3190  850 L
3154  814 mt 3154  886 L
3118  845 mt 3190  845 L
3154  809 mt 3154  881 L
3118  835 mt 3190  835 L
3154  799 mt 3154  871 L
3118  830 mt 3190  830 L
3154  794 mt 3154  866 L
3118  806 mt 3190  806 L
3154  770 mt 3154  842 L
3118  801 mt 3190  801 L
3154  765 mt 3154  837 L
3118  792 mt 3190  792 L
3154  756 mt 3154  828 L
3118  782 mt 3190  782 L
3154  746 mt 3154  818 L
3118  759 mt 3190  759 L
3154  723 mt 3154  795 L
3118  745 mt 3190  745 L
3154  709 mt 3154  781 L
3118  722 mt 3190  722 L
3154  686 mt 3154  758 L
3118  717 mt 3190  717 L
3154  681 mt 3154  753 L
3118  694 mt 3190  694 L
3154  658 mt 3154  730 L
3118  680 mt 3190  680 L
3154  644 mt 3154  716 L
3118  627 mt 3190  627 L
3154  591 mt 3154  663 L
3118  522 mt 3190  522 L
3154  486 mt 3154  558 L
3118  497 mt 3190  497 L
3154  461 mt 3154  533 L
gr

gr

c9
0 sg
%%IncludeResource: font Helvetica
/Helvetica /ISOLatin1Encoding 120 FMSR

1546 3990 mt 
(1) s
3121 3990 mt 
(2) s
4696 3990 mt 
(3) s
%%IncludeResource: font Helvetica
/Helvetica /ISOLatin1Encoding 168 FMSR

1659  206 mt 
(Box plot for worse GOP utlization values) s

end %%Color Dict

eplot
%%EndObject

epage
end

showpage

%%Trailer
%%EOF
