%!PS-Adobe-3.0 EPSF-3.0
%%Creator: MATLAB, The MathWorks, Inc. Version 8.1.0.604 (R2013a). Operating System: Darwin 13.4.0 Darwin Kernel Version 13.4.0: Sun Aug 17 19:50:11 PDT 2014; root:xnu-2422.115.4~1/RELEASE_X86_64 x86_64.
%%Title: /Users/le/Work/project3/Figures/Results/0926/CDF_variation_worseU.eps
%%CreationDate: 09/30/2014  15:49:38
%%DocumentNeededFonts: Helvetica
%%DocumentProcessColors: Cyan Magenta Yellow Black
%%LanguageLevel: 2
%%Pages: 1
%%BoundingBox:    87   228   521   563
%%EndComments

%%BeginProlog
% MathWorks dictionary
/MathWorks 160 dict begin
% definition operators
/bdef {bind def} bind def
/ldef {load def} bind def
/xdef {exch def} bdef
/xstore {exch store} bdef
% operator abbreviations
/c  /clip ldef
/cc /concat ldef
/cp /closepath ldef
/gr /grestore ldef
/gs /gsave ldef
/mt /moveto ldef
/np /newpath ldef
/cm /currentmatrix ldef
/sm /setmatrix ldef
/rm /rmoveto ldef
/rl /rlineto ldef
/s {show newpath} bdef
/sc {setcmykcolor} bdef
/sr /setrgbcolor ldef
/sg /setgray ldef
/w /setlinewidth ldef
/j /setlinejoin ldef
/cap /setlinecap ldef
/rc {rectclip} bdef
/rf {rectfill} bdef
% page state control
/pgsv () def
/bpage {/pgsv save def} bdef
/epage {pgsv restore} bdef
/bplot /gsave ldef
/eplot {stroke grestore} bdef
% orientation switch
/portraitMode 0 def /landscapeMode 1 def /rotateMode 2 def
% coordinate system mappings
/dpi2point 0 def
% font control
/FontSize 0 def
/FMS {/FontSize xstore findfont [FontSize 0 0 FontSize neg 0 0]
  makefont setfont} bdef
/reencode {exch dup where {pop load} {pop StandardEncoding} ifelse
  exch dup 3 1 roll findfont dup length dict begin
  { 1 index /FID ne {def}{pop pop} ifelse } forall
  /Encoding exch def currentdict end definefont pop} bdef
/isroman {findfont /CharStrings get /Agrave known} bdef
/FMSR {3 1 roll 1 index dup isroman {reencode} {pop pop} ifelse
  exch FMS} bdef
/csm {1 dpi2point div -1 dpi2point div scale neg translate
 dup landscapeMode eq {pop -90 rotate}
  {rotateMode eq {90 rotate} if} ifelse} bdef
% line types: solid, dotted, dashed, dotdash
/SO { [] 0 setdash } bdef
/DO { [.5 dpi2point mul 4 dpi2point mul] 0 setdash } bdef
/DA { [6 dpi2point mul] 0 setdash } bdef
/DD { [.5 dpi2point mul 4 dpi2point mul 6 dpi2point mul 4
  dpi2point mul] 0 setdash } bdef
% macros for lines and objects
/L {lineto stroke} bdef
/MP {3 1 roll moveto 1 sub {rlineto} repeat} bdef
/AP {{rlineto} repeat} bdef
/PDlw -1 def
/W {/PDlw currentlinewidth def setlinewidth} def
/PP {closepath eofill} bdef
/DP {closepath stroke} bdef
/MR {4 -2 roll moveto dup  0 exch rlineto exch 0 rlineto
  neg 0 exch rlineto closepath} bdef
/FR {MR stroke} bdef
/PR {MR fill} bdef
/L1i {{currentfile picstr readhexstring pop} image} bdef
/tMatrix matrix def
/MakeOval {newpath tMatrix currentmatrix pop translate scale
0 0 1 0 360 arc tMatrix setmatrix} bdef
/FO {MakeOval stroke} bdef
/PO {MakeOval fill} bdef
/PD {currentlinewidth 2 div 0 360 arc fill
   PDlw -1 eq not {PDlw w /PDlw -1 def} if} def
/FA {newpath tMatrix currentmatrix pop translate scale
  0 0 1 5 -2 roll arc tMatrix setmatrix stroke} bdef
/PA {newpath tMatrix currentmatrix pop	translate 0 0 moveto scale
  0 0 1 5 -2 roll arc closepath tMatrix setmatrix fill} bdef
/FAn {newpath tMatrix currentmatrix pop translate scale
  0 0 1 5 -2 roll arcn tMatrix setmatrix stroke} bdef
/PAn {newpath tMatrix currentmatrix pop translate 0 0 moveto scale
  0 0 1 5 -2 roll arcn closepath tMatrix setmatrix fill} bdef
/vradius 0 def /hradius 0 def /lry 0 def
/lrx 0 def /uly 0 def /ulx 0 def /rad 0 def
/MRR {/vradius xdef /hradius xdef /lry xdef /lrx xdef /uly xdef
  /ulx xdef newpath tMatrix currentmatrix pop ulx hradius add uly
  vradius add translate hradius vradius scale 0 0 1 180 270 arc 
  tMatrix setmatrix lrx hradius sub uly vradius add translate
  hradius vradius scale 0 0 1 270 360 arc tMatrix setmatrix
  lrx hradius sub lry vradius sub translate hradius vradius scale
  0 0 1 0 90 arc tMatrix setmatrix ulx hradius add lry vradius sub
  translate hradius vradius scale 0 0 1 90 180 arc tMatrix setmatrix
  closepath} bdef
/FRR {MRR stroke } bdef
/PRR {MRR fill } bdef
/MlrRR {/lry xdef /lrx xdef /uly xdef /ulx xdef /rad lry uly sub 2 div def
  newpath tMatrix currentmatrix pop ulx rad add uly rad add translate
  rad rad scale 0 0 1 90 270 arc tMatrix setmatrix lrx rad sub lry rad
  sub translate rad rad scale 0 0 1 270 90 arc tMatrix setmatrix
  closepath} bdef
/FlrRR {MlrRR stroke } bdef
/PlrRR {MlrRR fill } bdef
/MtbRR {/lry xdef /lrx xdef /uly xdef /ulx xdef /rad lrx ulx sub 2 div def
  newpath tMatrix currentmatrix pop ulx rad add uly rad add translate
  rad rad scale 0 0 1 180 360 arc tMatrix setmatrix lrx rad sub lry rad
  sub translate rad rad scale 0 0 1 0 180 arc tMatrix setmatrix
  closepath} bdef
/FtbRR {MtbRR stroke } bdef
/PtbRR {MtbRR fill } bdef
/stri 6 array def /dtri 6 array def
/smat 6 array def /dmat 6 array def
/tmat1 6 array def /tmat2 6 array def /dif 3 array def
/asub {/ind2 exch def /ind1 exch def dup dup
  ind1 get exch ind2 get sub exch } bdef
/tri_to_matrix {
  2 0 asub 3 1 asub 4 0 asub 5 1 asub
  dup 0 get exch 1 get 7 -1 roll astore } bdef
/compute_transform {
  dmat dtri tri_to_matrix tmat1 invertmatrix 
  smat stri tri_to_matrix tmat2 concatmatrix } bdef
/ds {stri astore pop} bdef
/dt {dtri astore pop} bdef
/db {2 copy /cols xdef /rows xdef mul dup 3 mul string
  currentfile 
  3 index 0 eq {/ASCIIHexDecode filter}
  {/ASCII85Decode filter 3 index 2 eq {/RunLengthDecode filter} if }
  ifelse exch readstring pop
  dup 0 3 index getinterval /rbmap xdef
  dup 2 index dup getinterval /gbmap xdef
  1 index dup 2 mul exch getinterval /bbmap xdef pop pop}bdef
/it {gs np dtri aload pop moveto lineto lineto cp c
  cols rows 8 compute_transform 
  rbmap gbmap bbmap true 3 colorimage gr}bdef
/il {newpath moveto lineto stroke}bdef
currentdict end def
%%EndProlog

%%BeginSetup
MathWorks begin

0 cap

end
%%EndSetup

%%Page: 1 1
%%BeginPageSetup
%%PageBoundingBox:    87   228   521   563
MathWorks begin
bpage
%%EndPageSetup

%%BeginObject: obj1
bplot

/dpi2point 12 def
portraitMode 1044 6756 csm

    0     0  5219  4020 rc
85 dict begin %Colortable dictionary
/c0 { 0.000000 0.000000 0.000000 sr} bdef
/c1 { 1.000000 1.000000 1.000000 sr} bdef
/c2 { 0.900000 0.000000 0.000000 sr} bdef
/c3 { 0.000000 0.820000 0.000000 sr} bdef
/c4 { 0.000000 0.000000 0.800000 sr} bdef
/c5 { 0.910000 0.820000 0.320000 sr} bdef
/c6 { 1.000000 0.260000 0.820000 sr} bdef
/c7 { 0.000000 0.820000 0.820000 sr} bdef
c0
1 j
1 sg
   0    0 5220 4021 rf
6 w
0 3276 4045 0 0 -3276 678 3578 4 MP
PP
-4045 0 0 3276 4045 0 0 -3276 678 3578 5 MP stroke
4 w
DO
0 sg
1045 3578 mt 1045  302 L
1045  302 mt 1045  302 L
1658 3578 mt 1658  302 L
1658  302 mt 1658  302 L
2271 3578 mt 2271  302 L
2271  302 mt 2271  302 L
2884 3578 mt 2884  302 L
2884  302 mt 2884  302 L
3497 3578 mt 3497  302 L
3497  302 mt 3497  302 L
4110 3578 mt 4110  302 L
4110  302 mt 4110  302 L
4723 3578 mt 4723  302 L
4723  302 mt 4723  302 L
 678 3578 mt 4723 3578 L
4723 3578 mt 4723 3578 L
 678 2922 mt 4723 2922 L
4723 2922 mt 4723 2922 L
 678 2267 mt 4723 2267 L
4723 2267 mt 4723 2267 L
 678 1612 mt 4723 1612 L
4723 1612 mt 4723 1612 L
 678  957 mt 4723  957 L
4723  957 mt 4723  957 L
 678  302 mt 4723  302 L
4723  302 mt 4723  302 L
SO
6 w
 678 3578 mt 4723 3578 L
 678  302 mt 4723  302 L
 678 3578 mt  678  302 L
4723 3578 mt 4723  302 L
 678 3578 mt 4723 3578 L
 678 3578 mt  678  302 L
1045 3578 mt 1045 3537 L
1045  302 mt 1045  342 L
%%IncludeResource: font Helvetica
/Helvetica /ISOLatin1Encoding 168 FMSR

 831 3768 mt 
(-1.5) s
1658 3578 mt 1658 3537 L
1658  302 mt 1658  342 L
1514 3768 mt 
(-1) s
2271 3578 mt 2271 3537 L
2271  302 mt 2271  342 L
2057 3768 mt 
(-0.5) s
2884 3578 mt 2884 3537 L
2884  302 mt 2884  342 L
2838 3768 mt 
(0) s
3497 3578 mt 3497 3537 L
3497  302 mt 3497  342 L
3381 3768 mt 
(0.5) s
4110 3578 mt 4110 3537 L
4110  302 mt 4110  342 L
4064 3768 mt 
(1) s
4723 3578 mt 4723 3537 L
4723  302 mt 4723  342 L
4607 3768 mt 
(1.5) s
 678 3578 mt  718 3578 L
4723 3578 mt 4682 3578 L
 550 3640 mt 
(0) s
 678 2922 mt  718 2922 L
4723 2922 mt 4682 2922 L
 410 2984 mt 
(0.2) s
 678 2267 mt  718 2267 L
4723 2267 mt 4682 2267 L
 410 2329 mt 
(0.4) s
 678 1612 mt  718 1612 L
4723 1612 mt 4682 1612 L
 410 1674 mt 
(0.6) s
 678  957 mt  718  957 L
4723  957 mt 4682  957 L
 410 1019 mt 
(0.8) s
 678  302 mt  718  302 L
4723  302 mt 4682  302 L
 550  364 mt 
(1) s
 678 3578 mt 4723 3578 L
 678  302 mt 4723  302 L
 678 3578 mt  678  302 L
4723 3578 mt 4723  302 L
gs 678 302 4046 3277 rc
DD
18 w
/c8 { 0.000000 0.000000 1.000000 sr} bdef
c8
11 0 0 -1 57 0 0 -1 23 0 0 -1 12 0 0 -2 
18 0 0 -1 16 0 0 -1 56 0 0 -1 15 -1 0 -1 
6 0 0 -1 38 0 0 -1 2 0 0 -1 4 0 0 -1 
20 0 0 -2 16 0 0 -1 55 0 0 -1 5 0 0 -1 
23 0 0 -1 4 0 0 -1 3 0 0 -1 2 0 0 -1 
2 0 0 -1 19 0 0 -1 16 0 0 -2 5 0 0 -1 
24 -1 0 -1 7 0 0 -1 12 0 0 -1 9 0 0 -1 
2 0 0 -1 4 0 0 -1 2 0 0 -2 19 0 0 -1 
3 0 0 -1 13 0 0 -1 9 0 0 -1 9 -1 0 -1 
2 0 0 -1 3 -1 0 -1 12 0 0 -2 9 0 0 -1 
2 0 0 -1 3 -1 0 -1 6 0 0 -2 9 0 0 -1 
5 0 0 -1 4 0 0 -1 4 0 0 -2 8 -1 0 -1 
6 0 0 -1 2 0 0 -1 4 0 0 -1 2 0 0 -1 
4 -1 0 -3 3 -1 0 -1 4 -1 0 -1 2 0 0 -1 
2 0 0 -2 10 -1 0 -1 5 0 0 -4 5 -1 0 -2 
5 0 0 -1 2 0 0 -1 5 -1 0 -3 2 0 0 -1 
2 0 0 -1 10 0 1 -1 0 -1 4 -1 0 -1 3 0 
0 -1 4 0 0 -2 2 0 0 -2 3 0 0 -2 7 0 
0 -2 3 0 0 -1 3 0 0 -2 3 0 0 -1 8 0 
0 -2 6 -1 0 -1 3 0 0 -1 7 -1 0 -1 2 0 
0 -1 5 0 0 -2 3 -1 0 -2 2 0 0 -1 1 -1 
0 -1 3 -1 0 -1 11 -1 0 -1 2 0 0 -1 4 0 
0 -3 2 0 0 -1 2 0 0 -1 3 0 0 -1 2 0 
0 -2 1 -1 0 -2 4 0 0 -2 1 0 0 -1 3 -1 
0 -1 6 0 1 -1 1 -1 0 -1 3 -1 1 -1 0 -3 
3 0 0 -1 2 0 0 -1 6 0 0 -1 8 0 0 -2 
5 0 0 -1 2 0 0 -1 3 0 0 -2 1 0 0 -3 
4 -1 0 -1 3 -1 0 -1 2 0 0 -1 7 0 0 -1 
4 -1 0 -2 3 -1 0 -2 3 -1 0 -1 2 0 0 -2 
4 0 0 -1 4 0 1 -1 0 -2 13 0 0 -1 2 0 
0 -1 4 0 0 -2 4 0 0 -3 5 -1 0 -1 2 0 
0 -2 2 0 0 -1 2 0 0 -2 2 0 1 -1 0 -2 
3 0 0 -2 3 -1 0 -2 1 0 0 -2 3 0 0 -1 
3 -1 0 -1 6 -1 0 -1 2 0 1 -1 0 -6 2 0 
0 -1 2 0 0 -1 3 0 0 -1 2 0 0 -1 4 0 
1 -1 0 -2 1 -1 0 -1 4 -1 0 -1 2 0 0 -1 
3 0 0 -1 3 0 1 -1 1 -1 1 -1 0 -2 2 0 
0 -1 4 -1 0 -1 3759 552 300 MP stroke
4 0 0 -1 4 -1 0 -1 2 -2 0 -4 4 0 0 -1 
2 0 0 -1 2 0 0 -1 2 -2 0 -1 3 -1 0 -2 
1 0 0 -2 2 0 0 -1 1 -1 0 -2 3 0 0 -1 
3 -1 0 -3 2 0 0 -1 3 0 0 -2 6 -1 0 -1 
4 0 0 -2 3 0 0 -4 2 0 1 -1 0 -3 4 0 
0 -1 4 0 0 -2 2 0 1 -1 0 -2 1 0 0 -2 
2 0 0 -1 4 0 0 -1 2 0 0 -2 5 0 0 -3 
3 0 0 -2 1 -1 0 -3 3 -1 0 -1 3 0 0 -1 
2 0 0 -1 3 0 1 -1 0 -2 3 -1 0 -2 2 -2 
0 -3 2 0 0 -2 1 0 0 -2 4 0 1 -1 0 -3 
2 0 1 -1 0 -1 5 -1 0 -2 1 0 1 -1 1 -1 
1 -1 0 -1 3 -1 0 -1 2 0 0 -1 3 -1 0 -4 
3 -1 0 -2 3 0 0 -1 2 0 0 -1 1 -1 0 -3 
2 0 1 -1 1 -1 0 -2 4 0 1 -1 0 -2 1 -1 
0 -3 2 0 0 -4 4 -1 0 -1 3 0 0 -1 2 0 
0 -2 3 0 0 -7 3 0 1 -1 0 -1 3 -1 0 -4 
1 -1 0 -2 2 0 0 -1 7 0 0 -1 4 0 1 -1 
0 -3 3 -1 0 -1 2 0 0 -1 2 0 1 -1 0 -2 
5 0 1 -1 0 -4 2 0 0 -1 3 0 0 -2 5 -1 
0 -1 2 0 0 -1 1 -1 0 -1 4 -1 0 -2 2 0 
0 -1 2 -2 0 -2 5 0 1 -1 0 -4 2 -2 1 -1 
0 -2 1 0 0 -1 3 -1 0 -1 1 -1 0 -2 1 0 
0 -2 1 0 0 -2 3 -1 1 -1 1 -1 1 -1 1 -1 
0 -2 1 0 1 -1 0 -5 2 0 0 -2 3 0 0 -4 
2 0 0 -2 1 0 1 -1 0 -1 2 -2 0 -3 4 0 
0 -1 2 0 0 -1 2 0 0 -1 2 0 0 -2 1 0 
0 -3 2 0 0 -3 1 0 0 -2 2 -2 1 -1 0 -3 
4 -1 0 -4 1 0 0 -2 2 0 0 -2 3 0 0 -1 
1 -1 0 -2 2 0 0 -1 3 -1 0 -2 2 0 1 -1 
0 -2 4 -1 1 -1 0 -3 4 0 0 -1 3 0 0 -2 
2 0 0 -2 3 -1 0 -1 1 -1 0 -2 1 0 0 -1 
5 -1 0 -3 2 0 0 -2 3 -1 0 -3 3 -1 0 -1 
2 0 0 -1 2 0 0 -2 2 0 0 -2 2 0 0 -3 
2 0 0 -2 2 -2 0 -2 1 0 0 -2 2 0 0 -1 
2 0 0 -3 2 0 0 -2 1 -1 1 -1 0 -3 3 -1 
0 -2 1 0 0 -3 2 0 0 -2 2 -2 0 -7 1 0 
1 -1 0 -3 2 0 0 -5 3 -1 0 -1 2 0 0 -1 
1 -1 0 -2 1 0 3397 910 300 MP stroke
1 -1 0 -2 1 0 1 -1 1 -1 0 -2 2 -2 0 -1 
1 -3 0 -2 1 -1 0 -1 3 -1 1 -1 0 -1 3 -1 
0 -1 0 1 1 -3 0 -2 2 -2 0 -1 3 -1 1 -1 
0 -1 3 -1 0 -2 1 0 1 -1 1 -1 0 -3 2 0 
0 -3 3 0 1 -1 0 -3 2 0 0 -5 1 0 1 -1 
0 -1 0 1 1 -3 1 -1 0 -2 2 0 1 -1 0 -1 
3 -1 0 -3 2 0 0 -7 2 0 0 -6 3 0 1 -1 
0 -1 2 -2 0 -2 1 0 0 -2 2 0 0 -3 2 0 
0 -1 3 0 0 -1 1 -1 0 -1 2 -2 0 -2 1 0 
0 -3 3 -1 0 -2 2 0 0 -1 1 -1 0 -1 2 -2 
0 -5 2 0 0 -4 2 0 0 -4 1 -1 0 -2 1 0 
0 -3 1 -1 0 -4 2 0 0 -4 2 0 1 -1 0 -1 
2 -2 0 -2 1 0 0 -1 2 -2 0 -2 2 -2 0 -1 
1 -3 1 -1 0 -2 3 -1 0 -1 3 0 0 -2 1 -1 
0 -2 1 0 0 -2 1 -1 1 -1 0 -1 0 1 1 -3 
1 -1 0 -5 2 -2 1 -1 1 -1 1 -1 0 -2 3 0 
0 -4 1 0 0 -1 1 -3 0 -1 0 1 1 -4 1 -1 
1 -1 0 -2 2 0 1 -1 1 -1 1 -1 1 -1 0 -3 
2 0 0 -3 3 -1 0 -1 1 -1 1 -1 1 -1 0 -5 
3 0 0 -1 2 0 0 -1 1 -1 0 -1 3 -1 0 -1 
1 -1 0 -2 1 -1 1 -1 0 -4 3 -1 0 -3 1 0 
0 -2 1 0 1 -1 0 -2 1 -1 1 -1 0 -1 1 -3 
0 -1 1 -3 0 -2 3 0 0 -5 3 0 0 -1 4 0 
0 -2 1 -3 1 -1 0 -3 2 -2 1 -1 0 -3 1 0 
1 -1 1 -1 0 -1 0 1 1 -3 0 -2 2 0 0 -4 
3 0 0 -1 0 1 1 -5 0 -2 3 -1 0 -2 2 -2 
1 -1 0 -2 1 -1 0 -2 2 -2 0 -2 2 0 0 -1 
1 -1 0 -3 1 0 0 -3 2 -2 0 -2 3 -1 0 -3 
1 -1 0 -2 1 -1 0 -2 1 -1 0 -1 0 1 1 -3 
0 -2 1 -1 0 -1 0 1 1 -3 0 -2 2 0 0 -3 
1 -1 0 -3 2 0 1 -1 1 -1 0 -1 0 1 1 -4 
0 -1 1 -3 1 -1 1 -1 0 -2 2 0 0 -4 2 0 
1 -1 0 -5 1 -1 0 -3 3 -1 0 -2 2 -2 0 -1 
2 -2 0 -4 3 -1 0 -1 2 0 0 -3 1 -1 0 -3 
2 -2 0 -2 1 -1 0 -1 3 -1 1 -1 1 -1 0 -2 
3 -1 0 -2 1 -1 0 -1 2 -2 0 -3 2 -2 1 -1 
0 -3 1 -1 1 -1 0 -3 1 -1 1 -1 0 -4 1 0 
0 -3 2 0 0 -2 3136 1352 300 MP stroke
2 -2 0 -3 1 -1 1 -1 1 -1 0 -2 1 0 0 -6 
3 -1 0 -1 2 0 0 -3 2 -2 0 -2 1 -1 1 -1 
0 -2 2 0 0 -3 2 0 1 -1 0 -4 1 -3 0 -3 
1 -1 1 -1 1 -1 0 -3 2 -2 0 -3 2 -2 0 -2 
1 -1 0 -2 1 -3 0 -2 1 -1 0 -3 1 -1 1 -1 
1 -1 0 -2 1 0 0 -2 1 0 0 -3 3 -1 0 -2 
2 0 0 -2 1 0 0 -3 1 -3 0 -2 1 0 0 -3 
2 -2 0 -2 3 -1 0 -1 1 -1 0 -4 2 -2 1 -1 
1 -1 0 -3 1 -1 0 -2 1 -1 0 -3 2 -2 0 -1 
0 1 1 -3 0 -2 2 0 1 -1 0 -3 1 -1 0 -3 
1 -3 1 -1 1 -1 0 -2 1 -1 0 -7 1 0 0 -1 
0 1 1 -3 0 -8 1 0 1 -1 0 -2 3 -1 0 -2 
1 -1 0 -2 1 0 1 -1 0 -2 1 -1 0 -2 2 -2 
0 -3 1 0 0 -1 2 -2 0 -1 1 -3 0 -1 0 1 
1 -3 0 -3 2 -2 0 -6 1 0 0 -3 2 -2 0 -2 
1 0 1 -1 0 -1 0 1 1 -4 0 -3 1 0 1 -1 
0 -2 1 0 0 -2 2 0 0 -6 2 -2 1 -1 0 -1 
0 1 1 -3 1 -1 0 -2 1 0 0 -2 1 -1 0 -1 
1 -4 0 -2 2 0 0 -1 1 -1 0 -3 2 -2 0 -5 
1 0 0 -2 2 -2 0 -3 2 -2 0 -4 1 0 0 -3 
3 0 0 -2 1 0 0 -1 1 -4 0 -1 2 -2 0 -6 
2 0 0 -1 0 1 1 -3 0 -4 1 -1 0 -1 0 1 
1 -3 0 -2 1 -1 0 -2 2 0 0 -7 3 0 0 -2 
1 -1 1 -1 0 -2 2 -2 1 -1 1 -1 1 -1 0 -3 
2 0 0 -1 0 1 1 -3 0 -1 2 -2 0 -1 0 1 
1 -3 1 -1 1 -1 0 -4 1 0 0 -1 0 1 1 -3 
0 -2 1 -4 1 -1 0 -2 2 0 1 -1 0 -4 3 -1 
0 -5 1 -1 0 -2 1 -1 1 -1 0 -4 1 -1 1 -1 
1 -1 1 -1 0 -2 1 0 0 -3 1 -1 0 -4 2 -2 
0 -2 1 0 0 -2 1 0 0 -4 1 -1 0 -5 2 -2 
0 -4 2 -2 0 -3 1 -1 0 -1 4 -1 0 -1 2 0 
0 -3 2 -2 0 -3 1 0 0 -5 1 0 0 -2 1 -1 
0 -3 2 -2 0 -2 1 -1 1 -1 0 -3 1 -1 0 -2 
2 -2 0 -3 1 -1 0 -3 2 -2 0 -2 3 0 0 -3 
1 -1 0 -2 1 0 0 -2 1 -1 1 -1 0 -1 2 -2 
1 -1 0 -2 1 -3 0 -1 2 -2 0 -5 1 0 0 -4 
5 -1 0 -1 5 0 1 -1 1 -1 1 -1 0 -2 1 0 
0 -3 1 -1 0 -3 2907 1862 300 MP stroke
1 -1 0 -7 1 0 0 -8 1 -1 0 -11 1 0 0 -3 
1 -1 0 -4 18 -1 0 -44 16 0 0 -1 3 -1 0 -2 
1 -1 0 -7 1 -1 0 -3 1 -1 0 -2 1 0 0 -3 
1 -4 0 -4 1 -1 0 -2 2 -2 1 -1 0 -1 1 -3 
0 -2 4 0 1 -1 0 -1 2 -2 0 -1 2 -2 0 -3 
1 -1 0 -5 1 0 0 -4 1 -3 0 -4 1 -1 0 -4 
1 -1 0 -1 2 -2 0 -5 2 0 1 -1 0 -6 1 0 
0 -4 2 -2 0 -1 2 -2 0 -1 1 -3 0 -2 1 -1 
0 -5 3 -1 0 -6 2 0 1 -1 0 -3 1 -1 0 -3 
3 -1 0 -1 1 -1 1 -1 0 -3 2 -2 0 -4 2 0 
0 -1 0 1 1 -3 0 -3 2 0 0 -2 1 -1 0 -2 
1 0 0 -1 0 1 1 -3 0 -5 2 -2 0 -6 1 -1 
0 -2 1 -1 1 -1 0 -2 1 -1 0 -5 1 -1 0 -3 
1 -1 0 -1 1 -3 0 -4 2 -2 1 -1 0 -2 1 -1 
1 -1 0 -2 1 -1 0 -2 1 -1 1 -1 0 -2 1 0 
0 -1 0 1 1 -4 0 -3 1 -1 0 -3 1 -1 0 -4 
2 0 1 -1 0 -2 2 0 0 -1 4 0 0 -2 1 0 
0 -3 1 0 0 -2 1 -1 0 -2 1 -1 1 -1 1 -1 
0 -4 2 -2 1 -1 0 -1 0 1 1 -3 1 -1 0 -2 
2 -2 0 -2 1 -1 0 -2 2 -2 0 -2 1 -1 0 -2 
1 -1 0 -3 2 -2 0 -2 1 0 0 -1 0 1 1 -3 
1 -1 0 -4 1 0 0 -1 0 1 1 -3 0 -3 2 0 
0 -1 1 -1 1 -1 0 -1 1 -3 1 -1 1 -1 1 -1 
0 -3 2 -2 0 -3 1 0 0 -5 1 -3 1 -1 0 -2 
1 0 0 -2 2 0 0 -1 1 -1 0 -4 1 0 0 -3 
2 0 0 -3 1 -1 1 -1 0 -2 1 -1 0 -2 1 0 
1 -1 0 -1 2 -2 0 -4 1 -1 0 -2 1 0 0 -2 
3 -1 1 -1 0 -2 1 -1 0 -4 2 0 0 -5 3 -1 
1 -1 1 -1 0 -2 1 0 0 -2 1 -1 0 -4 2 0 
0 -1 1 -1 0 -3 1 -1 0 -1 0 1 1 -3 0 -1 
0 1 1 -4 0 -2 1 0 0 -4 2 0 0 -1 2 0 
0 -7 1 0 0 -3 2 0 0 -2 1 -1 0 -3 2 -2 
0 -2 3 -1 0 -2 3 0 1 -1 0 -4 2 0 0 -2 
1 -1 0 -1 0 1 1 -3 0 -1 0 1 1 -3 1 -1 
0 -3 2 0 0 -1 2 -2 0 -4 2 0 0 -1 1 -1 
1 -1 0 -3 2 -2 0 -4 2 -2 1 -1 0 -2 2 0 
0 -1 1 -1 1 -1 0 -3 1 -1 0 -1 2 -2 0 -3 
1 0 0 -2 1 -1 2657 2423 300 MP stroke
0 -2 2 0 0 -1 1 -1 0 -1 0 1 1 -4 0 -2 
1 -1 0 -2 1 0 0 -4 1 0 0 -4 3 -1 0 -1 
2 0 0 -2 1 0 0 -2 1 -1 0 -3 1 -1 0 -2 
1 -1 0 -3 1 -1 0 -1 0 1 1 -3 0 -3 2 -2 
0 -2 2 -2 0 -4 1 0 0 -1 0 1 1 -3 0 -1 
1 -4 1 -1 0 -3 1 -1 0 -6 3 -1 0 -2 1 0 
1 -1 1 -1 0 -2 2 -2 0 -3 1 0 0 -2 1 -1 
1 -1 0 -3 1 -1 0 -4 1 -1 1 -1 0 -2 1 -1 
1 -1 0 -2 1 -1 0 -2 2 0 0 -1 0 1 1 -4 
0 -4 1 0 0 -1 0 1 1 -3 1 -1 0 -2 1 0 
0 -2 1 -3 1 -1 0 -3 1 -1 0 -1 0 1 1 -3 
0 -2 1 0 0 -2 1 -1 1 -1 1 -1 0 -2 2 -2 
0 -2 1 -1 0 -3 1 -1 0 -1 2 -2 0 -3 1 -1 
0 -2 2 0 0 -5 1 -3 0 -3 1 -1 0 -2 1 -1 
0 -4 2 -2 0 -2 1 -1 0 -2 1 -1 0 -2 1 0 
1 -1 0 -5 2 -2 0 -1 0 1 1 -3 0 -1 1 -3 
0 -1 4 -1 1 -1 1 -1 0 -4 1 -3 0 -2 1 0 
1 -1 0 -1 0 1 1 -3 0 -2 3 -1 1 -1 1 -1 
0 -2 2 -2 0 -2 2 0 1 -1 1 -1 0 -2 1 0 
0 -2 2 -2 0 -2 1 0 1 -1 0 -2 2 -2 0 -2 
1 -1 1 -1 0 -3 2 -2 0 -2 3 0 1 -1 0 -2 
1 -3 0 -4 2 0 1 -1 0 -1 0 1 1 -3 0 -3 
2 -2 0 -2 1 0 0 -2 2 0 0 -1 1 -1 0 -2 
1 0 1 -1 0 -3 2 0 1 -1 0 -1 2 -2 0 -3 
1 0 1 -1 0 -2 2 -2 0 -2 3 0 0 -4 2 0 
0 -1 1 -1 1 -1 1 -1 1 -1 1 -1 0 -4 3 0 
1 -1 0 -3 2 0 1 -1 0 -2 4 -1 0 -1 0 1 
1 -3 1 -1 0 -3 1 -1 0 -2 2 0 0 -1 2 0 
0 -5 1 0 0 -2 1 -1 0 -3 2 0 1 -1 0 -3 
1 0 0 -1 2 -2 0 -6 2 0 0 -2 2 0 0 -2 
1 -1 0 -2 2 0 0 -1 2 0 1 -1 0 -2 1 0 
0 -1 1 -4 0 -3 4 -1 0 -2 1 -1 0 -2 1 0 
1 -1 1 -1 0 -5 1 0 0 -4 2 0 0 -2 1 0 
0 -3 2 0 0 -3 2 0 0 -1 1 -1 0 -3 2 -2 
1 -1 0 -4 2 -2 1 -1 1 -1 0 -7 3 -1 0 -1 
3 -1 0 -1 2 0 0 -1 1 -1 0 -2 1 -1 0 -3 
1 -1 0 -1 3 -1 0 -2 2 0 0 -3 1 -1 0 -1 
2 -2 1 -1 0 -2 2426 2880 300 MP stroke
1 0 0 -5 2 -2 1 -1 0 -5 2 0 0 -2 3 0 
0 -2 2 -2 0 -1 2 -2 0 -3 2 0 0 -1 2 0 
0 -3 1 -1 0 -2 1 -1 0 -2 1 -1 0 -1 2 -2 
0 -1 2 -2 1 -1 0 -2 1 -1 1 -1 0 -5 2 -2 
0 -3 2 0 1 -1 0 -3 3 -1 1 -1 1 -1 1 -1 
0 -2 1 -1 0 -3 2 0 0 -2 2 -2 1 -1 0 -2 
1 -1 0 -3 2 0 0 -1 1 -1 0 -5 2 0 0 -1 
2 0 0 -3 2 0 0 -3 1 -1 0 -2 1 -1 0 -1 
0 1 1 -3 0 -2 2 0 0 -2 2 0 0 -5 3 0 
0 -1 3 -1 0 -1 2 0 0 -1 3 -1 0 -3 3 0 
0 -3 2 0 0 -1 3 -1 0 -1 3 -1 1 -1 0 -4 
2 0 0 -1 1 -1 1 -1 0 -1 4 -1 0 -1 2 -2 
0 -4 3 0 0 -1 2 0 0 -1 1 -1 0 -1 1 -4 
1 -1 1 -1 1 -1 0 -1 6 -1 0 -1 2 -2 0 -3 
2 -2 1 -1 0 -1 5 -1 0 -1 1 -1 1 -1 0 -1 
0 1 1 -3 0 -2 2 0 0 -1 2 0 0 -2 2 -2 
0 -5 2 -2 1 -1 1 -1 0 -2 1 -3 1 -1 0 -1 
3 -1 0 -1 2 0 0 -3 2 0 1 -1 0 -3 3 -1 
0 -1 3 0 0 -1 2 -2 0 -2 1 0 0 -4 1 0 
0 -1 3 -1 0 -2 2 0 0 -2 1 -1 0 -3 2 0 
1 -1 0 -1 3 -1 0 -1 2 -2 0 -2 1 0 0 -1 
0 1 1 -3 0 -2 1 -1 0 -2 2 0 0 -3 2 0 
0 -1 0 1 1 -3 0 -2 7 0 0 -1 2 -2 0 -2 
2 -2 0 -2 1 0 0 -2 1 0 0 -2 1 0 1 -1 
0 -2 1 0 1 -1 0 -2 1 0 1 -1 0 -1 5 -1 
0 -1 1 -1 0 -1 3 -1 0 -1 1 -1 0 -3 3 0 
1 -1 1 -1 0 -1 2 -2 1 -1 0 -2 2 0 0 -2 
1 0 1 -1 1 -1 0 -2 5 0 0 -2 2 0 1 -1 
0 -3 2 0 0 -1 2 0 0 -1 3 -1 0 -1 2 0 
0 -1 1 -1 0 -2 2 0 0 -1 2 0 0 -2 2 0 
0 -2 1 -1 0 -4 3 -1 0 -3 4 0 0 -5 4 -1 
0 -4 1 0 0 -2 2 0 0 -1 3 0 0 -2 3 0 
0 -2 1 0 0 -5 5 0 0 -1 2 0 1 -1 1 -1 
0 -2 2 0 1 -1 1 -1 0 -1 0 1 1 -3 1 -1 
1 -1 1 -1 1 -1 1 -1 0 -3 3 0 0 -1 2 0 
0 -3 2 0 1 -1 1 -1 1 -1 0 -2 2 -2 0 -2 
5 0 0 -2 1 -1 1 -1 0 -2 4 0 1 -1 0 -2 
1 0 0 -3 3 0 2116 3269 300 MP stroke
0 -1 1 -1 1 -1 1 -1 0 -2 2 0 0 -1 4 -1 
0 -2 1 0 1 -1 1 -1 0 -2 3 0 0 -1 3 -1 
0 -1 1 -1 0 -2 5 -1 0 -2 5 0 1 -1 1 -1 
0 -3 3 -1 0 -2 3 0 1 -1 0 -1 4 -1 0 -1 
3 0 1 -1 0 -1 3 -1 1 -1 1 -1 0 -2 1 0 
0 -1 4 -1 0 -1 4 0 0 -2 3 0 1 -1 0 -1 
5 -1 0 -1 6 0 0 -2 3 0 0 -2 4 0 0 -1 
2 0 0 -1 4 0 1 -1 0 -2 6 0 0 -3 3 0 
1 -1 0 -3 2 0 0 -1 4 0 1 -1 0 -1 5 -1 
0 -1 2 0 0 -2 1 0 0 -2 3 0 1 -1 0 -1 
4 -1 0 -1 3 0 0 -2 4 -1 0 -4 2 0 0 -1 
3 0 0 -1 2 0 1 -1 0 -2 9 -1 0 -3 3 -1 
0 -2 2 0 0 -1 5 0 0 -1 2 0 1 -1 0 -2 
3 0 0 -2 2 0 0 -1 5 0 0 -1 2 0 1 -1 
0 -2 2 0 0 -1 2 0 1 -1 1 -1 1 -1 0 -3 
1 -1 1 -1 0 -3 4 -1 0 -3 2 0 0 -1 2 0 
0 -1 3 0 0 -1 2 0 1 -1 0 -2 8 0 0 -2 
1 -1 0 -2 3 0 0 -3 4 0 0 -1 4 0 0 -1 
5 0 0 -1 4 0 0 -2 3 -1 0 -3 2 0 0 -1 
3 0 0 -1 7 -1 0 -2 2 0 0 -1 2 0 0 -1 
5 0 0 -1 2 0 0 -2 4 -1 0 -1 4 0 0 -1 
15 0 0 -1 6 0 0 -1 6 -1 0 -1 2 0 1 -1 
0 -2 1 0 0 -2 4 0 0 -1 2 0 0 -1 2 0 
0 -1 8 0 0 -1 14 0 0 -1 5 0 0 -1 5 0 
0 -1 5 0 0 -2 6 -1 0 -1 5 0 0 -1 2 0 
0 -1 8 0 0 -1 8 -1 0 -1 6 0 0 -2 2 0 
0 -2 4 0 0 -1 7 0 0 -1 4 0 0 -1 3 -1 
0 -1 5 0 0 -1 2 0 0 -1 2 0 0 -1 2 0 
0 -2 3 -1 0 -1 2 0 0 -1 3 0 0 -1 1 -1 
0 -2 5 0 0 -1 2 0 0 -1 5 0 0 -2 4 0 
0 -1 6 0 0 -1 4 0 0 -1 4 0 0 -1 6 0 
0 -1 3 0 0 -3 22 -1 0 -2 8 0 0 -1 2 0 
0 -1 5 0 0 -1 2 0 1 -1 0 -1 6 -1 1 -1 
0 -1 3 -1 0 -2 6 0 0 -1 9 0 0 -1 4 0 
0 -2 5 -1 0 -2 6 0 0 -1 7 0 0 -2 7 0 
0 -1 2 0 0 -3 3 0 0 -1 3 0 0 -1 4 -1 
0 -1 5 0 0 -1 5 0 0 -2 2 0 0 -3 5 0 
0 -1 2 0 0 -1 1543 3530 300 MP stroke
6 0 0 -1 3 0 0 -1 10 0 0 -1 3 0 0 -1 
3 0 0 -2 9 0 0 -1 5 0 0 -1 13 0 0 -1 
3 0 0 -1 2 0 0 -1 11 0 0 -1 6 0 0 -1 
17 0 0 -1 8 0 0 -2 11 0 0 -1 12 0 0 -1 
11 0 0 -2 6 0 1 -1 0 -1 3 -1 0 -1 2 0 
0 -1 6 0 0 -2 15 -1 0 -1 2 0 0 -2 2 0 
0 -1 28 0 0 -1 11 0 0 -1 20 0 0 -1 17 0 
0 -1 24 0 0 -2 11 0 0 -1 81 0 0 -1 25 0 
0 -1 27 0 0 -1 19 0 0 -1 44 0 0 -1 64 0 
0 -1 55 0 0 -1 231 0 0 -2 716 3578 78 MP stroke
gr

18 w
c8
DD
0 sg
1924 3950 mt 
(PSNR variation [dB]) s
gs 678 302 4046 3277 rc
DO
24 w
/c9 { 0.000000 0.500000 0.000000 sr} bdef
c9
0 -1 187 0 0 -1 65 0 0 -1 18 0 0 -1 9 0 
0 -1 2 0 0 -1 49 0 0 -1 8 0 0 -1 31 0 
0 -1 36 0 0 -2 30 0 0 -1 2 0 0 -1 3 0 
0 -1 4 0 0 -1 3 0 0 -1 10 0 0 -1 13 0 
0 -1 6 0 0 -1 10 0 0 -3 4 0 0 -1 5 0 
0 -1 6 0 0 -1 5 -1 0 -2 16 0 0 -1 12 -1 
0 -1 14 0 0 -3 9 0 0 -1 5 0 0 -1 3 0 
0 -1 5 0 0 -1 2 0 0 -1 6 0 0 -1 2 0 
0 -1 3 0 0 -2 1 -1 1 -1 0 -2 5 0 1 -1 
1 -1 0 -2 2 0 0 -1 4 0 0 -2 2 0 0 -1 
2 0 1 -1 0 -1 4 -1 0 -1 3 -1 0 -1 5 0 
0 -1 2 0 0 -1 3 0 0 -2 1 0 0 -2 2 0 
0 -1 2 0 0 -1 3 0 0 -1 4 0 0 -3 2 0 
0 -2 2 0 1 -1 0 -2 6 0 0 -2 7 0 0 -1 
2 -2 1 -1 0 -2 6 0 1 -1 1 -1 1 -1 0 -2 
2 0 1 -1 0 -1 8 -1 0 -1 2 0 0 -2 5 -1 
0 -1 4 -1 0 -1 2 0 0 -1 2 -2 1 -1 1 -1 
0 -2 2 0 0 -2 3 -1 0 -1 2 0 0 -1 2 0 
0 -1 5 -1 1 -1 0 -3 3 0 0 -2 3 -1 0 -3 
2 0 1 -1 0 -4 7 0 0 -1 2 0 0 -1 1 -1 
0 -3 3 -1 0 -4 3 0 1 -1 1 -1 1 -1 0 -2 
3 0 0 -1 1 -1 0 -2 3 -1 0 -2 4 0 1 -1 
0 -3 1 -1 1 -1 0 -2 1 0 0 -2 3 -1 0 -1 
0 1 1 -3 0 -3 2 0 0 -3 2 0 0 -2 1 0 
0 -2 3 -1 0 -1 2 0 0 -3 1 -1 0 -2 1 -1 
1 -1 1 -1 1 -1 0 -2 2 0 0 -2 1 -1 0 -2 
3 0 0 -3 3 -1 1 -1 0 -3 4 0 0 -1 2 -2 
1 -1 0 -2 2 0 0 -2 1 -1 0 -2 1 0 1 -1 
1 -1 1 -1 1 -1 0 -1 3 -1 0 -4 4 0 1 -1 
0 -3 2 0 1 -1 0 -2 1 0 1 -1 0 -4 2 -2 
1 -1 1 -1 0 -1 2 -2 0 -1 0 1 1 -3 0 -2 
3 -1 1 -1 0 -1 0 1 1 -3 0 -1 0 1 1 -3 
0 -4 2 0 0 -3 2 0 1 -1 1 -1 0 -2 2 0 
1 -1 1 -1 0 -2 2 -2 0 -1 4 -1 1 -1 0 -2 
2 0 0 -2 2 0 1 -1 0 -2 1 -1 1 -1 1 -1 
0 -5 1 0 1 -1 1 -1 0 -2 2 0 0 -1 1 -1 
0 -2 1 0 0 -1 3 -1 0 -3 2 0 0 -2 2 -2 
0 -2 1 -1 0 -3 3288 617 300 MP stroke
2 0 0 -1 5 -1 0 -1 1 -4 0 -3 1 -1 1 -1 
0 -2 2 0 0 -1 3 0 0 -3 2 -2 0 -1 2 -2 
1 -1 0 -2 1 0 0 -4 2 0 0 -2 1 0 1 -1 
0 -2 1 -1 0 -3 1 -1 0 -3 3 -1 0 -1 1 -1 
0 -4 2 -2 0 -1 2 -2 0 -3 1 0 0 -3 2 -2 
0 -1 0 1 1 -3 0 -5 1 0 1 -1 0 -2 2 0 
0 -2 2 0 0 -2 1 -1 0 -3 1 -1 0 -2 1 -1 
0 -3 2 0 0 -1 0 1 1 -3 0 -1 0 1 1 -5 
1 -1 0 -2 1 -1 0 -4 2 -2 1 -1 0 -2 1 -4 
1 -1 0 -2 3 -1 0 -1 0 1 1 -3 0 -3 2 -2 
0 -9 1 0 0 -2 1 0 0 -2 1 -1 1 -1 0 -5 
2 -2 0 -3 2 0 1 -1 0 -6 1 0 0 -2 2 -2 
0 -1 2 -2 0 -3 1 0 0 -3 3 -1 0 -1 1 -3 
0 -2 1 0 0 -3 1 -1 0 -3 1 -1 0 -3 1 0 
0 -6 1 0 0 -4 2 0 0 -3 2 0 1 -1 0 -3 
1 -1 0 -6 1 -1 0 -1 1 -3 0 -5 1 -1 0 -2 
2 0 0 -2 1 -1 0 -4 2 0 0 -3 2 -2 0 -4 
1 0 0 -2 2 0 1 -1 1 -1 0 -3 1 -1 0 -3 
1 -1 0 -5 2 -2 1 -1 0 -2 1 -1 0 -2 2 -2 
0 -1 0 1 1 -3 0 -3 1 0 0 -1 0 1 1 -3 
0 -1 0 1 1 -3 0 -1 0 1 1 -4 0 -3 1 -1 
0 -1 0 1 1 -3 1 -1 0 -4 2 0 0 -2 1 -4 
0 -4 2 -2 1 -1 1 -1 0 -4 1 0 0 -3 1 0 
0 -2 2 -2 0 -2 1 -4 0 -3 2 -2 0 -3 1 -1 
0 -3 1 0 0 -1 1 -3 0 -1 1 -7 0 -1 2 -2 
0 -7 2 0 0 -3 1 -1 0 -1 0 1 1 -3 0 -2 
1 -1 0 -3 1 -1 1 -1 1 -1 0 -6 1 0 0 -2 
1 0 1 -1 0 -5 1 0 0 -3 2 -2 0 -7 2 -2 
0 -2 1 -1 0 -1 0 1 1 -4 0 -1 1 -4 0 -9 
1 0 0 -4 2 0 0 -4 1 -4 0 -4 1 0 0 -1 
0 1 1 -3 0 -2 1 -1 0 -4 1 0 0 -3 1 -3 
0 -2 1 -1 0 -5 1 -1 0 -1 0 1 1 -3 0 -4 
1 -1 0 -2 1 -1 0 -2 1 0 0 -2 1 -1 0 -1 
0 1 1 -4 0 -3 2 -2 0 -6 1 0 0 -2 2 -2 
0 -2 1 -1 0 -5 2 0 0 -1 1 -1 0 -2 1 -3 
1 -1 0 -2 1 -1 0 -1 1 -5 0 -4 2 -2 0 -2 
1 -4 0 -3 1 -1 0 -2 2 -2 1 -1 0 -1 0 1 
1 -7 1 -1 0 -7 3084 1181 300 MP stroke
1 -1 0 -2 1 0 0 -3 2 0 0 -5 1 -1 0 -5 
1 -1 1 -1 0 -2 1 0 0 -3 1 -3 1 -1 0 -4 
1 -1 0 -2 1 -3 0 -4 2 0 0 -2 1 -1 0 -2 
1 0 0 -3 1 0 1 -1 0 -4 1 0 0 -2 1 -1 
0 -2 1 -4 0 -2 1 -1 1 -1 0 -3 2 0 0 -4 
1 -3 0 -2 2 -2 0 -3 1 0 0 -4 1 -7 0 -2 
1 -1 0 -4 1 -1 0 -7 1 -1 0 -5 2 -2 0 -2 
1 -4 0 -5 1 0 0 -3 1 -1 1 -1 0 -5 1 -1 
0 -2 1 -1 1 -1 1 -1 0 -5 1 -1 0 -4 1 0 
0 -4 1 -1 0 -1 0 1 1 -4 0 -1 0 1 1 -4 
0 -2 1 -1 0 -5 1 -1 0 -3 1 0 0 -2 2 -2 
0 -5 1 0 0 -3 1 -1 0 -3 2 0 0 -2 1 -1 
0 -3 1 -3 0 -4 1 -1 0 -4 2 0 0 -4 1 -1 
0 -4 1 -1 1 -1 1 -1 0 -2 1 -1 0 -5 1 -1 
0 -6 1 0 0 -5 1 -1 0 -4 1 0 0 -4 1 0 
0 -2 1 -1 0 -2 2 -2 0 -1 1 -6 0 -2 1 -1 
0 -2 1 -1 0 -2 1 -1 0 -2 1 -1 0 -3 1 -1 
0 -8 2 -2 0 -4 1 -1 0 -2 2 0 0 -1 1 -3 
0 -5 1 0 0 -5 1 -1 1 -1 0 -4 1 0 0 -3 
2 -2 0 -1 0 1 1 -4 0 -5 1 -1 0 -6 1 -1 
0 -2 1 0 0 -3 1 -1 0 -3 1 -1 0 -3 1 -1 
0 -8 2 0 0 -1 1 -1 0 -2 1 -1 0 -3 1 -1 
0 -2 1 -1 0 -8 1 0 0 -1 1 -4 0 -7 1 0 
0 -2 2 -2 0 -4 1 -1 0 -3 1 -1 0 -1 2 -2 
0 -2 2 -2 0 -1 3 -1 0 -1 0 1 1 -4 0 -3 
1 -1 0 -1 2 -2 0 -7 1 0 0 -4 1 -1 0 -2 
1 -4 0 -1 0 1 1 -3 0 -8 2 -2 1 -1 0 -3 
3 0 1 -1 0 -3 3 -1 0 -1 2 -2 0 -3 1 -4 
0 -10 1 0 0 -5 1 -1 0 -10 1 0 0 -7 1 -1 
0 -10 1 -1 0 -5 1 -1 0 -5 2 0 0 -4 4 -1 
0 -2 1 -1 1 -1 0 -2 2 0 0 -1 2 0 0 -1 
1 -1 0 -6 1 -1 0 -6 1 0 0 -16 1 0 0 -2 
1 -3 0 -13 1 0 0 -7 1 0 0 -4 1 -1 1 -1 
0 -2 1 -3 0 -5 1 -1 0 -4 1 -1 0 -3 1 -1 
0 -4 7 -1 1 -1 0 -6 1 -3 0 -16 1 -1 0 -21 
1 -1 0 -11 1 0 1 -1 0 -11 1 -1 0 -2 1 -1 
0 -2 13 0 0 -94 14 0 0 -1 1 -1 0 -4 1 -3 
0 -3 1 -3 0 -3 2867 2008 300 MP stroke
1 -1 0 -9 1 -4 0 -24 1 0 0 -7 2 0 0 -1 
5 0 0 -1 1 -3 1 -1 0 -2 1 -1 0 -2 2 -2 
1 -1 0 -2 1 -1 0 -2 1 -1 0 -3 1 -4 0 -3 
1 -4 0 -10 1 -6 0 -14 1 -1 0 -4 1 -1 0 -4 
1 -1 0 -5 2 -2 0 -3 2 -2 0 -2 2 0 0 -3 
1 -1 1 -1 0 -3 2 -2 0 -1 0 1 1 -3 1 -1 
0 -6 1 -5 0 -2 1 -4 0 -4 1 -3 0 -9 1 -1 
0 -12 1 -1 0 -10 1 0 0 -3 1 -4 1 -1 1 -1 
0 -3 1 -1 1 -1 0 -4 2 0 0 -2 1 -1 0 -2 
1 -1 0 -3 1 -1 1 -1 0 -3 1 -1 0 -5 1 0 
0 -4 1 -1 0 -6 1 -1 0 -11 1 0 0 -9 1 0 
0 -4 1 -1 0 -1 0 1 1 -3 0 -1 0 1 1 -3 
0 -2 1 -3 0 -5 1 0 0 -2 1 -1 0 -1 2 -2 
1 -1 1 -1 0 -6 2 -2 0 -3 1 -3 0 -1 0 1 
1 -3 0 -1 1 -4 0 -3 1 -1 0 -10 2 -2 0 -5 
1 -3 0 -13 1 0 0 -5 1 0 0 -8 1 -1 0 -1 
0 1 1 -3 0 -2 1 -3 0 -3 2 -2 0 -3 1 -1 
0 -1 0 1 1 -3 0 -2 1 -1 0 -5 3 -1 0 -1 
1 -1 1 -1 1 -1 0 -4 1 0 1 -1 0 -2 1 0 
0 -8 1 0 0 -1 0 1 1 -3 0 -3 1 -1 0 -6 
1 -1 0 -7 2 0 0 -4 1 -4 0 -6 1 -1 0 -2 
1 -1 0 -1 1 -4 0 -1 2 -2 0 -1 1 -5 1 -1 
0 -3 1 -1 0 -1 0 1 1 -4 0 -4 1 0 0 -1 
0 1 1 -4 0 -2 1 0 0 -8 1 0 0 -1 0 1 
1 -3 0 -7 3 -1 0 -5 1 0 0 -7 1 0 0 -4 
2 -2 1 -1 0 -4 1 -1 0 -1 0 1 1 -4 0 -2 
1 -1 1 -1 0 -2 1 -1 0 -6 2 -2 1 -1 0 -6 
1 -1 0 -5 1 -1 0 -2 1 -1 0 -2 1 -1 0 -7 
1 0 0 -1 0 1 1 -3 0 -3 1 -1 0 -3 1 0 
0 -3 1 -4 0 -5 1 0 0 -3 2 -2 0 -1 2 -2 
0 -2 1 0 0 -2 1 0 0 -3 2 -2 0 -1 0 1 
1 -3 0 -2 1 0 0 -2 1 -5 0 -4 1 0 0 -7 
1 0 0 -4 1 -1 0 -2 1 -1 1 -1 0 -3 1 -5 
0 -2 2 -2 0 -5 1 0 0 -2 1 -1 1 -1 0 -4 
1 -1 1 -1 0 -2 1 -1 0 -8 1 0 0 -5 1 0 
0 -3 2 -2 0 -6 1 -1 0 -2 1 0 0 -2 1 -1 
0 -1 0 1 1 -4 0 -1 0 1 1 -5 0 -6 2 0 
0 -6 1 0 1 -1 2685 2747 300 MP stroke
0 -3 1 -1 0 -3 1 0 0 -3 1 -1 0 -5 1 0 
0 -4 2 -2 0 -3 1 -1 0 -4 2 -2 0 -1 1 -3 
1 -1 0 -4 1 0 0 -1 1 -3 1 -1 0 -4 2 -2 
0 -1 3 -1 0 -2 1 -1 0 -5 1 0 0 -1 0 1 
1 -3 0 -3 1 -3 0 -5 1 0 0 -2 1 -1 0 -3 
1 0 0 -4 1 -1 0 -1 0 1 1 -3 0 -1 0 1 
1 -5 0 -2 1 0 0 -3 1 -3 1 -1 0 -1 2 -2 
0 -3 1 -1 0 -8 1 0 0 -3 1 -1 0 -3 1 -1 
0 -3 1 0 0 -4 1 0 0 -3 1 0 0 -3 2 -2 
0 -4 2 -2 0 -7 1 0 0 -2 1 0 1 -1 0 -2 
3 0 0 -4 1 -1 0 -4 2 0 1 -1 1 -1 0 -5 
1 0 0 -4 1 0 0 -2 2 -2 1 -1 0 -1 1 -3 
0 -1 0 1 1 -3 0 -2 3 0 0 -3 1 -1 0 -2 
1 0 1 -1 0 -1 1 -3 1 -1 0 -2 1 -3 0 -1 
1 -3 1 -1 0 -5 2 -2 0 -2 1 -1 1 -1 0 -1 
0 1 1 -3 0 -2 1 -1 0 -2 1 -1 1 -1 0 -2 
1 -1 1 -1 0 -3 2 -2 0 -3 1 -1 0 -5 2 -2 
1 -1 0 -3 2 0 0 -1 0 1 1 -4 0 -5 3 0 
1 -1 0 -4 1 0 0 -2 1 -1 0 -2 2 -2 1 -1 
0 -4 2 0 0 -6 1 -1 0 -5 1 -1 0 -1 2 -2 
1 -1 0 -5 1 -1 0 -4 1 -1 0 -1 0 1 1 -3 
0 -1 2 -2 0 -2 2 0 0 -1 1 -1 1 -1 0 -3 
1 -1 0 -1 1 -3 0 -2 1 -1 0 -6 1 -1 0 -3 
1 -1 0 -3 2 -2 1 -1 0 -2 2 0 0 -4 1 -1 
1 -1 0 -1 2 -2 0 -2 2 0 1 -1 0 -3 2 -2 
0 -3 1 -1 0 -2 1 -3 0 -3 1 -1 0 -4 1 0 
0 -1 0 1 1 -4 0 -2 1 -1 0 -3 1 -3 0 -2 
4 -1 0 -4 2 -2 0 -2 2 0 1 -1 0 -2 2 0 
0 -3 1 -1 1 -1 0 -4 1 -1 0 -3 1 -1 1 -1 
0 -1 0 1 1 -4 0 -2 3 0 0 -2 1 0 0 -3 
1 0 0 -3 2 0 0 -1 1 -1 0 -3 1 -1 1 -1 
0 -5 2 0 0 -4 1 -1 1 -1 0 -1 0 1 1 -3 
0 -2 2 0 1 -1 1 -1 1 -1 1 -1 0 -2 1 -1 
0 -4 1 0 0 -2 2 -2 0 -1 2 -2 0 -4 1 0 
0 -3 3 -1 0 -1 1 -1 1 -1 0 -3 2 -2 0 -3 
2 0 1 -1 0 -1 0 1 1 -3 1 -1 0 -1 0 1 
1 -3 0 -2 1 0 0 -2 1 -1 0 -2 1 0 0 -3 
2 0 1 -1 0 -2 2477 3274 300 MP stroke
3 0 0 -1 1 -1 0 -5 1 0 0 -4 2 0 1 -1 
1 -1 0 -4 1 -1 0 -2 2 0 0 -1 1 -1 1 -1 
0 -3 2 0 0 -2 1 0 0 -2 2 -2 1 -1 0 -5 
1 -1 0 -5 2 0 0 -1 1 -1 0 -3 2 0 0 -2 
1 0 1 -1 1 -1 0 -1 4 -1 1 -1 0 -2 1 -1 
1 -1 0 -2 2 0 0 -3 1 0 1 -1 1 -1 0 -3 
3 -1 0 -2 2 0 0 -4 3 -1 0 -2 3 0 0 -2 
1 -1 1 -1 0 -6 1 0 0 -1 2 -2 0 -2 1 0 
1 -1 1 -1 0 -5 3 0 1 -1 1 -1 0 -1 3 -1 
0 -6 2 0 1 -1 0 -1 3 -1 0 -2 2 0 0 -1 
2 0 0 -1 1 -1 0 -3 2 -2 1 -1 1 -1 0 -2 
5 0 0 -4 2 0 0 -2 2 0 0 -1 2 0 1 -1 
0 -2 2 0 0 -2 1 0 0 -1 0 1 1 -4 1 -1 
0 -2 3 -1 0 -2 2 0 0 -1 1 -1 0 -2 1 0 
0 -1 5 -1 0 -1 3 0 0 -2 2 0 0 -3 5 0 
0 -5 1 -1 0 -2 3 0 0 -1 2 0 0 -4 3 0 
0 -1 2 0 0 -1 4 -1 0 -2 6 0 1 -1 0 -1 
3 -1 1 -1 0 -2 1 0 1 -1 1 -1 0 -2 2 0 
0 -1 6 0 0 -1 8 0 0 -1 2 0 1 -1 0 -2 
2 0 1 -1 0 -2 3 0 1 -1 1 -1 1 -1 0 -1 
2 -2 0 -2 2 0 0 -1 3 -1 0 -1 3 -1 0 -1 
2 0 0 -1 2 0 0 -2 4 -1 0 -2 2 0 0 -1 
3 0 0 -1 3 0 0 -1 3 0 1 -1 1 -1 0 -3 
9 0 1 -1 0 -2 1 0 0 -2 4 -1 0 -2 2 0 
0 -1 5 0 0 -1 4 0 1 -1 0 -2 1 0 0 -3 
2 0 0 -3 2 0 0 -1 6 0 0 -1 7 0 0 -3 
2 0 0 -1 2 0 1 -1 0 -1 3 -1 0 -1 4 0 
0 -2 5 0 0 -1 4 -1 0 -2 1 0 0 -1 3 -1 
0 -1 3 0 1 -1 0 -1 9 -1 0 -1 8 0 0 -1 
6 0 0 -2 6 -1 0 -1 3 0 0 -1 7 0 0 -1 
10 0 0 -1 6 0 0 -1 3 -1 0 -1 4 0 0 -1 
2 0 0 -2 2 0 1 -1 0 -1 3 -1 0 -1 5 0 
0 -1 6 0 0 -1 9 0 0 -1 5 0 0 -1 6 0 
0 -3 3 0 0 -2 21 0 0 -1 25 0 0 -1 6 0 
0 -1 29 0 0 -1 75 0 0 -1 64 0 0 -1 33 0 
0 -2 1836 3578 282 MP stroke
SO
18 w
/c10 { 1.000000 0.000000 0.000000 sr} bdef
c10
0 -1 58 0 0 -1 62 0 0 -1 14 0 0 -1 6 0 
0 -1 16 0 0 -1 11 0 0 -1 8 0 0 -1 7 0 
0 -1 15 0 0 -2 7 0 0 -1 19 0 0 -1 2 0 
0 -1 8 0 0 -1 17 0 0 -1 3 0 0 -1 3 -1 
0 -1 13 0 0 -1 3 0 0 -2 4 0 0 -1 3 0 
0 -1 9 0 0 -1 8 0 0 -1 13 0 0 -1 4 0 
0 -1 10 0 0 -2 3 0 1 -1 0 -2 12 0 0 -1 
4 0 0 -1 15 0 0 -1 5 -1 0 -1 1 -1 1 -1 
0 -3 10 -1 0 -1 2 0 1 -1 0 -1 5 -1 0 -1 
2 0 0 -1 10 -1 0 -3 4 -1 0 -1 5 -1 0 -1 
9 -1 0 -1 2 0 0 -1 2 0 0 -1 2 0 0 -1 
2 0 0 -2 4 -1 1 -1 0 -1 7 -1 1 -1 1 -1 
1 -1 0 -3 3 0 0 -1 1 -1 0 -3 2 0 0 -1 
1 -1 0 -2 4 0 0 -2 4 0 0 -1 2 0 0 -2 
2 0 0 -1 3 0 0 -2 4 -1 0 -1 3 -1 0 -3 
1 0 0 -2 1 -1 0 -1 2 -2 1 -1 0 -3 1 0 
1 -1 0 -2 1 0 0 -2 2 0 1 -1 0 -1 6 -1 
0 -3 1 0 0 -1 3 -1 0 -2 2 0 0 -1 2 0 
0 -1 2 0 0 -2 2 0 0 -2 2 0 0 -1 2 0 
0 -1 1 -1 0 -1 0 1 1 -3 0 -1 2 -2 0 -2 
1 0 0 -2 2 0 0 -2 3 -1 0 -1 2 0 1 -1 
1 -1 0 -3 1 -1 0 -1 4 -1 0 -1 3 -1 0 -1 
2 0 0 -1 2 0 0 -1 3 0 0 -2 1 0 1 -1 
0 -1 2 -2 0 -1 3 -1 0 -1 2 0 0 -1 4 0 
1 -1 0 -3 2 0 0 -2 1 0 1 -1 0 -1 0 1 
1 -3 0 -5 1 0 0 -2 2 -2 0 -5 4 -1 1 -1 
1 -1 0 -2 1 0 1 -1 0 -3 3 0 0 -3 2 0 
0 -1 0 1 1 -3 0 -1 0 1 1 -4 0 -3 1 -1 
1 -1 0 -3 2 0 1 -1 1 -1 1 -1 0 -2 1 0 
1 -1 0 -2 1 -3 0 -2 1 0 0 -3 2 0 1 -1 
0 -5 1 0 0 -2 2 0 0 -7 1 -1 1 -1 0 -4 
1 0 1 -1 0 -4 2 -2 0 -4 1 0 0 -2 2 0 
0 -2 1 0 0 -7 2 0 0 -1 1 -1 0 -2 2 -2 
0 -3 3 0 0 -2 2 0 0 -4 1 0 0 -1 2 -2 
0 -1 0 1 1 -3 0 -1 0 1 1 -3 0 -4 2 -2 
0 -3 1 0 1 -1 0 -2 3 -1 0 -1 1 -1 1 -1 
1 -1 0 -3 1 -1 0 -1 2 -2 0 -2 1 -1 0 -2 
1 0 0 -3 1 0 3177 637 300 MP stroke
0 -1 1 -3 1 -1 1 -1 0 -3 2 0 1 -1 1 -1 
0 -3 2 0 0 -5 2 0 0 -2 1 0 0 -1 1 -3 
0 -4 2 -2 0 -4 1 -1 1 -1 0 -3 1 0 1 -1 
1 -1 0 -1 1 -3 0 -3 2 0 0 -4 2 0 0 -5 
1 -1 0 -3 1 -1 0 -6 1 0 0 -3 2 0 0 -1 
0 1 1 -5 0 -3 2 0 0 -3 3 -1 0 -1 1 -1 
0 -3 2 -2 0 -3 1 -1 0 -2 1 -1 0 -2 2 0 
0 -7 2 -2 0 -1 1 -3 0 -2 1 0 0 -5 2 -2 
0 -4 1 0 0 -1 0 1 1 -3 0 -2 1 -1 0 -8 
1 -1 0 -2 1 -1 0 -1 0 1 1 -3 0 -2 1 -1 
0 -2 1 -1 0 -2 1 -3 0 -3 1 -1 0 -4 1 -3 
0 -2 1 0 0 -2 1 -1 0 -2 1 -1 0 -2 1 0 
1 -1 0 -6 1 -1 0 -1 0 1 1 -4 1 -1 0 -6 
1 0 0 -3 1 -3 0 -8 2 -2 0 -1 1 -3 0 -6 
1 -1 1 -1 0 -1 2 -2 0 -4 1 0 0 -1 0 1 
1 -3 1 -1 0 -3 2 -2 0 -2 1 -1 0 -3 1 -3 
1 -1 0 -2 2 -2 0 -2 1 0 1 -1 0 -2 1 -5 
0 -2 1 0 0 -4 2 0 0 -5 1 -1 0 -2 2 -2 
1 -1 0 -3 1 -1 0 -2 1 -1 0 -3 1 -1 1 -1 
0 -6 1 -1 0 -2 1 -1 0 -1 0 1 1 -3 0 -1 
0 1 1 -4 0 -5 1 0 0 -2 1 -1 0 -6 1 -1 
0 -3 1 -1 0 -3 2 -2 0 -1 0 1 1 -4 0 -6 
2 -2 0 -4 1 -1 0 -11 1 0 0 -1 1 -3 0 -4 
1 0 0 -2 1 -1 0 -3 2 -2 1 -1 0 -8 1 -1 
0 -1 0 1 1 -3 0 -2 1 -3 0 -7 1 0 0 -4 
2 -2 0 -5 1 0 0 -4 1 0 0 -3 1 0 0 -3 
1 -4 0 -2 1 -4 0 -3 1 -3 1 -1 1 -1 0 -5 
1 0 0 -3 1 -1 0 -7 1 -1 0 -3 1 -1 0 -3 
1 -1 0 -3 1 -1 0 -6 2 -2 0 -3 1 -1 0 -3 
1 0 0 -7 1 0 0 -1 0 1 1 -3 0 -7 1 -1 
0 -1 0 1 1 -5 0 -13 1 -1 0 -2 1 0 1 -1 
0 -1 1 -4 0 -2 1 -1 0 -7 2 -2 0 -2 1 -5 
0 -6 2 -2 0 -2 1 0 0 -4 1 0 0 -5 1 0 
0 -4 2 -2 0 -1 0 1 1 -5 0 -5 1 -3 0 -3 
1 -1 0 -8 1 0 0 -4 1 0 0 -3 1 0 0 -4 
1 -1 0 -4 1 0 0 -7 2 -2 0 -4 1 0 0 -2 
1 -1 0 -1 0 1 1 -4 0 -9 1 0 0 -4 1 -1 
0 -5 1 0 0 -6 2996 1300 300 MP stroke
1 -4 0 -2 1 -5 0 -11 1 0 0 -8 1 0 0 -4 
1 0 0 -4 1 -3 1 -1 0 -7 1 0 0 -5 1 0 
0 -2 1 -1 0 -1 0 1 1 -3 0 -2 1 0 0 -7 
1 -1 0 -1 0 1 1 -3 0 -4 1 -1 0 -9 1 0 
0 -7 1 -1 0 -2 1 -1 0 -3 1 -4 0 -7 1 -1 
0 -6 1 -5 0 -9 1 0 0 -5 1 -1 0 -9 1 0 
0 -3 1 -1 0 -3 1 -1 0 -5 1 -1 0 -3 2 0 
0 -1 1 -1 0 -2 3 0 0 -1 1 -1 0 -3 1 -1 
0 -2 1 -1 0 -5 1 0 0 -8 1 0 0 -11 1 -1 
0 -10 1 -1 0 -6 1 -1 0 -5 1 -1 0 -7 1 0 
0 -5 1 -1 0 -7 2 -2 1 -1 0 -3 2 0 0 -2 
2 0 0 -3 1 -1 0 -8 1 0 0 -8 1 0 0 -9 
1 -1 0 -5 1 -1 0 -11 1 0 0 -19 1 0 0 -20 
1 0 0 -10 2 -2 0 -3 2 0 1 -1 1 -1 1 -1 
1 -1 0 -4 2 0 0 -1 0 1 1 -4 1 -1 0 -1 
1 -3 0 -3 1 -1 0 -9 1 -1 0 -10 1 -1 0 -14 
1 -1 0 -10 1 -1 0 -6 1 -1 0 -6 2 0 0 -2 
2 -2 0 -1 1 -4 0 -6 1 0 1 -1 0 -3 2 0 
0 -2 5 0 1 -1 0 -21 1 -1 0 -44 1 0 0 -9 
1 -1 0 -3 1 -3 0 -9 1 -1 0 -8 14 -1 0 -80 
13 0 0 -1 1 -1 0 -1 1 -3 0 -7 2 -2 0 -4 
1 -1 0 -45 1 0 0 -22 1 -4 0 -8 7 0 0 -3 
1 -1 0 -7 1 -1 0 -3 2 0 0 -2 2 0 0 -2 
1 0 0 -11 1 0 0 -11 1 0 0 -29 1 0 0 -19 
1 -1 0 -11 1 -6 0 -5 1 -1 1 -1 0 -6 2 0 
0 -1 1 -1 0 -5 1 -1 0 -3 1 -3 0 -1 0 1 
1 -3 0 -2 2 0 1 -1 1 -1 0 -1 1 -3 0 -4 
1 -1 0 -5 1 -1 0 -10 1 -1 0 -14 1 -1 0 -6 
1 -1 0 -12 1 0 0 -8 1 -3 0 -5 1 0 0 -10 
2 -2 0 -4 2 -2 0 -1 2 -2 1 -1 0 -2 1 -3 
0 -5 1 0 0 -3 1 -1 0 -2 1 -1 0 -4 1 -1 
0 -10 1 0 0 -10 1 -1 0 -11 1 0 0 -11 1 -1 
0 -6 1 -1 0 -4 1 -1 0 -5 2 -2 0 -7 2 0 
1 -1 1 -1 0 -2 1 0 0 -5 2 -2 0 -6 1 -1 
0 -3 1 0 0 -7 1 -4 0 -2 1 -1 0 -4 1 -1 
0 -8 2 -2 0 -7 1 -1 0 -7 1 0 0 -2 1 -1 
0 -6 2 -2 0 -3 2 -2 0 -4 1 -1 0 -5 3 -1 
0 -6 2 0 0 -12 2777 2480 300 MP stroke
1 0 0 -6 1 0 0 -2 1 -3 0 -3 1 -5 0 -5 
1 -1 0 -8 1 -1 0 -3 2 0 0 -4 1 -1 0 -2 
1 -3 0 -4 2 -2 0 -7 1 -1 0 -3 1 -1 0 -3 
1 -4 0 -4 1 0 0 -2 1 -4 0 -1 1 -5 0 -4 
1 -1 1 -1 0 -9 1 -1 0 -3 1 -1 0 -3 1 -7 
0 -4 1 0 0 -8 2 -2 0 -5 1 0 0 -2 1 -1 
0 -3 1 -3 1 -1 0 -6 1 -1 0 -2 1 0 0 -2 
1 0 0 -4 1 0 0 -2 1 -1 0 -6 1 -1 0 -2 
1 0 0 -4 1 0 0 -3 1 -3 0 -8 1 -1 0 -8 
1 -1 0 -2 1 -1 0 -7 1 -1 0 -2 1 -3 0 -3 
1 -4 0 -1 0 1 1 -4 0 -2 2 -2 0 -5 1 -1 
0 -4 2 -2 0 -3 1 -1 0 -5 1 -1 0 -1 1 -4 
0 -7 1 0 0 -1 0 1 1 -5 0 -7 2 -2 0 -9 
1 0 0 -3 1 -1 0 -2 1 0 1 -1 0 -4 1 0 
0 -6 2 -2 0 -3 1 -1 0 -4 1 0 0 -5 1 -1 
0 -6 1 -1 0 -1 2 -2 0 -3 1 0 0 -2 1 -1 
0 -3 2 -2 0 -2 1 0 0 -4 1 -1 0 -4 1 -1 
0 -5 1 -1 0 -2 1 -1 0 -1 0 1 1 -7 0 -2 
1 -1 0 -3 1 -4 0 -6 1 0 0 -7 1 0 0 -5 
1 0 0 -5 1 -1 0 -1 0 1 1 -4 0 -12 1 0 
0 -2 1 -1 0 -4 1 -1 0 -2 1 -1 0 -4 1 -1 
1 -1 1 -1 1 -1 0 -6 1 -1 0 -1 0 1 1 -4 
0 -6 1 0 1 -1 1 -1 0 -1 1 -6 0 -2 2 -2 
0 -5 1 0 0 -3 1 -1 0 -1 1 -5 0 -6 1 0 
1 -1 0 -3 1 -1 0 -3 2 -2 0 -3 2 0 0 -5 
1 0 1 -1 0 -7 1 0 0 -5 1 0 0 -3 1 -3 
0 -3 1 -1 0 -5 1 0 1 -1 0 -1 0 1 1 -3 
0 -4 2 0 0 -1 1 -1 0 -4 2 -2 0 -2 1 -1 
0 -2 1 0 0 -5 1 -1 0 -5 1 -1 0 -3 1 -1 
0 -4 1 -3 0 -1 0 1 1 -4 0 -3 1 -1 0 -6 
2 0 0 -1 1 -3 0 -2 1 -1 0 -7 2 0 0 -2 
1 -1 0 -6 1 -1 0 -3 1 -5 0 -2 2 -2 0 -2 
1 -1 1 -1 0 -2 2 -2 0 -3 1 -1 0 -1 0 1 
1 -3 0 -7 1 0 0 -2 1 -1 0 -1 0 1 1 -4 
1 -1 0 -4 1 0 1 -1 0 -5 2 -2 0 -5 2 0 
0 -4 1 -1 0 -1 1 -4 0 -4 2 0 0 -1 0 1 
1 -4 0 -5 1 -1 0 -2 2 -2 0 -2 1 -4 0 -3 
2 -2 0 -3 3 -1 2600 3202 300 MP stroke
0 -2 1 -1 0 -2 2 0 0 -1 3 -1 0 -1 3 -1 
1 -1 0 -2 1 0 0 -3 2 -2 0 -1 0 1 1 -4 
0 -4 1 0 0 -5 3 -1 1 -1 0 -3 1 -1 0 -3 
1 0 1 -1 0 -2 1 -1 0 -3 1 0 0 -2 1 -1 
0 -6 1 0 0 -2 1 -3 0 -6 2 -2 0 -1 1 -3 
0 -2 1 -1 0 -3 1 -4 0 -2 1 0 0 -1 0 1 
1 -3 0 -3 2 -2 0 -2 2 -2 0 -3 1 0 0 -2 
2 -2 0 -4 1 0 0 -2 1 0 0 -3 2 0 0 -1 
2 -2 0 -2 1 0 0 -4 3 -1 0 -2 1 -1 0 -2 
1 -1 0 -2 1 -1 1 -1 0 -2 3 -1 0 -2 2 -2 
0 -3 4 0 0 -3 2 0 0 -1 2 0 0 -1 4 -1 
1 -1 1 -1 0 -2 1 0 0 -2 2 0 0 -1 2 0 
1 -1 0 -1 3 -1 0 -6 2 0 0 -2 3 -1 1 -1 
1 -1 0 -1 1 -3 1 -1 1 -1 0 -3 3 0 0 -3 
2 0 1 -1 0 -3 2 0 0 -1 2 -2 0 -3 3 -1 
0 -3 2 -2 1 -1 0 -2 5 -1 0 -2 1 0 0 -2 
1 0 0 -2 2 0 0 -1 2 0 0 -1 1 -1 0 -2 
2 0 0 -4 1 -1 1 -1 1 -1 0 -2 2 0 0 -6 
3 -1 0 -1 1 -1 1 -1 0 -1 4 -1 1 -1 0 -3 
1 -1 0 -1 2 -2 1 -1 1 -1 0 -5 3 -1 0 -3 
2 -2 0 -2 4 -1 0 -3 1 0 1 -1 0 -2 2 0 
0 -3 3 -1 0 -2 2 0 1 -1 0 -2 4 0 0 -3 
5 0 0 -1 3 -1 1 -1 0 -3 2 0 0 -1 2 -2 
0 -1 3 -1 0 -2 2 0 0 -1 3 0 0 -2 1 -1 
0 -2 3 -1 0 -1 3 0 0 -1 0 1 1 -3 0 -4 
6 0 0 -1 2 0 0 -1 2 0 0 -1 7 0 0 -1 
2 0 1 -1 0 -4 2 0 1 -1 0 -1 6 -1 0 -1 
2 0 0 -1 2 0 0 -1 1 -1 0 -1 9 -1 0 -3 
4 0 0 -1 4 -1 0 -1 2 0 0 -2 3 0 0 -1 
7 0 0 -1 3 -1 0 -2 8 0 0 -1 3 0 0 -1 
4 -1 0 -1 2 0 0 -1 2 0 1 -1 0 -2 8 0 
0 -2 3 0 0 -1 4 0 0 -1 8 0 0 -1 2 0 
0 -1 2 0 0 -2 11 0 1 -1 0 -1 3 -1 0 -3 
9 0 0 -1 1 -1 1 -1 0 -1 6 -1 0 -2 19 0 
0 -1 4 0 0 -2 10 0 0 -1 12 0 0 -1 21 0 
0 -1 9 0 0 -1 53 0 0 -1 7 -1 0 -1 31 0 
0 -1 69 0 0 -2 2025 3578 292 MP stroke
gr

c10
SO
0 sg
%%IncludeResource: font Helvetica
/Helvetica /ISOLatin1Encoding 120 FMSR

 661 3621 mt 
( ) s
4707  344 mt 
( ) s
6 w
1 sg
0 743 2254 0 0 -743 725 1067 4 MP
PP
-2254 0 0 743 2254 0 0 -743 725 1067 5 MP stroke
4 w
DO
SO
6 w
0 sg
 725 1067 mt 2979 1067 L
 725  324 mt 2979  324 L
 725 1067 mt  725  324 L
2979 1067 mt 2979  324 L
 725 1067 mt 2979 1067 L
 725 1067 mt  725  324 L
 725 1067 mt 2979 1067 L
 725  324 mt 2979  324 L
 725 1067 mt  725  324 L
2979 1067 mt 2979  324 L
%%IncludeResource: font Helvetica
/Helvetica /ISOLatin1Encoding 168 FMSR

1193  522 mt 
(Static RA) s
gs 725 324 2255 744 rc
DD
18 w
c8
360 0 796 461 2 MP stroke
SO
gr

18 w
c8
0 sg
1193  756 mt 
(Throughput-Driven RA) s
gs 725 324 2255 744 rc
DO
24 w
c9
360 0 796 695 2 MP stroke
SO
gr

24 w
c9
0 sg
1193  990 mt 
(Quality-Driven RA) s
gs 725 324 2255 744 rc
18 w
c10
360 0 796 929 2 MP stroke
6 w
gr

6 w
c10

end %%Color Dict

eplot
%%EndObject

epage
end

showpage

%%Trailer
%%EOF
