%!PS-Adobe-3.0 EPSF-3.0
%%Creator: MATLAB, The MathWorks, Inc. Version 8.1.0.604 (R2013a). Operating System: Darwin 13.4.0 Darwin Kernel Version 13.4.0: Sun Aug 17 19:50:11 PDT 2014; root:xnu-2422.115.4~1/RELEASE_X86_64 x86_64.
%%Title: /Users/le/Work/project3/Figures/Results/0926/CDF_worseU.eps
%%CreationDate: 09/27/2014  03:19:56
%%DocumentNeededFonts: Helvetica
%%DocumentProcessColors: Cyan Magenta Yellow Black
%%LanguageLevel: 2
%%Pages: 1
%%BoundingBox:   110   252   499   539
%%EndComments

%%BeginProlog
% MathWorks dictionary
/MathWorks 160 dict begin
% definition operators
/bdef {bind def} bind def
/ldef {load def} bind def
/xdef {exch def} bdef
/xstore {exch store} bdef
% operator abbreviations
/c  /clip ldef
/cc /concat ldef
/cp /closepath ldef
/gr /grestore ldef
/gs /gsave ldef
/mt /moveto ldef
/np /newpath ldef
/cm /currentmatrix ldef
/sm /setmatrix ldef
/rm /rmoveto ldef
/rl /rlineto ldef
/s {show newpath} bdef
/sc {setcmykcolor} bdef
/sr /setrgbcolor ldef
/sg /setgray ldef
/w /setlinewidth ldef
/j /setlinejoin ldef
/cap /setlinecap ldef
/rc {rectclip} bdef
/rf {rectfill} bdef
% page state control
/pgsv () def
/bpage {/pgsv save def} bdef
/epage {pgsv restore} bdef
/bplot /gsave ldef
/eplot {stroke grestore} bdef
% orientation switch
/portraitMode 0 def /landscapeMode 1 def /rotateMode 2 def
% coordinate system mappings
/dpi2point 0 def
% font control
/FontSize 0 def
/FMS {/FontSize xstore findfont [FontSize 0 0 FontSize neg 0 0]
  makefont setfont} bdef
/reencode {exch dup where {pop load} {pop StandardEncoding} ifelse
  exch dup 3 1 roll findfont dup length dict begin
  { 1 index /FID ne {def}{pop pop} ifelse } forall
  /Encoding exch def currentdict end definefont pop} bdef
/isroman {findfont /CharStrings get /Agrave known} bdef
/FMSR {3 1 roll 1 index dup isroman {reencode} {pop pop} ifelse
  exch FMS} bdef
/csm {1 dpi2point div -1 dpi2point div scale neg translate
 dup landscapeMode eq {pop -90 rotate}
  {rotateMode eq {90 rotate} if} ifelse} bdef
% line types: solid, dotted, dashed, dotdash
/SO { [] 0 setdash } bdef
/DO { [.5 dpi2point mul 4 dpi2point mul] 0 setdash } bdef
/DA { [6 dpi2point mul] 0 setdash } bdef
/DD { [.5 dpi2point mul 4 dpi2point mul 6 dpi2point mul 4
  dpi2point mul] 0 setdash } bdef
% macros for lines and objects
/L {lineto stroke} bdef
/MP {3 1 roll moveto 1 sub {rlineto} repeat} bdef
/AP {{rlineto} repeat} bdef
/PDlw -1 def
/W {/PDlw currentlinewidth def setlinewidth} def
/PP {closepath eofill} bdef
/DP {closepath stroke} bdef
/MR {4 -2 roll moveto dup  0 exch rlineto exch 0 rlineto
  neg 0 exch rlineto closepath} bdef
/FR {MR stroke} bdef
/PR {MR fill} bdef
/L1i {{currentfile picstr readhexstring pop} image} bdef
/tMatrix matrix def
/MakeOval {newpath tMatrix currentmatrix pop translate scale
0 0 1 0 360 arc tMatrix setmatrix} bdef
/FO {MakeOval stroke} bdef
/PO {MakeOval fill} bdef
/PD {currentlinewidth 2 div 0 360 arc fill
   PDlw -1 eq not {PDlw w /PDlw -1 def} if} def
/FA {newpath tMatrix currentmatrix pop translate scale
  0 0 1 5 -2 roll arc tMatrix setmatrix stroke} bdef
/PA {newpath tMatrix currentmatrix pop	translate 0 0 moveto scale
  0 0 1 5 -2 roll arc closepath tMatrix setmatrix fill} bdef
/FAn {newpath tMatrix currentmatrix pop translate scale
  0 0 1 5 -2 roll arcn tMatrix setmatrix stroke} bdef
/PAn {newpath tMatrix currentmatrix pop translate 0 0 moveto scale
  0 0 1 5 -2 roll arcn closepath tMatrix setmatrix fill} bdef
/vradius 0 def /hradius 0 def /lry 0 def
/lrx 0 def /uly 0 def /ulx 0 def /rad 0 def
/MRR {/vradius xdef /hradius xdef /lry xdef /lrx xdef /uly xdef
  /ulx xdef newpath tMatrix currentmatrix pop ulx hradius add uly
  vradius add translate hradius vradius scale 0 0 1 180 270 arc 
  tMatrix setmatrix lrx hradius sub uly vradius add translate
  hradius vradius scale 0 0 1 270 360 arc tMatrix setmatrix
  lrx hradius sub lry vradius sub translate hradius vradius scale
  0 0 1 0 90 arc tMatrix setmatrix ulx hradius add lry vradius sub
  translate hradius vradius scale 0 0 1 90 180 arc tMatrix setmatrix
  closepath} bdef
/FRR {MRR stroke } bdef
/PRR {MRR fill } bdef
/MlrRR {/lry xdef /lrx xdef /uly xdef /ulx xdef /rad lry uly sub 2 div def
  newpath tMatrix currentmatrix pop ulx rad add uly rad add translate
  rad rad scale 0 0 1 90 270 arc tMatrix setmatrix lrx rad sub lry rad
  sub translate rad rad scale 0 0 1 270 90 arc tMatrix setmatrix
  closepath} bdef
/FlrRR {MlrRR stroke } bdef
/PlrRR {MlrRR fill } bdef
/MtbRR {/lry xdef /lrx xdef /uly xdef /ulx xdef /rad lrx ulx sub 2 div def
  newpath tMatrix currentmatrix pop ulx rad add uly rad add translate
  rad rad scale 0 0 1 180 360 arc tMatrix setmatrix lrx rad sub lry rad
  sub translate rad rad scale 0 0 1 0 180 arc tMatrix setmatrix
  closepath} bdef
/FtbRR {MtbRR stroke } bdef
/PtbRR {MtbRR fill } bdef
/stri 6 array def /dtri 6 array def
/smat 6 array def /dmat 6 array def
/tmat1 6 array def /tmat2 6 array def /dif 3 array def
/asub {/ind2 exch def /ind1 exch def dup dup
  ind1 get exch ind2 get sub exch } bdef
/tri_to_matrix {
  2 0 asub 3 1 asub 4 0 asub 5 1 asub
  dup 0 get exch 1 get 7 -1 roll astore } bdef
/compute_transform {
  dmat dtri tri_to_matrix tmat1 invertmatrix 
  smat stri tri_to_matrix tmat2 concatmatrix } bdef
/ds {stri astore pop} bdef
/dt {dtri astore pop} bdef
/db {2 copy /cols xdef /rows xdef mul dup 3 mul string
  currentfile 
  3 index 0 eq {/ASCIIHexDecode filter}
  {/ASCII85Decode filter 3 index 2 eq {/RunLengthDecode filter} if }
  ifelse exch readstring pop
  dup 0 3 index getinterval /rbmap xdef
  dup 2 index dup getinterval /gbmap xdef
  1 index dup 2 mul exch getinterval /bbmap xdef pop pop}bdef
/it {gs np dtri aload pop moveto lineto lineto cp c
  cols rows 8 compute_transform 
  rbmap gbmap bbmap true 3 colorimage gr}bdef
/il {newpath moveto lineto stroke}bdef
currentdict end def
%%EndProlog

%%BeginSetup
MathWorks begin

0 cap

end
%%EndSetup

%%Page: 1 1
%%BeginPageSetup
%%PageBoundingBox:   110   252   499   539
MathWorks begin
bpage
%%EndPageSetup

%%BeginObject: obj1
bplot

/dpi2point 12 def
portraitMode 1320 6468 csm

    0     0  4669  3433 rc
85 dict begin %Colortable dictionary
/c0 { 0.000000 0.000000 0.000000 sr} bdef
/c1 { 1.000000 1.000000 1.000000 sr} bdef
/c2 { 0.900000 0.000000 0.000000 sr} bdef
/c3 { 0.000000 0.820000 0.000000 sr} bdef
/c4 { 0.000000 0.000000 0.800000 sr} bdef
/c5 { 0.910000 0.820000 0.320000 sr} bdef
/c6 { 1.000000 0.260000 0.820000 sr} bdef
/c7 { 0.000000 0.820000 0.820000 sr} bdef
c0
1 j
1 sg
   0    0 4670 3434 rf
6 w
0 2769 3618 0 0 -2769 607 3026 4 MP
PP
-3618 0 0 2769 3618 0 0 -2769 607 3026 5 MP stroke
4 w
DO
0 sg
 894 3026 mt  894  257 L
 894  257 mt  894  257 L
1468 3026 mt 1468  257 L
1468  257 mt 1468  257 L
2042 3026 mt 2042  257 L
2042  257 mt 2042  257 L
2617 3026 mt 2617  257 L
2617  257 mt 2617  257 L
3191 3026 mt 3191  257 L
3191  257 mt 3191  257 L
3765 3026 mt 3765  257 L
3765  257 mt 3765  257 L
 607 3026 mt 4225 3026 L
4225 3026 mt 4225 3026 L
 607 2472 mt 4225 2472 L
4225 2472 mt 4225 2472 L
 607 1918 mt 4225 1918 L
4225 1918 mt 4225 1918 L
 607 1364 mt 4225 1364 L
4225 1364 mt 4225 1364 L
 607  810 mt 4225  810 L
4225  810 mt 4225  810 L
 607  257 mt 4225  257 L
4225  257 mt 4225  257 L
SO
6 w
 607 3026 mt 4225 3026 L
 607  257 mt 4225  257 L
 607 3026 mt  607  257 L
4225 3026 mt 4225  257 L
 607 3026 mt 4225 3026 L
 607 3026 mt  607  257 L
 894 3026 mt  894 2989 L
 894  257 mt  894  293 L
%%IncludeResource: font Helvetica
/Helvetica /ISOLatin1Encoding 168 FMSR

 801 3216 mt 
(11) s
1468 3026 mt 1468 2989 L
1468  257 mt 1468  293 L
1375 3216 mt 
(12) s
2042 3026 mt 2042 2989 L
2042  257 mt 2042  293 L
1949 3216 mt 
(13) s
2617 3026 mt 2617 2989 L
2617  257 mt 2617  293 L
2524 3216 mt 
(14) s
3191 3026 mt 3191 2989 L
3191  257 mt 3191  293 L
3098 3216 mt 
(15) s
3765 3026 mt 3765 2989 L
3765  257 mt 3765  293 L
3672 3216 mt 
(16) s
 607 3026 mt  643 3026 L
4225 3026 mt 4188 3026 L
 479 3088 mt 
(0) s
 607 2472 mt  643 2472 L
4225 2472 mt 4188 2472 L
 339 2534 mt 
(0.2) s
 607 1918 mt  643 1918 L
4225 1918 mt 4188 1918 L
 339 1980 mt 
(0.4) s
 607 1364 mt  643 1364 L
4225 1364 mt 4188 1364 L
 339 1426 mt 
(0.6) s
 607  810 mt  643  810 L
4225  810 mt 4188  810 L
 339  872 mt 
(0.8) s
 607  257 mt  643  257 L
4225  257 mt 4188  257 L
 479  319 mt 
(1) s
 607 3026 mt 4225 3026 L
 607  257 mt 4225  257 L
 607 3026 mt  607  257 L
4225 3026 mt 4225  257 L
gs 607 257 3619 2770 rc
DD
18 w
/c8 { 0.000000 0.000000 1.000000 sr} bdef
c8
0 -62 10 0 0 -9 10 0 0 -10 5 0 0 -2 5 0 
0 -4 5 0 0 -5 6 0 0 -4 5 0 0 -7 5 0 
0 -4 5 0 0 -5 5 0 0 -1 5 0 0 -2 6 0 
0 -4 5 0 5 0 0 -1 5 0 0 -3 5 0 0 -3 
6 0 0 -4 5 0 0 -1 5 0 5 0 0 -2 6 0 
0 -1 5 0 0 -4 5 0 0 -1 6 0 0 -2 5 0 
0 -1 5 0 0 -4 5 0 0 -5 6 0 0 -4 5 0 
6 0 0 -5 5 0 0 -6 5 0 0 -3 11 0 0 -1 
6 0 0 -4 5 0 0 -4 6 0 0 -3 5 0 0 -4 
6 0 0 -6 5 0 0 -1 6 0 0 -2 5 0 0 -5 
6 0 0 -10 5 0 0 -6 6 0 0 -5 5 0 0 -2 
6 0 0 -3 5 0 0 -1 6 0 0 -3 6 0 0 -6 
5 0 0 -5 6 0 0 -8 6 0 0 -5 5 0 0 -4 
6 0 0 -6 6 0 0 -8 5 0 0 -4 6 0 0 -2 
6 0 0 -4 6 0 0 -7 5 0 0 -2 6 0 0 -5 
6 0 0 -5 6 0 0 -10 5 0 0 -2 6 0 0 -2 
6 0 0 -2 6 0 0 -3 6 0 0 -3 6 0 0 -4 
6 0 0 -3 6 0 0 -7 5 0 0 -4 6 0 0 -7 
6 0 0 -2 6 0 0 -4 6 0 0 -3 6 0 0 -1 
6 0 0 -3 6 0 0 -4 6 0 0 -5 6 0 0 -2 
6 0 0 -8 7 0 0 -7 6 0 0 -9 6 0 0 -2 
6 0 0 -7 6 0 0 -8 6 0 0 -11 6 0 0 -3 
6 0 0 -7 7 0 0 -10 6 0 0 -3 6 0 0 -4 
6 0 0 -10 7 0 0 -6 6 0 0 -8 6 0 0 -6 
7 0 0 -11 6 0 0 -7 6 0 0 -13 7 0 0 -14 
6 0 0 -8 6 0 0 -17 7 0 0 -13 6 0 0 -14 
7 0 0 -10 6 0 0 -12 6 0 0 -8 7 0 0 -12 
6 0 0 -12 7 0 0 -8 7 0 0 -8 6 0 0 -7 
7 0 0 -13 6 0 0 -11 7 0 0 -14 6 0 0 -15 
7 0 0 -9 7 0 0 -13 6 0 0 -9 7 0 0 -15 
7 0 0 -9 7 0 0 -8 6 0 0 -13 7 0 0 -15 
7 0 0 -10 7 0 0 -11 6 0 0 -13 7 0 0 -12 
7 0 0 -17 7 0 0 -8 7 0 0 -20 7 0 0 -17 
7 0 0 -15 7 0 0 -10 7 0 0 -13 7 0 0 -12 
7 0 0 -10 7 0 0 -8 7 0 0 -15 7 0 0 -8 
7 0 0 -15 7 0 0 -14 7 0 0 -12 7 0 0 -15 
8 0 0 -14 7 0 0 -16 7 0 0 -13 7 0 0 -13 
7 0 0 -11 8 0 2851 1377 300 MP stroke
0 -12 7 0 0 -9 7 0 0 -15 8 0 0 -13 7 0 
0 -14 7 0 0 -3 8 0 0 -16 7 0 0 -15 8 0 
0 -8 7 0 0 -14 8 0 0 -11 7 0 0 -18 8 0 
0 -19 7 0 0 -14 8 0 0 -7 7 0 0 -10 8 0 
0 -15 8 0 0 -21 7 0 0 -11 8 0 0 -13 8 0 
0 -20 8 0 0 -13 7 0 0 -12 8 0 0 -13 8 0 
0 -16 8 0 0 -22 8 0 0 -15 8 0 0 -10 8 0 
0 -9 7 0 0 -16 8 0 0 -13 8 0 0 -20 8 0 
0 -13 8 0 0 -14 9 0 0 -16 8 0 0 -16 8 0 
0 -15 8 0 0 -12 8 0 0 -12 8 0 0 -21 9 0 
0 -19 8 0 0 -17 8 0 0 -17 8 0 0 -12 9 0 
0 -14 8 0 0 -16 8 0 0 -12 9 0 0 -15 8 0 
0 -7 9 0 0 -20 8 0 0 -11 9 0 0 -14 8 0 
0 -16 9 0 0 -12 9 0 0 -13 8 0 0 -14 9 0 
0 -22 9 0 0 -12 8 0 0 -14 9 0 0 -16 9 0 
0 -10 9 0 0 -18 9 0 0 -12 9 0 0 -18 9 0 
0 -22 9 0 0 -12 9 0 0 -13 9 0 0 -15 9 0 
0 -12 9 0 0 -18 9 0 0 -9 9 0 0 -13 9 0 
0 -10 9 0 0 -13 10 0 0 -17 9 0 0 -10 9 0 
0 -14 10 0 0 -10 9 0 0 -9 10 0 0 -19 9 0 
0 -16 10 0 0 -8 9 0 0 -10 10 0 0 -12 9 0 
0 -12 10 0 0 -13 10 0 0 -11 9 0 0 -9 10 0 
0 -15 10 0 0 -9 10 0 0 -7 10 0 0 -6 10 0 
0 -14 10 0 0 -10 10 0 0 -6 10 0 0 -8 10 0 
0 -8 10 0 0 -11 10 0 0 -6 10 0 0 -9 10 0 
0 -7 11 0 0 -7 10 0 0 -12 10 0 0 -6 11 0 
0 -6 10 0 0 -4 11 0 0 -5 10 0 0 -3 11 0 
0 -8 11 0 0 -7 10 0 0 -9 11 0 0 -12 11 0 
0 -4 11 0 0 -5 10 0 0 -3 11 0 0 -9 11 0 
0 -6 11 0 0 -5 11 0 0 -2 11 0 0 -4 12 0 
0 -7 11 0 0 -3 11 0 0 -9 11 0 0 -3 12 0 
0 -7 11 0 0 -4 12 0 0 -9 11 0 0 -3 12 0 
0 -2 11 0 0 -9 12 0 0 -4 12 0 0 -2 12 0 
0 -8 11 0 0 -3 12 0 0 -3 12 0 0 -3 12 0 
0 -7 12 0 0 -4 13 0 0 -4 12 0 0 -6 12 0 
0 -7 12 0 0 -5 13 0 0 -5 12 0 0 -4 13 0 
0 -3 12 0 0 -6 13 0 0 -1 12 0 0 -5 13 0 
0 -2 13 0 0 -4 1429 2966 300 MP stroke
13 0 0 -3 13 0 0 -6 13 0 0 -3 13 0 13 0 
0 -7 27 0 0 -4 13 0 0 -1 13 0 0 -5 14 0 
0 -3 13 0 0 -2 14 0 0 -2 14 0 0 -1 14 0 
0 -2 13 0 0 -2 29 0 0 -2 14 0 0 -1 14 0 
0 -3 28 0 0 -1 15 0 0 -1 14 0 0 -4 30 0 
0 -1 15 0 0 -1 14 0 0 -1 30 0 0 -1 16 0 
0 -1 15 0 0 -1 157 0 0 -1 838 3026 54 MP stroke
gr

18 w
c8
DD
0 sg
1165 3394 mt 
(Variation of the Worse PSNR [dB]) s
gs 607 257 3619 2770 rc
DO
14.4 w
/c9 { 0.000000 0.500000 0.000000 sr} bdef
c9
26 0 0 -1 108 0 0 -1 56 0 0 -1 14 0 0 -1 
24 0 0 -1 4 0 0 -1 24 0 0 -1 15 0 0 -1 
24 0 0 -2 10 0 0 -1 10 0 0 -1 5 0 0 -1 
25 0 0 -1 5 0 0 -2 10 0 0 -1 5 0 0 -1 
5 0 0 -1 20 0 0 -1 115 0 0 -1 27 0 0 -1 
16 0 0 -1 5 0 6 0 0 -1 5 0 0 -1 6 0 
0 -1 5 0 0 -2 6 0 0 -1 5 0 0 -2 28 0 
0 -2 5 0 0 -1 6 0 0 -1 5 0 0 -2 6 0 
0 -2 11 0 0 -1 17 0 0 -1 6 0 0 -1 6 0 
0 -1 5 0 0 -1 6 0 0 -1 6 0 0 -2 17 0 
6 0 0 -2 6 0 0 -2 11 0 0 -1 6 0 0 -4 
6 0 0 -2 6 0 0 -1 6 0 12 0 0 -1 5 0 
0 -1 6 0 0 -2 6 0 0 -1 12 0 0 -1 6 0 
0 -2 6 0 0 -1 6 0 0 -1 12 0 0 -4 6 0 
0 -1 7 0 0 -2 6 0 0 -3 6 0 0 -3 6 0 
0 -1 6 0 0 -1 6 0 0 -4 6 0 0 -3 6 0 
0 -3 7 0 0 -7 6 0 0 -3 6 0 0 -1 6 0 
0 -3 7 0 0 -2 6 0 0 -5 6 0 0 -5 7 0 
0 -5 6 0 0 -2 6 0 0 -4 7 0 0 -10 6 0 
0 -4 6 0 0 -2 7 0 0 -3 6 0 0 -7 7 0 
0 -10 6 0 0 -11 6 0 0 -4 7 0 0 -11 6 0 
0 -11 7 0 0 -7 7 0 0 -11 6 0 0 -15 7 0 
0 -5 6 0 0 -7 7 0 0 -8 6 0 0 -17 7 0 
0 -4 7 0 0 -14 6 0 0 -7 7 0 0 -15 7 0 
0 -1 7 0 0 -10 6 0 0 -8 7 0 0 -18 7 0 
0 -8 7 0 0 -15 6 0 0 -8 7 0 0 -20 7 0 
0 -7 7 0 0 -8 7 0 0 -12 7 0 0 -20 7 0 
0 -10 7 0 0 -20 7 0 0 -11 7 0 0 -20 7 0 
0 -13 7 0 0 -22 7 0 0 -15 7 0 0 -19 7 0 
0 -13 7 0 0 -22 7 0 0 -14 7 0 0 -21 8 0 
0 -15 7 0 0 -16 7 0 0 -8 7 0 0 -21 7 0 
0 -12 8 0 0 -21 7 0 0 -15 7 0 0 -19 8 0 
0 -9 7 0 0 -18 7 0 0 -11 8 0 0 -16 7 0 
0 -13 8 0 0 -13 7 0 0 -11 8 0 0 -15 7 0 
0 -10 8 0 0 -19 7 0 0 -23 8 0 0 -14 7 0 
0 -22 8 0 0 -21 8 0 0 -14 7 0 0 -17 8 0 
0 -21 8 0 0 -13 8 0 0 -12 7 0 0 -24 8 0 
0 -20 8 0 0 -18 2670 1387 300 MP stroke
8 0 0 -23 8 0 0 -30 8 0 0 -26 8 0 0 -18 
7 0 0 -28 8 0 0 -27 8 0 0 -25 8 0 0 -35 
8 0 0 -17 9 0 0 -25 8 0 0 -21 8 0 0 -28 
8 0 0 -40 8 0 0 -35 8 0 0 -36 9 0 0 -32 
8 0 0 -31 8 0 0 -38 8 0 0 -37 9 0 0 -39 
8 0 0 -35 8 0 0 -30 9 0 0 -42 8 0 0 -39 
9 0 0 -29 8 0 0 -38 9 0 0 -33 8 0 0 -31 
9 0 0 -43 9 0 0 -33 8 0 0 -23 9 0 0 -31 
9 0 0 -31 8 0 0 -44 9 0 0 -27 9 0 0 -41 
9 0 0 -32 9 0 0 -29 9 0 0 -27 9 0 0 -26 
9 0 0 -30 9 0 0 -25 9 0 0 -17 9 0 0 -20 
9 0 0 -28 9 0 0 -22 9 0 0 -20 9 0 0 -16 
9 0 0 -26 10 0 0 -20 9 0 0 -14 9 0 0 -18 
10 0 0 -12 9 0 0 -16 10 0 0 -13 9 0 0 -8 
10 0 0 -8 9 0 0 -6 10 0 0 -7 9 0 0 -15 
10 0 0 -6 10 0 0 -4 9 0 0 -3 10 0 0 -7 
10 0 0 -1 10 0 0 -3 10 0 0 -1 10 0 0 -5 
10 0 0 -1 10 0 0 -3 10 0 0 -1 10 0 0 -1 
20 0 0 -1 10 0 0 -1 31 0 0 -1 52 0 0 -1 
32 0 0 -1 43 0 0 -1 44 0 0 -1 1799 3026 159 MP stroke
SO
18 w
/c10 { 1.000000 0.000000 0.000000 sr} bdef
c10
87 0 0 -3 22 0 0 -1 17 0 0 -1 6 0 0 -1 
5 0 0 -1 6 0 0 -1 11 0 0 -6 6 0 0 -1 
6 0 0 -1 5 0 0 -2 6 0 0 -4 6 0 0 -2 
6 0 0 -6 5 0 0 -3 6 0 0 -4 6 0 0 -2 
6 0 0 -4 5 0 0 -2 6 0 0 -5 6 0 0 -3 
6 0 0 -7 6 0 0 -10 6 0 0 -7 6 0 0 -7 
6 0 0 -7 5 0 0 -1 6 0 0 -12 6 0 0 -4 
6 0 0 -9 6 0 0 -8 6 0 0 -12 6 0 0 -8 
6 0 0 -4 6 0 0 -9 6 0 0 -10 6 0 0 -10 
7 0 0 -13 6 0 0 -9 6 0 0 -10 6 0 0 -9 
6 0 0 -10 6 0 0 -10 6 0 0 -13 6 0 0 -12 
7 0 0 -17 6 0 0 -13 6 0 0 -12 6 0 0 -6 
7 0 0 -16 6 0 0 -12 6 0 0 -13 7 0 0 -8 
6 0 0 -10 6 0 0 -11 7 0 0 -15 6 0 0 -12 
6 0 0 -11 7 0 0 -16 6 0 0 -20 7 0 0 -13 
6 0 0 -17 6 0 0 -12 7 0 0 -21 6 0 0 -16 
7 0 0 -15 7 0 0 -15 6 0 0 -11 7 0 0 -12 
6 0 0 -11 7 0 0 -11 6 0 0 -22 7 0 0 -15 
7 0 0 -17 6 0 0 -16 7 0 0 -20 7 0 0 -12 
7 0 0 -12 6 0 0 -10 7 0 0 -24 7 0 0 -12 
7 0 0 -16 6 0 0 -13 7 0 0 -19 7 0 0 -15 
7 0 0 -18 7 0 0 -14 7 0 0 -24 7 0 0 -19 
7 0 0 -16 7 0 0 -32 7 0 0 -16 7 0 0 -19 
7 0 0 -22 7 0 0 -22 7 0 0 -20 7 0 0 -17 
7 0 0 -26 7 0 0 -16 7 0 0 -16 8 0 0 -15 
7 0 0 -18 7 0 0 -18 7 0 0 -29 7 0 0 -14 
8 0 0 -18 7 0 0 -17 7 0 0 -24 8 0 0 -24 
7 0 0 -28 7 0 0 -26 8 0 0 -22 7 0 0 -31 
8 0 0 -21 7 0 0 -30 8 0 0 -21 7 0 0 -27 
8 0 0 -24 7 0 0 -21 8 0 0 -19 7 0 0 -25 
8 0 0 -29 8 0 0 -26 7 0 0 -25 8 0 0 -35 
8 0 0 -36 8 0 0 -33 7 0 0 -24 8 0 0 -41 
8 0 0 -38 8 0 0 -29 8 0 0 -29 8 0 0 -35 
8 0 0 -36 7 0 0 -38 8 0 0 -39 8 0 0 -38 
8 0 0 -42 8 0 0 -28 9 0 0 -30 8 0 0 -37 
8 0 0 -34 8 0 0 -38 8 0 0 -26 8 0 0 -27 
9 0 0 -24 8 0 0 -38 8 0 0 -29 8 0 0 -25 
9 0 0 -30 8 0 2500 2798 300 MP stroke
0 -18 8 0 0 -23 9 0 0 -18 8 0 0 -15 9 0 
0 -16 8 0 0 -18 9 0 0 -15 8 0 0 -18 9 0 
0 -14 9 0 0 -11 8 0 0 -7 9 0 0 -8 9 0 
0 -7 8 0 0 -3 9 0 0 -3 9 0 0 -5 9 0 
0 -5 9 0 0 -2 9 0 0 -2 9 0 0 -3 9 0 
0 -5 9 0 0 -1 9 0 0 -2 9 0 0 -1 9 0 
0 -4 18 0 0 -2 9 0 0 -1 19 0 0 -1 2244 3026 56 MP stroke
gr

c10
SO
0 sg
%%IncludeResource: font Helvetica
/Helvetica /ISOLatin1Encoding 120 FMSR

 590 3069 mt 
( ) s
4209  299 mt 
( ) s
6 w
1 sg
0 743 2021 0 0 -743 667 1038 4 MP
PP
-2021 0 0 743 2021 0 0 -743 667 1038 5 MP stroke
4 w
DO
SO
6 w
0 sg
 667 1038 mt 2688 1038 L
 667  295 mt 2688  295 L
 667 1038 mt  667  295 L
2688 1038 mt 2688  295 L
 667 1038 mt 2688 1038 L
 667 1038 mt  667  295 L
 667 1038 mt 2688 1038 L
 667  295 mt 2688  295 L
 667 1038 mt  667  295 L
2688 1038 mt 2688  295 L
%%IncludeResource: font Helvetica
/Helvetica /ISOLatin1Encoding 144 FMSR

1145  486 mt 
(Static RA) s
gs 667 295 2022 744 rc
DD
18 w
c8
368 0 740 435 2 MP stroke
SO
gr

18 w
c8
0 sg
1145  718 mt 
(Throughput driven RA) s
gs 667 295 2022 744 rc
DO
14.4 w
c9
368 0 740 666 2 MP stroke
SO
gr

14.4 w
c9
0 sg
1145  950 mt 
(Quality driven RA) s
gs 667 295 2022 744 rc
18 w
c10
368 0 740 897 2 MP stroke
6 w
gr

6 w
c10

end %%Color Dict

eplot
%%EndObject

epage
end

showpage

%%Trailer
%%EOF
