%!PS-Adobe-3.0 EPSF-3.0
%%Creator: MATLAB, The MathWorks, Inc. Version 8.1.0.604 (R2013a). Operating System: Darwin 13.4.0 Darwin Kernel Version 13.4.0: Sun Aug 17 19:50:11 PDT 2014; root:xnu-2422.115.4~1/RELEASE_X86_64 x86_64.
%%Title: /Users/le/Work/project3/Figures/Results/0926/PSNR_QDRA_run0.eps
%%CreationDate: 09/27/2014  04:00:51
%%DocumentNeededFonts: Helvetica
%%DocumentProcessColors: Cyan Magenta Yellow Black
%%LanguageLevel: 2
%%Pages: 1
%%BoundingBox:    31   200   581   593
%%EndComments

%%BeginProlog
% MathWorks dictionary
/MathWorks 160 dict begin
% definition operators
/bdef {bind def} bind def
/ldef {load def} bind def
/xdef {exch def} bdef
/xstore {exch store} bdef
% operator abbreviations
/c  /clip ldef
/cc /concat ldef
/cp /closepath ldef
/gr /grestore ldef
/gs /gsave ldef
/mt /moveto ldef
/np /newpath ldef
/cm /currentmatrix ldef
/sm /setmatrix ldef
/rm /rmoveto ldef
/rl /rlineto ldef
/s {show newpath} bdef
/sc {setcmykcolor} bdef
/sr /setrgbcolor ldef
/sg /setgray ldef
/w /setlinewidth ldef
/j /setlinejoin ldef
/cap /setlinecap ldef
/rc {rectclip} bdef
/rf {rectfill} bdef
% page state control
/pgsv () def
/bpage {/pgsv save def} bdef
/epage {pgsv restore} bdef
/bplot /gsave ldef
/eplot {stroke grestore} bdef
% orientation switch
/portraitMode 0 def /landscapeMode 1 def /rotateMode 2 def
% coordinate system mappings
/dpi2point 0 def
% font control
/FontSize 0 def
/FMS {/FontSize xstore findfont [FontSize 0 0 FontSize neg 0 0]
  makefont setfont} bdef
/reencode {exch dup where {pop load} {pop StandardEncoding} ifelse
  exch dup 3 1 roll findfont dup length dict begin
  { 1 index /FID ne {def}{pop pop} ifelse } forall
  /Encoding exch def currentdict end definefont pop} bdef
/isroman {findfont /CharStrings get /Agrave known} bdef
/FMSR {3 1 roll 1 index dup isroman {reencode} {pop pop} ifelse
  exch FMS} bdef
/csm {1 dpi2point div -1 dpi2point div scale neg translate
 dup landscapeMode eq {pop -90 rotate}
  {rotateMode eq {90 rotate} if} ifelse} bdef
% line types: solid, dotted, dashed, dotdash
/SO { [] 0 setdash } bdef
/DO { [.5 dpi2point mul 4 dpi2point mul] 0 setdash } bdef
/DA { [6 dpi2point mul] 0 setdash } bdef
/DD { [.5 dpi2point mul 4 dpi2point mul 6 dpi2point mul 4
  dpi2point mul] 0 setdash } bdef
% macros for lines and objects
/L {lineto stroke} bdef
/MP {3 1 roll moveto 1 sub {rlineto} repeat} bdef
/AP {{rlineto} repeat} bdef
/PDlw -1 def
/W {/PDlw currentlinewidth def setlinewidth} def
/PP {closepath eofill} bdef
/DP {closepath stroke} bdef
/MR {4 -2 roll moveto dup  0 exch rlineto exch 0 rlineto
  neg 0 exch rlineto closepath} bdef
/FR {MR stroke} bdef
/PR {MR fill} bdef
/L1i {{currentfile picstr readhexstring pop} image} bdef
/tMatrix matrix def
/MakeOval {newpath tMatrix currentmatrix pop translate scale
0 0 1 0 360 arc tMatrix setmatrix} bdef
/FO {MakeOval stroke} bdef
/PO {MakeOval fill} bdef
/PD {currentlinewidth 2 div 0 360 arc fill
   PDlw -1 eq not {PDlw w /PDlw -1 def} if} def
/FA {newpath tMatrix currentmatrix pop translate scale
  0 0 1 5 -2 roll arc tMatrix setmatrix stroke} bdef
/PA {newpath tMatrix currentmatrix pop	translate 0 0 moveto scale
  0 0 1 5 -2 roll arc closepath tMatrix setmatrix fill} bdef
/FAn {newpath tMatrix currentmatrix pop translate scale
  0 0 1 5 -2 roll arcn tMatrix setmatrix stroke} bdef
/PAn {newpath tMatrix currentmatrix pop translate 0 0 moveto scale
  0 0 1 5 -2 roll arcn closepath tMatrix setmatrix fill} bdef
/vradius 0 def /hradius 0 def /lry 0 def
/lrx 0 def /uly 0 def /ulx 0 def /rad 0 def
/MRR {/vradius xdef /hradius xdef /lry xdef /lrx xdef /uly xdef
  /ulx xdef newpath tMatrix currentmatrix pop ulx hradius add uly
  vradius add translate hradius vradius scale 0 0 1 180 270 arc 
  tMatrix setmatrix lrx hradius sub uly vradius add translate
  hradius vradius scale 0 0 1 270 360 arc tMatrix setmatrix
  lrx hradius sub lry vradius sub translate hradius vradius scale
  0 0 1 0 90 arc tMatrix setmatrix ulx hradius add lry vradius sub
  translate hradius vradius scale 0 0 1 90 180 arc tMatrix setmatrix
  closepath} bdef
/FRR {MRR stroke } bdef
/PRR {MRR fill } bdef
/MlrRR {/lry xdef /lrx xdef /uly xdef /ulx xdef /rad lry uly sub 2 div def
  newpath tMatrix currentmatrix pop ulx rad add uly rad add translate
  rad rad scale 0 0 1 90 270 arc tMatrix setmatrix lrx rad sub lry rad
  sub translate rad rad scale 0 0 1 270 90 arc tMatrix setmatrix
  closepath} bdef
/FlrRR {MlrRR stroke } bdef
/PlrRR {MlrRR fill } bdef
/MtbRR {/lry xdef /lrx xdef /uly xdef /ulx xdef /rad lrx ulx sub 2 div def
  newpath tMatrix currentmatrix pop ulx rad add uly rad add translate
  rad rad scale 0 0 1 180 360 arc tMatrix setmatrix lrx rad sub lry rad
  sub translate rad rad scale 0 0 1 0 180 arc tMatrix setmatrix
  closepath} bdef
/FtbRR {MtbRR stroke } bdef
/PtbRR {MtbRR fill } bdef
/stri 6 array def /dtri 6 array def
/smat 6 array def /dmat 6 array def
/tmat1 6 array def /tmat2 6 array def /dif 3 array def
/asub {/ind2 exch def /ind1 exch def dup dup
  ind1 get exch ind2 get sub exch } bdef
/tri_to_matrix {
  2 0 asub 3 1 asub 4 0 asub 5 1 asub
  dup 0 get exch 1 get 7 -1 roll astore } bdef
/compute_transform {
  dmat dtri tri_to_matrix tmat1 invertmatrix 
  smat stri tri_to_matrix tmat2 concatmatrix } bdef
/ds {stri astore pop} bdef
/dt {dtri astore pop} bdef
/db {2 copy /cols xdef /rows xdef mul dup 3 mul string
  currentfile 
  3 index 0 eq {/ASCIIHexDecode filter}
  {/ASCII85Decode filter 3 index 2 eq {/RunLengthDecode filter} if }
  ifelse exch readstring pop
  dup 0 3 index getinterval /rbmap xdef
  dup 2 index dup getinterval /gbmap xdef
  1 index dup 2 mul exch getinterval /bbmap xdef pop pop}bdef
/it {gs np dtri aload pop moveto lineto lineto cp c
  cols rows 8 compute_transform 
  rbmap gbmap bbmap true 3 colorimage gr}bdef
/il {newpath moveto lineto stroke}bdef
currentdict end def
%%EndProlog

%%BeginSetup
MathWorks begin

0 cap

end
%%EndSetup

%%Page: 1 1
%%BeginPageSetup
%%PageBoundingBox:    31   200   581   593
MathWorks begin
bpage
%%EndPageSetup

%%BeginObject: obj1
bplot

/dpi2point 12 def
portraitMode 0372 7116 csm

    0     0  6600  4716 rc
86 dict begin %Colortable dictionary
/c0 { 0.000000 0.000000 0.000000 sr} bdef
/c1 { 1.000000 1.000000 1.000000 sr} bdef
/c2 { 0.900000 0.000000 0.000000 sr} bdef
/c3 { 0.000000 0.820000 0.000000 sr} bdef
/c4 { 0.000000 0.000000 0.800000 sr} bdef
/c5 { 0.910000 0.820000 0.320000 sr} bdef
/c6 { 1.000000 0.260000 0.820000 sr} bdef
/c7 { 0.000000 0.820000 0.820000 sr} bdef
c0
1 j
1 sg
   0    0 6601 4717 rf
6 w
0 3843 5115 0 0 -3843 858 4197 4 MP
PP
-5115 0 0 3843 5115 0 0 -3843 858 4197 5 MP stroke
4 w
DO
0 sg
 858 4197 mt  858  354 L
 858  354 mt  858  354 L
1881 4197 mt 1881  354 L
1881  354 mt 1881  354 L
2904 4197 mt 2904  354 L
2904  354 mt 2904  354 L
3927 4197 mt 3927  354 L
3927  354 mt 3927  354 L
4950 4197 mt 4950  354 L
4950  354 mt 4950  354 L
5973 4197 mt 5973  354 L
5973  354 mt 5973  354 L
 858 4197 mt 5973 4197 L
5973 4197 mt 5973 4197 L
 858 3716 mt 5973 3716 L
5973 3716 mt 5973 3716 L
 858 3236 mt 5973 3236 L
5973 3236 mt 5973 3236 L
 858 2755 mt 5973 2755 L
5973 2755 mt 5973 2755 L
 858 2275 mt 5973 2275 L
5973 2275 mt 5973 2275 L
 858 1795 mt 5973 1795 L
5973 1795 mt 5973 1795 L
 858 1314 mt 5973 1314 L
5973 1314 mt 5973 1314 L
 858  834 mt 5973  834 L
5973  834 mt 5973  834 L
 858  354 mt 5973  354 L
5973  354 mt 5973  354 L
SO
6 w
 858 4197 mt 5973 4197 L
 858  354 mt 5973  354 L
 858 4197 mt  858  354 L
5973 4197 mt 5973  354 L
 858 4197 mt 5973 4197 L
 858 4197 mt  858  354 L
 858 4197 mt  858 4145 L
 858  354 mt  858  405 L
%%IncludeResource: font Helvetica
/Helvetica /ISOLatin1Encoding 168 FMSR

 812 4387 mt 
(0) s
1881 4197 mt 1881 4145 L
1881  354 mt 1881  405 L
1788 4387 mt 
(20) s
2904 4197 mt 2904 4145 L
2904  354 mt 2904  405 L
2811 4387 mt 
(40) s
3927 4197 mt 3927 4145 L
3927  354 mt 3927  405 L
3834 4387 mt 
(60) s
4950 4197 mt 4950 4145 L
4950  354 mt 4950  405 L
4857 4387 mt 
(80) s
5973 4197 mt 5973 4145 L
5973  354 mt 5973  405 L
5833 4387 mt 
(100) s
 858 4197 mt  909 4197 L
5973 4197 mt 5921 4197 L
 497 4259 mt 
(11.5) s
 858 3716 mt  909 3716 L
5973 3716 mt 5921 3716 L
 637 3778 mt 
(12) s
 858 3236 mt  909 3236 L
5973 3236 mt 5921 3236 L
 497 3298 mt 
(12.5) s
 858 2755 mt  909 2755 L
5973 2755 mt 5921 2755 L
 637 2817 mt 
(13) s
 858 2275 mt  909 2275 L
5973 2275 mt 5921 2275 L
 497 2337 mt 
(13.5) s
 858 1795 mt  909 1795 L
5973 1795 mt 5921 1795 L
 637 1857 mt 
(14) s
 858 1314 mt  909 1314 L
5973 1314 mt 5921 1314 L
 497 1376 mt 
(14.5) s
 858  834 mt  909  834 L
5973  834 mt 5921  834 L
 637  896 mt 
(15) s
 858  354 mt  909  354 L
5973  354 mt 5921  354 L
 497  416 mt 
(15.5) s
 858 4197 mt 5973 4197 L
 858  354 mt 5973  354 L
 858 4197 mt  858  354 L
5973 4197 mt 5973  354 L
gs 858 354 5116 3844 rc
/c8 { 0.000000 0.000000 1.000000 sr} bdef
c8
52 -108 51 -42 51 28 51 82 51 -82 51 -84 52 -187 51 285 
51 -42 51 14 51 -126 51 70 51 84 52 -126 51 -28 51 -29 
51 291 51 -122 51 -183 51 99 52 -56 51 262 51 -192 51 -113 
51 14 51 183 52 -84 51 179 51 -165 51 70 51 -56 51 -273 
51 231 52 -187 51 215 51 -127 51 -73 51 431 51 -273 51 -100 
52 280 51 -280 51 334 51 -234 51 193 51 67 52 -492 51 288 
51 -28 51 152 51 40 51 -67 51 -125 52 56 51 14 51 -70 
51 84 51 -14 51 27 51 -139 52 28 51 70 51 -14 51 42 
51 27 51 -14 52 28 51 -181 51 70 51 -84 51 167 51 -69 
51 -243 52 187 51 -173 51 88 51 292 51 -123 51 150 51 -248 
52 -57 51 57 51 56 51 0 51 165 51 -95 52 -112 51 98 
51 -271 51 366 51 -137 51 309 51 -379 52 153 51 108 51 79 
51 -106 51 -40 51 67 909 1771 100 MP stroke
gr

c8
 884 1746 mt  934 1796 L
 934 1746 mt  884 1796 L
 935 1813 mt  985 1863 L
 985 1813 mt  935 1863 L
 986 1773 mt 1036 1823 L
1036 1773 mt  986 1823 L
1037 1667 mt 1087 1717 L
1087 1667 mt 1037 1717 L
1088 1746 mt 1138 1796 L
1138 1746 mt 1088 1796 L
1139 1854 mt 1189 1904 L
1189 1854 mt 1139 1904 L
1191 2007 mt 1241 2057 L
1241 2007 mt 1191 2057 L
1242 1628 mt 1292 1678 L
1292 1628 mt 1242 1678 L
1293 1937 mt 1343 1987 L
1343 1937 mt 1293 1987 L
1344 1800 mt 1394 1850 L
1394 1800 mt 1344 1850 L
1395 2166 mt 1445 2216 L
1445 2166 mt 1395 2216 L
1446 1895 mt 1496 1945 L
1496 1895 mt 1446 1945 L
1497 1993 mt 1547 2043 L
1547 1993 mt 1497 2043 L
1549 1881 mt 1599 1931 L
1599 1881 mt 1549 1931 L
1600 1786 mt 1650 1836 L
1650 1786 mt 1600 1836 L
1651 1951 mt 1701 2001 L
1701 1951 mt 1651 2001 L
1702 1951 mt 1752 2001 L
1752 1951 mt 1702 2001 L
1753 2007 mt 1803 2057 L
1803 2007 mt 1753 2057 L
1804 2064 mt 1854 2114 L
1854 2064 mt 1804 2114 L
1856 2007 mt 1906 2057 L
1906 2007 mt 1856 2057 L
1907 1759 mt 1957 1809 L
1957 1759 mt 1907 1809 L
1958 1909 mt 2008 1959 L
2008 1909 mt 1958 1959 L
2009 1786 mt 2059 1836 L
2059 1786 mt 2009 1836 L
2060 2078 mt 2110 2128 L
2110 2078 mt 2060 2128 L
2111 2166 mt 2161 2216 L
2161 2166 mt 2111 2216 L
2162 1993 mt 2212 2043 L
2212 1993 mt 2162 2043 L
2214 2180 mt 2264 2230 L
2264 2180 mt 2214 2230 L
2265 1937 mt 2315 1987 L
2315 1937 mt 2265 1987 L
2316 1868 mt 2366 1918 L
2366 1868 mt 2316 1918 L
2367 2035 mt 2417 2085 L
2417 2035 mt 2367 2085 L
2418 1951 mt 2468 2001 L
2468 1951 mt 2418 2001 L
2469 2021 mt 2519 2071 L
2519 2021 mt 2469 2071 L
2520 1840 mt 2570 1890 L
2570 1840 mt 2520 1890 L
2572 1868 mt 2622 1918 L
2622 1868 mt 2572 1918 L
2623 1854 mt 2673 1904 L
2673 1854 mt 2623 1904 L
2674 1881 mt 2724 1931 L
2724 1881 mt 2674 1931 L
2725 1923 mt 2775 1973 L
2775 1923 mt 2725 1973 L
2776 1909 mt 2826 1959 L
2826 1909 mt 2776 1959 L
2827 1979 mt 2877 2029 L
2877 1979 mt 2827 2029 L
2879 2007 mt 2929 2057 L
2929 2007 mt 2879 2057 L
2930 1868 mt 2980 1918 L
2980 1868 mt 2930 1918 L
2981 1895 mt 3031 1945 L
3031 1895 mt 2981 1945 L
3032 1881 mt 3082 1931 L
3082 1881 mt 3032 1931 L
3083 1965 mt 3133 2015 L
3133 1965 mt 3083 2015 L
3134 1895 mt 3184 1945 L
3184 1895 mt 3134 1945 L
3185 1909 mt 3235 1959 L
3235 1909 mt 3185 1959 L
3237 1965 mt 3287 2015 L
3287 1965 mt 3237 2015 L
3288 1840 mt 3338 1890 L
3338 1840 mt 3288 1890 L
3339 1773 mt 3389 1823 L
3389 1773 mt 3339 1823 L
3390 1813 mt 3440 1863 L
3440 1813 mt 3390 1863 L
3441 1965 mt 3491 2015 L
3491 1965 mt 3441 2015 L
3492 1937 mt 3542 1987 L
3542 1937 mt 3492 1987 L
3543 2225 mt 3593 2275 L
3593 2225 mt 3543 2275 L
3595 1733 mt 3645 1783 L
3645 1733 mt 3595 1783 L
3646 1800 mt 3696 1850 L
3696 1800 mt 3646 1850 L
3697 1993 mt 3747 2043 L
3747 1993 mt 3697 2043 L
3748 1759 mt 3798 1809 L
3798 1759 mt 3748 1809 L
3799 2093 mt 3849 2143 L
3849 2093 mt 3799 2143 L
3850 1813 mt 3900 1863 L
3900 1813 mt 3850 1863 L
3902 2093 mt 3952 2143 L
3952 2093 mt 3902 2143 L
3953 1993 mt 4003 2043 L
4003 1993 mt 3953 2043 L
4004 1720 mt 4054 1770 L
4054 1720 mt 4004 1770 L
4055 2151 mt 4105 2201 L
4105 2151 mt 4055 2201 L
4106 2078 mt 4156 2128 L
4156 2078 mt 4106 2128 L
4157 1951 mt 4207 2001 L
4207 1951 mt 4157 2001 L
4208 2166 mt 4258 2216 L
4258 2166 mt 4208 2216 L
4260 1979 mt 4310 2029 L
4310 1979 mt 4260 2029 L
4311 2210 mt 4361 2260 L
4361 2210 mt 4311 2260 L
4362 1937 mt 4412 1987 L
4412 1937 mt 4362 1987 L
4413 1881 mt 4463 1931 L
4463 1881 mt 4413 1931 L
4464 1951 mt 4514 2001 L
4514 1951 mt 4464 2001 L
4515 1786 mt 4565 1836 L
4565 1786 mt 4515 1836 L
4566 1965 mt 4616 2015 L
4616 1965 mt 4566 2015 L
4618 1881 mt 4668 1931 L
4668 1881 mt 4618 1931 L
4669 2064 mt 4719 2114 L
4719 2064 mt 4669 2114 L
4720 2078 mt 4770 2128 L
4770 2078 mt 4720 2128 L
4771 1965 mt 4821 2015 L
4821 1965 mt 4771 2015 L
4822 1773 mt 4872 1823 L
4872 1773 mt 4822 1823 L
4873 2035 mt 4923 2085 L
4923 2035 mt 4873 2085 L
4925 1979 mt 4975 2029 L
4975 1979 mt 4925 2029 L
4976 2078 mt 5026 2128 L
5026 2078 mt 4976 2128 L
5027 1895 mt 5077 1945 L
5077 1895 mt 5027 1945 L
5078 1773 mt 5128 1823 L
5128 1773 mt 5078 1823 L
5129 2064 mt 5179 2114 L
5179 2064 mt 5129 2114 L
5180 2035 mt 5230 2085 L
5230 2035 mt 5180 2085 L
5231 2007 mt 5281 2057 L
5281 2007 mt 5231 2057 L
5283 1881 mt 5333 1931 L
5333 1881 mt 5283 1931 L
5334 1965 mt 5384 2015 L
5384 1965 mt 5334 2015 L
5385 2035 mt 5435 2085 L
5435 2035 mt 5385 2085 L
5436 1909 mt 5486 1959 L
5486 1909 mt 5436 1959 L
5487 1923 mt 5537 1973 L
5537 1923 mt 5487 1973 L
5538 1881 mt 5588 1931 L
5588 1881 mt 5538 1931 L
5589 2166 mt 5639 2216 L
5639 2166 mt 5589 2216 L
5641 1979 mt 5691 2029 L
5691 1979 mt 5641 2029 L
5692 1895 mt 5742 1945 L
5742 1895 mt 5692 1945 L
5743 1813 mt 5793 1863 L
5793 1813 mt 5743 1863 L
5794 1895 mt 5844 1945 L
5844 1895 mt 5794 1945 L
5845 1923 mt 5895 1973 L
5895 1923 mt 5845 1973 L
5896 1881 mt 5946 1931 L
5946 1881 mt 5896 1931 L
5948 1773 mt 5998 1823 L
5998 1773 mt 5948 1823 L
gs 858 354 5116 3844 rc
/c9 { 1.000000 0.000000 0.000000 sr} bdef
c9
52 -121 51 21 51 -209 51 299 51 -183 51 -10 52 -160 51 211 
51 -114 51 0 51 -207 51 301 51 -11 52 -290 51 110 51 -132 
51 343 51 -157 51 -54 51 32 52 -21 51 169 51 -73 51 -239 
51 78 51 161 52 -85 51 117 51 -96 51 -164 51 132 51 -165 
51 66 52 -286 51 309 51 -89 51 -46 51 380 51 -301 51 -67 
52 166 51 -212 51 352 51 -306 51 155 51 87 52 -536 51 260 
51 45 51 188 51 -33 51 97 51 -108 52 -189 51 101 51 0 
51 33 51 -169 51 69 51 -139 52 -118 51 200 51 57 51 -12 
51 -34 51 180 52 11 51 -225 51 -177 51 12 51 211 51 -140 
51 -256 52 161 51 -61 51 109 51 209 51 -257 51 177 51 -35 
52 -83 51 -170 51 276 51 -129 51 59 51 82 52 -401 51 307 
51 -384 51 396 51 -206 51 323 51 -474 52 176 51 25 51 12 
51 -124 51 -128 51 -26 909 1692 100 MP stroke
gr

c9
 873 1692 mt  945 1692 L
 909 1656 mt  909 1728 L
 924 1666 mt  996 1666 L
 960 1630 mt  960 1702 L
 975 1538 mt 1047 1538 L
1011 1502 mt 1011 1574 L
1026 1414 mt 1098 1414 L
1062 1378 mt 1062 1450 L
1077 1426 mt 1149 1426 L
1113 1390 mt 1113 1462 L
1128 1451 mt 1200 1451 L
1164 1415 mt 1164 1487 L
1180 1627 mt 1252 1627 L
1216 1591 mt 1216 1663 L
1231 1153 mt 1303 1153 L
1267 1117 mt 1267 1189 L
1282 1476 mt 1354 1476 L
1318 1440 mt 1318 1512 L
1333 1270 mt 1405 1270 L
1369 1234 mt 1369 1306 L
1384 1666 mt 1456 1666 L
1420 1630 mt 1420 1702 L
1435 1282 mt 1507 1282 L
1471 1246 mt 1471 1318 L
1486 1589 mt 1558 1589 L
1522 1553 mt 1522 1625 L
1538 1188 mt 1610 1188 L
1574 1152 mt 1574 1224 L
1589 1270 mt 1661 1270 L
1625 1234 mt 1625 1306 L
1640 1329 mt 1712 1329 L
1676 1293 mt 1676 1365 L
1691 1200 mt 1763 1200 L
1727 1164 mt 1727 1236 L
1742 1476 mt 1814 1476 L
1778 1440 mt 1778 1512 L
1793 1306 mt 1865 1306 L
1829 1270 mt 1829 1342 L
1845 1223 mt 1917 1223 L
1881 1187 mt 1881 1259 L
1896 1188 mt 1968 1188 L
1932 1152 mt 1932 1224 L
1947 1365 mt 2019 1365 L
1983 1329 mt 1983 1401 L
1998 1108 mt 2070 1108 L
2034 1072 mt 2034 1144 L
2049 1317 mt 2121 1317 L
2085 1281 mt 2085 1353 L
2100 1426 mt 2172 1426 L
2136 1390 mt 2136 1462 L
2151 1365 mt 2223 1365 L
2187 1329 mt 2187 1401 L
2203 1526 mt 2275 1526 L
2239 1490 mt 2239 1562 L
2254 1270 mt 2326 1270 L
2290 1234 mt 2290 1306 L
2305 1130 mt 2377 1130 L
2341 1094 mt 2341 1166 L
2356 1341 mt 2428 1341 L
2392 1305 mt 2392 1377 L
2407 1353 mt 2479 1353 L
2443 1317 mt 2443 1389 L
2458 1176 mt 2530 1176 L
2494 1140 mt 2494 1212 L
2509  951 mt 2581  951 L
2545  915 mt 2545  987 L
2561  962 mt 2633  962 L
2597  926 mt 2597  998 L
2612 1142 mt 2684 1142 L
2648 1106 mt 2648 1178 L
2663 1108 mt 2735 1108 L
2699 1072 mt 2699 1144 L
2714 1096 mt 2786 1096 L
2750 1060 mt 2750 1132 L
2765 1153 mt 2837 1153 L
2801 1117 mt 2801 1189 L
2816 1353 mt 2888 1353 L
2852 1317 mt 2852 1389 L
2868 1235 mt 2940 1235 L
2904 1199 mt 2904 1271 L
2919 1096 mt 2991 1096 L
2955 1060 mt 2955 1132 L
2970 1165 mt 3042 1165 L
3006 1129 mt 3006 1201 L
3021  996 mt 3093  996 L
3057  960 mt 3057 1032 L
3072 1029 mt 3144 1029 L
3108  993 mt 3108 1065 L
3123 1029 mt 3195 1029 L
3159  993 mt 3159 1065 L
3174 1130 mt 3246 1130 L
3210 1094 mt 3210 1166 L
3226  941 mt 3298  941 L
3262  905 mt 3262  977 L
3277  833 mt 3349  833 L
3313  797 mt 3313  869 L
3328  930 mt 3400  930 L
3364  894 mt 3364  966 L
3379  897 mt 3451  897 L
3415  861 mt 3415  933 L
3430 1085 mt 3502 1085 L
3466 1049 mt 3466 1121 L
3481 1130 mt 3553 1130 L
3517 1094 mt 3517 1166 L
3532 1390 mt 3604 1390 L
3568 1354 mt 3568 1426 L
3584  854 mt 3656  854 L
3620  818 mt 3620  890 L
3635  941 mt 3707  941 L
3671  905 mt 3671  977 L
3686 1096 mt 3758 1096 L
3722 1060 mt 3722 1132 L
3737  790 mt 3809  790 L
3773  754 mt 3773  826 L
3788 1142 mt 3860 1142 L
3824 1106 mt 3824 1178 L
3839  930 mt 3911  930 L
3875  894 mt 3875  966 L
3891 1096 mt 3963 1096 L
3927 1060 mt 3927 1132 L
3942 1029 mt 4014 1029 L
3978  993 mt 3978 1065 L
3993  728 mt 4065  728 L
4029  692 mt 4029  764 L
4044 1108 mt 4116 1108 L
4080 1072 mt 4080 1144 L
4095 1062 mt 4167 1062 L
4131 1026 mt 4131 1098 L
4146  973 mt 4218  973 L
4182  937 mt 4182 1009 L
4197 1282 mt 4269 1282 L
4233 1246 mt 4233 1318 L
4249  996 mt 4321  996 L
4285  960 mt 4285 1032 L
4300 1062 mt 4372 1062 L
4336 1026 mt 4336 1098 L
4351  897 mt 4423  897 L
4387  861 mt 4387  933 L
4402 1029 mt 4474 1029 L
4438  993 mt 4438 1065 L
4453  865 mt 4525  865 L
4489  829 mt 4489  901 L
4504  769 mt 4576  769 L
4540  733 mt 4540  805 L
4555  886 mt 4627  886 L
4591  850 mt 4591  922 L
4607  801 mt 4679  801 L
4643  765 mt 4643  837 L
4658  962 mt 4730  962 L
4694  926 mt 4694  998 L
4709 1040 mt 4781 1040 L
4745 1004 mt 4745 1076 L
4760  801 mt 4832  801 L
4796  765 mt 4796  837 L
4811  728 mt 4883  728 L
4847  692 mt 4847  764 L
4862  897 mt 4934  897 L
4898  861 mt 4898  933 L
4914  876 mt 4986  876 L
4950  840 mt 4950  912 L
4965  908 mt 5037  908 L
5001  872 mt 5001  944 L
5016  854 mt 5088  854 L
5052  818 mt 5052  890 L
5067  697 mt 5139  697 L
5103  661 mt 5103  733 L
5118 1040 mt 5190 1040 L
5154 1004 mt 5154 1076 L
5169  908 mt 5241  908 L
5205  872 mt 5205  944 L
5220 1018 mt 5292 1018 L
5256  982 mt 5256 1054 L
5272  728 mt 5344  728 L
5308  692 mt 5308  764 L
5323  717 mt 5395  717 L
5359  681 mt 5359  753 L
5374 1018 mt 5446 1018 L
5410  982 mt 5410 1054 L
5425  811 mt 5497  811 L
5461  775 mt 5461  847 L
5476  811 mt 5548  811 L
5512  775 mt 5512  847 L
5527  697 mt 5599  697 L
5563  661 mt 5563  733 L
5578  908 mt 5650  908 L
5614  872 mt 5614  944 L
5630  748 mt 5702  748 L
5666  712 mt 5666  784 L
5681  738 mt 5753  738 L
5717  702 mt 5717  774 L
5732  555 mt 5804  555 L
5768  519 mt 5768  591 L
5783  854 mt 5855  854 L
5819  818 mt 5819  890 L
5834  645 mt 5906  645 L
5870  609 mt 5870  681 L
5885  666 mt 5957  666 L
5921  630 mt 5921  702 L
5937  545 mt 6009  545 L
5973  509 mt 5973  581 L
gs 858 354 5116 3844 rc
DA
0 sg
52 -151 51 -31 51 -94 51 261 51 -121 51 -220 52 205 51 -15 
51 -110 51 186 51 -217 51 15 51 217 52 -154 51 93 51 -140 
51 156 51 -109 51 63 51 -31 52 92 51 15 51 -76 51 -126 
51 -31 51 338 52 -75 51 60 51 -90 51 -46 51 -46 51 -31 
51 93 52 -252 51 342 51 -214 51 -79 51 483 51 -235 51 -281 
52 400 51 -288 51 332 51 -193 51 45 51 148 52 -492 51 268 
51 -15 51 91 51 -76 51 209 51 -209 52 151 51 -30 51 117 
51 -315 51 168 51 -106 51 15 52 -30 51 121 51 -75 51 120 
51 102 51 -132 52 175 51 -86 51 14 51 -224 51 210 51 -179 
51 -140 52 63 51 152 51 15 51 204 51 -189 51 231 51 -306 
52 -30 51 105 51 74 51 101 51 -145 51 73 52 -44 51 101 
51 -190 51 176 51 210 51 -83 51 -333 52 220 51 141 51 216 
51 -230 51 14 51 109 909 1825 100 MP stroke
gr

0 sg
DA
SO
 884 1800 mt  934 1850 L
 934 1800 mt  884 1850 L
 935 1909 mt  985 1959 L
 985 1909 mt  935 1959 L
 986 1923 mt 1036 1973 L
1036 1923 mt  986 1973 L
1037 1693 mt 1087 1743 L
1087 1693 mt 1037 1743 L
1088 1909 mt 1138 1959 L
1138 1909 mt 1088 1959 L
1139 2050 mt 1189 2100 L
1189 2050 mt 1139 2100 L
1191 2270 mt 1241 2320 L
1241 2270 mt 1191 2320 L
1242 1937 mt 1292 1987 L
1292 1937 mt 1242 1987 L
1293 1854 mt 1343 1904 L
1343 1854 mt 1293 1904 L
1344 2064 mt 1394 2114 L
1394 2064 mt 1344 2114 L
1395 2240 mt 1445 2290 L
1445 2240 mt 1395 2290 L
1446 2050 mt 1496 2100 L
1496 2050 mt 1446 2100 L
1497 2151 mt 1547 2201 L
1547 2151 mt 1497 2201 L
1549 2107 mt 1599 2157 L
1599 2107 mt 1549 2157 L
1600 2180 mt 1650 2230 L
1650 2180 mt 1600 2230 L
1651 2035 mt 1701 2085 L
1701 2035 mt 1651 2085 L
1702 2136 mt 1752 2186 L
1752 2136 mt 1702 2186 L
1753 2210 mt 1803 2260 L
1803 2210 mt 1753 2260 L
1804 2315 mt 1854 2365 L
1854 2315 mt 1804 2365 L
1856 2285 mt 1906 2335 L
1906 2285 mt 1856 2335 L
1907 1979 mt 1957 2029 L
1957 1979 mt 1907 2029 L
1958 2210 mt 2008 2260 L
2008 2210 mt 1958 2260 L
2009 2021 mt 2059 2071 L
2059 2021 mt 2009 2071 L
2060 2225 mt 2110 2275 L
2110 2225 mt 2060 2275 L
2111 2240 mt 2161 2290 L
2161 2240 mt 2111 2290 L
2162 2392 mt 2212 2442 L
2212 2392 mt 2162 2442 L
2214 2455 mt 2264 2505 L
2264 2455 mt 2214 2505 L
2265 2315 mt 2315 2365 L
2315 2315 mt 2265 2365 L
2316 2136 mt 2366 2186 L
2366 2136 mt 2316 2186 L
2367 2346 mt 2417 2396 L
2417 2346 mt 2367 2396 L
2418 2122 mt 2468 2172 L
2468 2122 mt 2418 2172 L
2469 2136 mt 2519 2186 L
2519 2136 mt 2469 2186 L
2520 2050 mt 2570 2100 L
2570 2050 mt 2520 2100 L
2572 2225 mt 2622 2275 L
2622 2225 mt 2572 2275 L
2623 2093 mt 2673 2143 L
2673 2093 mt 2623 2143 L
2674 2195 mt 2724 2245 L
2724 2195 mt 2674 2245 L
2725 2315 mt 2775 2365 L
2775 2315 mt 2725 2365 L
2776 2240 mt 2826 2290 L
2826 2240 mt 2776 2290 L
2827 2361 mt 2877 2411 L
2877 2361 mt 2827 2411 L
2879 2331 mt 2929 2381 L
2929 2331 mt 2879 2381 L
2930 2346 mt 2980 2396 L
2980 2346 mt 2930 2396 L
2981 2240 mt 3031 2290 L
3031 2240 mt 2981 2290 L
3032 2408 mt 3082 2458 L
3082 2408 mt 3032 2458 L
3083 2093 mt 3133 2143 L
3133 2093 mt 3083 2143 L
3134 2210 mt 3184 2260 L
3184 2210 mt 3134 2260 L
3185 2180 mt 3235 2230 L
3235 2180 mt 3185 2230 L
3237 2331 mt 3287 2381 L
3287 2331 mt 3237 2381 L
3288 2122 mt 3338 2172 L
3338 2122 mt 3288 2172 L
3339 2331 mt 3389 2381 L
3389 2331 mt 3339 2381 L
3390 2255 mt 3440 2305 L
3440 2255 mt 3390 2305 L
3441 2346 mt 3491 2396 L
3491 2346 mt 3441 2396 L
3492 2331 mt 3542 2381 L
3542 2331 mt 3492 2381 L
3543 2599 mt 3593 2649 L
3593 2599 mt 3543 2649 L
3595 2107 mt 3645 2157 L
3645 2107 mt 3595 2157 L
3646 2255 mt 3696 2305 L
3696 2255 mt 3646 2305 L
3697 2300 mt 3747 2350 L
3747 2300 mt 3697 2350 L
3748 2107 mt 3798 2157 L
3798 2107 mt 3748 2157 L
3799 2439 mt 3849 2489 L
3849 2439 mt 3799 2489 L
3850 2151 mt 3900 2201 L
3900 2151 mt 3850 2201 L
3902 2551 mt 3952 2601 L
3952 2551 mt 3902 2601 L
3953 2270 mt 4003 2320 L
4003 2270 mt 3953 2320 L
4004 2035 mt 4054 2085 L
4054 2035 mt 4004 2085 L
4055 2518 mt 4105 2568 L
4105 2518 mt 4055 2568 L
4106 2439 mt 4156 2489 L
4156 2439 mt 4106 2489 L
4157 2225 mt 4207 2275 L
4207 2225 mt 4157 2275 L
4208 2567 mt 4258 2617 L
4258 2567 mt 4208 2617 L
4260 2315 mt 4310 2365 L
4310 2315 mt 4260 2365 L
4311 2408 mt 4361 2458 L
4361 2408 mt 4311 2458 L
4362 2377 mt 4412 2427 L
4412 2377 mt 4362 2427 L
4413 2331 mt 4463 2381 L
4463 2331 mt 4413 2381 L
4464 2285 mt 4514 2335 L
4514 2285 mt 4464 2335 L
4515 2195 mt 4565 2245 L
4565 2195 mt 4515 2245 L
4566 2255 mt 4616 2305 L
4616 2255 mt 4566 2305 L
4618 2180 mt 4668 2230 L
4668 2180 mt 4618 2230 L
4669 2518 mt 4719 2568 L
4719 2518 mt 4669 2568 L
4720 2487 mt 4770 2537 L
4770 2487 mt 4720 2537 L
4771 2361 mt 4821 2411 L
4821 2361 mt 4771 2411 L
4822 2285 mt 4872 2335 L
4872 2285 mt 4822 2335 L
4873 2300 mt 4923 2350 L
4923 2300 mt 4873 2350 L
4925 2392 mt 4975 2442 L
4975 2392 mt 4925 2442 L
4976 2361 mt 5026 2411 L
5026 2361 mt 4976 2411 L
5027 2424 mt 5077 2474 L
5077 2424 mt 5027 2474 L
5078 2315 mt 5128 2365 L
5128 2315 mt 5078 2365 L
5129 2471 mt 5179 2521 L
5179 2471 mt 5129 2521 L
5180 2331 mt 5230 2381 L
5230 2331 mt 5180 2381 L
5231 2424 mt 5281 2474 L
5281 2424 mt 5231 2474 L
5283 2270 mt 5333 2320 L
5333 2270 mt 5283 2320 L
5334 2487 mt 5384 2537 L
5384 2487 mt 5334 2537 L
5385 2502 mt 5435 2552 L
5435 2502 mt 5385 2552 L
5436 2285 mt 5486 2335 L
5486 2285 mt 5436 2335 L
5487 2471 mt 5537 2521 L
5537 2471 mt 5487 2521 L
5538 2361 mt 5588 2411 L
5588 2361 mt 5538 2411 L
5589 2346 mt 5639 2396 L
5639 2346 mt 5589 2396 L
5641 2551 mt 5691 2601 L
5691 2551 mt 5641 2601 L
5692 2331 mt 5742 2381 L
5742 2331 mt 5692 2381 L
5743 2210 mt 5793 2260 L
5793 2210 mt 5743 2260 L
5794 2471 mt 5844 2521 L
5844 2471 mt 5794 2521 L
5845 2377 mt 5895 2427 L
5895 2377 mt 5845 2427 L
5896 2346 mt 5946 2396 L
5946 2346 mt 5896 2396 L
5948 2195 mt 5998 2245 L
5998 2195 mt 5948 2245 L
DA
gs 858 354 5116 3844 rc
SO
/c10 { 0.168627 0.505882 0.337255 sr} bdef
c10
52 86 51 -243 51 79 51 218 51 -185 51 -11 52 -216 51 216 
51 -55 51 44 51 -158 51 -12 51 269 52 -223 51 12 51 -116 
51 284 51 -67 51 -241 51 151 52 157 51 0 51 -89 51 -149 
51 35 51 180 52 -168 51 157 51 -134 51 -12 51 0 51 0 
51 169 52 -356 51 141 51 -70 51 -144 51 643 51 -499 51 -12 
52 252 51 -288 51 321 51 -215 51 47 51 124 52 -447 51 230 
51 -12 51 116 51 23 51 90 51 -217 52 184 51 -114 51 0 
51 -12 51 -94 51 71 51 -154 52 -61 51 156 51 105 51 -11 
51 235 51 -189 52 56 51 -184 51 -71 51 -85 51 168 51 -168 
51 -175 52 175 51 -87 51 111 51 237 51 -188 51 47 51 -12 
52 -120 51 -62 51 265 51 -130 51 -98 51 86 52 -198 51 328 
51 -457 51 410 51 -96 51 120 51 -434 52 253 51 -24 51 24 
51 -99 51 -102 51 -52 909 1692 100 MP stroke
gr

c10
SO
  36   36  909 1692 FO
  36   36  960 1640 FO
  36   36 1011 1538 FO
  36   36 1062 1439 FO
  36   36 1113 1463 FO
  36   36 1164 1439 FO
  36   36 1216 1692 FO
  36   36 1267 1258 FO
  36   36 1318 1378 FO
  36   36 1369 1282 FO
  36   36 1420 1692 FO
  36   36 1471 1235 FO
  36   36 1522 1563 FO
  36   36 1574 1365 FO
  36   36 1625 1451 FO
  36   36 1676 1353 FO
  36   36 1727 1223 FO
  36   36 1778 1488 FO
  36   36 1829 1426 FO
  36   36 1881 1306 FO
  36   36 1932 1294 FO
  36   36 1983 1341 FO
  36   36 2034 1153 FO
  36   36 2085 1390 FO
  36   36 2136 1501 FO
  36   36 2187 1414 FO
  36   36 2239 1589 FO
  36   36 2290 1414 FO
  36   36 2341 1246 FO
  36   36 2392 1414 FO
  36   36 2443 1329 FO
  36   36 2494 1258 FO
  36   36 2545 1074 FO
  36   36 2597 1130 FO
  36   36 2648  941 FO
  36   36 2699 1176 FO
  36   36 2750 1165 FO
  36   36 2801 1270 FO
  36   36 2852 1426 FO
  36   36 2904 1365 FO
  36   36 2955 1211 FO
  36   36 3006 1282 FO
  36   36 3057 1188 FO
  36   36 3108 1176 FO
  36   36 3159 1176 FO
  36   36 3210 1062 FO
  36   36 3262 1246 FO
  36   36 3313 1029 FO
  36   36 3364 1119 FO
  36   36 3415 1142 FO
  36   36 3466 1258 FO
  36   36 3517 1246 FO
  36   36 3568 1476 FO
  36   36 3620 1029 FO
  36   36 3671 1153 FO
  36   36 3722 1200 FO
  36   36 3773  985 FO
  36   36 3824 1306 FO
  36   36 3875 1018 FO
  36   36 3927 1270 FO
  36   36 3978 1258 FO
  36   36 4029  759 FO
  36   36 4080 1402 FO
  36   36 4131 1258 FO
  36   36 4182 1188 FO
  36   36 4233 1329 FO
  36   36 4285  973 FO
  36   36 4336 1142 FO
  36   36 4387 1142 FO
  36   36 4438 1142 FO
  36   36 4489 1130 FO
  36   36 4540  996 FO
  36   36 4591 1153 FO
  36   36 4643  985 FO
  36   36 4694 1165 FO
  36   36 4745 1200 FO
  36   36 4796 1051 FO
  36   36 4847  962 FO
  36   36 4898  962 FO
  36   36 4950 1119 FO
  36   36 5001 1270 FO
  36   36 5052 1029 FO
  36   36 5103  962 FO
  36   36 5154 1246 FO
  36   36 5205 1130 FO
  36   36 5256 1142 FO
  36   36 5308  919 FO
  36   36 5359 1188 FO
  36   36 5410 1176 FO
  36   36 5461 1018 FO
  36   36 5512 1062 FO
  36   36 5563 1007 FO
  36   36 5614 1223 FO
  36   36 5666 1007 FO
  36   36 5717  996 FO
  36   36 5768  811 FO
  36   36 5819 1029 FO
  36   36 5870 1108 FO
  36   36 5921  865 FO
  36   36 5973  951 FO
gs 858 354 5116 3844 rc
gr

0 sg
3227 4565 mt 
(GOP) s
 405 2659 mt  -90 rotate
(PSNR[dB]) s
90 rotate
%%IncludeResource: font Helvetica
/Helvetica /ISOLatin1Encoding 120 FMSR

 841 4240 mt 
( ) s
5957  396 mt 
( ) s
1 sg
0 978 864 0 0 -978 966 4128 4 MP
PP
-864 0 0 978 864 0 0 -978 966 4128 5 MP stroke
4 w
DO
SO
6 w
0 sg
 966 4128 mt 1830 4128 L
 966 3150 mt 1830 3150 L
 966 4128 mt  966 3150 L
1830 4128 mt 1830 3150 L
 966 4128 mt 1830 4128 L
 966 4128 mt  966 3150 L
 966 4128 mt 1830 4128 L
 966 3150 mt 1830 3150 L
 966 4128 mt  966 3150 L
1830 4128 mt 1830 3150 L
%%IncludeResource: font Helvetica
/Helvetica /ISOLatin1Encoding 168 FMSR

1435 3348 mt 
(UT1) s
gs 966 3150 865 979 rc
c8
360 0 1038 3288 2 MP stroke
gs 1145 3215 147 147 rc
1193 3263 mt 1243 3313 L
1243 3263 mt 1193 3313 L
gr

gr

c8
0 sg
1435 3582 mt 
(UT2) s
gs 966 3150 865 979 rc
c9
360 0 1038 3522 2 MP stroke
gs 1145 3449 147 147 rc
1182 3522 mt 1254 3522 L
1218 3486 mt 1218 3558 L
gr

gr

c9
0 sg
1435 3817 mt 
(UT3) s
gs 966 3150 865 979 rc
DA
360 0 1038 3755 2 MP stroke
SO
gs 1145 3682 147 147 rc
1193 3730 mt 1243 3780 L
1243 3730 mt 1193 3780 L
gr

gr

1435 4051 mt 
(UT4) s
gs 966 3150 865 979 rc
c10
360 0 1038 3989 2 MP stroke
gs 1145 3916 147 147 rc
  36   36 1218 3989 FO
gr

gr

c10

end %%Color Dict

eplot
%%EndObject

epage
end

showpage

%%Trailer
%%EOF
