%!PS-Adobe-3.0 EPSF-3.0
%%Creator: MATLAB, The MathWorks, Inc. Version 8.1.0.604 (R2013a). Operating System: Darwin 13.4.0 Darwin Kernel Version 13.4.0: Sun Aug 17 19:50:11 PDT 2014; root:xnu-2422.115.4~1/RELEASE_X86_64 x86_64.
%%Title: /Users/le/Work/project3/Figures/Results/0926/PSNR_TDRA_run0.eps
%%CreationDate: 09/27/2014  03:57:15
%%DocumentNeededFonts: Helvetica
%%DocumentProcessColors: Cyan Magenta Yellow Black
%%LanguageLevel: 2
%%Pages: 1
%%BoundingBox:    31   199   581   593
%%EndComments

%%BeginProlog
% MathWorks dictionary
/MathWorks 160 dict begin
% definition operators
/bdef {bind def} bind def
/ldef {load def} bind def
/xdef {exch def} bdef
/xstore {exch store} bdef
% operator abbreviations
/c  /clip ldef
/cc /concat ldef
/cp /closepath ldef
/gr /grestore ldef
/gs /gsave ldef
/mt /moveto ldef
/np /newpath ldef
/cm /currentmatrix ldef
/sm /setmatrix ldef
/rm /rmoveto ldef
/rl /rlineto ldef
/s {show newpath} bdef
/sc {setcmykcolor} bdef
/sr /setrgbcolor ldef
/sg /setgray ldef
/w /setlinewidth ldef
/j /setlinejoin ldef
/cap /setlinecap ldef
/rc {rectclip} bdef
/rf {rectfill} bdef
% page state control
/pgsv () def
/bpage {/pgsv save def} bdef
/epage {pgsv restore} bdef
/bplot /gsave ldef
/eplot {stroke grestore} bdef
% orientation switch
/portraitMode 0 def /landscapeMode 1 def /rotateMode 2 def
% coordinate system mappings
/dpi2point 0 def
% font control
/FontSize 0 def
/FMS {/FontSize xstore findfont [FontSize 0 0 FontSize neg 0 0]
  makefont setfont} bdef
/reencode {exch dup where {pop load} {pop StandardEncoding} ifelse
  exch dup 3 1 roll findfont dup length dict begin
  { 1 index /FID ne {def}{pop pop} ifelse } forall
  /Encoding exch def currentdict end definefont pop} bdef
/isroman {findfont /CharStrings get /Agrave known} bdef
/FMSR {3 1 roll 1 index dup isroman {reencode} {pop pop} ifelse
  exch FMS} bdef
/csm {1 dpi2point div -1 dpi2point div scale neg translate
 dup landscapeMode eq {pop -90 rotate}
  {rotateMode eq {90 rotate} if} ifelse} bdef
% line types: solid, dotted, dashed, dotdash
/SO { [] 0 setdash } bdef
/DO { [.5 dpi2point mul 4 dpi2point mul] 0 setdash } bdef
/DA { [6 dpi2point mul] 0 setdash } bdef
/DD { [.5 dpi2point mul 4 dpi2point mul 6 dpi2point mul 4
  dpi2point mul] 0 setdash } bdef
% macros for lines and objects
/L {lineto stroke} bdef
/MP {3 1 roll moveto 1 sub {rlineto} repeat} bdef
/AP {{rlineto} repeat} bdef
/PDlw -1 def
/W {/PDlw currentlinewidth def setlinewidth} def
/PP {closepath eofill} bdef
/DP {closepath stroke} bdef
/MR {4 -2 roll moveto dup  0 exch rlineto exch 0 rlineto
  neg 0 exch rlineto closepath} bdef
/FR {MR stroke} bdef
/PR {MR fill} bdef
/L1i {{currentfile picstr readhexstring pop} image} bdef
/tMatrix matrix def
/MakeOval {newpath tMatrix currentmatrix pop translate scale
0 0 1 0 360 arc tMatrix setmatrix} bdef
/FO {MakeOval stroke} bdef
/PO {MakeOval fill} bdef
/PD {currentlinewidth 2 div 0 360 arc fill
   PDlw -1 eq not {PDlw w /PDlw -1 def} if} def
/FA {newpath tMatrix currentmatrix pop translate scale
  0 0 1 5 -2 roll arc tMatrix setmatrix stroke} bdef
/PA {newpath tMatrix currentmatrix pop	translate 0 0 moveto scale
  0 0 1 5 -2 roll arc closepath tMatrix setmatrix fill} bdef
/FAn {newpath tMatrix currentmatrix pop translate scale
  0 0 1 5 -2 roll arcn tMatrix setmatrix stroke} bdef
/PAn {newpath tMatrix currentmatrix pop translate 0 0 moveto scale
  0 0 1 5 -2 roll arcn closepath tMatrix setmatrix fill} bdef
/vradius 0 def /hradius 0 def /lry 0 def
/lrx 0 def /uly 0 def /ulx 0 def /rad 0 def
/MRR {/vradius xdef /hradius xdef /lry xdef /lrx xdef /uly xdef
  /ulx xdef newpath tMatrix currentmatrix pop ulx hradius add uly
  vradius add translate hradius vradius scale 0 0 1 180 270 arc 
  tMatrix setmatrix lrx hradius sub uly vradius add translate
  hradius vradius scale 0 0 1 270 360 arc tMatrix setmatrix
  lrx hradius sub lry vradius sub translate hradius vradius scale
  0 0 1 0 90 arc tMatrix setmatrix ulx hradius add lry vradius sub
  translate hradius vradius scale 0 0 1 90 180 arc tMatrix setmatrix
  closepath} bdef
/FRR {MRR stroke } bdef
/PRR {MRR fill } bdef
/MlrRR {/lry xdef /lrx xdef /uly xdef /ulx xdef /rad lry uly sub 2 div def
  newpath tMatrix currentmatrix pop ulx rad add uly rad add translate
  rad rad scale 0 0 1 90 270 arc tMatrix setmatrix lrx rad sub lry rad
  sub translate rad rad scale 0 0 1 270 90 arc tMatrix setmatrix
  closepath} bdef
/FlrRR {MlrRR stroke } bdef
/PlrRR {MlrRR fill } bdef
/MtbRR {/lry xdef /lrx xdef /uly xdef /ulx xdef /rad lrx ulx sub 2 div def
  newpath tMatrix currentmatrix pop ulx rad add uly rad add translate
  rad rad scale 0 0 1 180 360 arc tMatrix setmatrix lrx rad sub lry rad
  sub translate rad rad scale 0 0 1 0 180 arc tMatrix setmatrix
  closepath} bdef
/FtbRR {MtbRR stroke } bdef
/PtbRR {MtbRR fill } bdef
/stri 6 array def /dtri 6 array def
/smat 6 array def /dmat 6 array def
/tmat1 6 array def /tmat2 6 array def /dif 3 array def
/asub {/ind2 exch def /ind1 exch def dup dup
  ind1 get exch ind2 get sub exch } bdef
/tri_to_matrix {
  2 0 asub 3 1 asub 4 0 asub 5 1 asub
  dup 0 get exch 1 get 7 -1 roll astore } bdef
/compute_transform {
  dmat dtri tri_to_matrix tmat1 invertmatrix 
  smat stri tri_to_matrix tmat2 concatmatrix } bdef
/ds {stri astore pop} bdef
/dt {dtri astore pop} bdef
/db {2 copy /cols xdef /rows xdef mul dup 3 mul string
  currentfile 
  3 index 0 eq {/ASCIIHexDecode filter}
  {/ASCII85Decode filter 3 index 2 eq {/RunLengthDecode filter} if }
  ifelse exch readstring pop
  dup 0 3 index getinterval /rbmap xdef
  dup 2 index dup getinterval /gbmap xdef
  1 index dup 2 mul exch getinterval /bbmap xdef pop pop}bdef
/it {gs np dtri aload pop moveto lineto lineto cp c
  cols rows 8 compute_transform 
  rbmap gbmap bbmap true 3 colorimage gr}bdef
/il {newpath moveto lineto stroke}bdef
currentdict end def
%%EndProlog

%%BeginSetup
MathWorks begin

0 cap

end
%%EndSetup

%%Page: 1 1
%%BeginPageSetup
%%PageBoundingBox:    31   199   581   593
MathWorks begin
bpage
%%EndPageSetup

%%BeginObject: obj1
bplot

/dpi2point 12 def
portraitMode 0372 7116 csm

    0     0  6600  4728 rc
86 dict begin %Colortable dictionary
/c0 { 0.000000 0.000000 0.000000 sr} bdef
/c1 { 1.000000 1.000000 1.000000 sr} bdef
/c2 { 0.900000 0.000000 0.000000 sr} bdef
/c3 { 0.000000 0.820000 0.000000 sr} bdef
/c4 { 0.000000 0.000000 0.800000 sr} bdef
/c5 { 0.910000 0.820000 0.320000 sr} bdef
/c6 { 1.000000 0.260000 0.820000 sr} bdef
/c7 { 0.000000 0.820000 0.820000 sr} bdef
c0
1 j
1 sg
   0    0 6601 4729 rf
6 w
0 3853 5358 0 0 -3853 858 4208 4 MP
PP
-5358 0 0 3853 5358 0 0 -3853 858 4208 5 MP stroke
4 w
DO
0 sg
 858 4208 mt  858  355 L
 858  355 mt  858  355 L
1929 4208 mt 1929  355 L
1929  355 mt 1929  355 L
3001 4208 mt 3001  355 L
3001  355 mt 3001  355 L
4072 4208 mt 4072  355 L
4072  355 mt 4072  355 L
5144 4208 mt 5144  355 L
5144  355 mt 5144  355 L
6216 4208 mt 6216  355 L
6216  355 mt 6216  355 L
 858 4208 mt 6216 4208 L
6216 4208 mt 6216 4208 L
 858 3726 mt 6216 3726 L
6216 3726 mt 6216 3726 L
 858 3244 mt 6216 3244 L
6216 3244 mt 6216 3244 L
 858 2763 mt 6216 2763 L
6216 2763 mt 6216 2763 L
 858 2281 mt 6216 2281 L
6216 2281 mt 6216 2281 L
 858 1799 mt 6216 1799 L
6216 1799 mt 6216 1799 L
 858 1318 mt 6216 1318 L
6216 1318 mt 6216 1318 L
 858  836 mt 6216  836 L
6216  836 mt 6216  836 L
 858  355 mt 6216  355 L
6216  355 mt 6216  355 L
SO
6 w
 858 4208 mt 6216 4208 L
 858  355 mt 6216  355 L
 858 4208 mt  858  355 L
6216 4208 mt 6216  355 L
 858 4208 mt 6216 4208 L
 858 4208 mt  858  355 L
 858 4208 mt  858 4154 L
 858  355 mt  858  408 L
%%IncludeResource: font Helvetica
/Helvetica /ISOLatin1Encoding 168 FMSR

 812 4398 mt 
(0) s
1929 4208 mt 1929 4154 L
1929  355 mt 1929  408 L
1836 4398 mt 
(20) s
3001 4208 mt 3001 4154 L
3001  355 mt 3001  408 L
2908 4398 mt 
(40) s
4072 4208 mt 4072 4154 L
4072  355 mt 4072  408 L
3979 4398 mt 
(60) s
5144 4208 mt 5144 4154 L
5144  355 mt 5144  408 L
5051 4398 mt 
(80) s
6216 4208 mt 6216 4154 L
6216  355 mt 6216  408 L
6076 4398 mt 
(100) s
 858 4208 mt  911 4208 L
6216 4208 mt 6162 4208 L
 497 4270 mt 
(11.5) s
 858 3726 mt  911 3726 L
6216 3726 mt 6162 3726 L
 637 3788 mt 
(12) s
 858 3244 mt  911 3244 L
6216 3244 mt 6162 3244 L
 497 3306 mt 
(12.5) s
 858 2763 mt  911 2763 L
6216 2763 mt 6162 2763 L
 637 2825 mt 
(13) s
 858 2281 mt  911 2281 L
6216 2281 mt 6162 2281 L
 497 2343 mt 
(13.5) s
 858 1799 mt  911 1799 L
6216 1799 mt 6162 1799 L
 637 1861 mt 
(14) s
 858 1318 mt  911 1318 L
6216 1318 mt 6162 1318 L
 497 1380 mt 
(14.5) s
 858  836 mt  911  836 L
6216  836 mt 6162  836 L
 637  898 mt 
(15) s
 858  355 mt  911  355 L
6216  355 mt 6162  355 L
 497  417 mt 
(15.5) s
 858 4208 mt 6216 4208 L
 858  355 mt 6216  355 L
 858 4208 mt  858  355 L
6216 4208 mt 6216  355 L
gs 858 355 5359 3854 rc
/c8 { 0.000000 0.000000 1.000000 sr} bdef
c8
54 -196 54 -145 53 29 54 243 53 -184 54 -73 54 -30 53 189 
54 -264 53 403 54 -298 53 486 54 -79 54 -482 53 89 54 -149 
53 322 54 -202 54 -30 53 45 54 -60 53 161 54 0 53 -298 
54 -141 54 396 53 -15 54 30 53 -30 54 0 53 -73 54 131 
54 -101 53 43 54 87 53 43 54 -495 54 395 53 -73 54 -120 
53 105 54 -151 53 253 54 -222 54 149 53 87 54 -376 53 304 
54 115 53 -101 54 283 54 -167 53 -249 54 104 53 102 54 -58 
54 213 53 -213 54 -133 53 -91 54 253 53 170 54 -257 54 366 
53 -441 54 495 53 -290 54 -532 54 402 53 -275 54 32 53 153 
54 -580 53 68 54 151 54 176 53 348 54 -208 53 45 54 -61 
53 463 54 -830 54 398 53 45 54 -60 53 45 54 -30 54 307 
53 -721 54 693 53 -101 54 -73 53 -136 54 136 54 174 53 -434 
54 109 53 121 54 232 911 2009 100 MP stroke
gr

c8
gs 838 1637 5452 1303 rc
 886 1984 mt  936 2034 L
 936 1984 mt  886 2034 L
 940 2216 mt  990 2266 L
 990 2216 mt  940 2266 L
 993 2337 mt 1043 2387 L
1043 2337 mt  993 2387 L
1047 2446 mt 1097 2496 L
1097 2446 mt 1047 2496 L
1100 2012 mt 1150 2062 L
1150 2012 mt 1100 2062 L
1154 2186 mt 1204 2236 L
1204 2186 mt 1154 2236 L
1208 2322 mt 1258 2372 L
1258 2322 mt 1208 2372 L
1261 2186 mt 1311 2236 L
1311 2186 mt 1261 2236 L
1315 2113 mt 1365 2163 L
1365 2113 mt 1315 2163 L
1368 2012 mt 1418 2062 L
1418 2012 mt 1368 2062 L
1422 2705 mt 1472 2755 L
1472 2705 mt 1422 2755 L
1475 1984 mt 1525 2034 L
1525 1984 mt 1475 2034 L
1529 2291 mt 1579 2341 L
1579 2291 mt 1529 2341 L
1583 2261 mt 1633 2311 L
1633 2261 mt 1583 2311 L
1636 2306 mt 1686 2356 L
1686 2306 mt 1636 2356 L
1690 2246 mt 1740 2296 L
1740 2246 mt 1690 2296 L
1743 2291 mt 1793 2341 L
1793 2291 mt 1743 2341 L
1797 2689 mt 1847 2739 L
1847 2689 mt 1797 2739 L
1851 1859 mt 1901 1909 L
1901 1859 mt 1851 1909 L
1904 2322 mt 1954 2372 L
1954 2322 mt 1904 2372 L
1958 2261 mt 2008 2311 L
2008 2261 mt 1958 2311 L
2011 2306 mt 2061 2356 L
2061 2306 mt 2011 2356 L
2065 2098 mt 2115 2148 L
2115 2098 mt 2065 2148 L
2118 2446 mt 2168 2496 L
2168 2446 mt 2118 2496 L
2172 2622 mt 2222 2672 L
2222 2622 mt 2172 2672 L
2226 2773 mt 2276 2823 L
2276 2773 mt 2226 2823 L
2279 2841 mt 2329 2891 L
2329 2841 mt 2279 2891 L
2333 2261 mt 2383 2311 L
2383 2261 mt 2333 2311 L
2386 2414 mt 2436 2464 L
2436 2414 mt 2386 2464 L
2440 2446 mt 2490 2496 L
2490 2446 mt 2440 2496 L
2493 2171 mt 2543 2221 L
2543 2171 mt 2493 2221 L
2547 2573 mt 2597 2623 L
2597 2573 mt 2547 2623 L
2601 2041 mt 2651 2091 L
2651 2041 mt 2601 2091 L
2654 1751 mt 2704 1801 L
2704 1751 mt 2654 1801 L
2708 2246 mt 2758 2296 L
2758 2246 mt 2708 2296 L
2761 1805 mt 2811 1855 L
2811 1805 mt 2761 1855 L
2815 2171 mt 2865 2221 L
2865 2171 mt 2815 2221 L
2869 1914 mt 2919 1964 L
2919 1914 mt 2869 1964 L
2922 2084 mt 2972 2134 L
2972 2084 mt 2922 2134 L
2976 2337 mt 3026 2387 L
3026 2337 mt 2976 2387 L
3029 2246 mt 3079 2296 L
3079 2246 mt 3029 2296 L
3083 2113 mt 3133 2163 L
3133 2113 mt 3083 2163 L
3136 1900 mt 3186 1950 L
3186 1900 mt 3136 1950 L
3190 2113 mt 3240 2163 L
3240 2113 mt 3190 2163 L
3244 2055 mt 3294 2105 L
3294 2055 mt 3244 2105 L
3297 2157 mt 3347 2207 L
3347 2157 mt 3297 2207 L
3351 2261 mt 3401 2311 L
3401 2261 mt 3351 2311 L
3404 2012 mt 3454 2062 L
3454 2012 mt 3404 2062 L
3458 1845 mt 3508 1895 L
3508 1845 mt 3458 1895 L
3512 2128 mt 3562 2178 L
3562 2128 mt 3512 2178 L
3565 2027 mt 3615 2077 L
3615 2027 mt 3565 2077 L
3619 2142 mt 3669 2192 L
3669 2142 mt 3619 2192 L
3672 2446 mt 3722 2496 L
3722 2446 mt 3672 2496 L
3726 2070 mt 3776 2120 L
3776 2070 mt 3726 2120 L
3779 2157 mt 3829 2207 L
3829 2157 mt 3779 2207 L
3833 2306 mt 3883 2356 L
3883 2306 mt 3833 2356 L
3887 2084 mt 3937 2134 L
3937 2084 mt 3887 2134 L
3940 2337 mt 3990 2387 L
3990 2337 mt 3940 2387 L
3994 2186 mt 4044 2236 L
4044 2186 mt 3994 2236 L
4047 2291 mt 4097 2341 L
4097 2291 mt 4047 2341 L
4101 2171 mt 4151 2221 L
4151 2171 mt 4101 2221 L
4154 2098 mt 4204 2148 L
4204 2098 mt 4154 2148 L
4208 2493 mt 4258 2543 L
4258 2493 mt 4208 2543 L
4262 1998 mt 4312 2048 L
4312 1998 mt 4262 2048 L
4315 2041 mt 4365 2091 L
4365 2041 mt 4315 2091 L
4369 2128 mt 4419 2178 L
4419 2128 mt 4369 2178 L
4422 2171 mt 4472 2221 L
4472 2171 mt 4422 2221 L
4476 2070 mt 4526 2120 L
4526 2070 mt 4476 2120 L
4530 2201 mt 4580 2251 L
4580 2201 mt 4530 2251 L
4583 2128 mt 4633 2178 L
4633 2128 mt 4583 2178 L
4637 2128 mt 4687 2178 L
4687 2128 mt 4637 2178 L
4690 2098 mt 4740 2148 L
4740 2098 mt 4690 2148 L
4744 2128 mt 4794 2178 L
4794 2128 mt 4744 2178 L
4797 2113 mt 4847 2163 L
4847 2113 mt 4797 2163 L
4851 2509 mt 4901 2559 L
4901 2509 mt 4851 2559 L
4905 2368 mt 4955 2418 L
4955 2368 mt 4905 2418 L
4958 2070 mt 5008 2120 L
5008 2070 mt 4958 2120 L
5012 2070 mt 5062 2120 L
5062 2070 mt 5012 2120 L
5065 2231 mt 5115 2281 L
5115 2231 mt 5065 2281 L
5119 2171 mt 5169 2221 L
5169 2171 mt 5119 2221 L
5172 2216 mt 5222 2266 L
5222 2216 mt 5172 2266 L
5226 2186 mt 5276 2236 L
5276 2186 mt 5226 2236 L
5280 1984 mt 5330 2034 L
5330 1984 mt 5280 2034 L
5333 2306 mt 5383 2356 L
5383 2306 mt 5333 2356 L
5387 2157 mt 5437 2207 L
5437 2157 mt 5387 2207 L
5440 2246 mt 5490 2296 L
5490 2246 mt 5440 2296 L
5494 1764 mt 5544 1814 L
5544 1764 mt 5494 1814 L
5548 1685 mt 5598 1735 L
5598 1685 mt 5548 1735 L
5601 2171 mt 5651 2221 L
5651 2171 mt 5601 2221 L
5655 1873 mt 5705 1923 L
5705 1873 mt 5655 1923 L
5708 2276 mt 5758 2326 L
5758 2276 mt 5708 2326 L
5762 2012 mt 5812 2062 L
5812 2012 mt 5762 2062 L
5815 2201 mt 5865 2251 L
5865 2201 mt 5815 2251 L
5869 2171 mt 5919 2221 L
5919 2171 mt 5869 2221 L
5923 2098 mt 5973 2148 L
5973 2098 mt 5923 2148 L
5976 1914 mt 6026 1964 L
6026 1914 mt 5976 1964 L
6030 2157 mt 6080 2207 L
6080 2157 mt 6030 2207 L
6083 2186 mt 6133 2236 L
6133 2186 mt 6083 2236 L
6137 2041 mt 6187 2091 L
6187 2041 mt 6137 2091 L
6191 1845 mt 6241 1895 L
6241 1845 mt 6191 1895 L
gr

gs 858 355 5359 3854 rc
/c9 { 1.000000 0.000000 0.000000 sr} bdef
c9
54 -53 54 -219 53 -28 54 125 53 -41 54 216 54 -518 53 175 
54 0 53 127 54 -156 53 -28 54 413 54 -313 53 -233 54 233 
53 353 54 -367 54 -116 53 87 54 -87 53 58 54 319 53 -177 
54 -348 54 320 53 97 54 -125 53 70 54 82 53 -110 54 -186 
54 172 53 -505 54 643 53 -223 54 -43 54 86 53 -115 54 0 
53 254 54 -97 53 -14 54 -216 54 145 53 343 54 -244 53 42 
54 0 53 82 54 -237 54 370 53 -26 54 -301 53 -116 54 -178 
54 90 53 246 54 138 53 -281 54 -88 53 -15 54 88 54 228 
53 -301 54 189 53 56 54 -320 54 105 53 -197 54 255 53 58 
54 -551 53 435 54 -212 54 592 53 -236 54 -71 53 374 54 -507 
53 372 54 -463 54 165 53 187 54 -187 53 215 54 -259 54 30 
53 -243 54 243 53 73 54 212 53 -141 54 -115 54 115 53 -204 
54 345 53 -271 54 130 911 2052 100 MP stroke
gr

c9
gs 838 1597 5452 1108 rc
 875 2052 mt  947 2052 L
 911 2016 mt  911 2088 L
 929 2182 mt 1001 2182 L
 965 2146 mt  965 2218 L
 982 1911 mt 1054 1911 L
1018 1875 mt 1018 1947 L
1036 2256 mt 1108 2256 L
1072 2220 mt 1072 2292 L
1089 2052 mt 1161 2052 L
1125 2016 mt 1125 2088 L
1143 2167 mt 1215 2167 L
1179 2131 mt 1179 2203 L
1197 2052 mt 1269 2052 L
1233 2016 mt 1233 2088 L
1250 1911 mt 1322 1911 L
1286 1875 mt 1286 1947 L
1304 2123 mt 1376 2123 L
1340 2087 mt 1340 2159 L
1357 2196 mt 1429 2196 L
1393 2160 mt 1393 2232 L
1411 2439 mt 1483 2439 L
1447 2403 mt 1447 2475 L
1464 2196 mt 1536 2196 L
1500 2160 mt 1500 2232 L
1518 2226 mt 1590 2226 L
1554 2190 mt 1554 2262 L
1572 1967 mt 1644 1967 L
1608 1931 mt 1608 2003 L
1625 2182 mt 1697 2182 L
1661 2146 mt 1661 2218 L
1679 1995 mt 1751 1995 L
1715 1959 mt 1715 2031 L
1732 2182 mt 1804 2182 L
1768 2146 mt 1768 2218 L
1786 2347 mt 1858 2347 L
1822 2311 mt 1822 2383 L
1840 1884 mt 1912 1884 L
1876 1848 mt 1876 1920 L
1893 2256 mt 1965 2256 L
1929 2220 mt 1929 2292 L
1947 1749 mt 2019 1749 L
1983 1713 mt 1983 1785 L
2000 2123 mt 2072 2123 L
2036 2087 mt 2036 2159 L
2054 2052 mt 2126 2052 L
2090 2016 mt 2090 2088 L
2107 1816 mt 2179 1816 L
2143 1780 mt 2143 1852 L
2161 2408 mt 2233 2408 L
2197 2372 mt 2197 2444 L
2215 2196 mt 2287 2196 L
2251 2160 mt 2251 2232 L
2268 2631 mt 2340 2631 L
2304 2595 mt 2304 2667 L
2322 2080 mt 2394 2080 L
2358 2044 mt 2358 2116 L
2375 2138 mt 2447 2138 L
2411 2102 mt 2411 2174 L
2429 2393 mt 2501 2393 L
2465 2357 mt 2465 2429 L
2482 2196 mt 2554 2196 L
2518 2160 mt 2518 2232 L
2536 2301 mt 2608 2301 L
2572 2265 mt 2572 2337 L
2590 1981 mt 2662 1981 L
2626 1945 mt 2626 2017 L
2643 2037 mt 2715 2037 L
2679 2001 mt 2679 2073 L
2697 2226 mt 2769 2226 L
2733 2190 mt 2733 2262 L
2750 1925 mt 2822 1925 L
2786 1889 mt 2786 1961 L
2804 2153 mt 2876 2153 L
2840 2117 mt 2840 2189 L
2858 2241 mt 2930 2241 L
2894 2205 mt 2894 2277 L
2911 2226 mt 2983 2226 L
2947 2190 mt 2947 2262 L
2965 2138 mt 3037 2138 L
3001 2102 mt 3001 2174 L
3018 1857 mt 3090 1857 L
3054 1821 mt 3054 1893 L
3072 1995 mt 3144 1995 L
3108 1959 mt 3108 2031 L
3125 2241 mt 3197 2241 L
3161 2205 mt 3161 2277 L
3179 2331 mt 3251 2331 L
3215 2295 mt 3215 2367 L
3233 2153 mt 3305 2153 L
3269 2117 mt 3269 2189 L
3286 2037 mt 3358 2037 L
3322 2001 mt 3322 2073 L
3340 1736 mt 3412 1736 L
3376 1700 mt 3376 1772 L
3393 1710 mt 3465 1710 L
3429 1674 mt 3429 1746 L
3447 2080 mt 3519 2080 L
3483 2044 mt 3483 2116 L
3501 1843 mt 3573 1843 L
3537 1807 mt 3537 1879 L
3554 1925 mt 3626 1925 L
3590 1889 mt 3590 1961 L
3608 1925 mt 3680 1925 L
3644 1889 mt 3644 1961 L
3661 1967 mt 3733 1967 L
3697 1931 mt 3697 2003 L
3715 1723 mt 3787 1723 L
3751 1687 mt 3751 1759 L
3768 2066 mt 3840 2066 L
3804 2030 mt 3804 2102 L
3822 2211 mt 3894 2211 L
3858 2175 mt 3858 2247 L
3876 1995 mt 3948 1995 L
3912 1959 mt 3912 2031 L
3929 1981 mt 4001 1981 L
3965 1945 mt 3965 2017 L
3983 1884 mt 4055 1884 L
4019 1848 mt 4019 1920 L
4036 2138 mt 4108 2138 L
4072 2102 mt 4072 2174 L
4090 2138 mt 4162 2138 L
4126 2102 mt 4126 2174 L
4143 2023 mt 4215 2023 L
4179 1987 mt 4179 2059 L
4197 2109 mt 4269 2109 L
4233 2073 mt 4233 2145 L
4251 2066 mt 4323 2066 L
4287 2030 mt 4287 2102 L
4304 1843 mt 4376 1843 L
4340 1807 mt 4340 1879 L
4358 2486 mt 4430 2486 L
4394 2450 mt 4394 2522 L
4411 1981 mt 4483 1981 L
4447 1945 mt 4447 2017 L
4465 2153 mt 4537 2153 L
4501 2117 mt 4501 2189 L
4519 1967 mt 4591 1967 L
4555 1931 mt 4555 2003 L
4572 1857 mt 4644 1857 L
4608 1821 mt 4608 1893 L
4626 1939 mt 4698 1939 L
4662 1903 mt 4662 1975 L
4679 2009 mt 4751 2009 L
4715 1973 mt 4715 2045 L
4733 1884 mt 4805 1884 L
4769 1848 mt 4769 1920 L
4786 1981 mt 4858 1981 L
4822 1945 mt 4822 2017 L
4840 2301 mt 4912 2301 L
4876 2265 mt 4876 2337 L
4894 1953 mt 4966 1953 L
4930 1917 mt 4930 1989 L
4947 1776 mt 5019 1776 L
4983 1740 mt 4983 1812 L
5001 2095 mt 5073 2095 L
5037 2059 mt 5037 2131 L
5054 2153 mt 5126 2153 L
5090 2117 mt 5090 2189 L
5108 2066 mt 5180 2066 L
5144 2030 mt 5144 2102 L
5161 2153 mt 5233 2153 L
5197 2117 mt 5197 2189 L
5215 2037 mt 5287 2037 L
5251 2001 mt 5251 2073 L
5269 1670 mt 5341 1670 L
5305 1634 mt 5305 1706 L
5322 2023 mt 5394 2023 L
5358 1987 mt 5358 2059 L
5376 2256 mt 5448 2256 L
5412 2220 mt 5412 2292 L
5429 2023 mt 5501 2023 L
5465 1987 mt 5465 2059 L
5483 1710 mt 5555 1710 L
5519 1674 mt 5519 1746 L
5537 2123 mt 5609 2123 L
5573 2087 mt 5573 2159 L
5590 2095 mt 5662 2095 L
5626 2059 mt 5626 2131 L
5644 1939 mt 5716 1939 L
5680 1903 mt 5680 1975 L
5697 2066 mt 5769 2066 L
5733 2030 mt 5733 2102 L
5751 2066 mt 5823 2066 L
5787 2030 mt 5787 2102 L
5804 2241 mt 5876 2241 L
5840 2205 mt 5840 2277 L
5858 1723 mt 5930 1723 L
5894 1687 mt 5894 1759 L
5912 1939 mt 5984 1939 L
5948 1903 mt 5948 1975 L
5965 1898 mt 6037 1898 L
6001 1862 mt 6001 1934 L
6019 2023 mt 6091 2023 L
6055 1987 mt 6055 2059 L
6072 1995 mt 6144 1995 L
6108 1959 mt 6108 2031 L
6126 1776 mt 6198 1776 L
6162 1740 mt 6162 1812 L
6180 1723 mt 6252 1723 L
6216 1687 mt 6216 1759 L
gr

gs 858 355 5359 3854 rc
DA
0 sg
54 93 54 -160 53 -196 54 356 53 -472 54 116 54 396 53 -228 
54 215 53 -40 54 53 53 -769 54 272 54 214 53 230 54 -400 
53 266 54 377 54 -75 53 -468 54 455 53 -248 54 -322 53 115 
54 340 54 -160 53 -166 54 233 53 296 54 -37 53 12 54 -561 
54 304 53 -122 54 108 53 -465 54 736 54 148 53 -392 54 -218 
53 83 54 -139 53 443 54 -304 54 252 53 -377 54 -114 53 71 
54 -71 53 142 54 14 54 14 53 -156 54 490 53 -490 54 579 
54 -652 53 201 54 -14 53 125 54 27 53 -310 54 337 54 -250 
53 648 54 -720 53 362 54 -163 54 28 53 626 54 -207 53 -76 
54 -194 53 -376 54 199 54 -127 53 524 54 -13 53 -168 54 -716 
53 257 54 0 54 257 53 41 54 -211 53 128 54 -244 54 188 
53 750 54 -516 53 -81 54 -41 53 -227 54 -15 54 -58 53 1112 
54 -1068 53 418 54 -537 911 2286 100 MP stroke
gr

0 sg
DA
gs 838 1026 5452 1487 rc
SO
 886 2261 mt  936 2311 L
 936 2261 mt  886 2311 L
 940 1724 mt  990 1774 L
 990 1724 mt  940 1774 L
 993 2142 mt 1043 2192 L
1043 2142 mt  993 2192 L
1047 1074 mt 1097 1124 L
1097 1074 mt 1047 1124 L
1100 2186 mt 1150 2236 L
1150 2186 mt 1100 2236 L
1154 2128 mt 1204 2178 L
1204 2128 mt 1154 2178 L
1208 2113 mt 1258 2163 L
1258 2113 mt 1208 2163 L
1261 1886 mt 1311 1936 L
1311 1886 mt 1261 1936 L
1315 1845 mt 1365 1895 L
1365 1845 mt 1315 1895 L
1368 1764 mt 1418 1814 L
1418 1764 mt 1368 1814 L
1422 1248 mt 1472 1298 L
1472 1248 mt 1422 1298 L
1475 1998 mt 1525 2048 L
1525 1998 mt 1475 2048 L
1529 2186 mt 1579 2236 L
1579 2186 mt 1529 2236 L
1583 1942 mt 1633 1992 L
1633 1942 mt 1583 1992 L
1636 2070 mt 1686 2120 L
1686 2070 mt 1636 2120 L
1690 1859 mt 1740 1909 L
1740 1859 mt 1690 1909 L
1743 1900 mt 1793 1950 L
1793 1900 mt 1743 1950 L
1797 2157 mt 1847 2207 L
1847 2157 mt 1797 2207 L
1851 2157 mt 1901 2207 L
1901 2157 mt 1851 2207 L
1904 2414 mt 1954 2464 L
1954 2414 mt 1904 2464 L
1958 1698 mt 2008 1748 L
2008 1698 mt 1958 1748 L
2011 1530 mt 2061 1580 L
2061 1530 mt 2011 1580 L
2065 1517 mt 2115 1567 L
2115 1517 mt 2065 1567 L
2118 2041 mt 2168 2091 L
2168 2041 mt 2118 2091 L
2172 1914 mt 2222 1964 L
2222 1914 mt 2172 1964 L
2226 2113 mt 2276 2163 L
2276 2113 mt 2226 2163 L
2279 1737 mt 2329 1787 L
2329 1737 mt 2279 1787 L
2333 1543 mt 2383 1593 L
2383 1543 mt 2333 1593 L
2386 1467 mt 2436 1517 L
2436 1467 mt 2386 1517 L
2440 1260 mt 2490 1310 L
2490 1260 mt 2440 1310 L
2493 1886 mt 2543 1936 L
2543 1886 mt 2493 1936 L
2547 1914 mt 2597 1964 L
2597 1914 mt 2547 1964 L
2601 1751 mt 2651 1801 L
2651 1751 mt 2601 1801 L
2654 2113 mt 2704 2163 L
2704 2113 mt 2654 2163 L
2708 1393 mt 2758 1443 L
2758 1393 mt 2708 1443 L
2761 2041 mt 2811 2091 L
2811 2041 mt 2761 2091 L
2815 1791 mt 2865 1841 L
2865 1791 mt 2815 1841 L
2869 2128 mt 2919 2178 L
2919 2128 mt 2869 2178 L
2922 1818 mt 2972 1868 L
2972 1818 mt 2922 1868 L
2976 1845 mt 3026 1895 L
3026 1845 mt 2976 1895 L
3029 1970 mt 3079 2020 L
3079 1970 mt 3029 2020 L
3083 1956 mt 3133 2006 L
3133 1956 mt 3083 2006 L
3136 2157 mt 3186 2207 L
3186 2157 mt 3136 2207 L
3190 1505 mt 3240 1555 L
3240 1505 mt 3190 1555 L
3244 2084 mt 3294 2134 L
3294 2084 mt 3244 2134 L
3297 1594 mt 3347 1644 L
3347 1594 mt 3297 1644 L
3351 2084 mt 3401 2134 L
3401 2084 mt 3351 2134 L
3404 1928 mt 3454 1978 L
3454 1928 mt 3404 1978 L
3458 1942 mt 3508 1992 L
3508 1942 mt 3458 1992 L
3512 1956 mt 3562 2006 L
3562 1956 mt 3512 2006 L
3565 2098 mt 3615 2148 L
3615 2098 mt 3565 2148 L
3619 2027 mt 3669 2077 L
3669 2027 mt 3619 2077 L
3672 2098 mt 3722 2148 L
3722 2098 mt 3672 2148 L
3726 1984 mt 3776 2034 L
3776 1984 mt 3726 2034 L
3779 1607 mt 3829 1657 L
3829 1607 mt 3779 1657 L
3833 1859 mt 3883 1909 L
3883 1859 mt 3833 1909 L
3887 1555 mt 3937 1605 L
3937 1555 mt 3887 1605 L
3940 1998 mt 3990 2048 L
3990 1998 mt 3940 2048 L
3994 1859 mt 4044 1909 L
4044 1859 mt 3994 1909 L
4047 1942 mt 4097 1992 L
4097 1942 mt 4047 1992 L
4101 1724 mt 4151 1774 L
4151 1724 mt 4101 1774 L
4154 1332 mt 4204 1382 L
4204 1332 mt 4154 1382 L
4208 1480 mt 4258 1530 L
4258 1480 mt 4208 1530 L
4262 2216 mt 4312 2266 L
4312 2216 mt 4262 2266 L
4315 1751 mt 4365 1801 L
4365 1751 mt 4315 1801 L
4369 1859 mt 4419 1909 L
4419 1859 mt 4369 1909 L
4422 1737 mt 4472 1787 L
4472 1737 mt 4422 1787 L
4476 2041 mt 4526 2091 L
4526 2041 mt 4476 2091 L
4530 1480 mt 4580 1530 L
4580 1480 mt 4530 1530 L
4583 1492 mt 4633 1542 L
4633 1492 mt 4583 1542 L
4637 1455 mt 4687 1505 L
4687 1455 mt 4637 1505 L
4690 1751 mt 4740 1801 L
4740 1751 mt 4690 1801 L
4744 1984 mt 4794 2034 L
4794 1984 mt 4744 2034 L
4797 1818 mt 4847 1868 L
4847 1818 mt 4797 1868 L
4851 1658 mt 4901 1708 L
4901 1658 mt 4851 1708 L
4905 1998 mt 4955 2048 L
4955 1998 mt 4905 2048 L
4958 2113 mt 5008 2163 L
5008 2113 mt 4958 2163 L
5012 1791 mt 5062 1841 L
5062 1791 mt 5012 1841 L
5065 1543 mt 5115 1593 L
5115 1543 mt 5065 1593 L
5119 1998 mt 5169 2048 L
5169 1998 mt 5119 2048 L
5172 1530 mt 5222 1580 L
5222 1530 mt 5172 1580 L
5226 1455 mt 5276 1505 L
5276 1455 mt 5226 1505 L
5280 1832 mt 5330 1882 L
5330 1832 mt 5280 1882 L
5333 2098 mt 5383 2148 L
5383 2098 mt 5333 2148 L
5387 1698 mt 5437 1748 L
5437 1698 mt 5387 1748 L
5440 1928 mt 5490 1978 L
5490 1928 mt 5440 1978 L
5494 2142 mt 5544 2192 L
5544 2142 mt 5494 2192 L
5548 2414 mt 5598 2464 L
5598 2414 mt 5548 2464 L
5601 1645 mt 5651 1695 L
5651 1645 mt 5601 1695 L
5655 1698 mt 5705 1748 L
5705 1698 mt 5655 1748 L
5708 1658 mt 5758 1708 L
5758 1658 mt 5708 1708 L
5762 1873 mt 5812 1923 L
5812 1873 mt 5762 1923 L
5815 1645 mt 5865 1695 L
5865 1645 mt 5815 1695 L
5869 2041 mt 5919 2091 L
5919 2041 mt 5869 2091 L
5923 2157 mt 5973 2207 L
5973 2157 mt 5923 2207 L
5976 1685 mt 6026 1735 L
6026 1685 mt 5976 1735 L
6030 2041 mt 6080 2091 L
6080 2041 mt 6030 2091 L
6083 1845 mt 6133 1895 L
6133 1845 mt 6083 1895 L
6137 1685 mt 6187 1735 L
6187 1685 mt 6137 1735 L
6191 1778 mt 6241 1828 L
6241 1778 mt 6191 1828 L
DA
gr

gs 858 355 5359 3854 rc
SO
/c10 { 0.168627 0.505882 0.337255 sr} bdef
c10
54 -102 54 -213 53 -152 54 416 53 -502 54 156 54 -287 53 273 
54 -42 53 152 54 -237 53 85 54 97 54 -97 53 -42 54 -159 
53 159 54 42 54 -71 53 113 54 -156 53 465 54 -240 53 -239 
54 -59 54 339 53 133 54 230 53 -309 54 -41 53 -222 54 154 
54 -27 53 -361 54 483 53 -277 54 210 54 200 53 -410 54 57 
53 300 54 -533 53 637 54 -548 54 228 53 243 54 -530 53 273 
54 296 53 -146 54 -40 54 -194 53 234 54 -150 53 191 54 -95 
54 -281 53 213 54 -42 53 0 54 28 53 269 54 -173 54 -82 
53 -286 54 719 53 -392 54 -41 54 68 53 -354 54 579 53 -184 
54 -577 53 46 54 91 54 89 53 -15 54 257 53 -28 54 -113 
53 -43 54 373 54 -175 53 -84 54 111 53 -69 54 -214 54 144 
53 -339 54 559 53 -150 54 309 53 -538 54 0 54 159 53 -159 
54 102 53 14 54 -72 911 2138 100 MP stroke
gr

c10
SO
gs 838 1407 5452 1060 rc
  36   36  911 2138 FO
  36   36  965 2066 FO
  36   36 1018 2080 FO
  36   36 1072 2182 FO
  36   36 1125 2023 FO
  36   36 1179 2182 FO
  36   36 1233 2182 FO
  36   36 1286 1644 FO
  36   36 1340 1953 FO
  36   36 1393 1803 FO
  36   36 1447 2362 FO
  36   36 1500 2023 FO
  36   36 1554 2167 FO
  36   36 1608 1953 FO
  36   36 1661 1884 FO
  36   36 1715 1995 FO
  36   36 1768 1911 FO
  36   36 1822 1736 FO
  36   36 1876 2109 FO
  36   36 1929 2066 FO
  36   36 1983 1953 FO
  36   36 2036 1925 FO
  36   36 2090 2182 FO
  36   36 2143 2167 FO
  36   36 2197 2256 FO
  36   36 2251 2347 FO
  36   36 2304 2393 FO
  36   36 2358 1816 FO
  36   36 2411 1632 FO
  36   36 2465 2211 FO
  36   36 2518 1857 FO
  36   36 2572 1925 FO
  36   36 2626 1884 FO
  36   36 2679 1492 FO
  36   36 2733 2211 FO
  36   36 2786 1925 FO
  36   36 2840 1843 FO
  36   36 2894 1670 FO
  36   36 2947 1939 FO
  36   36 3001 1967 FO
  36   36 3054 1967 FO
  36   36 3108 1925 FO
  36   36 3161 2138 FO
  36   36 3215 1857 FO
  36   36 3269 1762 FO
  36   36 3322 1953 FO
  36   36 3376 1803 FO
  36   36 3429 2037 FO
  36   36 3483 1843 FO
  36   36 3537 1803 FO
  36   36 3590 1657 FO
  36   36 3644 1953 FO
  36   36 3697 2226 FO
  36   36 3751 1696 FO
  36   36 3804 1939 FO
  36   36 3858 2167 FO
  36   36 3912 1619 FO
  36   36 3965 2256 FO
  36   36 4019 1723 FO
  36   36 4072 2023 FO
  36   36 4126 2080 FO
  36   36 4179 1670 FO
  36   36 4233 1870 FO
  36   36 4287 2080 FO
  36   36 4340 1803 FO
  36   36 4394 2286 FO
  36   36 4447 1925 FO
  36   36 4501 1898 FO
  36   36 4555 2052 FO
  36   36 4608 1830 FO
  36   36 4662 1789 FO
  36   36 4715 1480 FO
  36   36 4769 1710 FO
  36   36 4822 1843 FO
  36   36 4876 2182 FO
  36   36 4930 2123 FO
  36   36 4983 1884 FO
  36   36 5037 1644 FO
  36   36 5090 2109 FO
  36   36 5144 1953 FO
  36   36 5197 2066 FO
  36   36 5251 1995 FO
  36   36 5305 2037 FO
  36   36 5358 2196 FO
  36   36 5412 2037 FO
  36   36 5465 1995 FO
  36   36 5519 1898 FO
  36   36 5573 1995 FO
  36   36 5626 2080 FO
  36   36 5680 1843 FO
  36   36 5733 1995 FO
  36   36 5787 1953 FO
  36   36 5840 2226 FO
  36   36 5894 1939 FO
  36   36 5948 2095 FO
  36   36 6001 1593 FO
  36   36 6055 2009 FO
  36   36 6108 1857 FO
  36   36 6162 1644 FO
  36   36 6216 1542 FO
gr

gs 858 355 5359 3854 rc
gr

0 sg
3349 4576 mt 
(GOP) s
 405 2665 mt  -90 rotate
(PSNR[dB]) s
90 rotate
%%IncludeResource: font Helvetica
/Helvetica /ISOLatin1Encoding 120 FMSR

 841 4251 mt 
( ) s
6200  397 mt 
( ) s
1 sg
0 978 864 0 0 -978 1032 4014 4 MP
PP
-864 0 0 978 864 0 0 -978 1032 4014 5 MP stroke
4 w
DO
SO
6 w
0 sg
1032 4014 mt 1896 4014 L
1032 3036 mt 1896 3036 L
1032 4014 mt 1032 3036 L
1896 4014 mt 1896 3036 L
1032 4014 mt 1896 4014 L
1032 4014 mt 1032 3036 L
1032 4014 mt 1896 4014 L
1032 3036 mt 1896 3036 L
1032 4014 mt 1032 3036 L
1896 4014 mt 1896 3036 L
%%IncludeResource: font Helvetica
/Helvetica /ISOLatin1Encoding 168 FMSR

1501 3234 mt 
(UT1) s
gs 1032 3036 865 979 rc
c8
360 0 1104 3174 2 MP stroke
gs 1211 3101 147 147 rc
1259 3149 mt 1309 3199 L
1309 3149 mt 1259 3199 L
gr

gr

c8
0 sg
1501 3468 mt 
(UT2) s
gs 1032 3036 865 979 rc
c9
360 0 1104 3408 2 MP stroke
gs 1211 3335 147 147 rc
1248 3408 mt 1320 3408 L
1284 3372 mt 1284 3444 L
gr

gr

c9
0 sg
1501 3703 mt 
(UT3) s
gs 1032 3036 865 979 rc
DA
360 0 1104 3641 2 MP stroke
SO
gs 1211 3568 147 147 rc
1259 3616 mt 1309 3666 L
1309 3616 mt 1259 3666 L
gr

gr

1501 3937 mt 
(UT4) s
gs 1032 3036 865 979 rc
c10
360 0 1104 3875 2 MP stroke
gs 1211 3802 147 147 rc
  36   36 1284 3875 FO
gr

gr

c10

end %%Color Dict

eplot
%%EndObject

epage
end

showpage

%%Trailer
%%EOF
