%!PS-Adobe-3.0 EPSF-3.0
%%Creator: MATLAB, The MathWorks, Inc. Version 8.1.0.604 (R2013a). Operating System: Darwin 13.4.0 Darwin Kernel Version 13.4.0: Sun Aug 17 19:50:11 PDT 2014; root:xnu-2422.115.4~1/RELEASE_X86_64 x86_64.
%%Title: /Users/le/Work/project3/Figures/Results/0926/PSNR_staticRA_run3.eps
%%CreationDate: 09/27/2014  03:52:47
%%DocumentNeededFonts: Helvetica
%%DocumentProcessColors: Cyan Magenta Yellow Black
%%LanguageLevel: 2
%%Pages: 1
%%BoundingBox:    31   225   581   565
%%EndComments

%%BeginProlog
% MathWorks dictionary
/MathWorks 160 dict begin
% definition operators
/bdef {bind def} bind def
/ldef {load def} bind def
/xdef {exch def} bdef
/xstore {exch store} bdef
% operator abbreviations
/c  /clip ldef
/cc /concat ldef
/cp /closepath ldef
/gr /grestore ldef
/gs /gsave ldef
/mt /moveto ldef
/np /newpath ldef
/cm /currentmatrix ldef
/sm /setmatrix ldef
/rm /rmoveto ldef
/rl /rlineto ldef
/s {show newpath} bdef
/sc {setcmykcolor} bdef
/sr /setrgbcolor ldef
/sg /setgray ldef
/w /setlinewidth ldef
/j /setlinejoin ldef
/cap /setlinecap ldef
/rc {rectclip} bdef
/rf {rectfill} bdef
% page state control
/pgsv () def
/bpage {/pgsv save def} bdef
/epage {pgsv restore} bdef
/bplot /gsave ldef
/eplot {stroke grestore} bdef
% orientation switch
/portraitMode 0 def /landscapeMode 1 def /rotateMode 2 def
% coordinate system mappings
/dpi2point 0 def
% font control
/FontSize 0 def
/FMS {/FontSize xstore findfont [FontSize 0 0 FontSize neg 0 0]
  makefont setfont} bdef
/reencode {exch dup where {pop load} {pop StandardEncoding} ifelse
  exch dup 3 1 roll findfont dup length dict begin
  { 1 index /FID ne {def}{pop pop} ifelse } forall
  /Encoding exch def currentdict end definefont pop} bdef
/isroman {findfont /CharStrings get /Agrave known} bdef
/FMSR {3 1 roll 1 index dup isroman {reencode} {pop pop} ifelse
  exch FMS} bdef
/csm {1 dpi2point div -1 dpi2point div scale neg translate
 dup landscapeMode eq {pop -90 rotate}
  {rotateMode eq {90 rotate} if} ifelse} bdef
% line types: solid, dotted, dashed, dotdash
/SO { [] 0 setdash } bdef
/DO { [.5 dpi2point mul 4 dpi2point mul] 0 setdash } bdef
/DA { [6 dpi2point mul] 0 setdash } bdef
/DD { [.5 dpi2point mul 4 dpi2point mul 6 dpi2point mul 4
  dpi2point mul] 0 setdash } bdef
% macros for lines and objects
/L {lineto stroke} bdef
/MP {3 1 roll moveto 1 sub {rlineto} repeat} bdef
/AP {{rlineto} repeat} bdef
/PDlw -1 def
/W {/PDlw currentlinewidth def setlinewidth} def
/PP {closepath eofill} bdef
/DP {closepath stroke} bdef
/MR {4 -2 roll moveto dup  0 exch rlineto exch 0 rlineto
  neg 0 exch rlineto closepath} bdef
/FR {MR stroke} bdef
/PR {MR fill} bdef
/L1i {{currentfile picstr readhexstring pop} image} bdef
/tMatrix matrix def
/MakeOval {newpath tMatrix currentmatrix pop translate scale
0 0 1 0 360 arc tMatrix setmatrix} bdef
/FO {MakeOval stroke} bdef
/PO {MakeOval fill} bdef
/PD {currentlinewidth 2 div 0 360 arc fill
   PDlw -1 eq not {PDlw w /PDlw -1 def} if} def
/FA {newpath tMatrix currentmatrix pop translate scale
  0 0 1 5 -2 roll arc tMatrix setmatrix stroke} bdef
/PA {newpath tMatrix currentmatrix pop	translate 0 0 moveto scale
  0 0 1 5 -2 roll arc closepath tMatrix setmatrix fill} bdef
/FAn {newpath tMatrix currentmatrix pop translate scale
  0 0 1 5 -2 roll arcn tMatrix setmatrix stroke} bdef
/PAn {newpath tMatrix currentmatrix pop translate 0 0 moveto scale
  0 0 1 5 -2 roll arcn closepath tMatrix setmatrix fill} bdef
/vradius 0 def /hradius 0 def /lry 0 def
/lrx 0 def /uly 0 def /ulx 0 def /rad 0 def
/MRR {/vradius xdef /hradius xdef /lry xdef /lrx xdef /uly xdef
  /ulx xdef newpath tMatrix currentmatrix pop ulx hradius add uly
  vradius add translate hradius vradius scale 0 0 1 180 270 arc 
  tMatrix setmatrix lrx hradius sub uly vradius add translate
  hradius vradius scale 0 0 1 270 360 arc tMatrix setmatrix
  lrx hradius sub lry vradius sub translate hradius vradius scale
  0 0 1 0 90 arc tMatrix setmatrix ulx hradius add lry vradius sub
  translate hradius vradius scale 0 0 1 90 180 arc tMatrix setmatrix
  closepath} bdef
/FRR {MRR stroke } bdef
/PRR {MRR fill } bdef
/MlrRR {/lry xdef /lrx xdef /uly xdef /ulx xdef /rad lry uly sub 2 div def
  newpath tMatrix currentmatrix pop ulx rad add uly rad add translate
  rad rad scale 0 0 1 90 270 arc tMatrix setmatrix lrx rad sub lry rad
  sub translate rad rad scale 0 0 1 270 90 arc tMatrix setmatrix
  closepath} bdef
/FlrRR {MlrRR stroke } bdef
/PlrRR {MlrRR fill } bdef
/MtbRR {/lry xdef /lrx xdef /uly xdef /ulx xdef /rad lrx ulx sub 2 div def
  newpath tMatrix currentmatrix pop ulx rad add uly rad add translate
  rad rad scale 0 0 1 180 360 arc tMatrix setmatrix lrx rad sub lry rad
  sub translate rad rad scale 0 0 1 0 180 arc tMatrix setmatrix
  closepath} bdef
/FtbRR {MtbRR stroke } bdef
/PtbRR {MtbRR fill } bdef
/stri 6 array def /dtri 6 array def
/smat 6 array def /dmat 6 array def
/tmat1 6 array def /tmat2 6 array def /dif 3 array def
/asub {/ind2 exch def /ind1 exch def dup dup
  ind1 get exch ind2 get sub exch } bdef
/tri_to_matrix {
  2 0 asub 3 1 asub 4 0 asub 5 1 asub
  dup 0 get exch 1 get 7 -1 roll astore } bdef
/compute_transform {
  dmat dtri tri_to_matrix tmat1 invertmatrix 
  smat stri tri_to_matrix tmat2 concatmatrix } bdef
/ds {stri astore pop} bdef
/dt {dtri astore pop} bdef
/db {2 copy /cols xdef /rows xdef mul dup 3 mul string
  currentfile 
  3 index 0 eq {/ASCIIHexDecode filter}
  {/ASCII85Decode filter 3 index 2 eq {/RunLengthDecode filter} if }
  ifelse exch readstring pop
  dup 0 3 index getinterval /rbmap xdef
  dup 2 index dup getinterval /gbmap xdef
  1 index dup 2 mul exch getinterval /bbmap xdef pop pop}bdef
/it {gs np dtri aload pop moveto lineto lineto cp c
  cols rows 8 compute_transform 
  rbmap gbmap bbmap true 3 colorimage gr}bdef
/il {newpath moveto lineto stroke}bdef
currentdict end def
%%EndProlog

%%BeginSetup
MathWorks begin

0 cap

end
%%EndSetup

%%Page: 1 1
%%BeginPageSetup
%%PageBoundingBox:    31   225   581   565
MathWorks begin
bpage
%%EndPageSetup

%%BeginObject: obj1
bplot

/dpi2point 12 def
portraitMode 0372 6780 csm

    0     0  6600  4080 rc
86 dict begin %Colortable dictionary
/c0 { 0.000000 0.000000 0.000000 sr} bdef
/c1 { 1.000000 1.000000 1.000000 sr} bdef
/c2 { 0.900000 0.000000 0.000000 sr} bdef
/c3 { 0.000000 0.820000 0.000000 sr} bdef
/c4 { 0.000000 0.000000 0.800000 sr} bdef
/c5 { 0.910000 0.820000 0.320000 sr} bdef
/c6 { 1.000000 0.260000 0.820000 sr} bdef
/c7 { 0.000000 0.820000 0.820000 sr} bdef
c0
1 j
1 sg
   0    0 6601 4081 rf
6 w
0 3294 4446 0 0 -3294 858 3600 4 MP
PP
-4446 0 0 3294 4446 0 0 -3294 858 3600 5 MP stroke
4 w
DO
0 sg
 858 3600 mt  858  306 L
 858  306 mt  858  306 L
1747 3600 mt 1747  306 L
1747  306 mt 1747  306 L
2636 3600 mt 2636  306 L
2636  306 mt 2636  306 L
3525 3600 mt 3525  306 L
3525  306 mt 3525  306 L
4414 3600 mt 4414  306 L
4414  306 mt 4414  306 L
5304 3600 mt 5304  306 L
5304  306 mt 5304  306 L
 858 3600 mt 5304 3600 L
5304 3600 mt 5304 3600 L
 858 3188 mt 5304 3188 L
5304 3188 mt 5304 3188 L
 858 2776 mt 5304 2776 L
5304 2776 mt 5304 2776 L
 858 2364 mt 5304 2364 L
5304 2364 mt 5304 2364 L
 858 1953 mt 5304 1953 L
5304 1953 mt 5304 1953 L
 858 1541 mt 5304 1541 L
5304 1541 mt 5304 1541 L
 858 1129 mt 5304 1129 L
5304 1129 mt 5304 1129 L
 858  717 mt 5304  717 L
5304  717 mt 5304  717 L
 858  306 mt 5304  306 L
5304  306 mt 5304  306 L
SO
6 w
 858 3600 mt 5304 3600 L
 858  306 mt 5304  306 L
 858 3600 mt  858  306 L
5304 3600 mt 5304  306 L
 858 3600 mt 5304 3600 L
 858 3600 mt  858  306 L
 858 3600 mt  858 3555 L
 858  306 mt  858  350 L
%%IncludeResource: font Helvetica
/Helvetica /ISOLatin1Encoding 168 FMSR

 812 3790 mt 
(0) s
1747 3600 mt 1747 3555 L
1747  306 mt 1747  350 L
1654 3790 mt 
(20) s
2636 3600 mt 2636 3555 L
2636  306 mt 2636  350 L
2543 3790 mt 
(40) s
3525 3600 mt 3525 3555 L
3525  306 mt 3525  350 L
3432 3790 mt 
(60) s
4414 3600 mt 4414 3555 L
4414  306 mt 4414  350 L
4321 3790 mt 
(80) s
5304 3600 mt 5304 3555 L
5304  306 mt 5304  350 L
5164 3790 mt 
(100) s
 858 3600 mt  902 3600 L
5304 3600 mt 5259 3600 L
 497 3662 mt 
(11.5) s
 858 3188 mt  902 3188 L
5304 3188 mt 5259 3188 L
 637 3250 mt 
(12) s
 858 2776 mt  902 2776 L
5304 2776 mt 5259 2776 L
 497 2838 mt 
(12.5) s
 858 2364 mt  902 2364 L
5304 2364 mt 5259 2364 L
 637 2426 mt 
(13) s
 858 1953 mt  902 1953 L
5304 1953 mt 5259 1953 L
 497 2015 mt 
(13.5) s
 858 1541 mt  902 1541 L
5304 1541 mt 5259 1541 L
 637 1603 mt 
(14) s
 858 1129 mt  902 1129 L
5304 1129 mt 5259 1129 L
 497 1191 mt 
(14.5) s
 858  717 mt  902  717 L
5304  717 mt 5259  717 L
 637  779 mt 
(15) s
 858  306 mt  902  306 L
5304  306 mt 5259  306 L
 497  368 mt 
(15.5) s
 858 3600 mt 5304 3600 L
 858  306 mt 5304  306 L
 858 3600 mt  858  306 L
5304 3600 mt 5304  306 L
gs 858 306 4447 3295 rc
/c8 { 0.000000 0.000000 1.000000 sr} bdef
c8
45 152 44 -270 45 93 44 251 45 -291 44 104 45 -307 44 -230 
45 687 44 85 45 -134 44 -805 44 0 45 704 44 330 45 -554 
44 224 45 -157 44 -67 45 160 44 -27 45 -202 44 782 45 -314 
44 -305 44 448 45 -59 44 -48 45 -237 44 -351 45 821 44 -508 
45 -106 44 603 45 -1015 44 205 45 56 44 409 44 -807 45 549 
44 417 45 -338 44 -216 45 345 44 -303 45 403 44 -295 45 -178 
44 473 44 156 45 -464 44 -41 45 -110 44 346 45 -304 44 -28 
45 69 44 -240 45 426 44 128 45 -780 44 520 44 297 45 -392 
44 392 45 49 44 -111 45 -344 44 229 45 -66 44 389 45 -36 
44 -600 45 299 44 191 44 -243 45 341 44 -463 45 851 44 -990 
45 504 44 -12 45 -608 44 494 45 -450 44 -30 45 -149 44 564 
44 -785 45 1086 44 -340 45 411 44 0 45 -243 44 208 45 -234 
44 -290 45 278 44 -251 902 2169 100 MP stroke
gr

c8
gs 829 1259 4549 1609 rc
 877 2144 mt  927 2194 L
 927 2144 mt  877 2194 L
 921 1893 mt  971 1943 L
 971 1893 mt  921 1943 L
 966 2171 mt 1016 2221 L
1016 2171 mt  966 2221 L
1010 1881 mt 1060 1931 L
1060 1881 mt 1010 1931 L
1055 1647 mt 1105 1697 L
1105 1647 mt 1055 1697 L
1099 1855 mt 1149 1905 L
1149 1855 mt 1099 1905 L
1144 1612 mt 1194 1662 L
1194 1612 mt 1144 1662 L
1188 1612 mt 1238 1662 L
1238 1612 mt 1188 1662 L
1233 2023 mt 1283 2073 L
1283 2023 mt 1233 2073 L
1277 1683 mt 1327 1733 L
1327 1683 mt 1277 1733 L
1322 2769 mt 1372 2819 L
1372 2769 mt 1322 2819 L
1366 1984 mt 1416 2034 L
1416 1984 mt 1366 2034 L
1410 2548 mt 1460 2598 L
1460 2548 mt 1410 2598 L
1455 2399 mt 1505 2449 L
1505 2399 mt 1455 2449 L
1499 2369 mt 1549 2419 L
1549 2369 mt 1499 2419 L
1544 1919 mt 1594 1969 L
1594 1919 mt 1544 1969 L
1588 2413 mt 1638 2463 L
1638 2413 mt 1588 2463 L
1633 1805 mt 1683 1855 L
1683 1805 mt 1633 1855 L
1677 1793 mt 1727 1843 L
1727 1793 mt 1677 1843 L
1722 2297 mt 1772 2347 L
1772 2297 mt 1722 2347 L
1766 1307 mt 1816 1357 L
1816 1307 mt 1766 1357 L
1811 2158 mt 1861 2208 L
1861 2158 mt 1811 2208 L
1855 1695 mt 1905 1745 L
1905 1695 mt 1855 1745 L
1900 2036 mt 1950 2086 L
1950 2036 mt 1900 2086 L
1944 1793 mt 1994 1843 L
1994 1793 mt 1944 1843 L
1988 1984 mt 2038 2034 L
2038 1984 mt 1988 2034 L
2033 2283 mt 2083 2333 L
2083 2283 mt 2033 2333 L
2077 1683 mt 2127 1733 L
2127 1683 mt 2077 1733 L
2122 1647 mt 2172 1697 L
2172 1647 mt 2122 1697 L
2166 2036 mt 2216 2086 L
2216 2036 mt 2166 2086 L
2211 1970 mt 2261 2020 L
2261 1970 mt 2211 2020 L
2255 2199 mt 2305 2249 L
2305 2199 mt 2255 2249 L
2300 1855 mt 2350 1905 L
2350 1855 mt 2300 1905 L
2344 1744 mt 2394 1794 L
2394 1744 mt 2344 1794 L
2389 1793 mt 2439 1843 L
2439 1793 mt 2389 1843 L
2433 2185 mt 2483 2235 L
2483 2185 mt 2433 2235 L
2478 1793 mt 2528 1843 L
2528 1793 mt 2478 1843 L
2522 2090 mt 2572 2140 L
2572 2090 mt 2522 2140 L
2566 2610 mt 2616 2660 L
2616 2610 mt 2566 2660 L
2611 1830 mt 2661 1880 L
2661 1830 mt 2611 1880 L
2655 1958 mt 2705 2008 L
2705 1958 mt 2655 2008 L
2700 2384 mt 2750 2434 L
2750 2384 mt 2700 2434 L
2744 2144 mt 2794 2194 L
2794 2144 mt 2744 2194 L
2789 2213 mt 2839 2263 L
2839 2213 mt 2789 2263 L
2833 2185 mt 2883 2235 L
2883 2185 mt 2833 2235 L
2878 1881 mt 2928 1931 L
2928 1881 mt 2878 1931 L
2922 2227 mt 2972 2277 L
2972 2227 mt 2922 2277 L
2967 2117 mt 3017 2167 L
3017 2117 mt 2967 2167 L
3011 2076 mt 3061 2126 L
3061 2076 mt 3011 2126 L
3056 1612 mt 3106 1662 L
3106 1612 mt 3056 1662 L
3100 1768 mt 3150 1818 L
3150 1768 mt 3100 1818 L
3144 2241 mt 3194 2291 L
3194 2241 mt 3144 2291 L
3189 2063 mt 3239 2113 L
3239 2063 mt 3189 2113 L
3233 1768 mt 3283 1818 L
3283 1768 mt 3233 1818 L
3278 2171 mt 3328 2221 L
3328 2171 mt 3278 2221 L
3322 1868 mt 3372 1918 L
3372 1868 mt 3322 1918 L
3367 2213 mt 3417 2263 L
3417 2213 mt 3367 2263 L
3411 1997 mt 3461 2047 L
3461 1997 mt 3411 2047 L
3456 1659 mt 3506 1709 L
3506 1659 mt 3456 1709 L
3500 2076 mt 3550 2126 L
3550 2076 mt 3500 2126 L
3545 2625 mt 3595 2675 L
3595 2625 mt 3545 2675 L
3589 1818 mt 3639 1868 L
3639 1818 mt 3589 1868 L
3633 2227 mt 3683 2277 L
3683 2227 mt 3633 2277 L
3678 2283 mt 3728 2333 L
3728 2283 mt 3678 2333 L
3722 2488 mt 3772 2538 L
3772 2488 mt 3722 2538 L
3767 1473 mt 3817 1523 L
3817 1473 mt 3767 1523 L
3811 2076 mt 3861 2126 L
3861 2076 mt 3811 2126 L
3856 1970 mt 3906 2020 L
3906 1970 mt 3856 2020 L
3900 1462 mt 3950 1512 L
3950 1462 mt 3900 1512 L
3945 2283 mt 3995 2333 L
3995 2283 mt 3945 2333 L
3989 1932 mt 4039 1982 L
4039 1932 mt 3989 1982 L
4034 1695 mt 4084 1745 L
4084 1695 mt 4034 1745 L
4078 1647 mt 4128 1697 L
4128 1647 mt 4078 1697 L
4123 1588 mt 4173 1638 L
4173 1588 mt 4123 1638 L
4167 2036 mt 4217 2086 L
4217 2036 mt 4167 2086 L
4211 1731 mt 4261 1781 L
4261 1731 mt 4211 1781 L
4256 1417 mt 4306 1467 L
4306 1417 mt 4256 1467 L
4300 2199 mt 4350 2249 L
4350 2199 mt 4300 2249 L
4345 1997 mt 4395 2047 L
4395 1997 mt 4345 2047 L
4389 1970 mt 4439 2020 L
4439 1970 mt 4389 2020 L
4434 2130 mt 4484 2180 L
4484 2130 mt 4434 2180 L
4478 2063 mt 4528 2113 L
4528 2063 mt 4478 2113 L
4523 1906 mt 4573 1956 L
4573 1906 mt 4523 1956 L
4567 2130 mt 4617 2180 L
4617 2130 mt 4567 2180 L
4612 1576 mt 4662 1626 L
4662 1576 mt 4612 1626 L
4656 1906 mt 4706 1956 L
4706 1906 mt 4656 1956 L
4701 2610 mt 4751 2660 L
4751 2610 mt 4701 2660 L
4745 2610 mt 4795 2660 L
4795 2610 mt 4745 2660 L
4789 1805 mt 4839 1855 L
4839 1805 mt 4789 1855 L
4834 1671 mt 4884 1721 L
4884 1671 mt 4834 1721 L
4878 1756 mt 4928 1806 L
4928 1756 mt 4878 1806 L
4923 2443 mt 4973 2493 L
4973 2443 mt 4923 2493 L
4967 2213 mt 5017 2263 L
5017 2213 mt 4967 2263 L
5012 1906 mt 5062 1956 L
5062 1906 mt 5012 1956 L
5056 2010 mt 5106 2060 L
5106 2010 mt 5056 2060 L
5101 1719 mt 5151 1769 L
5151 1719 mt 5101 1769 L
5145 1970 mt 5195 2020 L
5195 1970 mt 5145 2020 L
5190 2063 mt 5240 2113 L
5240 2063 mt 5190 2113 L
5234 1793 mt 5284 1843 L
5284 1793 mt 5234 1843 L
5279 1945 mt 5329 1995 L
5329 1945 mt 5279 1995 L
gr

gs 858 306 4447 3295 rc
/c9 { 1.000000 0.000000 0.000000 sr} bdef
c9
45 -635 44 102 45 30 44 89 45 39 44 -168 45 -30 44 358 
45 -151 44 -493 45 296 44 501 44 -275 45 -146 44 -268 45 366 
44 105 45 0 44 93 45 -326 44 118 45 -78 44 -321 45 495 
44 19 44 -9 45 -409 44 94 45 229 44 -108 45 -215 44 313 
45 -78 44 -374 45 640 44 73 45 -251 44 -118 44 440 45 -255 
44 -255 45 -209 44 435 45 -77 44 115 45 -473 44 329 45 172 
44 -343 44 20 45 488 44 -91 45 -178 44 -209 45 180 44 0 
45 180 44 198 45 -207 44 -210 45 144 44 -346 44 231 45 281 
44 -737 45 387 44 -10 45 204 44 -96 45 -10 44 -19 45 -89 
44 137 45 133 44 -444 44 234 45 29 44 125 45 -472 44 583 
45 -509 44 83 45 371 44 -310 45 291 44 190 45 -125 44 -74 
44 -163 45 68 44 -197 45 -187 44 197 45 70 44 146 45 19 
44 139 45 -46 44 -189 902 942 100 MP stroke
gr

c9
gs 829 465 4549 1017 rc
 866  942 mt  938  942 L
 902  906 mt  902  978 L
 910  753 mt  982  753 L
 946  717 mt  946  789 L
 955  707 mt 1027  707 L
 991  671 mt  991  743 L
 999  846 mt 1071  846 L
1035  810 mt 1035  882 L
1044  865 mt 1116  865 L
1080  829 mt 1080  901 L
1088 1011 mt 1160 1011 L
1124  975 mt 1124 1047 L
1133 1081 mt 1205 1081 L
1169 1045 mt 1169 1117 L
1177 1278 mt 1249 1278 L
1213 1242 mt 1213 1314 L
1222 1091 mt 1294 1091 L
1258 1055 mt 1258 1127 L
1266  894 mt 1338  894 L
1302  858 mt 1302  930 L
1311  962 mt 1383  962 L
1347  926 mt 1347  998 L
1355  799 mt 1427  799 L
1391  763 mt 1391  835 L
1399  725 mt 1471  725 L
1435  689 mt 1435  761 L
1444  600 mt 1516  600 L
1480  564 mt 1480  636 L
1488  790 mt 1560  790 L
1524  754 mt 1524  826 L
1533 1081 mt 1605 1081 L
1569 1045 mt 1569 1117 L
1577  771 mt 1649  771 L
1613  735 mt 1613  807 L
1622 1142 mt 1694 1142 L
1658 1106 mt 1658 1178 L
1666 1225 mt 1738 1225 L
1702 1189 mt 1702 1261 L
1711  716 mt 1783  716 L
1747  680 mt 1747  752 L
1755 1299 mt 1827 1299 L
1791 1263 mt 1791 1335 L
1800  827 mt 1872  827 L
1836  791 mt 1836  863 L
1844  952 mt 1916  952 L
1880  916 mt 1880  988 L
1889  981 mt 1961  981 L
1925  945 mt 1925 1017 L
1933 1215 mt 2005 1215 L
1969 1179 mt 1969 1251 L
1977  771 mt 2049  771 L
2013  735 mt 2013  807 L
2022  904 mt 2094  904 L
2058  868 mt 2058  940 L
2066 1041 mt 2138 1041 L
2102 1005 mt 2102 1077 L
2111  952 mt 2183  952 L
2147  916 mt 2147  988 L
2155  933 mt 2227  933 L
2191  897 mt 2191  969 L
2200  923 mt 2272  923 L
2236  887 mt 2236  959 L
2244  827 mt 2316  827 L
2280  791 mt 2280  863 L
2289 1031 mt 2361 1031 L
2325  995 mt 2325 1067 L
2333 1021 mt 2405 1021 L
2369  985 mt 2369 1057 L
2378 1408 mt 2450 1408 L
2414 1372 mt 2414 1444 L
2422  671 mt 2494  671 L
2458  635 mt 2458  707 L
2467  952 mt 2539  952 L
2503  916 mt 2503  988 L
2511 1183 mt 2583 1183 L
2547 1147 mt 2547 1219 L
2555  837 mt 2627  837 L
2591  801 mt 2591  873 L
2600  981 mt 2672  981 L
2636  945 mt 2636 1017 L
2644  771 mt 2716  771 L
2680  735 mt 2680  807 L
2689  564 mt 2761  564 L
2725  528 mt 2725  600 L
2733  762 mt 2805  762 L
2769  726 mt 2769  798 L
2778  942 mt 2850  942 L
2814  906 mt 2814  978 L
2822  942 mt 2894  942 L
2858  906 mt 2858  978 L
2867 1122 mt 2939 1122 L
2903 1086 mt 2903 1158 L
2911  913 mt 2983  913 L
2947  877 mt 2947  949 L
2956  735 mt 3028  735 L
2992  699 mt 2992  771 L
3000  644 mt 3072  644 L
3036  608 mt 3036  680 L
3045 1132 mt 3117 1132 L
3081 1096 mt 3081 1168 L
3089 1152 mt 3161 1152 L
3125 1116 mt 3125 1188 L
3133  809 mt 3205  809 L
3169  773 mt 3169  845 L
3178  981 mt 3250  981 L
3214  945 mt 3214 1017 L
3222 1310 mt 3294 1310 L
3258 1274 mt 3258 1346 L
3267  837 mt 3339  837 L
3303  801 mt 3303  873 L
3311  952 mt 3383  952 L
3347  916 mt 3347  988 L
3356  875 mt 3428  875 L
3392  839 mt 3392  911 L
3400 1310 mt 3472 1310 L
3436 1274 mt 3436 1346 L
3445 1101 mt 3517 1101 L
3481 1065 mt 3481 1137 L
3489  846 mt 3561  846 L
3525  810 mt 3525  882 L
3534  591 mt 3606  591 L
3570  555 mt 3570  627 L
3578 1031 mt 3650 1031 L
3614  995 mt 3614 1067 L
3622  913 mt 3694  913 L
3658  877 mt 3658  949 L
3667  662 mt 3739  662 L
3703  626 mt 3703  698 L
3711  735 mt 3783  735 L
3747  699 mt 3747  771 L
3756 1375 mt 3828 1375 L
3792 1339 mt 3792 1411 L
3800 1001 mt 3872 1001 L
3836  965 mt 3836 1037 L
3845  923 mt 3917  923 L
3881  887 mt 3881  959 L
3889 1236 mt 3961 1236 L
3925 1200 mt 3925 1272 L
3934 1021 mt 4006 1021 L
3970  985 mt 3970 1057 L
3978  913 mt 4050  913 L
4014  877 mt 4014  949 L
4023 1142 mt 4095 1142 L
4059 1106 mt 4059 1178 L
4067 1236 mt 4139 1236 L
4103 1200 mt 4103 1272 L
4112  827 mt 4184  827 L
4148  791 mt 4148  863 L
4156  818 mt 4228  818 L
4192  782 mt 4192  854 L
4200  837 mt 4272  837 L
4236  801 mt 4236  873 L
4245 1332 mt 4317 1332 L
4281 1296 mt 4281 1368 L
4289 1011 mt 4361 1011 L
4325  975 mt 4325 1047 L
4334  933 mt 4406  933 L
4370  897 mt 4370  969 L
4378 1051 mt 4450 1051 L
4414 1015 mt 4414 1087 L
4423  725 mt 4495  725 L
4459  689 mt 4459  761 L
4467  818 mt 4539  818 L
4503  782 mt 4503  854 L
4512  818 mt 4584  818 L
4548  782 mt 4548  854 L
4556  923 mt 4628  923 L
4592  887 mt 4592  959 L
4601 1289 mt 4673 1289 L
4637 1253 mt 4637 1325 L
4645 1021 mt 4717 1021 L
4681  985 mt 4681 1057 L
4690  875 mt 4762  875 L
4726  839 mt 4726  911 L
4734  600 mt 4806  600 L
4770  564 mt 4770  636 L
4778 1101 mt 4850 1101 L
4814 1065 mt 4814 1137 L
4823 1397 mt 4895 1397 L
4859 1361 mt 4859 1433 L
4867  904 mt 4939  904 L
4903  868 mt 4903  940 L
4912  753 mt 4984  753 L
4948  717 mt 4948  789 L
4956 1111 mt 5028 1111 L
4992 1075 mt 4992 1147 L
5001 1081 mt 5073 1081 L
5037 1045 mt 5037 1117 L
5045  913 mt 5117  913 L
5081  877 mt 5081  949 L
5090  952 mt 5162  952 L
5126  916 mt 5126  988 L
5134 1041 mt 5206 1041 L
5170 1005 mt 5170 1077 L
5179 1071 mt 5251 1071 L
5215 1035 mt 5215 1107 L
5223 1173 mt 5295 1173 L
5259 1137 mt 5259 1209 L
5268  538 mt 5340  538 L
5304  502 mt 5304  574 L
gr

gs 858 306 4447 3295 rc
DA
0 sg
45 -244 44 78 45 -513 44 1082 45 -759 44 -16 45 -150 44 -157 
45 664 44 -75 45 -122 44 0 44 226 45 -783 44 364 45 -83 
44 260 45 497 44 -1002 45 791 44 -193 45 -16 44 -61 45 -344 
44 51 44 181 45 524 44 -366 45 634 44 -410 45 -546 44 604 
45 -15 44 -282 45 121 44 89 45 -104 44 191 44 14 45 -454 
44 593 45 -912 44 477 45 -460 44 398 45 77 44 -475 45 188 
44 333 44 -139 45 -562 44 515 45 505 44 0 45 176 44 -666 
45 -212 44 337 45 281 44 -342 45 667 44 -1116 44 417 45 360 
44 -977 45 1264 44 -26 45 -637 44 -64 45 454 44 -205 45 -481 
44 -177 45 393 44 -303 44 -126 45 842 44 57 45 -342 44 -128 
45 -216 44 421 45 418 44 -464 45 15 44 -239 45 0 44 161 
44 -347 45 -52 44 271 45 16 44 -218 45 202 44 221 45 -189 
44 80 45 390 44 576 902 1732 100 MP stroke
gr

0 sg
DA
gs 829 1659 4549 1714 rc
SO
 877 1707 mt  927 1757 L
 927 1707 mt  877 1757 L
 921 2283 mt  971 2333 L
 971 2283 mt  921 2333 L
 966 2673 mt 1016 2723 L
1016 2673 mt  966 2723 L
1010 2753 mt 1060 2803 L
1060 2753 mt 1010 2803 L
1055 2564 mt 1105 2614 L
1105 2564 mt 1055 2614 L
1099 2785 mt 1149 2835 L
1149 2785 mt 1099 2835 L
1144 2987 mt 1194 3037 L
1194 2987 mt 1144 3037 L
1188 2769 mt 1238 2819 L
1238 2769 mt 1188 2819 L
1233 2785 mt 1283 2835 L
1283 2785 mt 1233 2835 L
1277 3056 mt 1327 3106 L
1327 3056 mt 1277 3106 L
1322 3004 mt 1372 3054 L
1372 3004 mt 1322 3054 L
1366 2657 mt 1416 2707 L
1416 2657 mt 1366 2707 L
1410 2818 mt 1460 2868 L
1460 2818 mt 1410 2868 L
1455 2818 mt 1505 2868 L
1505 2818 mt 1455 2868 L
1499 2579 mt 1549 2629 L
1549 2579 mt 1499 2629 L
1544 2594 mt 1594 2644 L
1594 2594 mt 1544 2644 L
1588 2130 mt 1638 2180 L
1638 2130 mt 1588 2180 L
1633 2548 mt 1683 2598 L
1683 2548 mt 1633 2598 L
1677 2969 mt 1727 3019 L
1727 2969 mt 1677 3019 L
1722 2753 mt 1772 2803 L
1772 2753 mt 1722 2803 L
1766 2625 mt 1816 2675 L
1816 2625 mt 1766 2675 L
1811 2283 mt 1861 2333 L
1861 2283 mt 1811 2333 L
1855 2340 mt 1905 2390 L
1905 2340 mt 1855 2390 L
1900 3182 mt 1950 3232 L
1950 3182 mt 1900 3232 L
1944 3056 mt 1994 3106 L
1994 3056 mt 1944 3106 L
1988 2753 mt 2038 2803 L
2038 2753 mt 1988 2803 L
2033 3146 mt 2083 3196 L
2083 3146 mt 2033 3196 L
2077 2969 mt 2127 3019 L
2127 2969 mt 2077 3019 L
2122 2488 mt 2172 2538 L
2172 2488 mt 2122 2538 L
2166 2283 mt 2216 2333 L
2216 2283 mt 2166 2333 L
2211 2737 mt 2261 2787 L
2261 2737 mt 2211 2787 L
2255 2673 mt 2305 2723 L
2305 2673 mt 2255 2723 L
2300 2036 mt 2350 2086 L
2350 2036 mt 2300 2086 L
2344 2010 mt 2394 2060 L
2394 2010 mt 2344 2060 L
2389 3274 mt 2439 3324 L
2439 3274 mt 2389 3324 L
2433 2297 mt 2483 2347 L
2483 2297 mt 2433 2347 L
2478 2657 mt 2528 2707 L
2528 2657 mt 2478 2707 L
2522 3074 mt 2572 3124 L
2572 3074 mt 2522 3124 L
2566 1958 mt 2616 2008 L
2616 1958 mt 2566 2008 L
2611 2625 mt 2661 2675 L
2661 2625 mt 2611 2675 L
2655 2283 mt 2705 2333 L
2705 2283 mt 2655 2333 L
2700 2564 mt 2750 2614 L
2750 2564 mt 2700 2614 L
2744 2901 mt 2794 2951 L
2794 2901 mt 2744 2951 L
2789 2689 mt 2839 2739 L
2839 2689 mt 2789 2739 L
2833 2023 mt 2883 2073 L
2883 2023 mt 2833 2073 L
2878 2199 mt 2928 2249 L
2928 2199 mt 2878 2249 L
2922 2199 mt 2972 2249 L
2972 2199 mt 2922 2249 L
2967 2704 mt 3017 2754 L
3017 2704 mt 2967 2754 L
3011 3219 mt 3061 3269 L
3061 3219 mt 3011 3269 L
3056 2657 mt 3106 2707 L
3106 2657 mt 3056 2707 L
3100 2518 mt 3150 2568 L
3150 2518 mt 3100 2568 L
3144 2851 mt 3194 2901 L
3194 2851 mt 3144 2901 L
3189 3039 mt 3239 3089 L
3239 3039 mt 3189 3089 L
3233 2564 mt 3283 2614 L
3283 2564 mt 3233 2614 L
3278 2641 mt 3328 2691 L
3328 2641 mt 3278 2691 L
3322 3039 mt 3372 3089 L
3372 3039 mt 3322 3089 L
3367 2579 mt 3417 2629 L
3417 2579 mt 3367 2629 L
3411 3056 mt 3461 3106 L
3461 3056 mt 3411 3106 L
3456 2144 mt 3506 2194 L
3506 2144 mt 3456 2194 L
3500 2737 mt 3550 2787 L
3550 2737 mt 3500 2787 L
3545 2283 mt 3595 2333 L
3595 2283 mt 3545 2333 L
3589 2297 mt 3639 2347 L
3639 2297 mt 3589 2347 L
3633 2488 mt 3683 2538 L
3683 2488 mt 3633 2538 L
3678 2384 mt 3728 2434 L
3728 2384 mt 3678 2434 L
3722 2473 mt 3772 2523 L
3772 2473 mt 3722 2523 L
3767 2594 mt 3817 2644 L
3817 2594 mt 3767 2644 L
3811 2312 mt 3861 2362 L
3861 2312 mt 3811 2362 L
3856 2297 mt 3906 2347 L
3906 2297 mt 3856 2347 L
3900 2901 mt 3950 2951 L
3950 2901 mt 3900 2951 L
3945 2355 mt 3995 2405 L
3995 2355 mt 3945 2405 L
3989 1945 mt 4039 1995 L
4039 1945 mt 3989 1995 L
4034 2579 mt 4084 2629 L
4084 2579 mt 4034 2629 L
4078 2213 mt 4128 2263 L
4128 2213 mt 4078 2263 L
4123 2737 mt 4173 2787 L
4173 2737 mt 4123 2787 L
4167 2918 mt 4217 2968 L
4217 2918 mt 4167 2968 L
4211 2969 mt 4261 3019 L
4261 2969 mt 4211 3019 L
4256 2625 mt 4306 2675 L
4306 2625 mt 4256 2675 L
4300 2564 mt 4350 2614 L
4350 2564 mt 4300 2614 L
4345 2548 mt 4395 2598 L
4395 2548 mt 4345 2598 L
4389 2355 mt 4439 2405 L
4439 2355 mt 4389 2405 L
4434 3146 mt 4484 3196 L
4484 3146 mt 4434 3196 L
4478 2144 mt 4528 2194 L
4528 2144 mt 4478 2194 L
4523 2641 mt 4573 2691 L
4573 2641 mt 4523 2691 L
4567 2901 mt 4617 2951 L
4617 2901 mt 4567 2951 L
4612 2818 mt 4662 2868 L
4662 2818 mt 4612 2868 L
4656 3182 mt 4706 3232 L
4706 3182 mt 4656 3232 L
4701 2399 mt 4751 2449 L
4751 2399 mt 4701 2449 L
4745 2625 mt 4795 2675 L
4795 2625 mt 4745 2675 L
4789 2625 mt 4839 2675 L
4839 2625 mt 4789 2675 L
4834 2503 mt 4884 2553 L
4884 2503 mt 4834 2553 L
4878 2428 mt 4928 2478 L
4928 2428 mt 4878 2478 L
4923 3092 mt 4973 3142 L
4973 3092 mt 4923 3142 L
4967 2935 mt 5017 2985 L
5017 2935 mt 4967 2985 L
5012 2785 mt 5062 2835 L
5062 2785 mt 5012 2835 L
5056 2769 mt 5106 2819 L
5106 2769 mt 5056 2819 L
5101 2010 mt 5151 2060 L
5151 2010 mt 5101 2060 L
5145 3092 mt 5195 3142 L
5195 3092 mt 5145 3142 L
5190 2579 mt 5240 2629 L
5240 2579 mt 5190 2629 L
5234 2657 mt 5284 2707 L
5284 2657 mt 5234 2707 L
5279 2413 mt 5329 2463 L
5329 2413 mt 5279 2463 L
DA
gr

gs 858 306 4447 3295 rc
SO
/c10 { 0.000000 0.498039 0.000000 sr} bdef
c10
45 449 44 36 45 -72 44 -273 45 190 44 28 45 275 44 -69 
45 -357 44 29 45 -19 44 241 44 -9 45 -82 44 -237 45 19 
44 58 45 160 44 153 45 -107 44 -323 45 386 44 -559 45 413 
44 -240 44 323 45 -434 44 611 45 -269 44 -362 45 526 44 -316 
45 -10 44 -119 45 364 44 -197 45 29 44 38 44 -57 45 -167 
44 186 45 104 44 145 45 -405 44 342 45 202 44 -350 45 229 
44 -344 44 171 45 199 44 -35 45 -394 44 295 45 -168 44 204 
45 9 44 54 45 -145 44 -747 45 547 44 560 44 -296 45 168 
44 86 45 -479 44 152 45 55 44 72 45 62 44 -479 45 354 
44 54 45 -428 44 -10 44 509 45 -217 44 -222 45 286 44 -276 
45 98 44 -250 45 419 44 -150 45 67 44 450 45 -527 44 160 
44 214 45 -491 44 175 45 282 44 -171 45 73 44 -27 45 18 
44 9 45 -18 44 -401 902 1081 100 MP stroke
gr

c10
SO
gs 829 304 4549 1279 rc
  36   36  902 1081 FO
  36   36  946  680 FO
  36   36  991  662 FO
  36   36 1035  671 FO
  36   36 1080  689 FO
  36   36 1124  662 FO
  36   36 1169  735 FO
  36   36 1213  564 FO
  36   36 1258  846 FO
  36   36 1302 1021 FO
  36   36 1347  530 FO
  36   36 1391  744 FO
  36   36 1435  904 FO
  36   36 1480  377 FO
  36   36 1524  827 FO
  36   36 1569  894 FO
  36   36 1613  744 FO
  36   36 1658 1163 FO
  36   36 1702  913 FO
  36   36 1747 1011 FO
  36   36 1791  735 FO
  36   36 1836 1021 FO
  36   36 1880  799 FO
  36   36 1925  582 FO
  36   36 1969 1091 FO
  36   36 2013 1081 FO
  36   36 2058  653 FO
  36   36 2102  707 FO
  36   36 2147 1061 FO
  36   36 2191  582 FO
  36   36 2236  644 FO
  36   36 2280  716 FO
  36   36 2325  771 FO
  36   36 2369  923 FO
  36   36 2414  444 FO
  36   36 2458  530 FO
  36   36 2503  698 FO
  36   36 2547  402 FO
  36   36 2591  962 FO
  36   36 2636 1509 FO
  36   36 2680  762 FO
  36   36 2725  617 FO
  36   36 2769  671 FO
  36   36 2814  680 FO
  36   36 2858  884 FO
  36   36 2903  716 FO
  36   36 2947 1011 FO
  36   36 2992  617 FO
  36   36 3036  582 FO
  36   36 3081  781 FO
  36   36 3125  952 FO
  36   36 3169  608 FO
  36   36 3214  837 FO
  36   36 3258  487 FO
  36   36 3303  689 FO
  36   36 3347 1031 FO
  36   36 3392  626 FO
  36   36 3436  771 FO
  36   36 3481  875 FO
  36   36 3525 1061 FO
  36   36 3570  894 FO
  36   36 3614  837 FO
  36   36 3658  875 FO
  36   36 3703  904 FO
  36   36 3747  707 FO
  36   36 3792 1071 FO
  36   36 3836  952 FO
  36   36 3881  942 FO
  36   36 3925  626 FO
  36   36 3970 1152 FO
  36   36 4014  790 FO
  36   36 4059  521 FO
  36   36 4103 1132 FO
  36   36 4148  698 FO
  36   36 4192 1021 FO
  36   36 4236  781 FO
  36   36 4281 1194 FO
  36   36 4325  635 FO
  36   36 4370 1021 FO
  36   36 4414  698 FO
  36   36 4459  591 FO
  36   36 4503  744 FO
  36   36 4548  904 FO
  36   36 4592  962 FO
  36   36 4637  981 FO
  36   36 4681  744 FO
  36   36 4726  662 FO
  36   36 4770  653 FO
  36   36 4814  894 FO
  36   36 4859  875 FO
  36   36 4903  904 FO
  36   36 4948  547 FO
  36   36 4992  478 FO
  36   36 5037  753 FO
  36   36 5081  781 FO
  36   36 5126  971 FO
  36   36 5170  698 FO
  36   36 5215  626 FO
  36   36 5259  662 FO
  36   36 5304 1111 FO
gr

gs 858 306 4447 3295 rc
gr

0 sg
2893 3968 mt 
(GOP) s
 405 2337 mt  -90 rotate
(PSNR[dB]) s
90 rotate
%%IncludeResource: font Helvetica
/Helvetica /ISOLatin1Encoding 120 FMSR

 841 3643 mt 
( ) s
5288  348 mt 
( ) s
1 sg
0 977 972 0 0 -977 5359 1270 4 MP
PP
-972 0 0 977 972 0 0 -977 5359 1270 5 MP stroke
4 w
DO
SO
6 w
0 sg
5359 1270 mt 6331 1270 L
5359  293 mt 6331  293 L
5359 1270 mt 5359  293 L
6331 1270 mt 6331  293 L
5359 1270 mt 6331 1270 L
5359 1270 mt 5359  293 L
5359 1270 mt 6331 1270 L
5359  293 mt 6331  293 L
5359 1270 mt 5359  293 L
6331 1270 mt 6331  293 L
%%IncludeResource: font Helvetica
/Helvetica /ISOLatin1Encoding 168 FMSR

5886  491 mt 
(UT1) s
gs 5359 293 973 978 rc
c8
405 0 5440 430 2 MP stroke
gs 5569 357 147 147 rc
5617  405 mt 5667  455 L
5667  405 mt 5617  455 L
gr

gr

c8
0 sg
5886  725 mt 
(UT2) s
gs 5359 293 973 978 rc
c9
405 0 5440 664 2 MP stroke
gs 5569 591 147 147 rc
5606  664 mt 5678  664 L
5642  628 mt 5642  700 L
gr

gr

c9
0 sg
5886  959 mt 
(UT3) s
gs 5359 293 973 978 rc
DA
405 0 5440 898 2 MP stroke
SO
gs 5569 825 147 147 rc
5617  873 mt 5667  923 L
5667  873 mt 5617  923 L
gr

gr

5886 1193 mt 
(UT4) s
gs 5359 293 973 978 rc
c10
405 0 5440 1132 2 MP stroke
gs 5569 1059 147 147 rc
  36   36 5642 1132 FO
gr

gr

c10

end %%Color Dict

eplot
%%EndObject

epage
end

showpage

%%Trailer
%%EOF
