%!PS-Adobe-3.0 EPSF-3.0
%%Creator: MATLAB, The MathWorks, Inc. Version 8.1.0.604 (R2013a). Operating System: Darwin 13.4.0 Darwin Kernel Version 13.4.0: Sun Aug 17 19:50:11 PDT 2014; root:xnu-2422.115.4~1/RELEASE_X86_64 x86_64.
%%Title: /Users/le/Work/project3/Figures/Results/0926/variance_variationPSNR_u1.eps
%%CreationDate: 10/15/2014  13:54:51
%%DocumentNeededFonts: Helvetica
%%DocumentProcessColors: Cyan Magenta Yellow Black
%%LanguageLevel: 2
%%Pages: 1
%%BoundingBox:    39   188   572   602
%%EndComments

%%BeginProlog
% MathWorks dictionary
/MathWorks 160 dict begin
% definition operators
/bdef {bind def} bind def
/ldef {load def} bind def
/xdef {exch def} bdef
/xstore {exch store} bdef
% operator abbreviations
/c  /clip ldef
/cc /concat ldef
/cp /closepath ldef
/gr /grestore ldef
/gs /gsave ldef
/mt /moveto ldef
/np /newpath ldef
/cm /currentmatrix ldef
/sm /setmatrix ldef
/rm /rmoveto ldef
/rl /rlineto ldef
/s {show newpath} bdef
/sc {setcmykcolor} bdef
/sr /setrgbcolor ldef
/sg /setgray ldef
/w /setlinewidth ldef
/j /setlinejoin ldef
/cap /setlinecap ldef
/rc {rectclip} bdef
/rf {rectfill} bdef
% page state control
/pgsv () def
/bpage {/pgsv save def} bdef
/epage {pgsv restore} bdef
/bplot /gsave ldef
/eplot {stroke grestore} bdef
% orientation switch
/portraitMode 0 def /landscapeMode 1 def /rotateMode 2 def
% coordinate system mappings
/dpi2point 0 def
% font control
/FontSize 0 def
/FMS {/FontSize xstore findfont [FontSize 0 0 FontSize neg 0 0]
  makefont setfont} bdef
/reencode {exch dup where {pop load} {pop StandardEncoding} ifelse
  exch dup 3 1 roll findfont dup length dict begin
  { 1 index /FID ne {def}{pop pop} ifelse } forall
  /Encoding exch def currentdict end definefont pop} bdef
/isroman {findfont /CharStrings get /Agrave known} bdef
/FMSR {3 1 roll 1 index dup isroman {reencode} {pop pop} ifelse
  exch FMS} bdef
/csm {1 dpi2point div -1 dpi2point div scale neg translate
 dup landscapeMode eq {pop -90 rotate}
  {rotateMode eq {90 rotate} if} ifelse} bdef
% line types: solid, dotted, dashed, dotdash
/SO { [] 0 setdash } bdef
/DO { [.5 dpi2point mul 4 dpi2point mul] 0 setdash } bdef
/DA { [6 dpi2point mul] 0 setdash } bdef
/DD { [.5 dpi2point mul 4 dpi2point mul 6 dpi2point mul 4
  dpi2point mul] 0 setdash } bdef
% macros for lines and objects
/L {lineto stroke} bdef
/MP {3 1 roll moveto 1 sub {rlineto} repeat} bdef
/AP {{rlineto} repeat} bdef
/PDlw -1 def
/W {/PDlw currentlinewidth def setlinewidth} def
/PP {closepath eofill} bdef
/DP {closepath stroke} bdef
/MR {4 -2 roll moveto dup  0 exch rlineto exch 0 rlineto
  neg 0 exch rlineto closepath} bdef
/FR {MR stroke} bdef
/PR {MR fill} bdef
/L1i {{currentfile picstr readhexstring pop} image} bdef
/tMatrix matrix def
/MakeOval {newpath tMatrix currentmatrix pop translate scale
0 0 1 0 360 arc tMatrix setmatrix} bdef
/FO {MakeOval stroke} bdef
/PO {MakeOval fill} bdef
/PD {currentlinewidth 2 div 0 360 arc fill
   PDlw -1 eq not {PDlw w /PDlw -1 def} if} def
/FA {newpath tMatrix currentmatrix pop translate scale
  0 0 1 5 -2 roll arc tMatrix setmatrix stroke} bdef
/PA {newpath tMatrix currentmatrix pop	translate 0 0 moveto scale
  0 0 1 5 -2 roll arc closepath tMatrix setmatrix fill} bdef
/FAn {newpath tMatrix currentmatrix pop translate scale
  0 0 1 5 -2 roll arcn tMatrix setmatrix stroke} bdef
/PAn {newpath tMatrix currentmatrix pop translate 0 0 moveto scale
  0 0 1 5 -2 roll arcn closepath tMatrix setmatrix fill} bdef
/vradius 0 def /hradius 0 def /lry 0 def
/lrx 0 def /uly 0 def /ulx 0 def /rad 0 def
/MRR {/vradius xdef /hradius xdef /lry xdef /lrx xdef /uly xdef
  /ulx xdef newpath tMatrix currentmatrix pop ulx hradius add uly
  vradius add translate hradius vradius scale 0 0 1 180 270 arc 
  tMatrix setmatrix lrx hradius sub uly vradius add translate
  hradius vradius scale 0 0 1 270 360 arc tMatrix setmatrix
  lrx hradius sub lry vradius sub translate hradius vradius scale
  0 0 1 0 90 arc tMatrix setmatrix ulx hradius add lry vradius sub
  translate hradius vradius scale 0 0 1 90 180 arc tMatrix setmatrix
  closepath} bdef
/FRR {MRR stroke } bdef
/PRR {MRR fill } bdef
/MlrRR {/lry xdef /lrx xdef /uly xdef /ulx xdef /rad lry uly sub 2 div def
  newpath tMatrix currentmatrix pop ulx rad add uly rad add translate
  rad rad scale 0 0 1 90 270 arc tMatrix setmatrix lrx rad sub lry rad
  sub translate rad rad scale 0 0 1 270 90 arc tMatrix setmatrix
  closepath} bdef
/FlrRR {MlrRR stroke } bdef
/PlrRR {MlrRR fill } bdef
/MtbRR {/lry xdef /lrx xdef /uly xdef /ulx xdef /rad lrx ulx sub 2 div def
  newpath tMatrix currentmatrix pop ulx rad add uly rad add translate
  rad rad scale 0 0 1 180 360 arc tMatrix setmatrix lrx rad sub lry rad
  sub translate rad rad scale 0 0 1 0 180 arc tMatrix setmatrix
  closepath} bdef
/FtbRR {MtbRR stroke } bdef
/PtbRR {MtbRR fill } bdef
/stri 6 array def /dtri 6 array def
/smat 6 array def /dmat 6 array def
/tmat1 6 array def /tmat2 6 array def /dif 3 array def
/asub {/ind2 exch def /ind1 exch def dup dup
  ind1 get exch ind2 get sub exch } bdef
/tri_to_matrix {
  2 0 asub 3 1 asub 4 0 asub 5 1 asub
  dup 0 get exch 1 get 7 -1 roll astore } bdef
/compute_transform {
  dmat dtri tri_to_matrix tmat1 invertmatrix 
  smat stri tri_to_matrix tmat2 concatmatrix } bdef
/ds {stri astore pop} bdef
/dt {dtri astore pop} bdef
/db {2 copy /cols xdef /rows xdef mul dup 3 mul string
  currentfile 
  3 index 0 eq {/ASCIIHexDecode filter}
  {/ASCII85Decode filter 3 index 2 eq {/RunLengthDecode filter} if }
  ifelse exch readstring pop
  dup 0 3 index getinterval /rbmap xdef
  dup 2 index dup getinterval /gbmap xdef
  1 index dup 2 mul exch getinterval /bbmap xdef pop pop}bdef
/it {gs np dtri aload pop moveto lineto lineto cp c
  cols rows 8 compute_transform 
  rbmap gbmap bbmap true 3 colorimage gr}bdef
/il {newpath moveto lineto stroke}bdef
currentdict end def
%%EndProlog

%%BeginSetup
MathWorks begin

0 cap

end
%%EndSetup

%%Page: 1 1
%%BeginPageSetup
%%PageBoundingBox:    39   188   572   602
MathWorks begin
bpage
%%EndPageSetup

%%BeginObject: obj1
bplot

/dpi2point 12 def
portraitMode 0468 7224 csm

    0     0  6397  4968 rc
86 dict begin %Colortable dictionary
/c0 { 0.000000 0.000000 0.000000 sr} bdef
/c1 { 1.000000 1.000000 1.000000 sr} bdef
/c2 { 0.900000 0.000000 0.000000 sr} bdef
/c3 { 0.000000 0.820000 0.000000 sr} bdef
/c4 { 0.000000 0.000000 0.800000 sr} bdef
/c5 { 0.910000 0.820000 0.320000 sr} bdef
/c6 { 1.000000 0.260000 0.820000 sr} bdef
/c7 { 0.000000 0.820000 0.820000 sr} bdef
c0
1 j
1 sg
   0    0 6398 4969 rf
6 w
0 4049 4957 0 0 -4049 832 4422 4 MP
PP
-4957 0 0 4049 4957 0 0 -4049 832 4422 5 MP stroke
4 w
DO
0 sg
 832 4422 mt  832  373 L
 832  373 mt  832  373 L
1631 4422 mt 1631  373 L
1631  373 mt 1631  373 L
2431 4422 mt 2431  373 L
2431  373 mt 2431  373 L
3230 4422 mt 3230  373 L
3230  373 mt 3230  373 L
4030 4422 mt 4030  373 L
4030  373 mt 4030  373 L
4829 4422 mt 4829  373 L
4829  373 mt 4829  373 L
5629 4422 mt 5629  373 L
5629  373 mt 5629  373 L
 832 4422 mt 5789 4422 L
5789 4422 mt 5789 4422 L
 832 3915 mt 5789 3915 L
5789 3915 mt 5789 3915 L
 832 3409 mt 5789 3409 L
5789 3409 mt 5789 3409 L
 832 2903 mt 5789 2903 L
5789 2903 mt 5789 2903 L
 832 2397 mt 5789 2397 L
5789 2397 mt 5789 2397 L
 832 1891 mt 5789 1891 L
5789 1891 mt 5789 1891 L
 832 1385 mt 5789 1385 L
5789 1385 mt 5789 1385 L
 832  879 mt 5789  879 L
5789  879 mt 5789  879 L
 832  373 mt 5789  373 L
5789  373 mt 5789  373 L
SO
6 w
 832 4422 mt 5789 4422 L
 832  373 mt 5789  373 L
 832 4422 mt  832  373 L
5789 4422 mt 5789  373 L
 832 4422 mt 5789 4422 L
 832 4422 mt  832  373 L
 832 4422 mt  832 4372 L
 832  373 mt  832  422 L
%%IncludeResource: font Helvetica
/Helvetica /ISOLatin1Encoding 120 FMSR

 799 4567 mt 
(0) s
1631 4422 mt 1631 4372 L
1631  373 mt 1631  422 L
1598 4567 mt 
(5) s
2431 4422 mt 2431 4372 L
2431  373 mt 2431  422 L
2365 4567 mt 
(10) s
3230 4422 mt 3230 4372 L
3230  373 mt 3230  422 L
3164 4567 mt 
(15) s
4030 4422 mt 4030 4372 L
4030  373 mt 4030  422 L
3964 4567 mt 
(20) s
4829 4422 mt 4829 4372 L
4829  373 mt 4829  422 L
4763 4567 mt 
(25) s
5629 4422 mt 5629 4372 L
5629  373 mt 5629  422 L
5563 4567 mt 
(30) s
 832 4422 mt  881 4422 L
5789 4422 mt 5739 4422 L
 731 4466 mt 
(0) s
 832 3915 mt  881 3915 L
5789 3915 mt 5739 3915 L
 564 3959 mt 
(0.02) s
 832 3409 mt  881 3409 L
5789 3409 mt 5739 3409 L
 564 3453 mt 
(0.04) s
 832 2903 mt  881 2903 L
5789 2903 mt 5739 2903 L
 564 2947 mt 
(0.06) s
 832 2397 mt  881 2397 L
5789 2397 mt 5739 2397 L
 564 2441 mt 
(0.08) s
 832 1891 mt  881 1891 L
5789 1891 mt 5739 1891 L
 631 1935 mt 
(0.1) s
 832 1385 mt  881 1385 L
5789 1385 mt 5739 1385 L
 564 1429 mt 
(0.12) s
 832  879 mt  881  879 L
5789  879 mt 5739  879 L
 564  923 mt 
(0.14) s
 832  373 mt  881  373 L
5789  373 mt 5739  373 L
 564  417 mt 
(0.16) s
 832 4422 mt 5789 4422 L
 832  373 mt 5789  373 L
 832 4422 mt  832  373 L
5789 4422 mt 5789  373 L
gs 832 373 4958 4050 rc
1 sg
0 1845 28 0 0 -1845 942 4422 4 MP
PP
0 sg
-28 0 0 1845 28 0 0 -1845 942 4422 5 MP stroke
1 sg
0 1092 28 0 0 -1092 1102 4422 4 MP
PP
0 sg
-28 0 0 1092 28 0 0 -1092 1102 4422 5 MP stroke
1 sg
0 957 29 0 0 -957 1261 4422 4 MP
PP
0 sg
-29 0 0 957 29 0 0 -957 1261 4422 5 MP stroke
1 sg
0 1022 29 0 0 -1022 1421 4422 4 MP
PP
0 sg
-29 0 0 1022 29 0 0 -1022 1421 4422 5 MP stroke
1 sg
0 2961 29 0 0 -2961 1581 4422 4 MP
PP
0 sg
-29 0 0 2961 29 0 0 -2961 1581 4422 5 MP stroke
1 sg
0 1358 29 0 0 -1358 1741 4422 4 MP
PP
0 sg
-29 0 0 1358 29 0 0 -1358 1741 4422 5 MP stroke
1 sg
0 2044 29 0 0 -2044 1901 4422 4 MP
PP
0 sg
-29 0 0 2044 29 0 0 -2044 1901 4422 5 MP stroke
1 sg
0 2427 28 0 0 -2427 2061 4422 4 MP
PP
0 sg
-28 0 0 2427 28 0 0 -2427 2061 4422 5 MP stroke
1 sg
0 460 28 0 0 -460 2221 4422 4 MP
PP
0 sg
-28 0 0 460 28 0 0 -460 2221 4422 5 MP stroke
1 sg
0 2285 28 0 0 -2285 2381 4422 4 MP
PP
0 sg
-28 0 0 2285 28 0 0 -2285 2381 4422 5 MP stroke
1 sg
0 2980 28 0 0 -2980 2541 4422 4 MP
PP
0 sg
-28 0 0 2980 28 0 0 -2980 2541 4422 5 MP stroke
1 sg
0 1689 28 0 0 -1689 2701 4422 4 MP
PP
0 sg
-28 0 0 1689 28 0 0 -1689 2701 4422 5 MP stroke
1 sg
0 1958 29 0 0 -1958 2860 4422 4 MP
PP
0 sg
-29 0 0 1958 29 0 0 -1958 2860 4422 5 MP stroke
1 sg
0 3475 29 0 0 -3475 3020 4422 4 MP
PP
0 sg
-29 0 0 3475 29 0 0 -3475 3020 4422 5 MP stroke
1 sg
0 3939 29 0 0 -3939 3180 4422 4 MP
PP
0 sg
-29 0 0 3939 29 0 0 -3939 3180 4422 5 MP stroke
1 sg
0 1926 29 0 0 -1926 3340 4422 4 MP
PP
0 sg
-29 0 0 1926 29 0 0 -1926 3340 4422 5 MP stroke
1 sg
0 1622 29 0 0 -1622 3500 4422 4 MP
PP
0 sg
-29 0 0 1622 29 0 0 -1622 3500 4422 5 MP stroke
1 sg
0 3053 28 0 0 -3053 3660 4422 4 MP
PP
0 sg
-28 0 0 3053 28 0 0 -3053 3660 4422 5 MP stroke
1 sg
0 2713 28 0 0 -2713 3820 4422 4 MP
PP
0 sg
-28 0 0 2713 28 0 0 -2713 3820 4422 5 MP stroke
1 sg
0 1423 28 0 0 -1423 3980 4422 4 MP
PP
0 sg
-28 0 0 1423 28 0 0 -1423 3980 4422 5 MP stroke
1 sg
0 1 28 0 0 -1 4140 4422 4 MP
PP
0 sg
-28 0 0 1 28 0 0 -1 4140 4422 5 MP stroke
1 sg
0 1567 28 0 0 -1567 4300 4422 4 MP
PP
0 sg
-28 0 0 1567 28 0 0 -1567 4300 4422 5 MP stroke
1 sg
0 562 28 0 0 -562 4460 4422 4 MP
PP
0 sg
-28 0 0 562 28 0 0 -562 4460 4422 5 MP stroke
1 sg
0 1375 29 0 0 -1375 4619 4422 4 MP
PP
0 sg
-29 0 0 1375 29 0 0 -1375 4619 4422 5 MP stroke
1 sg
0 851 29 0 0 -851 4779 4422 4 MP
PP
0 sg
-29 0 0 851 29 0 0 -851 4779 4422 5 MP stroke
1 sg
0 1681 29 0 0 -1681 4939 4422 4 MP
PP
0 sg
-29 0 0 1681 29 0 0 -1681 4939 4422 5 MP stroke
1 sg
0 2484 29 0 0 -2484 5099 4422 4 MP
PP
0 sg
-29 0 0 2484 29 0 0 -2484 5099 4422 5 MP stroke
1 sg
0 1112 28 0 0 -1112 5259 4422 4 MP
PP
0 sg
-28 0 0 1112 28 0 0 -1112 5259 4422 5 MP stroke
1 sg
0 264 28 0 0 -264 5419 4422 4 MP
PP
0 sg
-28 0 0 264 28 0 0 -264 5419 4422 5 MP stroke
1 sg
0 1643 28 0 0 -1643 5579 4422 4 MP
PP
0 sg
-28 0 0 1643 28 0 0 -1643 5579 4422 5 MP stroke
4957 0 832 4422 2 MP stroke
0.501961 sg
0 1478 29 0 0 -1478 977 4422 4 MP
PP
0 sg
-29 0 0 1478 29 0 0 -1478 977 4422 5 MP stroke
0.501961 sg
0 736 29 0 0 -736 1137 4422 4 MP
PP
0 sg
-29 0 0 736 29 0 0 -736 1137 4422 5 MP stroke
0.501961 sg
0 655 28 0 0 -655 1297 4422 4 MP
PP
0 sg
-28 0 0 655 28 0 0 -655 1297 4422 5 MP stroke
0.501961 sg
0 748 28 0 0 -748 1457 4422 4 MP
PP
0 sg
-28 0 0 748 28 0 0 -748 1457 4422 5 MP stroke
0.501961 sg
0 1786 28 0 0 -1786 1617 4422 4 MP
PP
0 sg
-28 0 0 1786 28 0 0 -1786 1617 4422 5 MP stroke
0.501961 sg
0 801 28 0 0 -801 1777 4422 4 MP
PP
0 sg
-28 0 0 801 28 0 0 -801 1777 4422 5 MP stroke
0.501961 sg
0 785 28 0 0 -785 1937 4422 4 MP
PP
0 sg
-28 0 0 785 28 0 0 -785 1937 4422 5 MP stroke
0.501961 sg
0 774 28 0 0 -774 2097 4422 4 MP
PP
0 sg
-28 0 0 774 28 0 0 -774 2097 4422 5 MP stroke
0.501961 sg
0 661 29 0 0 -661 2256 4422 4 MP
PP
0 sg
-29 0 0 661 29 0 0 -661 2256 4422 5 MP stroke
0.501961 sg
0 514 29 0 0 -514 2416 4422 4 MP
PP
0 sg
-29 0 0 514 29 0 0 -514 2416 4422 5 MP stroke
0.501961 sg
0 923 29 0 0 -923 2576 4422 4 MP
PP
0 sg
-29 0 0 923 29 0 0 -923 2576 4422 5 MP stroke
0.501961 sg
0 949 29 0 0 -949 2736 4422 4 MP
PP
0 sg
-29 0 0 949 29 0 0 -949 2736 4422 5 MP stroke
0.501961 sg
0 656 28 0 0 -656 2896 4422 4 MP
PP
0 sg
-28 0 0 656 28 0 0 -656 2896 4422 5 MP stroke
0.501961 sg
0 2687 28 0 0 -2687 3056 4422 4 MP
PP
0 sg
-28 0 0 2687 28 0 0 -2687 3056 4422 5 MP stroke
0.501961 sg
0 1026 28 0 0 -1026 3216 4422 4 MP
PP
0 sg
-28 0 0 1026 28 0 0 -1026 3216 4422 5 MP stroke
0.501961 sg
0 867 28 0 0 -867 3376 4422 4 MP
PP
0 sg
-28 0 0 867 28 0 0 -867 3376 4422 5 MP stroke
0.501961 sg
0 834 28 0 0 -834 3536 4422 4 MP
PP
0 sg
-28 0 0 834 28 0 0 -834 3536 4422 5 MP stroke
0.501961 sg
0 3243 28 0 0 -3243 3696 4422 4 MP
PP
0 sg
-28 0 0 3243 28 0 0 -3243 3696 4422 5 MP stroke
0.501961 sg
0 932 29 0 0 -932 3855 4422 4 MP
PP
0 sg
-29 0 0 932 29 0 0 -932 3855 4422 5 MP stroke
0.501961 sg
0 1220 29 0 0 -1220 4015 4422 4 MP
PP
0 sg
-29 0 0 1220 29 0 0 -1220 4015 4422 5 MP stroke
0.501961 sg
0 772 29 0 0 -772 4175 4422 4 MP
PP
0 sg
-29 0 0 772 29 0 0 -772 4175 4422 5 MP stroke
0.501961 sg
0 951 29 0 0 -951 4335 4422 4 MP
PP
0 sg
-29 0 0 951 29 0 0 -951 4335 4422 5 MP stroke
0.501961 sg
0 945 28 0 0 -945 4495 4422 4 MP
PP
0 sg
-28 0 0 945 28 0 0 -945 4495 4422 5 MP stroke
0.501961 sg
0 976 28 0 0 -976 4655 4422 4 MP
PP
0 sg
-28 0 0 976 28 0 0 -976 4655 4422 5 MP stroke
0.501961 sg
0 750 28 0 0 -750 4815 4422 4 MP
PP
0 sg
-28 0 0 750 28 0 0 -750 4815 4422 5 MP stroke
0.501961 sg
0 1089 28 0 0 -1089 4975 4422 4 MP
PP
0 sg
-28 0 0 1089 28 0 0 -1089 4975 4422 5 MP stroke
0.501961 sg
0 1013 28 0 0 -1013 5135 4422 4 MP
PP
0 sg
-28 0 0 1013 28 0 0 -1013 5135 4422 5 MP stroke
0.501961 sg
0 720 28 0 0 -720 5295 4422 4 MP
PP
0 sg
-28 0 0 720 28 0 0 -720 5295 4422 5 MP stroke
0.501961 sg
0 632 29 0 0 -632 5454 4422 4 MP
PP
0 sg
-29 0 0 632 29 0 0 -632 5454 4422 5 MP stroke
0.501961 sg
0 994 29 0 0 -994 5614 4422 4 MP
PP
0 sg
-29 0 0 994 29 0 0 -994 5614 4422 5 MP stroke
/c8 { 0.500000 0.000000 0.000000 sr} bdef
c8
0 486 28 0 0 -486 1013 4422 4 MP
PP
0 sg
-28 0 0 486 28 0 0 -486 1013 4422 5 MP stroke
c8
0 403 28 0 0 -403 1173 4422 4 MP
PP
0 sg
-28 0 0 403 28 0 0 -403 1173 4422 5 MP stroke
c8
0 262 28 0 0 -262 1333 4422 4 MP
PP
0 sg
-28 0 0 262 28 0 0 -262 1333 4422 5 MP stroke
c8
0 419 29 0 0 -419 1492 4422 4 MP
PP
0 sg
-29 0 0 419 29 0 0 -419 1492 4422 5 MP stroke
c8
0 283 29 0 0 -283 1652 4422 4 MP
PP
0 sg
-29 0 0 283 29 0 0 -283 1652 4422 5 MP stroke
c8
0 306 29 0 0 -306 1812 4422 4 MP
PP
0 sg
-29 0 0 306 29 0 0 -306 1812 4422 5 MP stroke
c8
0 466 29 0 0 -466 1972 4422 4 MP
PP
0 sg
-29 0 0 466 29 0 0 -466 1972 4422 5 MP stroke
c8
0 286 28 0 0 -286 2132 4422 4 MP
PP
0 sg
-28 0 0 286 28 0 0 -286 2132 4422 5 MP stroke
c8
0 291 28 0 0 -291 2292 4422 4 MP
PP
0 sg
-28 0 0 291 28 0 0 -291 2292 4422 5 MP stroke
c8
0 236 28 0 0 -236 2452 4422 4 MP
PP
0 sg
-28 0 0 236 28 0 0 -236 2452 4422 5 MP stroke
c8
0 411 28 0 0 -411 2612 4422 4 MP
PP
0 sg
-28 0 0 411 28 0 0 -411 2612 4422 5 MP stroke
c8
0 373 28 0 0 -373 2772 4422 4 MP
PP
0 sg
-28 0 0 373 28 0 0 -373 2772 4422 5 MP stroke
c8
0 408 28 0 0 -408 2932 4422 4 MP
PP
0 sg
-28 0 0 408 28 0 0 -408 2932 4422 5 MP stroke
c8
0 536 29 0 0 -536 3091 4422 4 MP
PP
0 sg
-29 0 0 536 29 0 0 -536 3091 4422 5 MP stroke
c8
0 398 29 0 0 -398 3251 4422 4 MP
PP
0 sg
-29 0 0 398 29 0 0 -398 3251 4422 5 MP stroke
c8
0 344 29 0 0 -344 3411 4422 4 MP
PP
0 sg
-29 0 0 344 29 0 0 -344 3411 4422 5 MP stroke
c8
0 430 29 0 0 -430 3571 4422 4 MP
PP
0 sg
-29 0 0 430 29 0 0 -430 3571 4422 5 MP stroke
c8
0 484 29 0 0 -484 3731 4422 4 MP
PP
0 sg
-29 0 0 484 29 0 0 -484 3731 4422 5 MP stroke
c8
0 438 28 0 0 -438 3891 4422 4 MP
PP
0 sg
-28 0 0 438 28 0 0 -438 3891 4422 5 MP stroke
c8
0 294 28 0 0 -294 4051 4422 4 MP
PP
0 sg
-28 0 0 294 28 0 0 -294 4051 4422 5 MP stroke
c8
0 277 28 0 0 -277 4211 4422 4 MP
PP
0 sg
-28 0 0 277 28 0 0 -277 4211 4422 5 MP stroke
c8
0 390 28 0 0 -390 4371 4422 4 MP
PP
0 sg
-28 0 0 390 28 0 0 -390 4371 4422 5 MP stroke
c8
0 353 28 0 0 -353 4531 4422 4 MP
PP
0 sg
-28 0 0 353 28 0 0 -353 4531 4422 5 MP stroke
c8
0 555 29 0 0 -555 4690 4422 4 MP
PP
0 sg
-29 0 0 555 29 0 0 -555 4690 4422 5 MP stroke
c8
0 233 29 0 0 -233 4850 4422 4 MP
PP
0 sg
-29 0 0 233 29 0 0 -233 4850 4422 5 MP stroke
c8
0 385 29 0 0 -385 5010 4422 4 MP
PP
0 sg
-29 0 0 385 29 0 0 -385 5010 4422 5 MP stroke
c8
0 232 29 0 0 -232 5170 4422 4 MP
PP
0 sg
-29 0 0 232 29 0 0 -232 5170 4422 5 MP stroke
c8
0 366 29 0 0 -366 5330 4422 4 MP
PP
0 sg
-29 0 0 366 29 0 0 -366 5330 4422 5 MP stroke
c8
0 331 28 0 0 -331 5490 4422 4 MP
PP
0 sg
-28 0 0 331 28 0 0 -331 5490 4422 5 MP stroke
c8
0 323 28 0 0 -323 5650 4422 4 MP
PP
0 sg
-28 0 0 323 28 0 0 -323 5650 4422 5 MP stroke
gr

%%IncludeResource: font Helvetica
/Helvetica /ISOLatin1Encoding 168 FMSR

2772 4745 mt 
(Simulation run) s
 472 3623 mt  -90 rotate
(Variance of PSNR variation [dB) s
90 rotate
%%IncludeResource: font Helvetica
/Helvetica /ISOLatin1Encoding 132 FMSR

 388 1291 mt  -90 rotate
(2) s
90 rotate
%%IncludeResource: font Helvetica
/Helvetica /ISOLatin1Encoding 168 FMSR

 472 1218 mt  -90 rotate
(]) s
90 rotate
%%IncludeResource: font Helvetica
/Helvetica /ISOLatin1Encoding 120 FMSR

 815 4465 mt 
( ) s
5773  415 mt 
( ) s
1 sg
0 744 2255 0 0 -744 3541 1104 4 MP
PP
-2255 0 0 744 2255 0 0 -744 3541 1104 5 MP stroke
4 w
DO
SO
6 w
0 sg
3541 1104 mt 5796 1104 L
3541  360 mt 5796  360 L
3541 1104 mt 3541  360 L
5796 1104 mt 5796  360 L
3541 1104 mt 5796 1104 L
3541 1104 mt 3541  360 L
3541 1104 mt 5796 1104 L
3541  360 mt 5796  360 L
3541 1104 mt 3541  360 L
5796 1104 mt 5796  360 L
%%IncludeResource: font Helvetica
/Helvetica /ISOLatin1Encoding 168 FMSR

4009  558 mt 
(Static RA) s
gs 3541 360 2256 745 rc
1 sg
-360 0 0 177 360 0 0 -177 3613 586 5 MP
PP
0 sg
0 0 -360 0 0 177 360 0 0 -177 3613 586 6 MP stroke
gr

4009  793 mt 
(Throughput-Driven RA) s
gs 3541 360 2256 745 rc
0.501961 sg
-360 0 0 177 360 0 0 -177 3613 820 5 MP
PP
0 sg
0 0 -360 0 0 177 360 0 0 -177 3613 820 6 MP stroke
gr

4009 1027 mt 
(Quality-Driven RA) s
gs 3541 360 2256 745 rc
c8
-360 0 0 177 360 0 0 -177 3613 1054 5 MP
PP
0 sg
0 0 -360 0 0 177 360 0 0 -177 3613 1054 6 MP stroke
gr


end %%Color Dict

eplot
%%EndObject

epage
end

showpage

%%Trailer
%%EOF
