%!PS-Adobe-3.0 EPSF-3.0
%%Creator: MATLAB, The MathWorks, Inc. Version 8.1.0.604 (R2013a). Operating System: Darwin 13.4.0 Darwin Kernel Version 13.4.0: Sun Aug 17 19:50:11 PDT 2014; root:xnu-2422.115.4~1/RELEASE_X86_64 x86_64.
%%Title: /Users/le/Work/project3/Figures/Results/0926/variance_variationPSNR_u3.eps
%%CreationDate: 10/15/2014  14:12:56
%%DocumentNeededFonts: Helvetica
%%DocumentProcessColors: Cyan Magenta Yellow Black
%%LanguageLevel: 2
%%Pages: 1
%%BoundingBox:    39   188   572   602
%%EndComments

%%BeginProlog
% MathWorks dictionary
/MathWorks 160 dict begin
% definition operators
/bdef {bind def} bind def
/ldef {load def} bind def
/xdef {exch def} bdef
/xstore {exch store} bdef
% operator abbreviations
/c  /clip ldef
/cc /concat ldef
/cp /closepath ldef
/gr /grestore ldef
/gs /gsave ldef
/mt /moveto ldef
/np /newpath ldef
/cm /currentmatrix ldef
/sm /setmatrix ldef
/rm /rmoveto ldef
/rl /rlineto ldef
/s {show newpath} bdef
/sc {setcmykcolor} bdef
/sr /setrgbcolor ldef
/sg /setgray ldef
/w /setlinewidth ldef
/j /setlinejoin ldef
/cap /setlinecap ldef
/rc {rectclip} bdef
/rf {rectfill} bdef
% page state control
/pgsv () def
/bpage {/pgsv save def} bdef
/epage {pgsv restore} bdef
/bplot /gsave ldef
/eplot {stroke grestore} bdef
% orientation switch
/portraitMode 0 def /landscapeMode 1 def /rotateMode 2 def
% coordinate system mappings
/dpi2point 0 def
% font control
/FontSize 0 def
/FMS {/FontSize xstore findfont [FontSize 0 0 FontSize neg 0 0]
  makefont setfont} bdef
/reencode {exch dup where {pop load} {pop StandardEncoding} ifelse
  exch dup 3 1 roll findfont dup length dict begin
  { 1 index /FID ne {def}{pop pop} ifelse } forall
  /Encoding exch def currentdict end definefont pop} bdef
/isroman {findfont /CharStrings get /Agrave known} bdef
/FMSR {3 1 roll 1 index dup isroman {reencode} {pop pop} ifelse
  exch FMS} bdef
/csm {1 dpi2point div -1 dpi2point div scale neg translate
 dup landscapeMode eq {pop -90 rotate}
  {rotateMode eq {90 rotate} if} ifelse} bdef
% line types: solid, dotted, dashed, dotdash
/SO { [] 0 setdash } bdef
/DO { [.5 dpi2point mul 4 dpi2point mul] 0 setdash } bdef
/DA { [6 dpi2point mul] 0 setdash } bdef
/DD { [.5 dpi2point mul 4 dpi2point mul 6 dpi2point mul 4
  dpi2point mul] 0 setdash } bdef
% macros for lines and objects
/L {lineto stroke} bdef
/MP {3 1 roll moveto 1 sub {rlineto} repeat} bdef
/AP {{rlineto} repeat} bdef
/PDlw -1 def
/W {/PDlw currentlinewidth def setlinewidth} def
/PP {closepath eofill} bdef
/DP {closepath stroke} bdef
/MR {4 -2 roll moveto dup  0 exch rlineto exch 0 rlineto
  neg 0 exch rlineto closepath} bdef
/FR {MR stroke} bdef
/PR {MR fill} bdef
/L1i {{currentfile picstr readhexstring pop} image} bdef
/tMatrix matrix def
/MakeOval {newpath tMatrix currentmatrix pop translate scale
0 0 1 0 360 arc tMatrix setmatrix} bdef
/FO {MakeOval stroke} bdef
/PO {MakeOval fill} bdef
/PD {currentlinewidth 2 div 0 360 arc fill
   PDlw -1 eq not {PDlw w /PDlw -1 def} if} def
/FA {newpath tMatrix currentmatrix pop translate scale
  0 0 1 5 -2 roll arc tMatrix setmatrix stroke} bdef
/PA {newpath tMatrix currentmatrix pop	translate 0 0 moveto scale
  0 0 1 5 -2 roll arc closepath tMatrix setmatrix fill} bdef
/FAn {newpath tMatrix currentmatrix pop translate scale
  0 0 1 5 -2 roll arcn tMatrix setmatrix stroke} bdef
/PAn {newpath tMatrix currentmatrix pop translate 0 0 moveto scale
  0 0 1 5 -2 roll arcn closepath tMatrix setmatrix fill} bdef
/vradius 0 def /hradius 0 def /lry 0 def
/lrx 0 def /uly 0 def /ulx 0 def /rad 0 def
/MRR {/vradius xdef /hradius xdef /lry xdef /lrx xdef /uly xdef
  /ulx xdef newpath tMatrix currentmatrix pop ulx hradius add uly
  vradius add translate hradius vradius scale 0 0 1 180 270 arc 
  tMatrix setmatrix lrx hradius sub uly vradius add translate
  hradius vradius scale 0 0 1 270 360 arc tMatrix setmatrix
  lrx hradius sub lry vradius sub translate hradius vradius scale
  0 0 1 0 90 arc tMatrix setmatrix ulx hradius add lry vradius sub
  translate hradius vradius scale 0 0 1 90 180 arc tMatrix setmatrix
  closepath} bdef
/FRR {MRR stroke } bdef
/PRR {MRR fill } bdef
/MlrRR {/lry xdef /lrx xdef /uly xdef /ulx xdef /rad lry uly sub 2 div def
  newpath tMatrix currentmatrix pop ulx rad add uly rad add translate
  rad rad scale 0 0 1 90 270 arc tMatrix setmatrix lrx rad sub lry rad
  sub translate rad rad scale 0 0 1 270 90 arc tMatrix setmatrix
  closepath} bdef
/FlrRR {MlrRR stroke } bdef
/PlrRR {MlrRR fill } bdef
/MtbRR {/lry xdef /lrx xdef /uly xdef /ulx xdef /rad lrx ulx sub 2 div def
  newpath tMatrix currentmatrix pop ulx rad add uly rad add translate
  rad rad scale 0 0 1 180 360 arc tMatrix setmatrix lrx rad sub lry rad
  sub translate rad rad scale 0 0 1 0 180 arc tMatrix setmatrix
  closepath} bdef
/FtbRR {MtbRR stroke } bdef
/PtbRR {MtbRR fill } bdef
/stri 6 array def /dtri 6 array def
/smat 6 array def /dmat 6 array def
/tmat1 6 array def /tmat2 6 array def /dif 3 array def
/asub {/ind2 exch def /ind1 exch def dup dup
  ind1 get exch ind2 get sub exch } bdef
/tri_to_matrix {
  2 0 asub 3 1 asub 4 0 asub 5 1 asub
  dup 0 get exch 1 get 7 -1 roll astore } bdef
/compute_transform {
  dmat dtri tri_to_matrix tmat1 invertmatrix 
  smat stri tri_to_matrix tmat2 concatmatrix } bdef
/ds {stri astore pop} bdef
/dt {dtri astore pop} bdef
/db {2 copy /cols xdef /rows xdef mul dup 3 mul string
  currentfile 
  3 index 0 eq {/ASCIIHexDecode filter}
  {/ASCII85Decode filter 3 index 2 eq {/RunLengthDecode filter} if }
  ifelse exch readstring pop
  dup 0 3 index getinterval /rbmap xdef
  dup 2 index dup getinterval /gbmap xdef
  1 index dup 2 mul exch getinterval /bbmap xdef pop pop}bdef
/it {gs np dtri aload pop moveto lineto lineto cp c
  cols rows 8 compute_transform 
  rbmap gbmap bbmap true 3 colorimage gr}bdef
/il {newpath moveto lineto stroke}bdef
currentdict end def
%%EndProlog

%%BeginSetup
MathWorks begin

0 cap

end
%%EndSetup

%%Page: 1 1
%%BeginPageSetup
%%PageBoundingBox:    39   188   572   602
MathWorks begin
bpage
%%EndPageSetup

%%BeginObject: obj1
bplot

/dpi2point 12 def
portraitMode 0468 7224 csm

    0     0  6397  4968 rc
86 dict begin %Colortable dictionary
/c0 { 0.000000 0.000000 0.000000 sr} bdef
/c1 { 1.000000 1.000000 1.000000 sr} bdef
/c2 { 0.900000 0.000000 0.000000 sr} bdef
/c3 { 0.000000 0.820000 0.000000 sr} bdef
/c4 { 0.000000 0.000000 0.800000 sr} bdef
/c5 { 0.910000 0.820000 0.320000 sr} bdef
/c6 { 1.000000 0.260000 0.820000 sr} bdef
/c7 { 0.000000 0.820000 0.820000 sr} bdef
c0
1 j
1 sg
   0    0 6398 4969 rf
6 w
0 4049 4957 0 0 -4049 832 4422 4 MP
PP
-4957 0 0 4049 4957 0 0 -4049 832 4422 5 MP stroke
4 w
DO
0 sg
 832 4422 mt  832  373 L
 832  373 mt  832  373 L
1631 4422 mt 1631  373 L
1631  373 mt 1631  373 L
2431 4422 mt 2431  373 L
2431  373 mt 2431  373 L
3230 4422 mt 3230  373 L
3230  373 mt 3230  373 L
4030 4422 mt 4030  373 L
4030  373 mt 4030  373 L
4829 4422 mt 4829  373 L
4829  373 mt 4829  373 L
5629 4422 mt 5629  373 L
5629  373 mt 5629  373 L
 832 4422 mt 5789 4422 L
5789 4422 mt 5789 4422 L
 832 3915 mt 5789 3915 L
5789 3915 mt 5789 3915 L
 832 3409 mt 5789 3409 L
5789 3409 mt 5789 3409 L
 832 2903 mt 5789 2903 L
5789 2903 mt 5789 2903 L
 832 2397 mt 5789 2397 L
5789 2397 mt 5789 2397 L
 832 1891 mt 5789 1891 L
5789 1891 mt 5789 1891 L
 832 1385 mt 5789 1385 L
5789 1385 mt 5789 1385 L
 832  879 mt 5789  879 L
5789  879 mt 5789  879 L
 832  373 mt 5789  373 L
5789  373 mt 5789  373 L
SO
6 w
 832 4422 mt 5789 4422 L
 832  373 mt 5789  373 L
 832 4422 mt  832  373 L
5789 4422 mt 5789  373 L
 832 4422 mt 5789 4422 L
 832 4422 mt  832  373 L
 832 4422 mt  832 4372 L
 832  373 mt  832  422 L
%%IncludeResource: font Helvetica
/Helvetica /ISOLatin1Encoding 168 FMSR

 786 4612 mt 
(0) s
1631 4422 mt 1631 4372 L
1631  373 mt 1631  422 L
1585 4612 mt 
(5) s
2431 4422 mt 2431 4372 L
2431  373 mt 2431  422 L
2338 4612 mt 
(10) s
3230 4422 mt 3230 4372 L
3230  373 mt 3230  422 L
3137 4612 mt 
(15) s
4030 4422 mt 4030 4372 L
4030  373 mt 4030  422 L
3937 4612 mt 
(20) s
4829 4422 mt 4829 4372 L
4829  373 mt 4829  422 L
4736 4612 mt 
(25) s
5629 4422 mt 5629 4372 L
5629  373 mt 5629  422 L
5536 4612 mt 
(30) s
 832 4422 mt  881 4422 L
5789 4422 mt 5739 4422 L
 704 4484 mt 
(0) s
 832 3915 mt  881 3915 L
5789 3915 mt 5739 3915 L
 471 3977 mt 
(0.02) s
 832 3409 mt  881 3409 L
5789 3409 mt 5739 3409 L
 471 3471 mt 
(0.04) s
 832 2903 mt  881 2903 L
5789 2903 mt 5739 2903 L
 471 2965 mt 
(0.06) s
 832 2397 mt  881 2397 L
5789 2397 mt 5739 2397 L
 471 2459 mt 
(0.08) s
 832 1891 mt  881 1891 L
5789 1891 mt 5739 1891 L
 564 1953 mt 
(0.1) s
 832 1385 mt  881 1385 L
5789 1385 mt 5739 1385 L
 471 1447 mt 
(0.12) s
 832  879 mt  881  879 L
5789  879 mt 5739  879 L
 471  941 mt 
(0.14) s
 832  373 mt  881  373 L
5789  373 mt 5739  373 L
 471  435 mt 
(0.16) s
 832 4422 mt 5789 4422 L
 832  373 mt 5789  373 L
 832 4422 mt  832  373 L
5789 4422 mt 5789  373 L
gs 832 373 4958 4050 rc
1 sg
0 1584 28 0 0 -1584 942 4422 4 MP
PP
0 sg
-28 0 0 1584 28 0 0 -1584 942 4422 5 MP stroke
1 sg
0 2915 28 0 0 -2915 1102 4422 4 MP
PP
0 sg
-28 0 0 2915 28 0 0 -2915 1102 4422 5 MP stroke
1 sg
0 2349 29 0 0 -2349 1261 4422 4 MP
PP
0 sg
-29 0 0 2349 29 0 0 -2349 1261 4422 5 MP stroke
1 sg
0 1043 29 0 0 -1043 1421 4422 4 MP
PP
0 sg
-29 0 0 1043 29 0 0 -1043 1421 4422 5 MP stroke
1 sg
0 1147 29 0 0 -1147 1581 4422 4 MP
PP
0 sg
-29 0 0 1147 29 0 0 -1147 1581 4422 5 MP stroke
1 sg
0 1627 29 0 0 -1627 1741 4422 4 MP
PP
0 sg
-29 0 0 1627 29 0 0 -1627 1741 4422 5 MP stroke
1 sg
0 1730 29 0 0 -1730 1901 4422 4 MP
PP
0 sg
-29 0 0 1730 29 0 0 -1730 1901 4422 5 MP stroke
1 sg
0 2175 28 0 0 -2175 2061 4422 4 MP
PP
0 sg
-28 0 0 2175 28 0 0 -2175 2061 4422 5 MP stroke
1 sg
0 740 28 0 0 -740 2221 4422 4 MP
PP
0 sg
-28 0 0 740 28 0 0 -740 2221 4422 5 MP stroke
1 sg
0 2078 28 0 0 -2078 2381 4422 4 MP
PP
0 sg
-28 0 0 2078 28 0 0 -2078 2381 4422 5 MP stroke
1 sg
0 1030 28 0 0 -1030 2541 4422 4 MP
PP
0 sg
-28 0 0 1030 28 0 0 -1030 2541 4422 5 MP stroke
1 sg
0 722 28 0 0 -722 2701 4422 4 MP
PP
0 sg
-28 0 0 722 28 0 0 -722 2701 4422 5 MP stroke
1 sg
0 1351 29 0 0 -1351 2860 4422 4 MP
PP
0 sg
-29 0 0 1351 29 0 0 -1351 2860 4422 5 MP stroke
1 sg
0 147 29 0 0 -147 3020 4422 4 MP
PP
0 sg
-29 0 0 147 29 0 0 -147 3020 4422 5 MP stroke
1 sg
0 1065 29 0 0 -1065 3180 4422 4 MP
PP
0 sg
-29 0 0 1065 29 0 0 -1065 3180 4422 5 MP stroke
1 sg
0 2787 29 0 0 -2787 3340 4422 4 MP
PP
0 sg
-29 0 0 2787 29 0 0 -2787 3340 4422 5 MP stroke
1 sg
0 2003 29 0 0 -2003 3500 4422 4 MP
PP
0 sg
-29 0 0 2003 29 0 0 -2003 3500 4422 5 MP stroke
1 sg
0 2453 28 0 0 -2453 3660 4422 4 MP
PP
0 sg
-28 0 0 2453 28 0 0 -2453 3660 4422 5 MP stroke
1 sg
0 1579 28 0 0 -1579 3820 4422 4 MP
PP
0 sg
-28 0 0 1579 28 0 0 -1579 3820 4422 5 MP stroke
1 sg
0 970 28 0 0 -970 3980 4422 4 MP
PP
0 sg
-28 0 0 970 28 0 0 -970 3980 4422 5 MP stroke
1 sg
0 1209 28 0 0 -1209 4140 4422 4 MP
PP
0 sg
-28 0 0 1209 28 0 0 -1209 4140 4422 5 MP stroke
1 sg
0 2635 28 0 0 -2635 4300 4422 4 MP
PP
0 sg
-28 0 0 2635 28 0 0 -2635 4300 4422 5 MP stroke
1 sg
0 1560 28 0 0 -1560 4460 4422 4 MP
PP
0 sg
-28 0 0 1560 28 0 0 -1560 4460 4422 5 MP stroke
1 sg
0 3946 29 0 0 -3946 4619 4422 4 MP
PP
0 sg
-29 0 0 3946 29 0 0 -3946 4619 4422 5 MP stroke
1 sg
0 1295 29 0 0 -1295 4779 4422 4 MP
PP
0 sg
-29 0 0 1295 29 0 0 -1295 4779 4422 5 MP stroke
1 sg
0 2088 29 0 0 -2088 4939 4422 4 MP
PP
0 sg
-29 0 0 2088 29 0 0 -2088 4939 4422 5 MP stroke
1 sg
0 1949 29 0 0 -1949 5099 4422 4 MP
PP
0 sg
-29 0 0 1949 29 0 0 -1949 5099 4422 5 MP stroke
1 sg
0 1279 28 0 0 -1279 5259 4422 4 MP
PP
0 sg
-28 0 0 1279 28 0 0 -1279 5259 4422 5 MP stroke
1 sg
0 359 28 0 0 -359 5419 4422 4 MP
PP
0 sg
-28 0 0 359 28 0 0 -359 5419 4422 5 MP stroke
1 sg
0 2282 28 0 0 -2282 5579 4422 4 MP
PP
0 sg
-28 0 0 2282 28 0 0 -2282 5579 4422 5 MP stroke
4957 0 832 4422 2 MP stroke
0.501961 sg
0 822 29 0 0 -822 977 4422 4 MP
PP
0 sg
-29 0 0 822 29 0 0 -822 977 4422 5 MP stroke
0.501961 sg
0 1431 29 0 0 -1431 1137 4422 4 MP
PP
0 sg
-29 0 0 1431 29 0 0 -1431 1137 4422 5 MP stroke
0.501961 sg
0 787 28 0 0 -787 1297 4422 4 MP
PP
0 sg
-28 0 0 787 28 0 0 -787 1297 4422 5 MP stroke
0.501961 sg
0 783 28 0 0 -783 1457 4422 4 MP
PP
0 sg
-28 0 0 783 28 0 0 -783 1457 4422 5 MP stroke
0.501961 sg
0 1020 28 0 0 -1020 1617 4422 4 MP
PP
0 sg
-28 0 0 1020 28 0 0 -1020 1617 4422 5 MP stroke
0.501961 sg
0 626 28 0 0 -626 1777 4422 4 MP
PP
0 sg
-28 0 0 626 28 0 0 -626 1777 4422 5 MP stroke
0.501961 sg
0 1206 28 0 0 -1206 1937 4422 4 MP
PP
0 sg
-28 0 0 1206 28 0 0 -1206 1937 4422 5 MP stroke
0.501961 sg
0 520 28 0 0 -520 2097 4422 4 MP
PP
0 sg
-28 0 0 520 28 0 0 -520 2097 4422 5 MP stroke
0.501961 sg
0 587 29 0 0 -587 2256 4422 4 MP
PP
0 sg
-29 0 0 587 29 0 0 -587 2256 4422 5 MP stroke
0.501961 sg
0 680 29 0 0 -680 2416 4422 4 MP
PP
0 sg
-29 0 0 680 29 0 0 -680 2416 4422 5 MP stroke
0.501961 sg
0 1054 29 0 0 -1054 2576 4422 4 MP
PP
0 sg
-29 0 0 1054 29 0 0 -1054 2576 4422 5 MP stroke
0.501961 sg
0 982 29 0 0 -982 2736 4422 4 MP
PP
0 sg
-29 0 0 982 29 0 0 -982 2736 4422 5 MP stroke
0.501961 sg
0 665 28 0 0 -665 2896 4422 4 MP
PP
0 sg
-28 0 0 665 28 0 0 -665 2896 4422 5 MP stroke
0.501961 sg
0 803 28 0 0 -803 3056 4422 4 MP
PP
0 sg
-28 0 0 803 28 0 0 -803 3056 4422 5 MP stroke
0.501961 sg
0 874 28 0 0 -874 3216 4422 4 MP
PP
0 sg
-28 0 0 874 28 0 0 -874 3216 4422 5 MP stroke
0.501961 sg
0 1582 28 0 0 -1582 3376 4422 4 MP
PP
0 sg
-28 0 0 1582 28 0 0 -1582 3376 4422 5 MP stroke
0.501961 sg
0 1009 28 0 0 -1009 3536 4422 4 MP
PP
0 sg
-28 0 0 1009 28 0 0 -1009 3536 4422 5 MP stroke
0.501961 sg
0 1070 28 0 0 -1070 3696 4422 4 MP
PP
0 sg
-28 0 0 1070 28 0 0 -1070 3696 4422 5 MP stroke
0.501961 sg
0 610 29 0 0 -610 3855 4422 4 MP
PP
0 sg
-29 0 0 610 29 0 0 -610 3855 4422 5 MP stroke
0.501961 sg
0 878 29 0 0 -878 4015 4422 4 MP
PP
0 sg
-29 0 0 878 29 0 0 -878 4015 4422 5 MP stroke
0.501961 sg
0 730 29 0 0 -730 4175 4422 4 MP
PP
0 sg
-29 0 0 730 29 0 0 -730 4175 4422 5 MP stroke
0.501961 sg
0 672 29 0 0 -672 4335 4422 4 MP
PP
0 sg
-29 0 0 672 29 0 0 -672 4335 4422 5 MP stroke
0.501961 sg
0 725 28 0 0 -725 4495 4422 4 MP
PP
0 sg
-28 0 0 725 28 0 0 -725 4495 4422 5 MP stroke
0.501961 sg
0 1250 28 0 0 -1250 4655 4422 4 MP
PP
0 sg
-28 0 0 1250 28 0 0 -1250 4655 4422 5 MP stroke
0.501961 sg
0 834 28 0 0 -834 4815 4422 4 MP
PP
0 sg
-28 0 0 834 28 0 0 -834 4815 4422 5 MP stroke
0.501961 sg
0 948 28 0 0 -948 4975 4422 4 MP
PP
0 sg
-28 0 0 948 28 0 0 -948 4975 4422 5 MP stroke
0.501961 sg
0 1301 28 0 0 -1301 5135 4422 4 MP
PP
0 sg
-28 0 0 1301 28 0 0 -1301 5135 4422 5 MP stroke
0.501961 sg
0 495 28 0 0 -495 5295 4422 4 MP
PP
0 sg
-28 0 0 495 28 0 0 -495 5295 4422 5 MP stroke
0.501961 sg
0 724 29 0 0 -724 5454 4422 4 MP
PP
0 sg
-29 0 0 724 29 0 0 -724 5454 4422 5 MP stroke
0.501961 sg
0 1490 29 0 0 -1490 5614 4422 4 MP
PP
0 sg
-29 0 0 1490 29 0 0 -1490 5614 4422 5 MP stroke
/c8 { 0.500000 0.000000 0.000000 sr} bdef
c8
0 276 28 0 0 -276 1013 4422 4 MP
PP
0 sg
-28 0 0 276 28 0 0 -276 1013 4422 5 MP stroke
c8
0 290 28 0 0 -290 1173 4422 4 MP
PP
0 sg
-28 0 0 290 28 0 0 -290 1173 4422 5 MP stroke
c8
0 437 28 0 0 -437 1333 4422 4 MP
PP
0 sg
-28 0 0 437 28 0 0 -437 1333 4422 5 MP stroke
c8
0 472 29 0 0 -472 1492 4422 4 MP
PP
0 sg
-29 0 0 472 29 0 0 -472 1492 4422 5 MP stroke
c8
0 406 29 0 0 -406 1652 4422 4 MP
PP
0 sg
-29 0 0 406 29 0 0 -406 1652 4422 5 MP stroke
c8
0 386 29 0 0 -386 1812 4422 4 MP
PP
0 sg
-29 0 0 386 29 0 0 -386 1812 4422 5 MP stroke
c8
0 435 29 0 0 -435 1972 4422 4 MP
PP
0 sg
-29 0 0 435 29 0 0 -435 1972 4422 5 MP stroke
c8
0 346 28 0 0 -346 2132 4422 4 MP
PP
0 sg
-28 0 0 346 28 0 0 -346 2132 4422 5 MP stroke
c8
0 296 28 0 0 -296 2292 4422 4 MP
PP
0 sg
-28 0 0 296 28 0 0 -296 2292 4422 5 MP stroke
c8
0 182 28 0 0 -182 2452 4422 4 MP
PP
0 sg
-28 0 0 182 28 0 0 -182 2452 4422 5 MP stroke
c8
0 433 28 0 0 -433 2612 4422 4 MP
PP
0 sg
-28 0 0 433 28 0 0 -433 2612 4422 5 MP stroke
c8
0 260 28 0 0 -260 2772 4422 4 MP
PP
0 sg
-28 0 0 260 28 0 0 -260 2772 4422 5 MP stroke
c8
0 482 28 0 0 -482 2932 4422 4 MP
PP
0 sg
-28 0 0 482 28 0 0 -482 2932 4422 5 MP stroke
c8
0 338 29 0 0 -338 3091 4422 4 MP
PP
0 sg
-29 0 0 338 29 0 0 -338 3091 4422 5 MP stroke
c8
0 389 29 0 0 -389 3251 4422 4 MP
PP
0 sg
-29 0 0 389 29 0 0 -389 3251 4422 5 MP stroke
c8
0 398 29 0 0 -398 3411 4422 4 MP
PP
0 sg
-29 0 0 398 29 0 0 -398 3411 4422 5 MP stroke
c8
0 436 29 0 0 -436 3571 4422 4 MP
PP
0 sg
-29 0 0 436 29 0 0 -436 3571 4422 5 MP stroke
c8
0 320 29 0 0 -320 3731 4422 4 MP
PP
0 sg
-29 0 0 320 29 0 0 -320 3731 4422 5 MP stroke
c8
0 413 28 0 0 -413 3891 4422 4 MP
PP
0 sg
-28 0 0 413 28 0 0 -413 3891 4422 5 MP stroke
c8
0 363 28 0 0 -363 4051 4422 4 MP
PP
0 sg
-28 0 0 363 28 0 0 -363 4051 4422 5 MP stroke
c8
0 345 28 0 0 -345 4211 4422 4 MP
PP
0 sg
-28 0 0 345 28 0 0 -345 4211 4422 5 MP stroke
c8
0 352 28 0 0 -352 4371 4422 4 MP
PP
0 sg
-28 0 0 352 28 0 0 -352 4371 4422 5 MP stroke
c8
0 350 28 0 0 -350 4531 4422 4 MP
PP
0 sg
-28 0 0 350 28 0 0 -350 4531 4422 5 MP stroke
c8
0 437 29 0 0 -437 4690 4422 4 MP
PP
0 sg
-29 0 0 437 29 0 0 -437 4690 4422 5 MP stroke
c8
0 225 29 0 0 -225 4850 4422 4 MP
PP
0 sg
-29 0 0 225 29 0 0 -225 4850 4422 5 MP stroke
c8
0 286 29 0 0 -286 5010 4422 4 MP
PP
0 sg
-29 0 0 286 29 0 0 -286 5010 4422 5 MP stroke
c8
0 301 29 0 0 -301 5170 4422 4 MP
PP
0 sg
-29 0 0 301 29 0 0 -301 5170 4422 5 MP stroke
c8
0 309 29 0 0 -309 5330 4422 4 MP
PP
0 sg
-29 0 0 309 29 0 0 -309 5330 4422 5 MP stroke
c8
0 251 28 0 0 -251 5490 4422 4 MP
PP
0 sg
-28 0 0 251 28 0 0 -251 5490 4422 5 MP stroke
c8
0 479 28 0 0 -479 5650 4422 4 MP
PP
0 sg
-28 0 0 479 28 0 0 -479 5650 4422 5 MP stroke
gr

2772 4790 mt 
(Simulation run) s
 379 3654 mt  -90 rotate
(Variance of the Variation of PSNR) s
90 rotate
%%IncludeResource: font Helvetica
/Helvetica /ISOLatin1Encoding 120 FMSR

 815 4465 mt 
( ) s
5773  415 mt 
( ) s
1 sg
0 645 2227 0 0 -645 3503 1078 4 MP
PP
-2227 0 0 645 2227 0 0 -645 3503 1078 5 MP stroke
4 w
DO
SO
6 w
0 sg
3503 1078 mt 5730 1078 L
3503  433 mt 5730  433 L
3503 1078 mt 3503  433 L
5730 1078 mt 5730  433 L
3503 1078 mt 5730 1078 L
3503 1078 mt 3503  433 L
3503 1078 mt 5730 1078 L
3503  433 mt 5730  433 L
3503 1078 mt 3503  433 L
5730 1078 mt 5730  433 L
%%IncludeResource: font Helvetica
/Helvetica /ISOLatin1Encoding 168 FMSR

3965  613 mt 
(Static RA) s
gs 3503 433 2228 646 rc
1 sg
-355 0 0 153 355 0 0 -153 3574 629 5 MP
PP
0 sg
0 0 -355 0 0 153 355 0 0 -153 3574 629 6 MP stroke
gr

3965  816 mt 
(Throughput-Driven RA) s
gs 3503 433 2228 646 rc
0.501961 sg
-355 0 0 152 355 0 0 -152 3574 831 5 MP
PP
0 sg
0 0 -355 0 0 152 355 0 0 -152 3574 831 6 MP stroke
gr

3965 1019 mt 
(Quality-Driven RA) s
gs 3503 433 2228 646 rc
c8
-355 0 0 153 355 0 0 -153 3574 1034 5 MP
PP
0 sg
0 0 -355 0 0 153 355 0 0 -153 3574 1034 6 MP stroke
gr


end %%Color Dict

eplot
%%EndObject

epage
end

showpage

%%Trailer
%%EOF
