%!PS-Adobe-3.0 EPSF-3.0
%%Creator: MATLAB, The MathWorks, Inc. Version 8.1.0.604 (R2013a). Operating System: Darwin 13.4.0 Darwin Kernel Version 13.4.0: Sun Aug 17 19:50:11 PDT 2014; root:xnu-2422.115.4~1/RELEASE_X86_64 x86_64.
%%Title: /Users/le/Work/project3/Figures/Results/0926/variance_variationPSNR_u4.eps
%%CreationDate: 10/15/2014  14:55:16
%%DocumentNeededFonts: Helvetica
%%DocumentProcessColors: Cyan Magenta Yellow Black
%%LanguageLevel: 2
%%Pages: 1
%%BoundingBox:   -10   188   623   602
%%EndComments

%%BeginProlog
% MathWorks dictionary
/MathWorks 160 dict begin
% definition operators
/bdef {bind def} bind def
/ldef {load def} bind def
/xdef {exch def} bdef
/xstore {exch store} bdef
% operator abbreviations
/c  /clip ldef
/cc /concat ldef
/cp /closepath ldef
/gr /grestore ldef
/gs /gsave ldef
/mt /moveto ldef
/np /newpath ldef
/cm /currentmatrix ldef
/sm /setmatrix ldef
/rm /rmoveto ldef
/rl /rlineto ldef
/s {show newpath} bdef
/sc {setcmykcolor} bdef
/sr /setrgbcolor ldef
/sg /setgray ldef
/w /setlinewidth ldef
/j /setlinejoin ldef
/cap /setlinecap ldef
/rc {rectclip} bdef
/rf {rectfill} bdef
% page state control
/pgsv () def
/bpage {/pgsv save def} bdef
/epage {pgsv restore} bdef
/bplot /gsave ldef
/eplot {stroke grestore} bdef
% orientation switch
/portraitMode 0 def /landscapeMode 1 def /rotateMode 2 def
% coordinate system mappings
/dpi2point 0 def
% font control
/FontSize 0 def
/FMS {/FontSize xstore findfont [FontSize 0 0 FontSize neg 0 0]
  makefont setfont} bdef
/reencode {exch dup where {pop load} {pop StandardEncoding} ifelse
  exch dup 3 1 roll findfont dup length dict begin
  { 1 index /FID ne {def}{pop pop} ifelse } forall
  /Encoding exch def currentdict end definefont pop} bdef
/isroman {findfont /CharStrings get /Agrave known} bdef
/FMSR {3 1 roll 1 index dup isroman {reencode} {pop pop} ifelse
  exch FMS} bdef
/csm {1 dpi2point div -1 dpi2point div scale neg translate
 dup landscapeMode eq {pop -90 rotate}
  {rotateMode eq {90 rotate} if} ifelse} bdef
% line types: solid, dotted, dashed, dotdash
/SO { [] 0 setdash } bdef
/DO { [.5 dpi2point mul 4 dpi2point mul] 0 setdash } bdef
/DA { [6 dpi2point mul] 0 setdash } bdef
/DD { [.5 dpi2point mul 4 dpi2point mul 6 dpi2point mul 4
  dpi2point mul] 0 setdash } bdef
% macros for lines and objects
/L {lineto stroke} bdef
/MP {3 1 roll moveto 1 sub {rlineto} repeat} bdef
/AP {{rlineto} repeat} bdef
/PDlw -1 def
/W {/PDlw currentlinewidth def setlinewidth} def
/PP {closepath eofill} bdef
/DP {closepath stroke} bdef
/MR {4 -2 roll moveto dup  0 exch rlineto exch 0 rlineto
  neg 0 exch rlineto closepath} bdef
/FR {MR stroke} bdef
/PR {MR fill} bdef
/L1i {{currentfile picstr readhexstring pop} image} bdef
/tMatrix matrix def
/MakeOval {newpath tMatrix currentmatrix pop translate scale
0 0 1 0 360 arc tMatrix setmatrix} bdef
/FO {MakeOval stroke} bdef
/PO {MakeOval fill} bdef
/PD {currentlinewidth 2 div 0 360 arc fill
   PDlw -1 eq not {PDlw w /PDlw -1 def} if} def
/FA {newpath tMatrix currentmatrix pop translate scale
  0 0 1 5 -2 roll arc tMatrix setmatrix stroke} bdef
/PA {newpath tMatrix currentmatrix pop	translate 0 0 moveto scale
  0 0 1 5 -2 roll arc closepath tMatrix setmatrix fill} bdef
/FAn {newpath tMatrix currentmatrix pop translate scale
  0 0 1 5 -2 roll arcn tMatrix setmatrix stroke} bdef
/PAn {newpath tMatrix currentmatrix pop translate 0 0 moveto scale
  0 0 1 5 -2 roll arcn closepath tMatrix setmatrix fill} bdef
/vradius 0 def /hradius 0 def /lry 0 def
/lrx 0 def /uly 0 def /ulx 0 def /rad 0 def
/MRR {/vradius xdef /hradius xdef /lry xdef /lrx xdef /uly xdef
  /ulx xdef newpath tMatrix currentmatrix pop ulx hradius add uly
  vradius add translate hradius vradius scale 0 0 1 180 270 arc 
  tMatrix setmatrix lrx hradius sub uly vradius add translate
  hradius vradius scale 0 0 1 270 360 arc tMatrix setmatrix
  lrx hradius sub lry vradius sub translate hradius vradius scale
  0 0 1 0 90 arc tMatrix setmatrix ulx hradius add lry vradius sub
  translate hradius vradius scale 0 0 1 90 180 arc tMatrix setmatrix
  closepath} bdef
/FRR {MRR stroke } bdef
/PRR {MRR fill } bdef
/MlrRR {/lry xdef /lrx xdef /uly xdef /ulx xdef /rad lry uly sub 2 div def
  newpath tMatrix currentmatrix pop ulx rad add uly rad add translate
  rad rad scale 0 0 1 90 270 arc tMatrix setmatrix lrx rad sub lry rad
  sub translate rad rad scale 0 0 1 270 90 arc tMatrix setmatrix
  closepath} bdef
/FlrRR {MlrRR stroke } bdef
/PlrRR {MlrRR fill } bdef
/MtbRR {/lry xdef /lrx xdef /uly xdef /ulx xdef /rad lrx ulx sub 2 div def
  newpath tMatrix currentmatrix pop ulx rad add uly rad add translate
  rad rad scale 0 0 1 180 360 arc tMatrix setmatrix lrx rad sub lry rad
  sub translate rad rad scale 0 0 1 0 180 arc tMatrix setmatrix
  closepath} bdef
/FtbRR {MtbRR stroke } bdef
/PtbRR {MtbRR fill } bdef
/stri 6 array def /dtri 6 array def
/smat 6 array def /dmat 6 array def
/tmat1 6 array def /tmat2 6 array def /dif 3 array def
/asub {/ind2 exch def /ind1 exch def dup dup
  ind1 get exch ind2 get sub exch } bdef
/tri_to_matrix {
  2 0 asub 3 1 asub 4 0 asub 5 1 asub
  dup 0 get exch 1 get 7 -1 roll astore } bdef
/compute_transform {
  dmat dtri tri_to_matrix tmat1 invertmatrix 
  smat stri tri_to_matrix tmat2 concatmatrix } bdef
/ds {stri astore pop} bdef
/dt {dtri astore pop} bdef
/db {2 copy /cols xdef /rows xdef mul dup 3 mul string
  currentfile 
  3 index 0 eq {/ASCIIHexDecode filter}
  {/ASCII85Decode filter 3 index 2 eq {/RunLengthDecode filter} if }
  ifelse exch readstring pop
  dup 0 3 index getinterval /rbmap xdef
  dup 2 index dup getinterval /gbmap xdef
  1 index dup 2 mul exch getinterval /bbmap xdef pop pop}bdef
/it {gs np dtri aload pop moveto lineto lineto cp c
  cols rows 8 compute_transform 
  rbmap gbmap bbmap true 3 colorimage gr}bdef
/il {newpath moveto lineto stroke}bdef
currentdict end def
%%EndProlog

%%BeginSetup
MathWorks begin

0 cap

end
%%EndSetup

%%Page: 1 1
%%BeginPageSetup
%%PageBoundingBox:   -10   188   623   602
MathWorks begin
bpage
%%EndPageSetup

%%BeginObject: obj1
bplot

/dpi2point 12 def
portraitMode -0120 7224 csm

    0     0  7607  4968 rc
86 dict begin %Colortable dictionary
/c0 { 0.000000 0.000000 0.000000 sr} bdef
/c1 { 1.000000 1.000000 1.000000 sr} bdef
/c2 { 0.900000 0.000000 0.000000 sr} bdef
/c3 { 0.000000 0.820000 0.000000 sr} bdef
/c4 { 0.000000 0.000000 0.800000 sr} bdef
/c5 { 0.910000 0.820000 0.320000 sr} bdef
/c6 { 1.000000 0.260000 0.820000 sr} bdef
/c7 { 0.000000 0.820000 0.820000 sr} bdef
c0
1 j
1 sg
   0    0 7608 4969 rf
6 w
0 4049 5895 0 0 -4049 989 4422 4 MP
PP
-5895 0 0 4049 5895 0 0 -4049 989 4422 5 MP stroke
4 w
DO
0 sg
 989 4422 mt  989  373 L
 989  373 mt  989  373 L
1939 4422 mt 1939  373 L
1939  373 mt 1939  373 L
2890 4422 mt 2890  373 L
2890  373 mt 2890  373 L
3841 4422 mt 3841  373 L
3841  373 mt 3841  373 L
4792 4422 mt 4792  373 L
4792  373 mt 4792  373 L
5743 4422 mt 5743  373 L
5743  373 mt 5743  373 L
6693 4422 mt 6693  373 L
6693  373 mt 6693  373 L
 989 4422 mt 6884 4422 L
6884 4422 mt 6884 4422 L
 989 3915 mt 6884 3915 L
6884 3915 mt 6884 3915 L
 989 3409 mt 6884 3409 L
6884 3409 mt 6884 3409 L
 989 2903 mt 6884 2903 L
6884 2903 mt 6884 2903 L
 989 2397 mt 6884 2397 L
6884 2397 mt 6884 2397 L
 989 1891 mt 6884 1891 L
6884 1891 mt 6884 1891 L
 989 1385 mt 6884 1385 L
6884 1385 mt 6884 1385 L
 989  879 mt 6884  879 L
6884  879 mt 6884  879 L
 989  373 mt 6884  373 L
6884  373 mt 6884  373 L
SO
6 w
 989 4422 mt 6884 4422 L
 989  373 mt 6884  373 L
 989 4422 mt  989  373 L
6884 4422 mt 6884  373 L
 989 4422 mt 6884 4422 L
 989 4422 mt  989  373 L
 989 4422 mt  989 4363 L
 989  373 mt  989  431 L
%%IncludeResource: font Helvetica
/Helvetica /ISOLatin1Encoding 168 FMSR

 943 4612 mt 
(0) s
1939 4422 mt 1939 4363 L
1939  373 mt 1939  431 L
1893 4612 mt 
(5) s
2890 4422 mt 2890 4363 L
2890  373 mt 2890  431 L
2797 4612 mt 
(10) s
3841 4422 mt 3841 4363 L
3841  373 mt 3841  431 L
3748 4612 mt 
(15) s
4792 4422 mt 4792 4363 L
4792  373 mt 4792  431 L
4699 4612 mt 
(20) s
5743 4422 mt 5743 4363 L
5743  373 mt 5743  431 L
5650 4612 mt 
(25) s
6693 4422 mt 6693 4363 L
6693  373 mt 6693  431 L
6600 4612 mt 
(30) s
 989 4422 mt 1047 4422 L
6884 4422 mt 6825 4422 L
 861 4484 mt 
(0) s
 989 3915 mt 1047 3915 L
6884 3915 mt 6825 3915 L
 628 3977 mt 
(0.02) s
 989 3409 mt 1047 3409 L
6884 3409 mt 6825 3409 L
 628 3471 mt 
(0.04) s
 989 2903 mt 1047 2903 L
6884 2903 mt 6825 2903 L
 628 2965 mt 
(0.06) s
 989 2397 mt 1047 2397 L
6884 2397 mt 6825 2397 L
 628 2459 mt 
(0.08) s
 989 1891 mt 1047 1891 L
6884 1891 mt 6825 1891 L
 721 1953 mt 
(0.1) s
 989 1385 mt 1047 1385 L
6884 1385 mt 6825 1385 L
 628 1447 mt 
(0.12) s
 989  879 mt 1047  879 L
6884  879 mt 6825  879 L
 628  941 mt 
(0.14) s
 989  373 mt 1047  373 L
6884  373 mt 6825  373 L
 628  435 mt 
(0.16) s
 989 4422 mt 6884 4422 L
 989  373 mt 6884  373 L
 989 4422 mt  989  373 L
6884 4422 mt 6884  373 L
gs 989 373 5896 4050 rc
1 sg
0 1845 43 0 0 -1845 1115 4422 4 MP
PP
0 sg
-43 0 0 1845 43 0 0 -1845 1115 4422 5 MP stroke
1 sg
0 1092 43 0 0 -1092 1305 4422 4 MP
PP
0 sg
-43 0 0 1092 43 0 0 -1092 1305 4422 5 MP stroke
1 sg
0 957 42 0 0 -957 1496 4422 4 MP
PP
0 sg
-42 0 0 957 42 0 0 -957 1496 4422 5 MP stroke
1 sg
0 1022 42 0 0 -1022 1686 4422 4 MP
PP
0 sg
-42 0 0 1022 42 0 0 -1022 1686 4422 5 MP stroke
1 sg
0 2961 42 0 0 -2961 1876 4422 4 MP
PP
0 sg
-42 0 0 2961 42 0 0 -2961 1876 4422 5 MP stroke
1 sg
0 1358 42 0 0 -1358 2066 4422 4 MP
PP
0 sg
-42 0 0 1358 42 0 0 -1358 2066 4422 5 MP stroke
1 sg
0 2044 43 0 0 -2044 2256 4422 4 MP
PP
0 sg
-43 0 0 2044 43 0 0 -2044 2256 4422 5 MP stroke
1 sg
0 2427 43 0 0 -2427 2446 4422 4 MP
PP
0 sg
-43 0 0 2427 43 0 0 -2427 2446 4422 5 MP stroke
1 sg
0 460 42 0 0 -460 2637 4422 4 MP
PP
0 sg
-42 0 0 460 42 0 0 -460 2637 4422 5 MP stroke
1 sg
0 2285 42 0 0 -2285 2827 4422 4 MP
PP
0 sg
-42 0 0 2285 42 0 0 -2285 2827 4422 5 MP stroke
1 sg
0 2980 42 0 0 -2980 3017 4422 4 MP
PP
0 sg
-42 0 0 2980 42 0 0 -2980 3017 4422 5 MP stroke
1 sg
0 1689 42 0 0 -1689 3207 4422 4 MP
PP
0 sg
-42 0 0 1689 42 0 0 -1689 3207 4422 5 MP stroke
1 sg
0 1958 42 0 0 -1958 3397 4422 4 MP
PP
0 sg
-42 0 0 1958 42 0 0 -1958 3397 4422 5 MP stroke
1 sg
0 3475 43 0 0 -3475 3587 4422 4 MP
PP
0 sg
-43 0 0 3475 43 0 0 -3475 3587 4422 5 MP stroke
1 sg
0 3939 42 0 0 -3939 3778 4422 4 MP
PP
0 sg
-42 0 0 3939 42 0 0 -3939 3778 4422 5 MP stroke
1 sg
0 1926 42 0 0 -1926 3968 4422 4 MP
PP
0 sg
-42 0 0 1926 42 0 0 -1926 3968 4422 5 MP stroke
1 sg
0 1622 42 0 0 -1622 4158 4422 4 MP
PP
0 sg
-42 0 0 1622 42 0 0 -1622 4158 4422 5 MP stroke
1 sg
0 3053 42 0 0 -3053 4348 4422 4 MP
PP
0 sg
-42 0 0 3053 42 0 0 -3053 4348 4422 5 MP stroke
1 sg
0 2713 42 0 0 -2713 4538 4422 4 MP
PP
0 sg
-42 0 0 2713 42 0 0 -2713 4538 4422 5 MP stroke
1 sg
0 1423 43 0 0 -1423 4728 4422 4 MP
PP
0 sg
-43 0 0 1423 43 0 0 -1423 4728 4422 5 MP stroke
1 sg
0 1 42 0 0 -1 4919 4422 4 MP
PP
0 sg
-42 0 0 1 42 0 0 -1 4919 4422 5 MP stroke
1 sg
0 1567 42 0 0 -1567 5109 4422 4 MP
PP
0 sg
-42 0 0 1567 42 0 0 -1567 5109 4422 5 MP stroke
1 sg
0 562 42 0 0 -562 5299 4422 4 MP
PP
0 sg
-42 0 0 562 42 0 0 -562 5299 4422 5 MP stroke
1 sg
0 1375 42 0 0 -1375 5489 4422 4 MP
PP
0 sg
-42 0 0 1375 42 0 0 -1375 5489 4422 5 MP stroke
1 sg
0 851 42 0 0 -851 5679 4422 4 MP
PP
0 sg
-42 0 0 851 42 0 0 -851 5679 4422 5 MP stroke
1 sg
0 1681 43 0 0 -1681 5869 4422 4 MP
PP
0 sg
-43 0 0 1681 43 0 0 -1681 5869 4422 5 MP stroke
1 sg
0 2484 43 0 0 -2484 6059 4422 4 MP
PP
0 sg
-43 0 0 2484 43 0 0 -2484 6059 4422 5 MP stroke
1 sg
0 1112 42 0 0 -1112 6250 4422 4 MP
PP
0 sg
-42 0 0 1112 42 0 0 -1112 6250 4422 5 MP stroke
1 sg
0 264 42 0 0 -264 6440 4422 4 MP
PP
0 sg
-42 0 0 264 42 0 0 -264 6440 4422 5 MP stroke
1 sg
0 1643 42 0 0 -1643 6630 4422 4 MP
PP
0 sg
-42 0 0 1643 42 0 0 -1643 6630 4422 5 MP stroke
5895 0 989 4422 2 MP stroke
0.501961 sg
0 1478 42 0 0 -1478 1158 4422 4 MP
PP
0 sg
-42 0 0 1478 42 0 0 -1478 1158 4422 5 MP stroke
0.501961 sg
0 736 42 0 0 -736 1348 4422 4 MP
PP
0 sg
-42 0 0 736 42 0 0 -736 1348 4422 5 MP stroke
0.501961 sg
0 655 42 0 0 -655 1538 4422 4 MP
PP
0 sg
-42 0 0 655 42 0 0 -655 1538 4422 5 MP stroke
0.501961 sg
0 748 42 0 0 -748 1728 4422 4 MP
PP
0 sg
-42 0 0 748 42 0 0 -748 1728 4422 5 MP stroke
0.501961 sg
0 1786 42 0 0 -1786 1918 4422 4 MP
PP
0 sg
-42 0 0 1786 42 0 0 -1786 1918 4422 5 MP stroke
0.501961 sg
0 801 43 0 0 -801 2108 4422 4 MP
PP
0 sg
-43 0 0 801 43 0 0 -801 2108 4422 5 MP stroke
0.501961 sg
0 785 42 0 0 -785 2299 4422 4 MP
PP
0 sg
-42 0 0 785 42 0 0 -785 2299 4422 5 MP stroke
0.501961 sg
0 774 42 0 0 -774 2489 4422 4 MP
PP
0 sg
-42 0 0 774 42 0 0 -774 2489 4422 5 MP stroke
0.501961 sg
0 661 42 0 0 -661 2679 4422 4 MP
PP
0 sg
-42 0 0 661 42 0 0 -661 2679 4422 5 MP stroke
0.501961 sg
0 514 42 0 0 -514 2869 4422 4 MP
PP
0 sg
-42 0 0 514 42 0 0 -514 2869 4422 5 MP stroke
0.501961 sg
0 923 42 0 0 -923 3059 4422 4 MP
PP
0 sg
-42 0 0 923 42 0 0 -923 3059 4422 5 MP stroke
0.501961 sg
0 949 43 0 0 -949 3249 4422 4 MP
PP
0 sg
-43 0 0 949 43 0 0 -949 3249 4422 5 MP stroke
0.501961 sg
0 656 43 0 0 -656 3439 4422 4 MP
PP
0 sg
-43 0 0 656 43 0 0 -656 3439 4422 5 MP stroke
0.501961 sg
0 2687 42 0 0 -2687 3630 4422 4 MP
PP
0 sg
-42 0 0 2687 42 0 0 -2687 3630 4422 5 MP stroke
0.501961 sg
0 1026 42 0 0 -1026 3820 4422 4 MP
PP
0 sg
-42 0 0 1026 42 0 0 -1026 3820 4422 5 MP stroke
0.501961 sg
0 867 42 0 0 -867 4010 4422 4 MP
PP
0 sg
-42 0 0 867 42 0 0 -867 4010 4422 5 MP stroke
0.501961 sg
0 834 42 0 0 -834 4200 4422 4 MP
PP
0 sg
-42 0 0 834 42 0 0 -834 4200 4422 5 MP stroke
0.501961 sg
0 3243 43 0 0 -3243 4390 4422 4 MP
PP
0 sg
-43 0 0 3243 43 0 0 -3243 4390 4422 5 MP stroke
0.501961 sg
0 932 43 0 0 -932 4580 4422 4 MP
PP
0 sg
-43 0 0 932 43 0 0 -932 4580 4422 5 MP stroke
0.501961 sg
0 1220 42 0 0 -1220 4771 4422 4 MP
PP
0 sg
-42 0 0 1220 42 0 0 -1220 4771 4422 5 MP stroke
0.501961 sg
0 772 42 0 0 -772 4961 4422 4 MP
PP
0 sg
-42 0 0 772 42 0 0 -772 4961 4422 5 MP stroke
0.501961 sg
0 951 42 0 0 -951 5151 4422 4 MP
PP
0 sg
-42 0 0 951 42 0 0 -951 5151 4422 5 MP stroke
0.501961 sg
0 945 42 0 0 -945 5341 4422 4 MP
PP
0 sg
-42 0 0 945 42 0 0 -945 5341 4422 5 MP stroke
0.501961 sg
0 976 43 0 0 -976 5531 4422 4 MP
PP
0 sg
-43 0 0 976 43 0 0 -976 5531 4422 5 MP stroke
0.501961 sg
0 750 43 0 0 -750 5721 4422 4 MP
PP
0 sg
-43 0 0 750 43 0 0 -750 5721 4422 5 MP stroke
0.501961 sg
0 1089 42 0 0 -1089 5912 4422 4 MP
PP
0 sg
-42 0 0 1089 42 0 0 -1089 5912 4422 5 MP stroke
0.501961 sg
0 1013 42 0 0 -1013 6102 4422 4 MP
PP
0 sg
-42 0 0 1013 42 0 0 -1013 6102 4422 5 MP stroke
0.501961 sg
0 720 42 0 0 -720 6292 4422 4 MP
PP
0 sg
-42 0 0 720 42 0 0 -720 6292 4422 5 MP stroke
0.501961 sg
0 632 42 0 0 -632 6482 4422 4 MP
PP
0 sg
-42 0 0 632 42 0 0 -632 6482 4422 5 MP stroke
0.501961 sg
0 994 42 0 0 -994 6672 4422 4 MP
PP
0 sg
-42 0 0 994 42 0 0 -994 6672 4422 5 MP stroke
/c8 { 0.500000 0.000000 0.000000 sr} bdef
c8
0 486 42 0 0 -486 1200 4422 4 MP
PP
0 sg
-42 0 0 486 42 0 0 -486 1200 4422 5 MP stroke
c8
0 403 42 0 0 -403 1390 4422 4 MP
PP
0 sg
-42 0 0 403 42 0 0 -403 1390 4422 5 MP stroke
c8
0 262 42 0 0 -262 1580 4422 4 MP
PP
0 sg
-42 0 0 262 42 0 0 -262 1580 4422 5 MP stroke
c8
0 419 43 0 0 -419 1770 4422 4 MP
PP
0 sg
-43 0 0 419 43 0 0 -419 1770 4422 5 MP stroke
c8
0 283 43 0 0 -283 1960 4422 4 MP
PP
0 sg
-43 0 0 283 43 0 0 -283 1960 4422 5 MP stroke
c8
0 306 42 0 0 -306 2151 4422 4 MP
PP
0 sg
-42 0 0 306 42 0 0 -306 2151 4422 5 MP stroke
c8
0 466 42 0 0 -466 2341 4422 4 MP
PP
0 sg
-42 0 0 466 42 0 0 -466 2341 4422 5 MP stroke
c8
0 286 42 0 0 -286 2531 4422 4 MP
PP
0 sg
-42 0 0 286 42 0 0 -286 2531 4422 5 MP stroke
c8
0 291 42 0 0 -291 2721 4422 4 MP
PP
0 sg
-42 0 0 291 42 0 0 -291 2721 4422 5 MP stroke
c8
0 236 43 0 0 -236 2911 4422 4 MP
PP
0 sg
-43 0 0 236 43 0 0 -236 2911 4422 5 MP stroke
c8
0 411 43 0 0 -411 3101 4422 4 MP
PP
0 sg
-43 0 0 411 43 0 0 -411 3101 4422 5 MP stroke
c8
0 373 42 0 0 -373 3292 4422 4 MP
PP
0 sg
-42 0 0 373 42 0 0 -373 3292 4422 5 MP stroke
c8
0 408 42 0 0 -408 3482 4422 4 MP
PP
0 sg
-42 0 0 408 42 0 0 -408 3482 4422 5 MP stroke
c8
0 536 42 0 0 -536 3672 4422 4 MP
PP
0 sg
-42 0 0 536 42 0 0 -536 3672 4422 5 MP stroke
c8
0 398 42 0 0 -398 3862 4422 4 MP
PP
0 sg
-42 0 0 398 42 0 0 -398 3862 4422 5 MP stroke
c8
0 344 42 0 0 -344 4052 4422 4 MP
PP
0 sg
-42 0 0 344 42 0 0 -344 4052 4422 5 MP stroke
c8
0 430 43 0 0 -430 4242 4422 4 MP
PP
0 sg
-43 0 0 430 43 0 0 -430 4242 4422 5 MP stroke
c8
0 484 42 0 0 -484 4433 4422 4 MP
PP
0 sg
-42 0 0 484 42 0 0 -484 4433 4422 5 MP stroke
c8
0 438 42 0 0 -438 4623 4422 4 MP
PP
0 sg
-42 0 0 438 42 0 0 -438 4623 4422 5 MP stroke
c8
0 294 42 0 0 -294 4813 4422 4 MP
PP
0 sg
-42 0 0 294 42 0 0 -294 4813 4422 5 MP stroke
c8
0 277 42 0 0 -277 5003 4422 4 MP
PP
0 sg
-42 0 0 277 42 0 0 -277 5003 4422 5 MP stroke
c8
0 390 42 0 0 -390 5193 4422 4 MP
PP
0 sg
-42 0 0 390 42 0 0 -390 5193 4422 5 MP stroke
c8
0 353 43 0 0 -353 5383 4422 4 MP
PP
0 sg
-43 0 0 353 43 0 0 -353 5383 4422 5 MP stroke
c8
0 555 42 0 0 -555 5574 4422 4 MP
PP
0 sg
-42 0 0 555 42 0 0 -555 5574 4422 5 MP stroke
c8
0 233 42 0 0 -233 5764 4422 4 MP
PP
0 sg
-42 0 0 233 42 0 0 -233 5764 4422 5 MP stroke
c8
0 385 42 0 0 -385 5954 4422 4 MP
PP
0 sg
-42 0 0 385 42 0 0 -385 5954 4422 5 MP stroke
c8
0 232 42 0 0 -232 6144 4422 4 MP
PP
0 sg
-42 0 0 232 42 0 0 -232 6144 4422 5 MP stroke
c8
0 366 42 0 0 -366 6334 4422 4 MP
PP
0 sg
-42 0 0 366 42 0 0 -366 6334 4422 5 MP stroke
c8
0 331 43 0 0 -331 6524 4422 4 MP
PP
0 sg
-43 0 0 331 43 0 0 -331 6524 4422 5 MP stroke
c8
0 323 43 0 0 -323 6714 4422 4 MP
PP
0 sg
-43 0 0 323 43 0 0 -323 6714 4422 5 MP stroke
gr

3398 4790 mt 
(Simulation run) s
 536 3654 mt  -90 rotate
(Variance of the Variation of PSNR) s
90 rotate
%%IncludeResource: font Helvetica
/Helvetica /ISOLatin1Encoding 120 FMSR

 972 4465 mt 
( ) s
6868  415 mt 
( ) s
1 sg
0 645 2226 0 0 -645 4598 1078 4 MP
PP
-2226 0 0 645 2226 0 0 -645 4598 1078 5 MP stroke
4 w
DO
SO
6 w
0 sg
4598 1078 mt 6824 1078 L
4598  433 mt 6824  433 L
4598 1078 mt 4598  433 L
6824 1078 mt 6824  433 L
4598 1078 mt 6824 1078 L
4598 1078 mt 4598  433 L
4598 1078 mt 6824 1078 L
4598  433 mt 6824  433 L
4598 1078 mt 4598  433 L
6824 1078 mt 6824  433 L
%%IncludeResource: font Helvetica
/Helvetica /ISOLatin1Encoding 168 FMSR

5060  613 mt 
(Static RA) s
gs 4598 433 2227 646 rc
1 sg
-355 0 0 153 355 0 0 -153 4669 629 5 MP
PP
0 sg
0 0 -355 0 0 153 355 0 0 -153 4669 629 6 MP stroke
gr

5060  816 mt 
(Throughput-Driven RA) s
gs 4598 433 2227 646 rc
0.501961 sg
-355 0 0 152 355 0 0 -152 4669 831 5 MP
PP
0 sg
0 0 -355 0 0 152 355 0 0 -152 4669 831 6 MP stroke
gr

5060 1019 mt 
(Quality-Driven RA) s
gs 4598 433 2227 646 rc
c8
-355 0 0 153 355 0 0 -153 4669 1034 5 MP
PP
0 sg
0 0 -355 0 0 153 355 0 0 -153 4669 1034 6 MP stroke
gr


end %%Color Dict

eplot
%%EndObject

epage
end

showpage

%%Trailer
%%EOF
