%!PS-Adobe-3.0 EPSF-3.0
%%Creator: MATLAB, The MathWorks, Inc. Version 8.1.0.604 (R2013a). Operating System: Darwin 13.3.0 Darwin Kernel Version 13.3.0: Tue Jun  3 21:27:35 PDT 2014; root:xnu-2422.110.17~1/RELEASE_X86_64 x86_64.
%%Title: /Users/le/Work/project3/Figures/Results/ToyCase/FirstResult_PSNR_GOP.eps
%%CreationDate: 09/08/2014  12:52:55
%%DocumentNeededFonts: Helvetica
%%DocumentProcessColors: Cyan Magenta Yellow Black
%%LanguageLevel: 2
%%Pages: 1
%%BoundingBox:    72   215   539   576
%%EndComments

%%BeginProlog
% MathWorks dictionary
/MathWorks 160 dict begin
% definition operators
/bdef {bind def} bind def
/ldef {load def} bind def
/xdef {exch def} bdef
/xstore {exch store} bdef
% operator abbreviations
/c  /clip ldef
/cc /concat ldef
/cp /closepath ldef
/gr /grestore ldef
/gs /gsave ldef
/mt /moveto ldef
/np /newpath ldef
/cm /currentmatrix ldef
/sm /setmatrix ldef
/rm /rmoveto ldef
/rl /rlineto ldef
/s {show newpath} bdef
/sc {setcmykcolor} bdef
/sr /setrgbcolor ldef
/sg /setgray ldef
/w /setlinewidth ldef
/j /setlinejoin ldef
/cap /setlinecap ldef
/rc {rectclip} bdef
/rf {rectfill} bdef
% page state control
/pgsv () def
/bpage {/pgsv save def} bdef
/epage {pgsv restore} bdef
/bplot /gsave ldef
/eplot {stroke grestore} bdef
% orientation switch
/portraitMode 0 def /landscapeMode 1 def /rotateMode 2 def
% coordinate system mappings
/dpi2point 0 def
% font control
/FontSize 0 def
/FMS {/FontSize xstore findfont [FontSize 0 0 FontSize neg 0 0]
  makefont setfont} bdef
/reencode {exch dup where {pop load} {pop StandardEncoding} ifelse
  exch dup 3 1 roll findfont dup length dict begin
  { 1 index /FID ne {def}{pop pop} ifelse } forall
  /Encoding exch def currentdict end definefont pop} bdef
/isroman {findfont /CharStrings get /Agrave known} bdef
/FMSR {3 1 roll 1 index dup isroman {reencode} {pop pop} ifelse
  exch FMS} bdef
/csm {1 dpi2point div -1 dpi2point div scale neg translate
 dup landscapeMode eq {pop -90 rotate}
  {rotateMode eq {90 rotate} if} ifelse} bdef
% line types: solid, dotted, dashed, dotdash
/SO { [] 0 setdash } bdef
/DO { [.5 dpi2point mul 4 dpi2point mul] 0 setdash } bdef
/DA { [6 dpi2point mul] 0 setdash } bdef
/DD { [.5 dpi2point mul 4 dpi2point mul 6 dpi2point mul 4
  dpi2point mul] 0 setdash } bdef
% macros for lines and objects
/L {lineto stroke} bdef
/MP {3 1 roll moveto 1 sub {rlineto} repeat} bdef
/AP {{rlineto} repeat} bdef
/PDlw -1 def
/W {/PDlw currentlinewidth def setlinewidth} def
/PP {closepath eofill} bdef
/DP {closepath stroke} bdef
/MR {4 -2 roll moveto dup  0 exch rlineto exch 0 rlineto
  neg 0 exch rlineto closepath} bdef
/FR {MR stroke} bdef
/PR {MR fill} bdef
/L1i {{currentfile picstr readhexstring pop} image} bdef
/tMatrix matrix def
/MakeOval {newpath tMatrix currentmatrix pop translate scale
0 0 1 0 360 arc tMatrix setmatrix} bdef
/FO {MakeOval stroke} bdef
/PO {MakeOval fill} bdef
/PD {currentlinewidth 2 div 0 360 arc fill
   PDlw -1 eq not {PDlw w /PDlw -1 def} if} def
/FA {newpath tMatrix currentmatrix pop translate scale
  0 0 1 5 -2 roll arc tMatrix setmatrix stroke} bdef
/PA {newpath tMatrix currentmatrix pop	translate 0 0 moveto scale
  0 0 1 5 -2 roll arc closepath tMatrix setmatrix fill} bdef
/FAn {newpath tMatrix currentmatrix pop translate scale
  0 0 1 5 -2 roll arcn tMatrix setmatrix stroke} bdef
/PAn {newpath tMatrix currentmatrix pop translate 0 0 moveto scale
  0 0 1 5 -2 roll arcn closepath tMatrix setmatrix fill} bdef
/vradius 0 def /hradius 0 def /lry 0 def
/lrx 0 def /uly 0 def /ulx 0 def /rad 0 def
/MRR {/vradius xdef /hradius xdef /lry xdef /lrx xdef /uly xdef
  /ulx xdef newpath tMatrix currentmatrix pop ulx hradius add uly
  vradius add translate hradius vradius scale 0 0 1 180 270 arc 
  tMatrix setmatrix lrx hradius sub uly vradius add translate
  hradius vradius scale 0 0 1 270 360 arc tMatrix setmatrix
  lrx hradius sub lry vradius sub translate hradius vradius scale
  0 0 1 0 90 arc tMatrix setmatrix ulx hradius add lry vradius sub
  translate hradius vradius scale 0 0 1 90 180 arc tMatrix setmatrix
  closepath} bdef
/FRR {MRR stroke } bdef
/PRR {MRR fill } bdef
/MlrRR {/lry xdef /lrx xdef /uly xdef /ulx xdef /rad lry uly sub 2 div def
  newpath tMatrix currentmatrix pop ulx rad add uly rad add translate
  rad rad scale 0 0 1 90 270 arc tMatrix setmatrix lrx rad sub lry rad
  sub translate rad rad scale 0 0 1 270 90 arc tMatrix setmatrix
  closepath} bdef
/FlrRR {MlrRR stroke } bdef
/PlrRR {MlrRR fill } bdef
/MtbRR {/lry xdef /lrx xdef /uly xdef /ulx xdef /rad lrx ulx sub 2 div def
  newpath tMatrix currentmatrix pop ulx rad add uly rad add translate
  rad rad scale 0 0 1 180 360 arc tMatrix setmatrix lrx rad sub lry rad
  sub translate rad rad scale 0 0 1 0 180 arc tMatrix setmatrix
  closepath} bdef
/FtbRR {MtbRR stroke } bdef
/PtbRR {MtbRR fill } bdef
/stri 6 array def /dtri 6 array def
/smat 6 array def /dmat 6 array def
/tmat1 6 array def /tmat2 6 array def /dif 3 array def
/asub {/ind2 exch def /ind1 exch def dup dup
  ind1 get exch ind2 get sub exch } bdef
/tri_to_matrix {
  2 0 asub 3 1 asub 4 0 asub 5 1 asub
  dup 0 get exch 1 get 7 -1 roll astore } bdef
/compute_transform {
  dmat dtri tri_to_matrix tmat1 invertmatrix 
  smat stri tri_to_matrix tmat2 concatmatrix } bdef
/ds {stri astore pop} bdef
/dt {dtri astore pop} bdef
/db {2 copy /cols xdef /rows xdef mul dup 3 mul string
  currentfile 
  3 index 0 eq {/ASCIIHexDecode filter}
  {/ASCII85Decode filter 3 index 2 eq {/RunLengthDecode filter} if }
  ifelse exch readstring pop
  dup 0 3 index getinterval /rbmap xdef
  dup 2 index dup getinterval /gbmap xdef
  1 index dup 2 mul exch getinterval /bbmap xdef pop pop}bdef
/it {gs np dtri aload pop moveto lineto lineto cp c
  cols rows 8 compute_transform 
  rbmap gbmap bbmap true 3 colorimage gr}bdef
/il {newpath moveto lineto stroke}bdef
currentdict end def
%%EndProlog

%%BeginSetup
MathWorks begin

0 cap

end
%%EndSetup

%%Page: 1 1
%%BeginPageSetup
%%PageBoundingBox:    72   215   539   576
MathWorks begin
bpage
%%EndPageSetup

%%BeginObject: obj1
bplot

/dpi2point 12 def
portraitMode 0864 6912 csm

    0     0  5604  4332 rc
85 dict begin %Colortable dictionary
/c0 { 0.000000 0.000000 0.000000 sr} bdef
/c1 { 1.000000 1.000000 1.000000 sr} bdef
/c2 { 0.900000 0.000000 0.000000 sr} bdef
/c3 { 0.000000 0.820000 0.000000 sr} bdef
/c4 { 0.000000 0.000000 0.800000 sr} bdef
/c5 { 0.910000 0.820000 0.320000 sr} bdef
/c6 { 1.000000 0.260000 0.820000 sr} bdef
/c7 { 0.000000 0.820000 0.820000 sr} bdef
c0
1 j
1 sg
   0    0 5605 4333 rf
6 w
0 3530 4343 0 0 -3530 729 3855 4 MP
PP
-4343 0 0 3530 4343 0 0 -3530 729 3855 5 MP stroke
4 w
DO
0 sg
1814 3855 mt 1814  325 L
1814  325 mt 1814  325 L
3986 3855 mt 3986  325 L
3986  325 mt 3986  325 L
 729 3855 mt 5072 3855 L
5072 3855 mt 5072 3855 L
 729 3413 mt 5072 3413 L
5072 3413 mt 5072 3413 L
 729 2972 mt 5072 2972 L
5072 2972 mt 5072 2972 L
 729 2531 mt 5072 2531 L
5072 2531 mt 5072 2531 L
 729 2090 mt 5072 2090 L
5072 2090 mt 5072 2090 L
 729 1648 mt 5072 1648 L
5072 1648 mt 5072 1648 L
 729 1207 mt 5072 1207 L
5072 1207 mt 5072 1207 L
 729  766 mt 5072  766 L
5072  766 mt 5072  766 L
 729  325 mt 5072  325 L
5072  325 mt 5072  325 L
SO
6 w
 729 3855 mt 5072 3855 L
 729  325 mt 5072  325 L
 729 3855 mt  729  325 L
5072 3855 mt 5072  325 L
 729 3855 mt 5072 3855 L
 729 3855 mt  729  325 L
1814 3855 mt 1814 3811 L
1814  325 mt 1814  368 L
%%IncludeResource: font Helvetica
/Helvetica /ISOLatin1Encoding 168 FMSR

1768 4045 mt 
(1) s
3986 3855 mt 3986 3811 L
3986  325 mt 3986  368 L
3940 4045 mt 
(2) s
 729 3855 mt  772 3855 L
5072 3855 mt 5028 3855 L
 601 3917 mt 
(0) s
 729 3413 mt  772 3413 L
5072 3413 mt 5028 3413 L
 601 3475 mt 
(5) s
 729 2972 mt  772 2972 L
5072 2972 mt 5028 2972 L
 508 3034 mt 
(10) s
 729 2531 mt  772 2531 L
5072 2531 mt 5028 2531 L
 508 2593 mt 
(15) s
 729 2090 mt  772 2090 L
5072 2090 mt 5028 2090 L
 508 2152 mt 
(20) s
 729 1648 mt  772 1648 L
5072 1648 mt 5028 1648 L
 508 1710 mt 
(25) s
 729 1207 mt  772 1207 L
5072 1207 mt 5028 1207 L
 508 1269 mt 
(30) s
 729  766 mt  772  766 L
5072  766 mt 5028  766 L
 508  828 mt 
(35) s
 729  325 mt  772  325 L
5072  325 mt 5028  325 L
 508  387 mt 
(40) s
 729 3855 mt 5072 3855 L
 729  325 mt 5072  325 L
 729 3855 mt  729  325 L
5072 3855 mt 5072  325 L
gs 729 325 4344 3531 rc
/c8 { 0.000000 0.000000 0.562500 sr} bdef
c8
0 2563 139 0 0 -2563 963 3855 4 MP
PP
0 sg
-139 0 0 2563 139 0 0 -2563 963 3855 5 MP stroke
c8
0 2974 138 0 0 -2974 3135 3855 4 MP
PP
0 sg
-138 0 0 2974 138 0 0 -2974 3135 3855 5 MP stroke
4343 0 729 3855 2 MP stroke
/c9 { 0.000000 0.000000 1.000000 sr} bdef
c9
0 2421 139 0 0 -2421 1137 3855 4 MP
PP
0 sg
-139 0 0 2421 139 0 0 -2421 1137 3855 5 MP stroke
c9
0 3075 139 0 0 -3075 3308 3855 4 MP
PP
0 sg
-139 0 0 3075 139 0 0 -3075 3308 3855 5 MP stroke
/c10 { 0.000000 0.437500 1.000000 sr} bdef
c10
0 2621 139 0 0 -2621 1310 3855 4 MP
PP
0 sg
-139 0 0 2621 139 0 0 -2621 1310 3855 5 MP stroke
c10
0 2823 139 0 0 -2823 3482 3855 4 MP
PP
0 sg
-139 0 0 2823 139 0 0 -2823 3482 3855 5 MP stroke
/c11 { 0.000000 0.875000 1.000000 sr} bdef
c11
0 2497 139 0 0 -2497 1484 3855 4 MP
PP
0 sg
-139 0 0 2497 139 0 0 -2497 1484 3855 5 MP stroke
c11
0 2959 139 0 0 -2959 3656 3855 4 MP
PP
0 sg
-139 0 0 2959 139 0 0 -2959 3656 3855 5 MP stroke
/c12 { 0.312500 1.000000 0.687500 sr} bdef
c12
0 2563 139 0 0 -2563 1658 3855 4 MP
PP
0 sg
-139 0 0 2563 139 0 0 -2563 1658 3855 5 MP stroke
c12
0 3004 139 0 0 -3004 3829 3855 4 MP
PP
0 sg
-139 0 0 3004 139 0 0 -3004 3829 3855 5 MP stroke
/c13 { 0.750000 1.000000 0.250000 sr} bdef
c13
0 2672 139 0 0 -2672 1832 3855 4 MP
PP
0 sg
-139 0 0 2672 139 0 0 -2672 1832 3855 5 MP stroke
c13
0 2841 139 0 0 -2841 4003 3855 4 MP
PP
0 sg
-139 0 0 2841 139 0 0 -2841 4003 3855 5 MP stroke
/c14 { 1.000000 0.812500 0.000000 sr} bdef
c14
0 2141 139 0 0 -2141 2005 3855 4 MP
PP
0 sg
-139 0 0 2141 139 0 0 -2141 2005 3855 5 MP stroke
c14
0 3128 139 0 0 -3128 4177 3855 4 MP
PP
0 sg
-139 0 0 3128 139 0 0 -3128 4177 3855 5 MP stroke
/c15 { 1.000000 0.375000 0.000000 sr} bdef
c15
0 2461 139 0 0 -2461 2179 3855 4 MP
PP
0 sg
-139 0 0 2461 139 0 0 -2461 2179 3855 5 MP stroke
c15
0 2989 139 0 0 -2989 4351 3855 4 MP
PP
0 sg
-139 0 0 2989 139 0 0 -2989 4351 3855 5 MP stroke
/c16 { 0.937500 0.000000 0.000000 sr} bdef
c16
0 2141 139 0 0 -2141 2353 3855 4 MP
PP
0 sg
-139 0 0 2141 139 0 0 -2141 2353 3855 5 MP stroke
c16
0 3115 139 0 0 -3115 4524 3855 4 MP
PP
0 sg
-139 0 0 3115 139 0 0 -3115 4524 3855 5 MP stroke
/c17 { 0.500000 0.000000 0.000000 sr} bdef
c17
0 2421 138 0 0 -2421 2527 3855 4 MP
PP
0 sg
-138 0 0 2421 138 0 0 -2421 2527 3855 5 MP stroke
c17
0 3061 139 0 0 -3061 4698 3855 4 MP
PP
0 sg
-139 0 0 3061 139 0 0 -3061 4698 3855 5 MP stroke
gr

2680 4223 mt 
(Users) s
 416 2497 mt  -90 rotate
(PSNR [dB]) s
90 rotate

end %%Color Dict

eplot
%%EndObject

epage
end

showpage

%%Trailer
%%EOF
