%!PS-Adobe-3.0 EPSF-3.0
%%Creator: MATLAB, The MathWorks, Inc. Version 8.1.0.604 (R2013a). Operating System: Darwin 14.1.0 Darwin Kernel Version 14.1.0: Thu Feb 26 19:26:47 PST 2015; root:xnu-2782.10.73~1/RELEASE_X86_64 x86_64.
%%Title: /Users/le/Work/3.Projects/project3/Figures/Results/March_2015/avgPSNR.eps
%%CreationDate: 03/23/2015  14:36:14
%%DocumentNeededFonts: Helvetica
%%DocumentProcessColors: Cyan Magenta Yellow Black
%%LanguageLevel: 2
%%Pages: 1
%%BoundingBox:  -216   130   827   662
%%EndComments

%%BeginProlog
% MathWorks dictionary
/MathWorks 160 dict begin
% definition operators
/bdef {bind def} bind def
/ldef {load def} bind def
/xdef {exch def} bdef
/xstore {exch store} bdef
% operator abbreviations
/c  /clip ldef
/cc /concat ldef
/cp /closepath ldef
/gr /grestore ldef
/gs /gsave ldef
/mt /moveto ldef
/np /newpath ldef
/cm /currentmatrix ldef
/sm /setmatrix ldef
/rm /rmoveto ldef
/rl /rlineto ldef
/s {show newpath} bdef
/sc {setcmykcolor} bdef
/sr /setrgbcolor ldef
/sg /setgray ldef
/w /setlinewidth ldef
/j /setlinejoin ldef
/cap /setlinecap ldef
/rc {rectclip} bdef
/rf {rectfill} bdef
% page state control
/pgsv () def
/bpage {/pgsv save def} bdef
/epage {pgsv restore} bdef
/bplot /gsave ldef
/eplot {stroke grestore} bdef
% orientation switch
/portraitMode 0 def /landscapeMode 1 def /rotateMode 2 def
% coordinate system mappings
/dpi2point 0 def
% font control
/FontSize 0 def
/FMS {/FontSize xstore findfont [FontSize 0 0 FontSize neg 0 0]
  makefont setfont} bdef
/reencode {exch dup where {pop load} {pop StandardEncoding} ifelse
  exch dup 3 1 roll findfont dup length dict begin
  { 1 index /FID ne {def}{pop pop} ifelse } forall
  /Encoding exch def currentdict end definefont pop} bdef
/isroman {findfont /CharStrings get /Agrave known} bdef
/FMSR {3 1 roll 1 index dup isroman {reencode} {pop pop} ifelse
  exch FMS} bdef
/csm {1 dpi2point div -1 dpi2point div scale neg translate
 dup landscapeMode eq {pop -90 rotate}
  {rotateMode eq {90 rotate} if} ifelse} bdef
% line types: solid, dotted, dashed, dotdash
/SO { [] 0 setdash } bdef
/DO { [.5 dpi2point mul 4 dpi2point mul] 0 setdash } bdef
/DA { [6 dpi2point mul] 0 setdash } bdef
/DD { [.5 dpi2point mul 4 dpi2point mul 6 dpi2point mul 4
  dpi2point mul] 0 setdash } bdef
% macros for lines and objects
/L {lineto stroke} bdef
/MP {3 1 roll moveto 1 sub {rlineto} repeat} bdef
/AP {{rlineto} repeat} bdef
/PDlw -1 def
/W {/PDlw currentlinewidth def setlinewidth} def
/PP {closepath eofill} bdef
/DP {closepath stroke} bdef
/MR {4 -2 roll moveto dup  0 exch rlineto exch 0 rlineto
  neg 0 exch rlineto closepath} bdef
/FR {MR stroke} bdef
/PR {MR fill} bdef
/L1i {{currentfile picstr readhexstring pop} image} bdef
/tMatrix matrix def
/MakeOval {newpath tMatrix currentmatrix pop translate scale
0 0 1 0 360 arc tMatrix setmatrix} bdef
/FO {MakeOval stroke} bdef
/PO {MakeOval fill} bdef
/PD {currentlinewidth 2 div 0 360 arc fill
   PDlw -1 eq not {PDlw w /PDlw -1 def} if} def
/FA {newpath tMatrix currentmatrix pop translate scale
  0 0 1 5 -2 roll arc tMatrix setmatrix stroke} bdef
/PA {newpath tMatrix currentmatrix pop	translate 0 0 moveto scale
  0 0 1 5 -2 roll arc closepath tMatrix setmatrix fill} bdef
/FAn {newpath tMatrix currentmatrix pop translate scale
  0 0 1 5 -2 roll arcn tMatrix setmatrix stroke} bdef
/PAn {newpath tMatrix currentmatrix pop translate 0 0 moveto scale
  0 0 1 5 -2 roll arcn closepath tMatrix setmatrix fill} bdef
/vradius 0 def /hradius 0 def /lry 0 def
/lrx 0 def /uly 0 def /ulx 0 def /rad 0 def
/MRR {/vradius xdef /hradius xdef /lry xdef /lrx xdef /uly xdef
  /ulx xdef newpath tMatrix currentmatrix pop ulx hradius add uly
  vradius add translate hradius vradius scale 0 0 1 180 270 arc 
  tMatrix setmatrix lrx hradius sub uly vradius add translate
  hradius vradius scale 0 0 1 270 360 arc tMatrix setmatrix
  lrx hradius sub lry vradius sub translate hradius vradius scale
  0 0 1 0 90 arc tMatrix setmatrix ulx hradius add lry vradius sub
  translate hradius vradius scale 0 0 1 90 180 arc tMatrix setmatrix
  closepath} bdef
/FRR {MRR stroke } bdef
/PRR {MRR fill } bdef
/MlrRR {/lry xdef /lrx xdef /uly xdef /ulx xdef /rad lry uly sub 2 div def
  newpath tMatrix currentmatrix pop ulx rad add uly rad add translate
  rad rad scale 0 0 1 90 270 arc tMatrix setmatrix lrx rad sub lry rad
  sub translate rad rad scale 0 0 1 270 90 arc tMatrix setmatrix
  closepath} bdef
/FlrRR {MlrRR stroke } bdef
/PlrRR {MlrRR fill } bdef
/MtbRR {/lry xdef /lrx xdef /uly xdef /ulx xdef /rad lrx ulx sub 2 div def
  newpath tMatrix currentmatrix pop ulx rad add uly rad add translate
  rad rad scale 0 0 1 180 360 arc tMatrix setmatrix lrx rad sub lry rad
  sub translate rad rad scale 0 0 1 0 180 arc tMatrix setmatrix
  closepath} bdef
/FtbRR {MtbRR stroke } bdef
/PtbRR {MtbRR fill } bdef
/stri 6 array def /dtri 6 array def
/smat 6 array def /dmat 6 array def
/tmat1 6 array def /tmat2 6 array def /dif 3 array def
/asub {/ind2 exch def /ind1 exch def dup dup
  ind1 get exch ind2 get sub exch } bdef
/tri_to_matrix {
  2 0 asub 3 1 asub 4 0 asub 5 1 asub
  dup 0 get exch 1 get 7 -1 roll astore } bdef
/compute_transform {
  dmat dtri tri_to_matrix tmat1 invertmatrix 
  smat stri tri_to_matrix tmat2 concatmatrix } bdef
/ds {stri astore pop} bdef
/dt {dtri astore pop} bdef
/db {2 copy /cols xdef /rows xdef mul dup 3 mul string
  currentfile 
  3 index 0 eq {/ASCIIHexDecode filter}
  {/ASCII85Decode filter 3 index 2 eq {/RunLengthDecode filter} if }
  ifelse exch readstring pop
  dup 0 3 index getinterval /rbmap xdef
  dup 2 index dup getinterval /gbmap xdef
  1 index dup 2 mul exch getinterval /bbmap xdef pop pop}bdef
/it {gs np dtri aload pop moveto lineto lineto cp c
  cols rows 8 compute_transform 
  rbmap gbmap bbmap true 3 colorimage gr}bdef
/il {newpath moveto lineto stroke}bdef
currentdict end def
%%EndProlog

%%BeginSetup
MathWorks begin

0 cap

end
%%EndSetup

%%Page: 1 1
%%BeginPageSetup
%%PageBoundingBox:  -216   130   827   662
MathWorks begin
bpage
%%EndPageSetup

%%BeginObject: obj1
bplot

/dpi2point 12 def
portraitMode -2592 7944 csm

    0     0 12527  6384 rc
85 dict begin %Colortable dictionary
/c0 { 0.000000 0.000000 0.000000 sr} bdef
/c1 { 1.000000 1.000000 1.000000 sr} bdef
/c2 { 0.900000 0.000000 0.000000 sr} bdef
/c3 { 0.000000 0.820000 0.000000 sr} bdef
/c4 { 0.000000 0.000000 0.800000 sr} bdef
/c5 { 0.910000 0.820000 0.320000 sr} bdef
/c6 { 1.000000 0.260000 0.820000 sr} bdef
/c7 { 0.000000 0.820000 0.820000 sr} bdef
c0
1 j
1 sg
   0    0 12528 6385 rf
6 w
0 5203 9708 0 0 -5203 1629 5682 4 MP
PP
-9708 0 0 5203 9708 0 0 -5203 1629 5682 5 MP stroke
4 w
DO
0 sg
2842 5682 mt 2842  479 L
2842  479 mt 2842  479 L
5269 5682 mt 5269  479 L
5269  479 mt 5269  479 L
7696 5682 mt 7696  479 L
7696  479 mt 7696  479 L
10123 5682 mt 10123  479 L
10123  479 mt 10123  479 L
1629 5682 mt 11337 5682 L
11337 5682 mt 11337 5682 L
1629 4938 mt 11337 4938 L
11337 4938 mt 11337 4938 L
1629 4195 mt 11337 4195 L
11337 4195 mt 11337 4195 L
1629 3452 mt 11337 3452 L
11337 3452 mt 11337 3452 L
1629 2708 mt 11337 2708 L
11337 2708 mt 11337 2708 L
1629 1965 mt 11337 1965 L
11337 1965 mt 11337 1965 L
1629 1222 mt 11337 1222 L
11337 1222 mt 11337 1222 L
1629  479 mt 11337  479 L
11337  479 mt 11337  479 L
SO
6 w
1629 5682 mt 11337 5682 L
1629  479 mt 11337  479 L
1629 5682 mt 1629  479 L
11337 5682 mt 11337  479 L
1629 5682 mt 11337 5682 L
1629 5682 mt 1629  479 L
2842 5682 mt 2842 5584 L
2842  479 mt 2842  576 L
%%IncludeResource: font Helvetica
/Helvetica /ISOLatin1Encoding 120 FMSR

2809 5827 mt 
(1) s
5269 5682 mt 5269 5584 L
5269  479 mt 5269  576 L
5236 5827 mt 
(2) s
7696 5682 mt 7696 5584 L
7696  479 mt 7696  576 L
7663 5827 mt 
(3) s
10123 5682 mt 10123 5584 L
10123  479 mt 10123  576 L
10090 5827 mt 
(4) s
1629 5682 mt 1726 5682 L
11337 5682 mt 11239 5682 L
1528 5726 mt 
(0) s
1629 4938 mt 1726 4938 L
11337 4938 mt 11239 4938 L
1528 4982 mt 
(5) s
1629 4195 mt 1726 4195 L
11337 4195 mt 11239 4195 L
1461 4239 mt 
(10) s
1629 3452 mt 1726 3452 L
11337 3452 mt 11239 3452 L
1461 3496 mt 
(15) s
1629 2708 mt 1726 2708 L
11337 2708 mt 11239 2708 L
1461 2752 mt 
(20) s
1629 1965 mt 1726 1965 L
11337 1965 mt 11239 1965 L
1461 2009 mt 
(25) s
1629 1222 mt 1726 1222 L
11337 1222 mt 11239 1222 L
1461 1266 mt 
(30) s
1629  479 mt 1726  479 L
11337  479 mt 11239  479 L
1461  523 mt 
(35) s
1629 5682 mt 11337 5682 L
1629  479 mt 11337  479 L
1629 5682 mt 1629  479 L
11337 5682 mt 11337  479 L
gs 1629 479 9709 5204 rc
/c8 { 0.000000 0.000000 0.562500 sr} bdef
c8
0 4419 353 0 0 -4419 2004 5682 4 MP
PP
0 sg
-353 0 0 4419 353 0 0 -4419 2004 5682 5 MP stroke
c8
0 3802 353 0 0 -3802 4431 5682 4 MP
PP
0 sg
-353 0 0 3802 353 0 0 -3802 4431 5682 5 MP stroke
c8
0 3396 353 0 0 -3396 6858 5682 4 MP
PP
0 sg
-353 0 0 3396 353 0 0 -3396 6858 5682 5 MP stroke
c8
0 2697 353 0 0 -2697 9285 5682 4 MP
PP
0 sg
-353 0 0 2697 353 0 0 -2697 9285 5682 5 MP stroke
9708 0 1629 5682 2 MP stroke
/c9 { 0.000000 0.875000 1.000000 sr} bdef
c9
0 4487 353 0 0 -4487 2445 5682 4 MP
PP
0 sg
-353 0 0 4487 353 0 0 -4487 2445 5682 5 MP stroke
c9
0 3837 353 0 0 -3837 4872 5682 4 MP
PP
0 sg
-353 0 0 3837 353 0 0 -3837 4872 5682 5 MP stroke
c9
0 3672 353 0 0 -3672 7299 5682 4 MP
PP
0 sg
-353 0 0 3672 353 0 0 -3672 7299 5682 5 MP stroke
c9
0 3122 353 0 0 -3122 9726 5682 4 MP
PP
0 sg
-353 0 0 3122 353 0 0 -3122 9726 5682 5 MP stroke
/c10 { 1.000000 0.812500 0.000000 sr} bdef
c10
0 3666 353 0 0 -3666 2886 5682 4 MP
PP
0 sg
-353 0 0 3666 353 0 0 -3666 2886 5682 5 MP stroke
c10
0 3649 353 0 0 -3649 5313 5682 4 MP
PP
0 sg
-353 0 0 3649 353 0 0 -3649 5313 5682 5 MP stroke
c10
0 3642 353 0 0 -3642 7740 5682 4 MP
PP
0 sg
-353 0 0 3642 353 0 0 -3642 7740 5682 5 MP stroke
c10
0 3642 353 0 0 -3642 10167 5682 4 MP
PP
0 sg
-353 0 0 3642 353 0 0 -3642 10167 5682 5 MP stroke
/c11 { 0.500000 0.000000 0.000000 sr} bdef
c11
0 4539 353 0 0 -4539 3327 5682 4 MP
PP
0 sg
-353 0 0 4539 353 0 0 -4539 3327 5682 5 MP stroke
c11
0 3974 353 0 0 -3974 5754 5682 4 MP
PP
0 sg
-353 0 0 3974 353 0 0 -3974 5754 5682 5 MP stroke
c11
0 3738 353 0 0 -3738 8181 5682 4 MP
PP
0 sg
-353 0 0 3738 353 0 0 -3738 8181 5682 5 MP stroke
c11
0 2900 353 0 0 -2900 10608 5682 4 MP
PP
0 sg
-353 0 0 2900 353 0 0 -2900 10608 5682 5 MP stroke
0 179 2180 1173 2 MP stroke
146 0 2107 1173 2 MP stroke
146 0 2107 1352 2 MP stroke
0 174 4607 1793 2 MP stroke
146 0 4534 1793 2 MP stroke
146 0 4534 1967 2 MP stroke
0 275 7034 2148 2 MP stroke
146 0 6961 2148 2 MP stroke
146 0 6961 2423 2 MP stroke
0 467 9461 2751 2 MP stroke
146 0 9388 2751 2 MP stroke
146 0 9388 3218 2 MP stroke
0 141 2621 1124 2 MP stroke
145 0 2549 1124 2 MP stroke
145 0 2549 1265 2 MP stroke
0 103 5048 1794 2 MP stroke
145 0 4976 1794 2 MP stroke
145 0 4976 1897 2 MP stroke
0 118 7475 1951 2 MP stroke
145 0 7403 1951 2 MP stroke
145 0 7403 2069 2 MP stroke
0 120 9902 2500 2 MP stroke
145 0 9830 2500 2 MP stroke
145 0 9830 2620 2 MP stroke
0 94 3063 1969 2 MP stroke
145 0 2990 1969 2 MP stroke
145 0 2990 2063 2 MP stroke
0 101 5490 1983 2 MP stroke
145 0 5417 1983 2 MP stroke
145 0 5417 2084 2 MP stroke
0 108 7917 1986 2 MP stroke
145 0 7844 1986 2 MP stroke
145 0 7844 2094 2 MP stroke
0 100 10344 1990 2 MP stroke
145 0 10271 1990 2 MP stroke
145 0 10271 2090 2 MP stroke
0 396 3504 945 2 MP stroke
146 0 3431 945 2 MP stroke
146 0 3431 1341 2 MP stroke
0 453 5931 1482 2 MP stroke
146 0 5858 1482 2 MP stroke
146 0 5858 1935 2 MP stroke
0 391 8358 1749 2 MP stroke
146 0 8285 1749 2 MP stroke
146 0 8285 2140 2 MP stroke
0 677 10785 2443 2 MP stroke
146 0 10712 2443 2 MP stroke
146 0 10712 3120 2 MP stroke
gr

%%IncludeResource: font Helvetica
/Helvetica /ISOLatin1Encoding 240 FMSR

5845 6058 mt 
(User [index]) s
1352 5118 mt  -90 rotate
(Avg. PSNR over video sequences [dB]) s
90 rotate
%%IncludeResource: font Helvetica
/Helvetica /ISOLatin1Encoding 120 FMSR

1612 5725 mt 
( ) s
11321  521 mt 
( ) s
1 sg
0 978 3597 0 0 -978 7646 1572 4 MP
PP
-3597 0 0 978 3597 0 0 -978 7646 1572 5 MP stroke
4 w
DO
SO
6 w
0 sg
7646 1572 mt 11243 1572 L
7646  594 mt 11243  594 L
7646 1572 mt 7646  594 L
11243 1572 mt 11243  594 L
7646 1572 mt 11243 1572 L
7646 1572 mt 7646  594 L
7646 1572 mt 11243 1572 L
7646  594 mt 11243  594 L
7646 1572 mt 7646  594 L
11243 1572 mt 11243  594 L
%%IncludeResource: font Helvetica
/Helvetica /ISOLatin1Encoding 168 FMSR

8114  792 mt 
(Blockwise and Rate Adapting) s
gs 7646 594 3598 979 rc
c8
-360 0 0 177 360 0 0 -177 7717 820 5 MP
PP
0 sg
0 0 -360 0 0 177 360 0 0 -177 7717 820 6 MP stroke
gr

8114 1026 mt 
(Max-Min Throughput and Rate Adapting) s
gs 7646 594 3598 979 rc
c9
-360 0 0 177 360 0 0 -177 7717 1054 5 MP
PP
0 sg
0 0 -360 0 0 177 360 0 0 -177 7717 1054 6 MP stroke
gr

8114 1261 mt 
(Cross-layer with max-min weighted Q) s
gs 7646 594 3598 979 rc
c10
-360 0 0 177 360 0 0 -177 7717 1288 5 MP
PP
0 sg
0 0 -360 0 0 177 360 0 0 -177 7717 1288 6 MP stroke
gr

8114 1495 mt 
(PF and Rate Adapting) s
gs 7646 594 3598 979 rc
c11
-360 0 0 177 360 0 0 -177 7717 1522 5 MP
PP
0 sg
0 0 -360 0 0 177 360 0 0 -177 7717 1522 6 MP stroke
gr


end %%Color Dict

eplot
%%EndObject

epage
end

showpage

%%Trailer
%%EOF
