%!PS-Adobe-3.0 EPSF-3.0
%%Creator: MATLAB, The MathWorks, Inc. Version 8.1.0.604 (R2013a). Operating System: Darwin 14.1.0 Darwin Kernel Version 14.1.0: Thu Feb 26 19:26:47 PST 2015; root:xnu-2782.10.73~1/RELEASE_X86_64 x86_64.
%%Title: /Users/le/Work/3.Projects/project3/Figures/Results/March_2015/avgThroughput.eps
%%CreationDate: 03/23/2015  14:41:41
%%DocumentNeededFonts: Helvetica
%%DocumentProcessColors: Cyan Magenta Yellow Black
%%LanguageLevel: 2
%%Pages: 1
%%BoundingBox:   -27   151   639   640
%%EndComments

%%BeginProlog
% MathWorks dictionary
/MathWorks 160 dict begin
% definition operators
/bdef {bind def} bind def
/ldef {load def} bind def
/xdef {exch def} bdef
/xstore {exch store} bdef
% operator abbreviations
/c  /clip ldef
/cc /concat ldef
/cp /closepath ldef
/gr /grestore ldef
/gs /gsave ldef
/mt /moveto ldef
/np /newpath ldef
/cm /currentmatrix ldef
/sm /setmatrix ldef
/rm /rmoveto ldef
/rl /rlineto ldef
/s {show newpath} bdef
/sc {setcmykcolor} bdef
/sr /setrgbcolor ldef
/sg /setgray ldef
/w /setlinewidth ldef
/j /setlinejoin ldef
/cap /setlinecap ldef
/rc {rectclip} bdef
/rf {rectfill} bdef
% page state control
/pgsv () def
/bpage {/pgsv save def} bdef
/epage {pgsv restore} bdef
/bplot /gsave ldef
/eplot {stroke grestore} bdef
% orientation switch
/portraitMode 0 def /landscapeMode 1 def /rotateMode 2 def
% coordinate system mappings
/dpi2point 0 def
% font control
/FontSize 0 def
/FMS {/FontSize xstore findfont [FontSize 0 0 FontSize neg 0 0]
  makefont setfont} bdef
/reencode {exch dup where {pop load} {pop StandardEncoding} ifelse
  exch dup 3 1 roll findfont dup length dict begin
  { 1 index /FID ne {def}{pop pop} ifelse } forall
  /Encoding exch def currentdict end definefont pop} bdef
/isroman {findfont /CharStrings get /Agrave known} bdef
/FMSR {3 1 roll 1 index dup isroman {reencode} {pop pop} ifelse
  exch FMS} bdef
/csm {1 dpi2point div -1 dpi2point div scale neg translate
 dup landscapeMode eq {pop -90 rotate}
  {rotateMode eq {90 rotate} if} ifelse} bdef
% line types: solid, dotted, dashed, dotdash
/SO { [] 0 setdash } bdef
/DO { [.5 dpi2point mul 4 dpi2point mul] 0 setdash } bdef
/DA { [6 dpi2point mul] 0 setdash } bdef
/DD { [.5 dpi2point mul 4 dpi2point mul 6 dpi2point mul 4
  dpi2point mul] 0 setdash } bdef
% macros for lines and objects
/L {lineto stroke} bdef
/MP {3 1 roll moveto 1 sub {rlineto} repeat} bdef
/AP {{rlineto} repeat} bdef
/PDlw -1 def
/W {/PDlw currentlinewidth def setlinewidth} def
/PP {closepath eofill} bdef
/DP {closepath stroke} bdef
/MR {4 -2 roll moveto dup  0 exch rlineto exch 0 rlineto
  neg 0 exch rlineto closepath} bdef
/FR {MR stroke} bdef
/PR {MR fill} bdef
/L1i {{currentfile picstr readhexstring pop} image} bdef
/tMatrix matrix def
/MakeOval {newpath tMatrix currentmatrix pop translate scale
0 0 1 0 360 arc tMatrix setmatrix} bdef
/FO {MakeOval stroke} bdef
/PO {MakeOval fill} bdef
/PD {currentlinewidth 2 div 0 360 arc fill
   PDlw -1 eq not {PDlw w /PDlw -1 def} if} def
/FA {newpath tMatrix currentmatrix pop translate scale
  0 0 1 5 -2 roll arc tMatrix setmatrix stroke} bdef
/PA {newpath tMatrix currentmatrix pop	translate 0 0 moveto scale
  0 0 1 5 -2 roll arc closepath tMatrix setmatrix fill} bdef
/FAn {newpath tMatrix currentmatrix pop translate scale
  0 0 1 5 -2 roll arcn tMatrix setmatrix stroke} bdef
/PAn {newpath tMatrix currentmatrix pop translate 0 0 moveto scale
  0 0 1 5 -2 roll arcn closepath tMatrix setmatrix fill} bdef
/vradius 0 def /hradius 0 def /lry 0 def
/lrx 0 def /uly 0 def /ulx 0 def /rad 0 def
/MRR {/vradius xdef /hradius xdef /lry xdef /lrx xdef /uly xdef
  /ulx xdef newpath tMatrix currentmatrix pop ulx hradius add uly
  vradius add translate hradius vradius scale 0 0 1 180 270 arc 
  tMatrix setmatrix lrx hradius sub uly vradius add translate
  hradius vradius scale 0 0 1 270 360 arc tMatrix setmatrix
  lrx hradius sub lry vradius sub translate hradius vradius scale
  0 0 1 0 90 arc tMatrix setmatrix ulx hradius add lry vradius sub
  translate hradius vradius scale 0 0 1 90 180 arc tMatrix setmatrix
  closepath} bdef
/FRR {MRR stroke } bdef
/PRR {MRR fill } bdef
/MlrRR {/lry xdef /lrx xdef /uly xdef /ulx xdef /rad lry uly sub 2 div def
  newpath tMatrix currentmatrix pop ulx rad add uly rad add translate
  rad rad scale 0 0 1 90 270 arc tMatrix setmatrix lrx rad sub lry rad
  sub translate rad rad scale 0 0 1 270 90 arc tMatrix setmatrix
  closepath} bdef
/FlrRR {MlrRR stroke } bdef
/PlrRR {MlrRR fill } bdef
/MtbRR {/lry xdef /lrx xdef /uly xdef /ulx xdef /rad lrx ulx sub 2 div def
  newpath tMatrix currentmatrix pop ulx rad add uly rad add translate
  rad rad scale 0 0 1 180 360 arc tMatrix setmatrix lrx rad sub lry rad
  sub translate rad rad scale 0 0 1 0 180 arc tMatrix setmatrix
  closepath} bdef
/FtbRR {MtbRR stroke } bdef
/PtbRR {MtbRR fill } bdef
/stri 6 array def /dtri 6 array def
/smat 6 array def /dmat 6 array def
/tmat1 6 array def /tmat2 6 array def /dif 3 array def
/asub {/ind2 exch def /ind1 exch def dup dup
  ind1 get exch ind2 get sub exch } bdef
/tri_to_matrix {
  2 0 asub 3 1 asub 4 0 asub 5 1 asub
  dup 0 get exch 1 get 7 -1 roll astore } bdef
/compute_transform {
  dmat dtri tri_to_matrix tmat1 invertmatrix 
  smat stri tri_to_matrix tmat2 concatmatrix } bdef
/ds {stri astore pop} bdef
/dt {dtri astore pop} bdef
/db {2 copy /cols xdef /rows xdef mul dup 3 mul string
  currentfile 
  3 index 0 eq {/ASCIIHexDecode filter}
  {/ASCII85Decode filter 3 index 2 eq {/RunLengthDecode filter} if }
  ifelse exch readstring pop
  dup 0 3 index getinterval /rbmap xdef
  dup 2 index dup getinterval /gbmap xdef
  1 index dup 2 mul exch getinterval /bbmap xdef pop pop}bdef
/it {gs np dtri aload pop moveto lineto lineto cp c
  cols rows 8 compute_transform 
  rbmap gbmap bbmap true 3 colorimage gr}bdef
/il {newpath moveto lineto stroke}bdef
currentdict end def
%%EndProlog

%%BeginSetup
MathWorks begin

0 cap

end
%%EndSetup

%%Page: 1 1
%%BeginPageSetup
%%PageBoundingBox:   -27   151   639   640
MathWorks begin
bpage
%%EndPageSetup

%%BeginObject: obj1
bplot

/dpi2point 12 def
portraitMode -0324 7680 csm

    0     0  7992  5868 rc
85 dict begin %Colortable dictionary
/c0 { 0.000000 0.000000 0.000000 sr} bdef
/c1 { 1.000000 1.000000 1.000000 sr} bdef
/c2 { 0.900000 0.000000 0.000000 sr} bdef
/c3 { 0.000000 0.820000 0.000000 sr} bdef
/c4 { 0.000000 0.000000 0.800000 sr} bdef
/c5 { 0.910000 0.820000 0.320000 sr} bdef
/c6 { 1.000000 0.260000 0.820000 sr} bdef
/c7 { 0.000000 0.820000 0.820000 sr} bdef
c0
1 j
1 sg
   0    0 7993 5869 rf
6 w
0 4783 6194 0 0 -4783 1039 5223 4 MP
PP
-6194 0 0 4783 6194 0 0 -4783 1039 5223 5 MP stroke
4 w
DO
0 sg
1813 5223 mt 1813  440 L
1813  440 mt 1813  440 L
3361 5223 mt 3361  440 L
3361  440 mt 3361  440 L
4910 5223 mt 4910  440 L
4910  440 mt 4910  440 L
6458 5223 mt 6458  440 L
6458  440 mt 6458  440 L
1039 5223 mt 7233 5223 L
7233 5223 mt 7233 5223 L
1039 3628 mt 7233 3628 L
7233 3628 mt 7233 3628 L
1039 2034 mt 7233 2034 L
7233 2034 mt 7233 2034 L
1039  440 mt 7233  440 L
7233  440 mt 7233  440 L
SO
6 w
1039 5223 mt 7233 5223 L
1039  440 mt 7233  440 L
1039 5223 mt 1039  440 L
7233 5223 mt 7233  440 L
1039 5223 mt 7233 5223 L
1039 5223 mt 1039  440 L
1813 5223 mt 1813 5161 L
1813  440 mt 1813  501 L
%%IncludeResource: font Helvetica
/Helvetica /ISOLatin1Encoding 168 FMSR

1767 5413 mt 
(1) s
3361 5223 mt 3361 5161 L
3361  440 mt 3361  501 L
3315 5413 mt 
(2) s
4910 5223 mt 4910 5161 L
4910  440 mt 4910  501 L
4864 5413 mt 
(3) s
6458 5223 mt 6458 5161 L
6458  440 mt 6458  501 L
6412 5413 mt 
(4) s
1039 5223 mt 1100 5223 L
7233 5223 mt 7171 5223 L
 911 5285 mt 
(0) s
1039 3628 mt 1100 3628 L
7233 3628 mt 7171 3628 L
 771 3690 mt 
(0.5) s
1039 2034 mt 1100 2034 L
7233 2034 mt 7171 2034 L
 911 2096 mt 
(1) s
1039  440 mt 1100  440 L
7233  440 mt 7171  440 L
 771  502 mt 
(1.5) s
1039 5223 mt 7233 5223 L
1039  440 mt 7233  440 L
1039 5223 mt 1039  440 L
7233 5223 mt 7233  440 L
gs 1039 440 6195 4784 rc
/c8 { 0.000000 0.000000 0.562500 sr} bdef
c8
0 2636 225 0 0 -2636 1278 5223 4 MP
PP
0 sg
-225 0 0 2636 225 0 0 -2636 1278 5223 5 MP stroke
c8
0 2719 226 0 0 -2719 2826 5223 4 MP
PP
0 sg
-226 0 0 2719 226 0 0 -2719 2826 5223 5 MP stroke
c8
0 2119 225 0 0 -2119 4375 5223 4 MP
PP
0 sg
-225 0 0 2119 225 0 0 -2119 4375 5223 5 MP stroke
c8
0 2002 226 0 0 -2002 5923 5223 4 MP
PP
0 sg
-226 0 0 2002 226 0 0 -2002 5923 5223 5 MP stroke
6194 0 1039 5223 2 MP stroke
/c9 { 0.000000 0.875000 1.000000 sr} bdef
c9
0 2784 226 0 0 -2784 1559 5223 4 MP
PP
0 sg
-226 0 0 2784 226 0 0 -2784 1559 5223 5 MP stroke
c9
0 2795 225 0 0 -2795 3108 5223 4 MP
PP
0 sg
-225 0 0 2795 225 0 0 -2795 3108 5223 5 MP stroke
c9
0 2692 226 0 0 -2692 4656 5223 4 MP
PP
0 sg
-226 0 0 2692 226 0 0 -2692 4656 5223 5 MP stroke
c9
0 2673 225 0 0 -2673 6205 5223 4 MP
PP
0 sg
-225 0 0 2673 225 0 0 -2673 6205 5223 5 MP stroke
/c10 { 1.000000 0.812500 0.000000 sr} bdef
c10
0 1647 225 0 0 -1647 1841 5223 4 MP
PP
0 sg
-225 0 0 1647 225 0 0 -1647 1841 5223 5 MP stroke
c10
0 2388 226 0 0 -2388 3389 5223 4 MP
PP
0 sg
-226 0 0 2388 226 0 0 -2388 3389 5223 5 MP stroke
c10
0 2615 225 0 0 -2615 4938 5223 4 MP
PP
0 sg
-225 0 0 2615 225 0 0 -2615 4938 5223 5 MP stroke
c10
0 4434 226 0 0 -4434 6486 5223 4 MP
PP
0 sg
-226 0 0 4434 226 0 0 -4434 6486 5223 5 MP stroke
/c11 { 0.500000 0.000000 0.000000 sr} bdef
c11
0 2966 226 0 0 -2966 2122 5223 4 MP
PP
0 sg
-226 0 0 2966 226 0 0 -2966 2122 5223 5 MP stroke
c11
0 3248 225 0 0 -3248 3671 5223 4 MP
PP
0 sg
-225 0 0 3248 225 0 0 -3248 3671 5223 5 MP stroke
c11
0 2933 226 0 0 -2933 5219 5223 4 MP
PP
0 sg
-226 0 0 2933 226 0 0 -2933 5219 5223 5 MP stroke
c11
0 2351 225 0 0 -2351 6768 5223 4 MP
PP
0 sg
-225 0 0 2351 225 0 0 -2351 6768 5223 5 MP stroke
0 385 1390 2395 2 MP stroke
93 0 1344 2395 2 MP stroke
93 0 1344 2780 2 MP stroke
0 398 2939 2305 2 MP stroke
93 0 2892 2305 2 MP stroke
93 0 2892 2703 2 MP stroke
0 485 4487 2861 2 MP stroke
93 0 4441 2861 2 MP stroke
93 0 4441 3346 2 MP stroke
0 512 6036 2965 2 MP stroke
93 0 5989 2965 2 MP stroke
93 0 5989 3477 2 MP stroke
0 315 1672 2282 2 MP stroke
92 0 1626 2282 2 MP stroke
92 0 1626 2597 2 MP stroke
0 250 3220 2303 2 MP stroke
93 0 3174 2303 2 MP stroke
93 0 3174 2553 2 MP stroke
0 300 4769 2381 2 MP stroke
92 0 4723 2381 2 MP stroke
92 0 4723 2681 2 MP stroke
0 272 6317 2414 2 MP stroke
93 0 6271 2414 2 MP stroke
93 0 6271 2686 2 MP stroke
0 67 1954 3543 2 MP stroke
93 0 1907 3543 2 MP stroke
93 0 1907 3610 2 MP stroke
0 189 3502 2740 2 MP stroke
92 0 3456 2740 2 MP stroke
92 0 3456 2929 2 MP stroke
0 265 5051 2475 2 MP stroke
93 0 5004 2475 2 MP stroke
93 0 5004 2740 2 MP stroke
0 481 6599 549 2 MP stroke
92 0 6553 549 2 MP stroke
92 0 6553 1030 2 MP stroke
0 1019 2235 1747 2 MP stroke
93 0 2189 1747 2 MP stroke
93 0 2189 2766 2 MP stroke
0 1187 3784 1381 2 MP stroke
93 0 3737 1381 2 MP stroke
93 0 3737 2568 2 MP stroke
0 1102 5332 1739 2 MP stroke
93 0 5286 1739 2 MP stroke
93 0 5286 2841 2 MP stroke
0 950 6881 2397 2 MP stroke
93 0 6834 2397 2 MP stroke
93 0 6834 3347 2 MP stroke
gr

%%IncludeResource: font Helvetica
/Helvetica /ISOLatin1Encoding 240 FMSR

3498 5644 mt 
(User [index]) s
 662 4341 mt  -90 rotate
(Avg. Throughput \(10e5[bps]\)) s
90 rotate
%%IncludeResource: font Helvetica
/Helvetica /ISOLatin1Encoding 120 FMSR

1022 5266 mt 
( ) s
7217  482 mt 
( ) s
1 sg
0 977 3597 0 0 -977 1083 1164 4 MP
PP
-3597 0 0 977 3597 0 0 -977 1083 1164 5 MP stroke
4 w
DO
SO
6 w
0 sg
1083 1164 mt 4680 1164 L
1083  187 mt 4680  187 L
1083 1164 mt 1083  187 L
4680 1164 mt 4680  187 L
1083 1164 mt 4680 1164 L
1083 1164 mt 1083  187 L
1083 1164 mt 4680 1164 L
1083  187 mt 4680  187 L
1083 1164 mt 1083  187 L
4680 1164 mt 4680  187 L
%%IncludeResource: font Helvetica
/Helvetica /ISOLatin1Encoding 168 FMSR

1551  385 mt 
(Blockwise and Rate Adapting) s
gs 1083 187 3598 978 rc
c8
-360 0 0 176 360 0 0 -176 1154 412 5 MP
PP
0 sg
0 0 -360 0 0 176 360 0 0 -176 1154 412 6 MP stroke
gr

1551  619 mt 
(Max-Min Throughput and Rate Adapting) s
gs 1083 187 3598 978 rc
c9
-360 0 0 176 360 0 0 -176 1154 646 5 MP
PP
0 sg
0 0 -360 0 0 176 360 0 0 -176 1154 646 6 MP stroke
gr

1551  853 mt 
(Cross-layer with max-min weighted Q) s
gs 1083 187 3598 978 rc
c10
-360 0 0 176 360 0 0 -176 1154 880 5 MP
PP
0 sg
0 0 -360 0 0 176 360 0 0 -176 1154 880 6 MP stroke
gr

1551 1087 mt 
(PF and Rate Adapting) s
gs 1083 187 3598 978 rc
c11
-360 0 0 176 360 0 0 -176 1154 1114 5 MP
PP
0 sg
0 0 -360 0 0 176 360 0 0 -176 1154 1114 6 MP stroke
gr


end %%Color Dict

eplot
%%EndObject

epage
end

showpage

%%Trailer
%%EOF
