%!PS-Adobe-3.0 EPSF-3.0
%%Creator: MATLAB, The MathWorks, Inc. Version 8.1.0.604 (R2013a). Operating System: Darwin 14.1.0 Darwin Kernel Version 14.1.0: Thu Feb 26 19:26:47 PST 2015; root:xnu-2782.10.73~1/RELEASE_X86_64 x86_64.
%%Title: /Users/le/Work/3.Projects/project3/Figures/Results/March_2015/PSNR_sequence_U2Run3.eps
%%CreationDate: 03/23/2015  19:54:09
%%DocumentNeededFonts: Helvetica
%%DocumentProcessColors: Cyan Magenta Yellow Black
%%LanguageLevel: 2
%%Pages: 1
%%BoundingBox:   -48   170   660   620
%%EndComments

%%BeginProlog
% MathWorks dictionary
/MathWorks 160 dict begin
% definition operators
/bdef {bind def} bind def
/ldef {load def} bind def
/xdef {exch def} bdef
/xstore {exch store} bdef
% operator abbreviations
/c  /clip ldef
/cc /concat ldef
/cp /closepath ldef
/gr /grestore ldef
/gs /gsave ldef
/mt /moveto ldef
/np /newpath ldef
/cm /currentmatrix ldef
/sm /setmatrix ldef
/rm /rmoveto ldef
/rl /rlineto ldef
/s {show newpath} bdef
/sc {setcmykcolor} bdef
/sr /setrgbcolor ldef
/sg /setgray ldef
/w /setlinewidth ldef
/j /setlinejoin ldef
/cap /setlinecap ldef
/rc {rectclip} bdef
/rf {rectfill} bdef
% page state control
/pgsv () def
/bpage {/pgsv save def} bdef
/epage {pgsv restore} bdef
/bplot /gsave ldef
/eplot {stroke grestore} bdef
% orientation switch
/portraitMode 0 def /landscapeMode 1 def /rotateMode 2 def
% coordinate system mappings
/dpi2point 0 def
% font control
/FontSize 0 def
/FMS {/FontSize xstore findfont [FontSize 0 0 FontSize neg 0 0]
  makefont setfont} bdef
/reencode {exch dup where {pop load} {pop StandardEncoding} ifelse
  exch dup 3 1 roll findfont dup length dict begin
  { 1 index /FID ne {def}{pop pop} ifelse } forall
  /Encoding exch def currentdict end definefont pop} bdef
/isroman {findfont /CharStrings get /Agrave known} bdef
/FMSR {3 1 roll 1 index dup isroman {reencode} {pop pop} ifelse
  exch FMS} bdef
/csm {1 dpi2point div -1 dpi2point div scale neg translate
 dup landscapeMode eq {pop -90 rotate}
  {rotateMode eq {90 rotate} if} ifelse} bdef
% line types: solid, dotted, dashed, dotdash
/SO { [] 0 setdash } bdef
/DO { [.5 dpi2point mul 4 dpi2point mul] 0 setdash } bdef
/DA { [6 dpi2point mul] 0 setdash } bdef
/DD { [.5 dpi2point mul 4 dpi2point mul 6 dpi2point mul 4
  dpi2point mul] 0 setdash } bdef
% macros for lines and objects
/L {lineto stroke} bdef
/MP {3 1 roll moveto 1 sub {rlineto} repeat} bdef
/AP {{rlineto} repeat} bdef
/PDlw -1 def
/W {/PDlw currentlinewidth def setlinewidth} def
/PP {closepath eofill} bdef
/DP {closepath stroke} bdef
/MR {4 -2 roll moveto dup  0 exch rlineto exch 0 rlineto
  neg 0 exch rlineto closepath} bdef
/FR {MR stroke} bdef
/PR {MR fill} bdef
/L1i {{currentfile picstr readhexstring pop} image} bdef
/tMatrix matrix def
/MakeOval {newpath tMatrix currentmatrix pop translate scale
0 0 1 0 360 arc tMatrix setmatrix} bdef
/FO {MakeOval stroke} bdef
/PO {MakeOval fill} bdef
/PD {currentlinewidth 2 div 0 360 arc fill
   PDlw -1 eq not {PDlw w /PDlw -1 def} if} def
/FA {newpath tMatrix currentmatrix pop translate scale
  0 0 1 5 -2 roll arc tMatrix setmatrix stroke} bdef
/PA {newpath tMatrix currentmatrix pop	translate 0 0 moveto scale
  0 0 1 5 -2 roll arc closepath tMatrix setmatrix fill} bdef
/FAn {newpath tMatrix currentmatrix pop translate scale
  0 0 1 5 -2 roll arcn tMatrix setmatrix stroke} bdef
/PAn {newpath tMatrix currentmatrix pop translate 0 0 moveto scale
  0 0 1 5 -2 roll arcn closepath tMatrix setmatrix fill} bdef
/vradius 0 def /hradius 0 def /lry 0 def
/lrx 0 def /uly 0 def /ulx 0 def /rad 0 def
/MRR {/vradius xdef /hradius xdef /lry xdef /lrx xdef /uly xdef
  /ulx xdef newpath tMatrix currentmatrix pop ulx hradius add uly
  vradius add translate hradius vradius scale 0 0 1 180 270 arc 
  tMatrix setmatrix lrx hradius sub uly vradius add translate
  hradius vradius scale 0 0 1 270 360 arc tMatrix setmatrix
  lrx hradius sub lry vradius sub translate hradius vradius scale
  0 0 1 0 90 arc tMatrix setmatrix ulx hradius add lry vradius sub
  translate hradius vradius scale 0 0 1 90 180 arc tMatrix setmatrix
  closepath} bdef
/FRR {MRR stroke } bdef
/PRR {MRR fill } bdef
/MlrRR {/lry xdef /lrx xdef /uly xdef /ulx xdef /rad lry uly sub 2 div def
  newpath tMatrix currentmatrix pop ulx rad add uly rad add translate
  rad rad scale 0 0 1 90 270 arc tMatrix setmatrix lrx rad sub lry rad
  sub translate rad rad scale 0 0 1 270 90 arc tMatrix setmatrix
  closepath} bdef
/FlrRR {MlrRR stroke } bdef
/PlrRR {MlrRR fill } bdef
/MtbRR {/lry xdef /lrx xdef /uly xdef /ulx xdef /rad lrx ulx sub 2 div def
  newpath tMatrix currentmatrix pop ulx rad add uly rad add translate
  rad rad scale 0 0 1 180 360 arc tMatrix setmatrix lrx rad sub lry rad
  sub translate rad rad scale 0 0 1 0 180 arc tMatrix setmatrix
  closepath} bdef
/FtbRR {MtbRR stroke } bdef
/PtbRR {MtbRR fill } bdef
/stri 6 array def /dtri 6 array def
/smat 6 array def /dmat 6 array def
/tmat1 6 array def /tmat2 6 array def /dif 3 array def
/asub {/ind2 exch def /ind1 exch def dup dup
  ind1 get exch ind2 get sub exch } bdef
/tri_to_matrix {
  2 0 asub 3 1 asub 4 0 asub 5 1 asub
  dup 0 get exch 1 get 7 -1 roll astore } bdef
/compute_transform {
  dmat dtri tri_to_matrix tmat1 invertmatrix 
  smat stri tri_to_matrix tmat2 concatmatrix } bdef
/ds {stri astore pop} bdef
/dt {dtri astore pop} bdef
/db {2 copy /cols xdef /rows xdef mul dup 3 mul string
  currentfile 
  3 index 0 eq {/ASCIIHexDecode filter}
  {/ASCII85Decode filter 3 index 2 eq {/RunLengthDecode filter} if }
  ifelse exch readstring pop
  dup 0 3 index getinterval /rbmap xdef
  dup 2 index dup getinterval /gbmap xdef
  1 index dup 2 mul exch getinterval /bbmap xdef pop pop}bdef
/it {gs np dtri aload pop moveto lineto lineto cp c
  cols rows 8 compute_transform 
  rbmap gbmap bbmap true 3 colorimage gr}bdef
/il {newpath moveto lineto stroke}bdef
currentdict end def
%%EndProlog

%%BeginSetup
MathWorks begin

0 cap

end
%%EndSetup

%%Page: 1 1
%%BeginPageSetup
%%PageBoundingBox:   -48   170   660   620
MathWorks begin
bpage
%%EndPageSetup

%%BeginObject: obj1
bplot

/dpi2point 12 def
portraitMode -0576 7440 csm

    0     0  8496  5400 rc
85 dict begin %Colortable dictionary
/c0 { 0.000000 0.000000 0.000000 sr} bdef
/c1 { 1.000000 1.000000 1.000000 sr} bdef
/c2 { 0.900000 0.000000 0.000000 sr} bdef
/c3 { 0.000000 0.820000 0.000000 sr} bdef
/c4 { 0.000000 0.000000 0.800000 sr} bdef
/c5 { 0.910000 0.820000 0.320000 sr} bdef
/c6 { 1.000000 0.260000 0.820000 sr} bdef
/c7 { 0.000000 0.820000 0.820000 sr} bdef
c0
1 j
1 sg
   0    0 8497 5401 rf
6 w
0 4401 6585 0 0 -4401 1104 4806 4 MP
PP
-6585 0 0 4401 6585 0 0 -4401 1104 4806 5 MP stroke
4 w
DO
0 sg
1104 4806 mt 1104  405 L
1104  405 mt 1104  405 L
2201 4806 mt 2201  405 L
2201  405 mt 2201  405 L
3299 4806 mt 3299  405 L
3299  405 mt 3299  405 L
4396 4806 mt 4396  405 L
4396  405 mt 4396  405 L
5494 4806 mt 5494  405 L
5494  405 mt 5494  405 L
6591 4806 mt 6591  405 L
6591  405 mt 6591  405 L
7689 4806 mt 7689  405 L
7689  405 mt 7689  405 L
1104 4806 mt 7689 4806 L
7689 4806 mt 7689 4806 L
1104 4072 mt 7689 4072 L
7689 4072 mt 7689 4072 L
1104 3339 mt 7689 3339 L
7689 3339 mt 7689 3339 L
1104 2605 mt 7689 2605 L
7689 2605 mt 7689 2605 L
1104 1872 mt 7689 1872 L
7689 1872 mt 7689 1872 L
1104 1138 mt 7689 1138 L
7689 1138 mt 7689 1138 L
1104  405 mt 7689  405 L
7689  405 mt 7689  405 L
SO
6 w
1104 4806 mt 7689 4806 L
1104  405 mt 7689  405 L
1104 4806 mt 1104  405 L
7689 4806 mt 7689  405 L
1104 4806 mt 7689 4806 L
1104 4806 mt 1104  405 L
1104 4806 mt 1104 4740 L
1104  405 mt 1104  470 L
%%IncludeResource: font Helvetica
/Helvetica /ISOLatin1Encoding 192 FMSR

1051 5018 mt 
(0) s
2201 4806 mt 2201 4740 L
2201  405 mt 2201  470 L
2148 5018 mt 
(5) s
3299 4806 mt 3299 4740 L
3299  405 mt 3299  470 L
3193 5018 mt 
(10) s
4396 4806 mt 4396 4740 L
4396  405 mt 4396  470 L
4290 5018 mt 
(15) s
5494 4806 mt 5494 4740 L
5494  405 mt 5494  470 L
5388 5018 mt 
(20) s
6591 4806 mt 6591 4740 L
6591  405 mt 6591  470 L
6485 5018 mt 
(25) s
7689 4806 mt 7689 4740 L
7689  405 mt 7689  470 L
7583 5018 mt 
(30) s
1104 4806 mt 1169 4806 L
7689 4806 mt 7623 4806 L
 963 4877 mt 
(5) s
1104 4072 mt 1169 4072 L
7689 4072 mt 7623 4072 L
 856 4143 mt 
(10) s
1104 3339 mt 1169 3339 L
7689 3339 mt 7623 3339 L
 856 3410 mt 
(15) s
1104 2605 mt 1169 2605 L
7689 2605 mt 7623 2605 L
 856 2676 mt 
(20) s
1104 1872 mt 1169 1872 L
7689 1872 mt 7623 1872 L
 856 1943 mt 
(25) s
1104 1138 mt 1169 1138 L
7689 1138 mt 7623 1138 L
 856 1209 mt 
(30) s
1104  405 mt 1169  405 L
7689  405 mt 7623  405 L
 856  476 mt 
(35) s
1104 4806 mt 7689 4806 L
1104  405 mt 7689  405 L
1104 4806 mt 1104  405 L
7689 4806 mt 7689  405 L
gs 1104 405 6586 4402 rc
24 w
/c8 { 0.000000 0.000000 1.000000 sr} bdef
c8
220 -9 219 88 220 40 219 -147 220 587 219 -118 220 284 219 -173 
220 -130 219 -25 220 287 219 112 220 -336 219 47 220 729 219 140 
220 -44 219 -161 220 22 219 -1338 220 23 219 184 220 -242 219 -92 
220 580 219 64 220 372 219 -50 220 -104 1323 2042 30 MP stroke
DA
/c9 { 0.000000 0.500000 0.000000 sr} bdef
c9
220 -93 219 78 220 70 219 -41 220 412 219 142 220 -78 219 96 
220 -56 219 40 220 125 219 -117 220 -76 219 130 220 518 219 62 
220 -44 219 168 220 -52 219 -1377 220 148 219 -77 220 -55 219 32 
220 486 219 -23 220 99 219 -20 220 71 1323 1900 30 MP stroke
DO
/c10 { 1.000000 0.000000 0.000000 sr} bdef
c10
220 -221 219 91 220 71 219 -398 220 272 219 129 220 -58 219 13 
220 76 219 -93 220 35 219 -53 220 45 219 169 220 -160 219 -24 
220 -75 219 50 220 870 219 -848 220 -46 219 83 220 7 219 -623 
220 495 219 112 220 -61 219 -156 220 197 1323 1958 30 MP stroke
DD
/c11 { 0.000000 0.750000 0.750000 sr} bdef
c11
220 -46 219 0 220 46 219 -461 220 632 219 454 220 364 219 -727 
220 757 219 580 220 -477 219 -482 220 1251 219 -811 220 582 219 -628 
220 -613 219 1377 220 367 219 -1615 220 -711 219 -346 220 346 219 322 
220 706 219 31 220 -727 219 424 220 720 1323 2335 30 MP stroke
gr

24 w
c11
DD
0 sg
3875 5214 mt 
(GOP [index]) s
 758 3070 mt  -90 rotate
(PSNR [dB]) s
90 rotate
3820  253 mt 
(Run 3, user 2) s
%%IncludeResource: font Helvetica
/Helvetica /ISOLatin1Encoding 120 FMSR

1087 4849 mt 
( ) s
7673  447 mt 
( ) s
SO
6 w
1 sg
0 1074 3791 0 0 -1074 4632 1482 4 MP
PP
-3791 0 0 1074 3791 0 0 -1074 4632 1482 5 MP stroke
4 w
DO
SO
6 w
0 sg
4632 1482 mt 8423 1482 L
4632  408 mt 8423  408 L
4632 1482 mt 4632  408 L
8423 1482 mt 8423  408 L
4632 1482 mt 8423 1482 L
4632 1482 mt 4632  408 L
4632 1482 mt 8423 1482 L
4632  408 mt 8423  408 L
4632 1482 mt 4632  408 L
8423 1482 mt 8423  408 L
%%IncludeResource: font Helvetica
/Helvetica /ISOLatin1Encoding 192 FMSR

5106  626 mt 
(Blockwise + Rate Adapting) s
gs 4632 408 3792 1075 rc
24 w
c8
365 0 4704 558 2 MP stroke
gr

24 w
c8
0 sg
5106  884 mt 
(Max-min throughput + Rate Adapting) s
gs 4632 408 3792 1075 rc
DA
c9
365 0 4704 816 2 MP stroke
SO
gr

c9
0 sg
5106 1143 mt 
(Cross-layer max-min weighted quality) s
gs 4632 408 3792 1075 rc
DO
c10
365 0 4704 1073 2 MP stroke
SO
gr

c10
0 sg
5106 1401 mt 
(PF + Rate Adapting) s
gs 4632 408 3792 1075 rc
DD
c11
365 0 4704 1331 2 MP stroke
SO
6 w
gr

6 w
c11

end %%Color Dict

eplot
%%EndObject

epage
end

showpage

%%Trailer
%%EOF
