%!PS-Adobe-3.0 EPSF-3.0
%%Creator: MATLAB, The MathWorks, Inc. Version 8.1.0.604 (R2013a). Operating System: Darwin 14.1.0 Darwin Kernel Version 14.1.0: Thu Feb 26 19:26:47 PST 2015; root:xnu-2782.10.73~1/RELEASE_X86_64 x86_64.
%%Title: /Users/le/Work/3.Projects/project3/Figures/Results/March_2015/PSNR_sequence_Run3.eps
%%CreationDate: 03/23/2015  19:47:39
%%DocumentNeededFonts: Helvetica
%%DocumentProcessColors: Cyan Magenta Yellow Black
%%LanguageLevel: 2
%%Pages: 1
%%BoundingBox:   -48   170   660   620
%%EndComments

%%BeginProlog
% MathWorks dictionary
/MathWorks 160 dict begin
% definition operators
/bdef {bind def} bind def
/ldef {load def} bind def
/xdef {exch def} bdef
/xstore {exch store} bdef
% operator abbreviations
/c  /clip ldef
/cc /concat ldef
/cp /closepath ldef
/gr /grestore ldef
/gs /gsave ldef
/mt /moveto ldef
/np /newpath ldef
/cm /currentmatrix ldef
/sm /setmatrix ldef
/rm /rmoveto ldef
/rl /rlineto ldef
/s {show newpath} bdef
/sc {setcmykcolor} bdef
/sr /setrgbcolor ldef
/sg /setgray ldef
/w /setlinewidth ldef
/j /setlinejoin ldef
/cap /setlinecap ldef
/rc {rectclip} bdef
/rf {rectfill} bdef
% page state control
/pgsv () def
/bpage {/pgsv save def} bdef
/epage {pgsv restore} bdef
/bplot /gsave ldef
/eplot {stroke grestore} bdef
% orientation switch
/portraitMode 0 def /landscapeMode 1 def /rotateMode 2 def
% coordinate system mappings
/dpi2point 0 def
% font control
/FontSize 0 def
/FMS {/FontSize xstore findfont [FontSize 0 0 FontSize neg 0 0]
  makefont setfont} bdef
/reencode {exch dup where {pop load} {pop StandardEncoding} ifelse
  exch dup 3 1 roll findfont dup length dict begin
  { 1 index /FID ne {def}{pop pop} ifelse } forall
  /Encoding exch def currentdict end definefont pop} bdef
/isroman {findfont /CharStrings get /Agrave known} bdef
/FMSR {3 1 roll 1 index dup isroman {reencode} {pop pop} ifelse
  exch FMS} bdef
/csm {1 dpi2point div -1 dpi2point div scale neg translate
 dup landscapeMode eq {pop -90 rotate}
  {rotateMode eq {90 rotate} if} ifelse} bdef
% line types: solid, dotted, dashed, dotdash
/SO { [] 0 setdash } bdef
/DO { [.5 dpi2point mul 4 dpi2point mul] 0 setdash } bdef
/DA { [6 dpi2point mul] 0 setdash } bdef
/DD { [.5 dpi2point mul 4 dpi2point mul 6 dpi2point mul 4
  dpi2point mul] 0 setdash } bdef
% macros for lines and objects
/L {lineto stroke} bdef
/MP {3 1 roll moveto 1 sub {rlineto} repeat} bdef
/AP {{rlineto} repeat} bdef
/PDlw -1 def
/W {/PDlw currentlinewidth def setlinewidth} def
/PP {closepath eofill} bdef
/DP {closepath stroke} bdef
/MR {4 -2 roll moveto dup  0 exch rlineto exch 0 rlineto
  neg 0 exch rlineto closepath} bdef
/FR {MR stroke} bdef
/PR {MR fill} bdef
/L1i {{currentfile picstr readhexstring pop} image} bdef
/tMatrix matrix def
/MakeOval {newpath tMatrix currentmatrix pop translate scale
0 0 1 0 360 arc tMatrix setmatrix} bdef
/FO {MakeOval stroke} bdef
/PO {MakeOval fill} bdef
/PD {currentlinewidth 2 div 0 360 arc fill
   PDlw -1 eq not {PDlw w /PDlw -1 def} if} def
/FA {newpath tMatrix currentmatrix pop translate scale
  0 0 1 5 -2 roll arc tMatrix setmatrix stroke} bdef
/PA {newpath tMatrix currentmatrix pop	translate 0 0 moveto scale
  0 0 1 5 -2 roll arc closepath tMatrix setmatrix fill} bdef
/FAn {newpath tMatrix currentmatrix pop translate scale
  0 0 1 5 -2 roll arcn tMatrix setmatrix stroke} bdef
/PAn {newpath tMatrix currentmatrix pop translate 0 0 moveto scale
  0 0 1 5 -2 roll arcn closepath tMatrix setmatrix fill} bdef
/vradius 0 def /hradius 0 def /lry 0 def
/lrx 0 def /uly 0 def /ulx 0 def /rad 0 def
/MRR {/vradius xdef /hradius xdef /lry xdef /lrx xdef /uly xdef
  /ulx xdef newpath tMatrix currentmatrix pop ulx hradius add uly
  vradius add translate hradius vradius scale 0 0 1 180 270 arc 
  tMatrix setmatrix lrx hradius sub uly vradius add translate
  hradius vradius scale 0 0 1 270 360 arc tMatrix setmatrix
  lrx hradius sub lry vradius sub translate hradius vradius scale
  0 0 1 0 90 arc tMatrix setmatrix ulx hradius add lry vradius sub
  translate hradius vradius scale 0 0 1 90 180 arc tMatrix setmatrix
  closepath} bdef
/FRR {MRR stroke } bdef
/PRR {MRR fill } bdef
/MlrRR {/lry xdef /lrx xdef /uly xdef /ulx xdef /rad lry uly sub 2 div def
  newpath tMatrix currentmatrix pop ulx rad add uly rad add translate
  rad rad scale 0 0 1 90 270 arc tMatrix setmatrix lrx rad sub lry rad
  sub translate rad rad scale 0 0 1 270 90 arc tMatrix setmatrix
  closepath} bdef
/FlrRR {MlrRR stroke } bdef
/PlrRR {MlrRR fill } bdef
/MtbRR {/lry xdef /lrx xdef /uly xdef /ulx xdef /rad lrx ulx sub 2 div def
  newpath tMatrix currentmatrix pop ulx rad add uly rad add translate
  rad rad scale 0 0 1 180 360 arc tMatrix setmatrix lrx rad sub lry rad
  sub translate rad rad scale 0 0 1 0 180 arc tMatrix setmatrix
  closepath} bdef
/FtbRR {MtbRR stroke } bdef
/PtbRR {MtbRR fill } bdef
/stri 6 array def /dtri 6 array def
/smat 6 array def /dmat 6 array def
/tmat1 6 array def /tmat2 6 array def /dif 3 array def
/asub {/ind2 exch def /ind1 exch def dup dup
  ind1 get exch ind2 get sub exch } bdef
/tri_to_matrix {
  2 0 asub 3 1 asub 4 0 asub 5 1 asub
  dup 0 get exch 1 get 7 -1 roll astore } bdef
/compute_transform {
  dmat dtri tri_to_matrix tmat1 invertmatrix 
  smat stri tri_to_matrix tmat2 concatmatrix } bdef
/ds {stri astore pop} bdef
/dt {dtri astore pop} bdef
/db {2 copy /cols xdef /rows xdef mul dup 3 mul string
  currentfile 
  3 index 0 eq {/ASCIIHexDecode filter}
  {/ASCII85Decode filter 3 index 2 eq {/RunLengthDecode filter} if }
  ifelse exch readstring pop
  dup 0 3 index getinterval /rbmap xdef
  dup 2 index dup getinterval /gbmap xdef
  1 index dup 2 mul exch getinterval /bbmap xdef pop pop}bdef
/it {gs np dtri aload pop moveto lineto lineto cp c
  cols rows 8 compute_transform 
  rbmap gbmap bbmap true 3 colorimage gr}bdef
/il {newpath moveto lineto stroke}bdef
currentdict end def
%%EndProlog

%%BeginSetup
MathWorks begin

0 cap

end
%%EndSetup

%%Page: 1 1
%%BeginPageSetup
%%PageBoundingBox:   -48   170   660   620
MathWorks begin
bpage
%%EndPageSetup

%%BeginObject: obj1
bplot

/dpi2point 12 def
portraitMode -0576 7440 csm

    0     0  8496  5400 rc
85 dict begin %Colortable dictionary
/c0 { 0.000000 0.000000 0.000000 sr} bdef
/c1 { 1.000000 1.000000 1.000000 sr} bdef
/c2 { 0.900000 0.000000 0.000000 sr} bdef
/c3 { 0.000000 0.820000 0.000000 sr} bdef
/c4 { 0.000000 0.000000 0.800000 sr} bdef
/c5 { 0.910000 0.820000 0.320000 sr} bdef
/c6 { 1.000000 0.260000 0.820000 sr} bdef
/c7 { 0.000000 0.820000 0.820000 sr} bdef
c0
1 j
1 sg
   0    0 8497 5401 rf
6 w
0 4401 6585 0 0 -4401 1104 4806 4 MP
PP
-6585 0 0 4401 6585 0 0 -4401 1104 4806 5 MP stroke
4 w
DO
0 sg
1104 4806 mt 1104  405 L
1104  405 mt 1104  405 L
2201 4806 mt 2201  405 L
2201  405 mt 2201  405 L
3299 4806 mt 3299  405 L
3299  405 mt 3299  405 L
4396 4806 mt 4396  405 L
4396  405 mt 4396  405 L
5494 4806 mt 5494  405 L
5494  405 mt 5494  405 L
6591 4806 mt 6591  405 L
6591  405 mt 6591  405 L
7689 4806 mt 7689  405 L
7689  405 mt 7689  405 L
1104 4806 mt 7689 4806 L
7689 4806 mt 7689 4806 L
1104 4255 mt 7689 4255 L
7689 4255 mt 7689 4255 L
1104 3705 mt 7689 3705 L
7689 3705 mt 7689 3705 L
1104 3155 mt 7689 3155 L
7689 3155 mt 7689 3155 L
1104 2605 mt 7689 2605 L
7689 2605 mt 7689 2605 L
1104 2055 mt 7689 2055 L
7689 2055 mt 7689 2055 L
1104 1505 mt 7689 1505 L
7689 1505 mt 7689 1505 L
1104  955 mt 7689  955 L
7689  955 mt 7689  955 L
1104  405 mt 7689  405 L
7689  405 mt 7689  405 L
SO
6 w
1104 4806 mt 7689 4806 L
1104  405 mt 7689  405 L
1104 4806 mt 1104  405 L
7689 4806 mt 7689  405 L
1104 4806 mt 7689 4806 L
1104 4806 mt 1104  405 L
1104 4806 mt 1104 4740 L
1104  405 mt 1104  470 L
%%IncludeResource: font Helvetica
/Helvetica /ISOLatin1Encoding 168 FMSR

1058 4996 mt 
(0) s
2201 4806 mt 2201 4740 L
2201  405 mt 2201  470 L
2155 4996 mt 
(5) s
3299 4806 mt 3299 4740 L
3299  405 mt 3299  470 L
3206 4996 mt 
(10) s
4396 4806 mt 4396 4740 L
4396  405 mt 4396  470 L
4303 4996 mt 
(15) s
5494 4806 mt 5494 4740 L
5494  405 mt 5494  470 L
5401 4996 mt 
(20) s
6591 4806 mt 6591 4740 L
6591  405 mt 6591  470 L
6498 4996 mt 
(25) s
7689 4806 mt 7689 4740 L
7689  405 mt 7689  470 L
7596 4996 mt 
(30) s
1104 4806 mt 1169 4806 L
7689 4806 mt 7623 4806 L
 883 4868 mt 
(16) s
1104 4255 mt 1169 4255 L
7689 4255 mt 7623 4255 L
 883 4317 mt 
(18) s
1104 3705 mt 1169 3705 L
7689 3705 mt 7623 3705 L
 883 3767 mt 
(20) s
1104 3155 mt 1169 3155 L
7689 3155 mt 7623 3155 L
 883 3217 mt 
(22) s
1104 2605 mt 1169 2605 L
7689 2605 mt 7623 2605 L
 883 2667 mt 
(24) s
1104 2055 mt 1169 2055 L
7689 2055 mt 7623 2055 L
 883 2117 mt 
(26) s
1104 1505 mt 1169 1505 L
7689 1505 mt 7623 1505 L
 883 1567 mt 
(28) s
1104  955 mt 1169  955 L
7689  955 mt 7623  955 L
 883 1017 mt 
(30) s
1104  405 mt 1169  405 L
7689  405 mt 7623  405 L
 883  467 mt 
(32) s
1104 4806 mt 7689 4806 L
1104  405 mt 7689  405 L
1104 4806 mt 1104  405 L
7689 4806 mt 7689  405 L
gs 1104 405 6586 4402 rc
24 w
/c8 { 0.000000 0.000000 1.000000 sr} bdef
c8
220 243 219 -319 220 120 219 83 220 230 219 -109 220 -332 219 265 
220 -308 219 1430 220 393 219 -103 220 -180 219 225 220 -2540 219 -97 
220 -106 219 54 220 -321 219 1430 220 42 219 203 220 -189 219 -412 
220 770 219 -56 220 -235 219 -183 220 298 1323 2426 30 MP stroke
DA
/c9 { 0.000000 0.500000 0.000000 sr} bdef
c9
220 -47 219 82 220 159 219 -171 220 -151 219 417 220 -157 219 157 
220 -116 219 1124 220 115 219 54 220 -230 219 120 220 -2493 219 -138 
220 93 219 282 220 -139 219 1062 220 88 219 -111 220 0 219 -71 
220 271 219 -68 220 205 219 -111 220 100 1323 2070 30 MP stroke
DO
/c10 { 1.000000 0.000000 0.000000 sr} bdef
c10
220 -361 219 154 220 101 219 304 220 -485 219 206 220 -32 219 -16 
220 490 219 -457 220 0 219 0 220 43 219 1510 220 -1571 219 -39 
220 -13 219 132 220 -901 219 701 220 -69 219 56 220 -42 219 365 
220 -344 219 155 220 -137 219 -707 220 1329 1323 1989 30 MP stroke
DD
/c11 { 0.749020 0.749020 0.000000 sr} bdef
c11
220 132 219 -473 220 220 219 232 220 415 219 -556 220 356 219 -62 
220 -203 219 1482 220 -1230 219 791 220 -71 219 780 220 -3793 219 900 
220 192 219 -371 220 122 219 1078 220 466 219 -478 220 224 219 128 
220 -81 219 -1001 220 1174 219 -200 220 414 1323 1809 30 MP stroke
gr

24 w
c11
DD
0 sg
%%IncludeResource: font Helvetica
/Helvetica /ISOLatin1Encoding 192 FMSR

3875 5192 mt 
(GOP [index]) s
 785 3070 mt  -90 rotate
(PSNR [dB]) s
90 rotate
%%IncludeResource: font Helvetica
/Helvetica /ISOLatin1Encoding 120 FMSR

1087 4849 mt 
( ) s
7673  447 mt 
( ) s
SO
6 w
1 sg
0 978 3406 0 0 -978 4681 4566 4 MP
PP
-3406 0 0 978 3406 0 0 -978 4681 4566 5 MP stroke
4 w
DO
SO
6 w
0 sg
4681 4566 mt 8087 4566 L
4681 3588 mt 8087 3588 L
4681 4566 mt 4681 3588 L
8087 4566 mt 8087 3588 L
4681 4566 mt 8087 4566 L
4681 4566 mt 4681 3588 L
4681 4566 mt 8087 4566 L
4681 3588 mt 8087 3588 L
4681 4566 mt 4681 3588 L
8087 4566 mt 8087 3588 L
%%IncludeResource: font Helvetica
/Helvetica /ISOLatin1Encoding 168 FMSR

5149 3786 mt 
(Blockwise + Rate Adapting) s
gs 4681 3588 3407 979 rc
24 w
c8
360 0 4753 3726 2 MP stroke
gr

24 w
c8
0 sg
5149 4020 mt 
(Max-Min Throughput + Rate Adapting) s
gs 4681 3588 3407 979 rc
DA
c9
360 0 4753 3960 2 MP stroke
SO
gr

c9
0 sg
5149 4255 mt 
(Cross layer max-min weighted quality) s
gs 4681 3588 3407 979 rc
DO
c10
360 0 4753 4193 2 MP stroke
SO
gr

c10
0 sg
5149 4489 mt 
(PF and Rate Adapting) s
gs 4681 3588 3407 979 rc
DD
c11
360 0 4753 4427 2 MP stroke
SO
6 w
gr

6 w
c11

end %%Color Dict

eplot
%%EndObject

epage
end

showpage

%%Trailer
%%EOF
