%!PS-Adobe-3.0 EPSF-3.0
%%Creator: MATLAB, The MathWorks, Inc. Version 8.1.0.604 (R2013a). Operating System: Darwin 14.1.0 Darwin Kernel Version 14.1.0: Thu Feb 26 19:26:47 PST 2015; root:xnu-2782.10.73~1/RELEASE_X86_64 x86_64.
%%Title: /Users/le/Work/3.Projects/project3/Figures/Illustrations/DR.eps
%%CreationDate: 03/30/2015  16:26:54
%%DocumentNeededFonts: Helvetica
%%DocumentProcessColors: Cyan Magenta Yellow Black
%%LanguageLevel: 2
%%Pages: 1
%%BoundingBox:   100   245   510   546
%%EndComments

%%BeginProlog
% MathWorks dictionary
/MathWorks 160 dict begin
% definition operators
/bdef {bind def} bind def
/ldef {load def} bind def
/xdef {exch def} bdef
/xstore {exch store} bdef
% operator abbreviations
/c  /clip ldef
/cc /concat ldef
/cp /closepath ldef
/gr /grestore ldef
/gs /gsave ldef
/mt /moveto ldef
/np /newpath ldef
/cm /currentmatrix ldef
/sm /setmatrix ldef
/rm /rmoveto ldef
/rl /rlineto ldef
/s {show newpath} bdef
/sc {setcmykcolor} bdef
/sr /setrgbcolor ldef
/sg /setgray ldef
/w /setlinewidth ldef
/j /setlinejoin ldef
/cap /setlinecap ldef
/rc {rectclip} bdef
/rf {rectfill} bdef
% page state control
/pgsv () def
/bpage {/pgsv save def} bdef
/epage {pgsv restore} bdef
/bplot /gsave ldef
/eplot {stroke grestore} bdef
% orientation switch
/portraitMode 0 def /landscapeMode 1 def /rotateMode 2 def
% coordinate system mappings
/dpi2point 0 def
% font control
/FontSize 0 def
/FMS {/FontSize xstore findfont [FontSize 0 0 FontSize neg 0 0]
  makefont setfont} bdef
/reencode {exch dup where {pop load} {pop StandardEncoding} ifelse
  exch dup 3 1 roll findfont dup length dict begin
  { 1 index /FID ne {def}{pop pop} ifelse } forall
  /Encoding exch def currentdict end definefont pop} bdef
/isroman {findfont /CharStrings get /Agrave known} bdef
/FMSR {3 1 roll 1 index dup isroman {reencode} {pop pop} ifelse
  exch FMS} bdef
/csm {1 dpi2point div -1 dpi2point div scale neg translate
 dup landscapeMode eq {pop -90 rotate}
  {rotateMode eq {90 rotate} if} ifelse} bdef
% line types: solid, dotted, dashed, dotdash
/SO { [] 0 setdash } bdef
/DO { [.5 dpi2point mul 4 dpi2point mul] 0 setdash } bdef
/DA { [6 dpi2point mul] 0 setdash } bdef
/DD { [.5 dpi2point mul 4 dpi2point mul 6 dpi2point mul 4
  dpi2point mul] 0 setdash } bdef
% macros for lines and objects
/L {lineto stroke} bdef
/MP {3 1 roll moveto 1 sub {rlineto} repeat} bdef
/AP {{rlineto} repeat} bdef
/PDlw -1 def
/W {/PDlw currentlinewidth def setlinewidth} def
/PP {closepath eofill} bdef
/DP {closepath stroke} bdef
/MR {4 -2 roll moveto dup  0 exch rlineto exch 0 rlineto
  neg 0 exch rlineto closepath} bdef
/FR {MR stroke} bdef
/PR {MR fill} bdef
/L1i {{currentfile picstr readhexstring pop} image} bdef
/tMatrix matrix def
/MakeOval {newpath tMatrix currentmatrix pop translate scale
0 0 1 0 360 arc tMatrix setmatrix} bdef
/FO {MakeOval stroke} bdef
/PO {MakeOval fill} bdef
/PD {currentlinewidth 2 div 0 360 arc fill
   PDlw -1 eq not {PDlw w /PDlw -1 def} if} def
/FA {newpath tMatrix currentmatrix pop translate scale
  0 0 1 5 -2 roll arc tMatrix setmatrix stroke} bdef
/PA {newpath tMatrix currentmatrix pop	translate 0 0 moveto scale
  0 0 1 5 -2 roll arc closepath tMatrix setmatrix fill} bdef
/FAn {newpath tMatrix currentmatrix pop translate scale
  0 0 1 5 -2 roll arcn tMatrix setmatrix stroke} bdef
/PAn {newpath tMatrix currentmatrix pop translate 0 0 moveto scale
  0 0 1 5 -2 roll arcn closepath tMatrix setmatrix fill} bdef
/vradius 0 def /hradius 0 def /lry 0 def
/lrx 0 def /uly 0 def /ulx 0 def /rad 0 def
/MRR {/vradius xdef /hradius xdef /lry xdef /lrx xdef /uly xdef
  /ulx xdef newpath tMatrix currentmatrix pop ulx hradius add uly
  vradius add translate hradius vradius scale 0 0 1 180 270 arc 
  tMatrix setmatrix lrx hradius sub uly vradius add translate
  hradius vradius scale 0 0 1 270 360 arc tMatrix setmatrix
  lrx hradius sub lry vradius sub translate hradius vradius scale
  0 0 1 0 90 arc tMatrix setmatrix ulx hradius add lry vradius sub
  translate hradius vradius scale 0 0 1 90 180 arc tMatrix setmatrix
  closepath} bdef
/FRR {MRR stroke } bdef
/PRR {MRR fill } bdef
/MlrRR {/lry xdef /lrx xdef /uly xdef /ulx xdef /rad lry uly sub 2 div def
  newpath tMatrix currentmatrix pop ulx rad add uly rad add translate
  rad rad scale 0 0 1 90 270 arc tMatrix setmatrix lrx rad sub lry rad
  sub translate rad rad scale 0 0 1 270 90 arc tMatrix setmatrix
  closepath} bdef
/FlrRR {MlrRR stroke } bdef
/PlrRR {MlrRR fill } bdef
/MtbRR {/lry xdef /lrx xdef /uly xdef /ulx xdef /rad lrx ulx sub 2 div def
  newpath tMatrix currentmatrix pop ulx rad add uly rad add translate
  rad rad scale 0 0 1 180 360 arc tMatrix setmatrix lrx rad sub lry rad
  sub translate rad rad scale 0 0 1 0 180 arc tMatrix setmatrix
  closepath} bdef
/FtbRR {MtbRR stroke } bdef
/PtbRR {MtbRR fill } bdef
/stri 6 array def /dtri 6 array def
/smat 6 array def /dmat 6 array def
/tmat1 6 array def /tmat2 6 array def /dif 3 array def
/asub {/ind2 exch def /ind1 exch def dup dup
  ind1 get exch ind2 get sub exch } bdef
/tri_to_matrix {
  2 0 asub 3 1 asub 4 0 asub 5 1 asub
  dup 0 get exch 1 get 7 -1 roll astore } bdef
/compute_transform {
  dmat dtri tri_to_matrix tmat1 invertmatrix 
  smat stri tri_to_matrix tmat2 concatmatrix } bdef
/ds {stri astore pop} bdef
/dt {dtri astore pop} bdef
/db {2 copy /cols xdef /rows xdef mul dup 3 mul string
  currentfile 
  3 index 0 eq {/ASCIIHexDecode filter}
  {/ASCII85Decode filter 3 index 2 eq {/RunLengthDecode filter} if }
  ifelse exch readstring pop
  dup 0 3 index getinterval /rbmap xdef
  dup 2 index dup getinterval /gbmap xdef
  1 index dup 2 mul exch getinterval /bbmap xdef pop pop}bdef
/it {gs np dtri aload pop moveto lineto lineto cp c
  cols rows 8 compute_transform 
  rbmap gbmap bbmap true 3 colorimage gr}bdef
/il {newpath moveto lineto stroke}bdef
currentdict end def
%%EndProlog

%%BeginSetup
MathWorks begin

0 cap

end
%%EndSetup

%%Page: 1 1
%%BeginPageSetup
%%PageBoundingBox:   100   245   510   546
MathWorks begin
bpage
%%EndPageSetup

%%BeginObject: obj1
bplot

/dpi2point 12 def
portraitMode 1200 6552 csm

    0     0  4931  3612 rc
85 dict begin %Colortable dictionary
/c0 { 0.000000 0.000000 0.000000 sr} bdef
/c1 { 1.000000 1.000000 1.000000 sr} bdef
/c2 { 0.900000 0.000000 0.000000 sr} bdef
/c3 { 0.000000 0.820000 0.000000 sr} bdef
/c4 { 0.000000 0.000000 0.800000 sr} bdef
/c5 { 0.910000 0.820000 0.320000 sr} bdef
/c6 { 1.000000 0.260000 0.820000 sr} bdef
/c7 { 0.000000 0.820000 0.820000 sr} bdef
c0
1 j
1 sg
   0    0 4932 3613 rf
6 w
0 2888 3822 0 0 -2888 641 3159 4 MP
PP
-3822 0 0 2888 3822 0 0 -2888 641 3159 5 MP stroke
4 w
DO
0 sg
1062 3159 mt 1062  271 L
1062  271 mt 1062  271 L
1742 3159 mt 1742  271 L
1742  271 mt 1742  271 L
2422 3159 mt 2422  271 L
2422  271 mt 2422  271 L
3102 3159 mt 3102  271 L
3102  271 mt 3102  271 L
3782 3159 mt 3782  271 L
3782  271 mt 3782  271 L
4463 3159 mt 4463  271 L
4463  271 mt 4463  271 L
 641 3159 mt 4463 3159 L
4463 3159 mt 4463 3159 L
 641 2581 mt 4463 2581 L
4463 2581 mt 4463 2581 L
 641 2003 mt 4463 2003 L
4463 2003 mt 4463 2003 L
 641 1426 mt 4463 1426 L
4463 1426 mt 4463 1426 L
 641  848 mt 4463  848 L
4463  848 mt 4463  848 L
 641  271 mt 4463  271 L
4463  271 mt 4463  271 L
SO
6 w
 641 3159 mt 4463 3159 L
 641  271 mt 4463  271 L
 641 3159 mt  641  271 L
4463 3159 mt 4463  271 L
 641 3159 mt 4463 3159 L
 641 3159 mt  641  271 L
1062 3159 mt 1062 3120 L
1062  271 mt 1062  309 L
%%IncludeResource: font Helvetica
/Helvetica /ISOLatin1Encoding 192 FMSR

 902 3371 mt 
(100) s
1742 3159 mt 1742 3120 L
1742  271 mt 1742  309 L
1582 3371 mt 
(200) s
2422 3159 mt 2422 3120 L
2422  271 mt 2422  309 L
2262 3371 mt 
(300) s
3102 3159 mt 3102 3120 L
3102  271 mt 3102  309 L
2942 3371 mt 
(400) s
3782 3159 mt 3782 3120 L
3782  271 mt 3782  309 L
3622 3371 mt 
(500) s
4463 3159 mt 4463 3120 L
4463  271 mt 4463  309 L
4303 3371 mt 
(600) s
 641 3159 mt  679 3159 L
4463 3159 mt 4424 3159 L
 500 3230 mt 
(0) s
 641 2581 mt  679 2581 L
4463 2581 mt 4424 2581 L
 393 2652 mt 
(10) s
 641 2003 mt  679 2003 L
4463 2003 mt 4424 2003 L
 393 2074 mt 
(20) s
 641 1426 mt  679 1426 L
4463 1426 mt 4424 1426 L
 393 1497 mt 
(30) s
 641  848 mt  679  848 L
4463  848 mt 4424  848 L
 393  919 mt 
(40) s
 641  271 mt  679  271 L
4463  271 mt 4424  271 L
 393  342 mt 
(50) s
 641 3159 mt 4463 3159 L
 641  271 mt 4463  271 L
 641 3159 mt  641  271 L
4463 3159 mt 4463  271 L
gs 641 271 3823 2889 rc
24 w
/c8 { 0.000000 0.000000 1.000000 sr} bdef
c8
7 -1 7 -1 7 -2 7 -1 7 -1 6 -1 7 -1 7 -1 
7 -1 7 -2 6 -1 7 -1 7 -1 7 -1 7 -1 6 -1 
7 -2 7 -1 7 -1 7 -1 6 -1 7 -1 7 -1 7 -2 
7 -1 6 -1 7 -1 7 -1 7 -1 7 -1 6 -1 7 -2 
7 -1 7 -1 7 -1 6 -1 7 -1 7 -1 7 -1 7 -2 
6 -1 7 -1 7 -1 7 -1 7 -1 6 -1 7 -1 7 -2 
7 -1 7 -1 6 -1 7 -1 7 -1 7 -1 7 -1 6 -1 
7 -2 7 -1 7 -1 7 -1 6 -1 7 -1 7 -1 7 -1 
7 -1 6 -2 7 -1 7 -1 7 -1 7 -1 6 -1 7 -1 
7 -1 7 -1 7 -1 6 -2 7 -1 7 -1 7 -1 7 -1 
6 -1 7 -1 7 -1 7 -1 7 -1 6 -2 7 -1 7 -1 
7 -1 7 -1 6 -1 7 -1 7 -1 7 -1 7 -1 6 -2 
7 -1 7 -1 7 -1 7 -1 6 -1 7 -1 7 -1 7 -1 
7 -1 6 -2 7 -1 7 -1 7 -1 7 -1 6 -1 7 -1 
7 -1 7 -1 7 -1 6 -2 7 -1 7 -1 7 -1 7 -1 
6 -1 7 -1 7 -1 7 -1 7 -1 6 -2 7 -1 7 -1 
7 -1 7 -1 6 -1 7 -1 7 -1 7 -1 7 -1 6 -2 
7 -1 7 -1 7 -1 7 -1 6 -1 7 -1 7 -1 7 -1 
7 -1 6 -2 7 -1 7 -1 7 -1 7 -1 6 -1 7 -1 
7 -1 7 -1 7 -2 6 -1 7 -1 7 -1 7 -1 7 -1 
6 -1 7 -1 7 -1 7 -2 7 -1 6 -1 7 -1 7 -1 
7 -1 7 -1 6 -1 7 -2 7 -1 7 -1 7 -1 6 -1 
7 -1 7 -1 7 -1 7 -2 6 -1 7 -1 7 -1 7 -1 
7 -1 6 -1 7 -1 7 -2 7 -1 7 -1 6 -1 7 -1 
7 -1 7 -1 7 -2 6 -1 7 -1 7 -1 7 -1 7 -1 
6 -1 7 -2 7 -1 7 -1 7 -1 6 -1 7 -1 7 -1 
7 -2 7 -1 6 -1 7 -1 7 -1 7 -1 7 -2 6 -1 
7 -1 7 -1 7 -1 7 -1 6 -2 7 -1 7 -1 7 -1 
7 -1 6 -1 7 -2 7 -1 7 -1 7 -1 6 -1 7 -2 
7 -1 7 -1 7 -1 6 -1 7 -1 7 -2 7 -1 7 -1 
6 -1 7 -1 7 -2 7 -1 7 -1 6 -1 7 -2 7 -1 
7 -1 7 -1 6 -1 7 -2 7 -1 7 -1 7 -1 6 -2 
7 -1 7 -1 7 -1 7 -1 6 -2 7 -1 7 -1 7 -1 
7 -2 6 -1 7 -1 7 -1 7 -2 7 -1 6 -1 7 -1 
7 -2 7 -1 7 -1 6 -2 7 -1 7 -1 7 -1 7 -2 
6 -1 7 -1 7 -2 7 -1 7 -1 7 -1 6 -2 7 -1 
7 -1 7 -2 7 -1 6 -1 7 -2 7 -1 7 -1 7 -2 
6 -1 7 -1 7 -2 2429 927 300 MP stroke
7 -1 7 -1 6 -2 7 -1 7 -1 7 -2 7 -1 6 -1 
7 -2 7 -1 7 -1 7 -2 6 -1 7 -2 7 -1 7 -1 
7 -2 6 -1 7 -2 7 -1 7 -1 7 -2 6 -1 7 -2 
7 -1 7 -1 7 -2 6 -1 7 -2 7 -1 7 -2 7 -1 
6 -1 7 -2 7 -1 7 -2 7 -1 6 -2 7 -1 7 -2 
7 -1 7 -2 6 -1 7 -2 7 -1 7 -2 7 -1 6 -2 
7 -1 7 -2 7 -1 7 -2 6 -1 7 -2 7 -2 7 -1 
7 -2 6 -1 7 -2 7 -1 7 -2 7 -2 6 -1 7 -2 
7 -1 7 -2 7 -2 6 -1 7 -2 7 -1 7 -2 7 -2 
6 -1 7 -2 7 -2 7 -1 7 -2 6 -2 7 -2 7 -1 
7 -2 7 -2 6 -1 7 -2 7 -2 7 -2 7 -1 6 -2 
7 -2 7 -2 7 -1 7 -2 6 -2 7 -2 7 -2 7 -1 
7 -2 6 -2 7 -2 7 -2 7 -2 7 -2 6 -1 7 -2 
7 -2 7 -2 7 -2 6 -2 7 -2 7 -2 7 -2 7 -2 
6 -2 7 -2 7 -2 7 -2 7 -2 6 -2 7 -2 7 -2 
7 -2 7 -2 6 -2 7 -2 7 -3 7 -2 7 -2 6 -2 
7 -2 7 -2 7 -3 7 -2 6 -2 7 -2 7 -3 7 -2 
7 -2 6 -2 7 -3 7 -2 7 -2 7 -3 6 -2 7 -3 
7 -2 7 -2 7 -3 6 -2 7 -3 7 -2 7 -3 7 -2 
6 -3 7 -2 7 -3 7 -3 7 -2 6 -3 7 -3 7 -2 
7 -3 7 -3 6 -3 7 -2 7 -3 7 -3 7 -3 6 -3 
7 -3 7 -3 7 -3 7 -3 6 -3 7 -3 7 -3 7 -3 
7 -3 6 -4 7 -3 7 -3 7 -3 7 -4 6 -3 7 -4 
7 -3 7 -4 7 -3 6 -4 7 -3 7 -4 7 -4 7 -3 
6 -4 7 -4 7 -4 7 -4 7 -4 6 -4 7 -4 7 -4 
7 -5 7 -4 6 -4 7 -5 7 -4 7 -5 7 -4 6 -5 
7 -5 7 -5 7 -5 7 -5 6 -5 7 -5 7 -6 7 -5 
7 -6 6 -5 7 -6 7 -6 7 -6 7 -6 6 -7 7 -6 
7 -7 7 -7 7 -7 6 -7 7 -7 7 -8 7 -7 7 -8 
6 -9 7 -8 7 -9 7 -9 7 -9 6 -10 7 -10 7 -11 
7 -11 7 -11 6 -12 7 -13 7 -13 7 -14 7 -14 6 -16 
7 -16 7 -18 7 -19 7 -20 6 -22 7 -24 7 -27 7 -30 
7 -34 6 -39 7 -46 7 -56 7 -72 7 -102 6 -923 641 3159 264 MP stroke
DA
/c9 { 0.000000 0.500000 0.000000 sr} bdef
c9
7 -1 7 -1 7 -2 7 -1 7 -1 6 -1 7 -1 7 -1 
7 -1 7 -1 6 -1 7 -2 7 -1 7 -1 7 -1 6 -1 
7 -1 7 -1 7 -1 7 -1 6 -2 7 -1 7 -1 7 -1 
7 -1 6 -1 7 -1 7 -1 7 -1 7 -2 6 -1 7 -1 
7 -1 7 -1 7 -1 6 -1 7 -1 7 -1 7 -1 7 -1 
6 -2 7 -1 7 -1 7 -1 7 -1 6 -1 7 -1 7 -1 
7 -1 7 -1 6 -1 7 -2 7 -1 7 -1 7 -1 6 -1 
7 -1 7 -1 7 -1 7 -1 6 -1 7 -1 7 -1 7 -2 
7 -1 6 -1 7 -1 7 -1 7 -1 7 -1 6 -1 7 -1 
7 -1 7 -1 7 -1 6 -2 7 -1 7 -1 7 -1 7 -1 
6 -1 7 -1 7 -1 7 -1 7 -1 6 -1 7 -1 7 -1 
7 -2 7 -1 6 -1 7 -1 7 -1 7 -1 7 -1 6 -1 
7 -1 7 -1 7 -1 7 -1 6 -1 7 -2 7 -1 7 -1 
7 -1 6 -1 7 -1 7 -1 7 -1 7 -1 6 -1 7 -1 
7 -1 7 -1 7 -2 6 -1 7 -1 7 -1 7 -1 7 -1 
6 -1 7 -1 7 -1 7 -1 7 -1 6 -1 7 -1 7 -2 
7 -1 7 -1 6 -1 7 -1 7 -1 7 -1 7 -1 6 -1 
7 -1 7 -1 7 -1 7 -2 6 -1 7 -1 7 -1 7 -1 
7 -1 6 -1 7 -1 7 -1 7 -1 7 -1 6 -1 7 -2 
7 -1 7 -1 7 -1 6 -1 7 -1 7 -1 7 -1 7 -1 
6 -1 7 -2 7 -1 7 -1 7 -1 6 -1 7 -1 7 -1 
7 -1 7 -1 6 -1 7 -2 7 -1 7 -1 7 -1 6 -1 
7 -1 7 -1 7 -1 7 -1 6 -1 7 -2 7 -1 7 -1 
7 -1 6 -1 7 -1 7 -1 7 -1 7 -2 6 -1 7 -1 
7 -1 7 -1 7 -1 6 -1 7 -1 7 -1 7 -2 7 -1 
6 -1 7 -1 7 -1 7 -1 7 -1 6 -2 7 -1 7 -1 
7 -1 7 -1 6 -1 7 -1 7 -2 7 -1 7 -1 6 -1 
7 -1 7 -1 7 -1 7 -2 6 -1 7 -1 7 -1 7 -1 
7 -1 6 -2 7 -1 7 -1 7 -1 7 -1 6 -1 7 -2 
7 -1 7 -1 7 -1 6 -1 7 -1 7 -2 7 -1 7 -1 
6 -1 7 -1 7 -2 7 -1 7 -1 6 -1 7 -1 7 -1 
7 -2 7 -1 6 -1 7 -1 7 -2 7 -1 7 -1 6 -1 
7 -1 7 -2 7 -1 7 -1 6 -1 7 -1 7 -2 7 -1 
7 -1 6 -1 7 -2 7 -1 7 -1 7 -1 6 -2 7 -1 
7 -1 7 -1 7 -2 6 -1 7 -1 7 -1 7 -2 7 -1 
6 -1 7 -1 7 -2 7 -1 7 -1 7 -2 6 -1 7 -1 
7 -1 7 -2 7 -1 6 -1 7 -2 7 -1 7 -1 7 -2 
6 -1 7 -1 7 -1 2429 1190 300 MP stroke
7 -2 7 -1 6 -1 7 -2 7 -1 7 -1 7 -2 6 -1 
7 -1 7 -2 7 -1 7 -2 6 -1 7 -1 7 -2 7 -1 
7 -1 6 -2 7 -1 7 -1 7 -2 7 -1 6 -2 7 -1 
7 -1 7 -2 7 -1 6 -2 7 -1 7 -2 7 -1 7 -1 
6 -2 7 -1 7 -2 7 -1 7 -2 6 -1 7 -1 7 -2 
7 -1 7 -2 6 -1 7 -2 7 -1 7 -2 7 -1 6 -2 
7 -1 7 -2 7 -1 7 -2 6 -1 7 -2 7 -1 7 -2 
7 -2 6 -1 7 -2 7 -1 7 -2 7 -1 6 -2 7 -1 
7 -2 7 -2 7 -1 6 -2 7 -1 7 -2 7 -2 7 -1 
6 -2 7 -2 7 -1 7 -2 7 -2 6 -1 7 -2 7 -2 
7 -1 7 -2 6 -2 7 -1 7 -2 7 -2 7 -2 6 -1 
7 -2 7 -2 7 -2 7 -1 6 -2 7 -2 7 -2 7 -2 
7 -1 6 -2 7 -2 7 -2 7 -2 7 -1 6 -2 7 -2 
7 -2 7 -2 7 -2 6 -2 7 -2 7 -2 7 -2 7 -2 
6 -1 7 -2 7 -2 7 -2 7 -2 6 -2 7 -2 7 -2 
7 -3 7 -2 6 -2 7 -2 7 -2 7 -2 7 -2 6 -2 
7 -2 7 -2 7 -3 7 -2 6 -2 7 -2 7 -2 7 -3 
7 -2 6 -2 7 -2 7 -3 7 -2 7 -2 6 -3 7 -2 
7 -2 7 -3 7 -2 6 -3 7 -2 7 -3 7 -2 7 -3 
6 -2 7 -3 7 -2 7 -3 7 -2 6 -3 7 -3 7 -2 
7 -3 7 -3 6 -2 7 -3 7 -3 7 -3 7 -2 6 -3 
7 -3 7 -3 7 -3 7 -3 6 -3 7 -3 7 -3 7 -3 
7 -3 6 -3 7 -3 7 -4 7 -3 7 -3 6 -3 7 -4 
7 -3 7 -4 7 -3 6 -4 7 -3 7 -4 7 -3 7 -4 
6 -4 7 -3 7 -4 7 -4 7 -4 6 -4 7 -4 7 -4 
7 -4 7 -4 6 -4 7 -5 7 -4 7 -5 7 -4 6 -5 
7 -4 7 -5 7 -5 7 -5 6 -5 7 -5 7 -5 7 -5 
7 -6 6 -5 7 -6 7 -5 7 -6 7 -6 6 -6 7 -6 
7 -6 7 -7 7 -7 6 -6 7 -7 7 -8 7 -7 7 -7 
6 -8 7 -8 7 -8 7 -9 7 -9 6 -9 7 -9 7 -10 
7 -10 7 -11 6 -11 7 -11 7 -12 7 -12 7 -14 6 -13 
7 -15 7 -15 7 -17 7 -18 6 -18 7 -21 7 -22 7 -24 
7 -27 6 -30 7 -33 7 -39 7 -46 7 -56 6 -833 641 3159 264 MP stroke
DO
/c10 { 1.000000 0.000000 0.000000 sr} bdef
c10
7 -1 7 -1 7 -1 7 -1 7 -1 6 -1 7 -1 7 -1 
7 -1 7 -1 6 -1 7 -1 7 -1 7 -1 7 -1 6 -1 
7 -1 7 -1 7 -1 7 -1 6 -1 7 -1 7 -1 7 -1 
7 -1 6 -1 7 -1 7 -1 7 -1 7 -1 6 -1 7 -1 
7 -1 7 -1 7 -1 6 -1 7 -1 7 -1 7 -1 7 -1 
6 -1 7 -1 7 -1 7 -1 7 -1 6 -1 7 -1 7 -1 
7 -1 7 -1 6 -1 7 -1 7 -1 7 -1 7 -1 6 -1 
7 -1 7 -1 7 -1 7 -1 6 -1 7 -1 7 -1 7 -1 
7 -1 6 -1 7 -1 7 -1 7 -1 7 -1 6 -1 7 -1 
7 -1 7 -1 7 -1 6 -1 7 -1 7 -1 7 -1 7 -1 
6 -1 7 -1 7 -1 7 -1 7 -1 6 -1 7 -1 7 -1 
7 -1 7 -1 6 -1 7 -1 7 -1 7 -1 7 -1 6 -1 
7 -1 7 -1 7 -1 7 -1 6 -1 7 -1 7 -1 7 -1 
7 -1 6 -1 7 -1 7 -1 7 -1 7 -1 6 -1 7 -1 
7 -1 7 -1 7 -1 6 -1 7 -1 7 -1 7 -1 7 -1 
6 -1 7 -1 7 -1 7 -1 7 -1 6 -1 7 -1 7 -1 
7 -1 7 -1 6 -1 7 -1 7 -1 7 -1 7 -1 6 -1 
7 -1 7 -1 7 -1 7 -1 6 -1 7 -1 7 -1 7 -1 
7 -1 6 -1 7 -1 7 -1 7 -1 7 -1 6 -1 7 -1 
7 -1 7 -1 7 -1 6 -1 7 -1 7 -1 7 -1 7 -1 
6 -1 7 -1 7 -1 7 -1 7 -1 6 -2 7 -1 7 -1 
7 -1 7 -1 6 -1 7 -1 7 -1 7 -1 7 -1 6 -1 
7 -1 7 -1 7 -1 7 -1 6 -1 7 -1 7 -1 7 -1 
7 -1 6 -1 7 -1 7 -1 7 -2 7 -1 6 -1 7 -1 
7 -1 7 -1 7 -1 6 -1 7 -1 7 -1 7 -1 7 -1 
6 -1 7 -1 7 -1 7 -2 7 -1 6 -1 7 -1 7 -1 
7 -1 7 -1 6 -1 7 -1 7 -1 7 -1 7 -1 6 -2 
7 -1 7 -1 7 -1 7 -1 6 -1 7 -1 7 -1 7 -1 
7 -1 6 -1 7 -2 7 -1 7 -1 7 -1 6 -1 7 -1 
7 -1 7 -1 7 -2 6 -1 7 -1 7 -1 7 -1 7 -1 
6 -1 7 -1 7 -2 7 -1 7 -1 6 -1 7 -1 7 -1 
7 -1 7 -1 6 -2 7 -1 7 -1 7 -1 7 -1 6 -1 
7 -2 7 -1 7 -1 7 -1 6 -1 7 -1 7 -2 7 -1 
7 -1 6 -1 7 -1 7 -1 7 -2 7 -1 6 -1 7 -1 
7 -1 7 -2 7 -1 6 -1 7 -1 7 -1 7 -2 7 -1 
6 -1 7 -1 7 -1 7 -2 7 -1 7 -1 6 -1 7 -2 
7 -1 7 -1 7 -1 6 -2 7 -1 7 -1 7 -1 7 -2 
6 -1 7 -1 7 -1 2429 1267 300 MP stroke
7 -2 7 -1 6 -1 7 -1 7 -2 7 -1 7 -1 6 -2 
7 -1 7 -1 7 -1 7 -2 6 -1 7 -1 7 -2 7 -1 
7 -1 6 -2 7 -1 7 -1 7 -2 7 -1 6 -1 7 -2 
7 -1 7 -1 7 -2 6 -1 7 -1 7 -2 7 -1 7 -1 
6 -2 7 -1 7 -2 7 -1 7 -1 6 -2 7 -1 7 -1 
7 -2 7 -1 6 -2 7 -1 7 -2 7 -1 7 -1 6 -2 
7 -1 7 -2 7 -1 7 -2 6 -1 7 -2 7 -1 7 -2 
7 -1 6 -1 7 -2 7 -1 7 -2 7 -1 6 -2 7 -2 
7 -1 7 -2 7 -1 6 -2 7 -1 7 -2 7 -1 7 -2 
6 -1 7 -2 7 -2 7 -1 7 -2 6 -1 7 -2 7 -2 
7 -1 7 -2 6 -1 7 -2 7 -2 7 -1 7 -2 6 -2 
7 -1 7 -2 7 -2 7 -1 6 -2 7 -2 7 -2 7 -1 
7 -2 6 -2 7 -1 7 -2 7 -2 7 -2 6 -2 7 -1 
7 -2 7 -2 7 -2 6 -2 7 -1 7 -2 7 -2 7 -2 
6 -2 7 -2 7 -2 7 -1 7 -2 6 -2 7 -2 7 -2 
7 -2 7 -2 6 -2 7 -2 7 -2 7 -2 7 -2 6 -2 
7 -2 7 -2 7 -2 7 -2 6 -2 7 -2 7 -3 7 -2 
7 -2 6 -2 7 -2 7 -2 7 -3 7 -2 6 -2 7 -2 
7 -2 7 -3 7 -2 6 -2 7 -3 7 -2 7 -2 7 -3 
6 -2 7 -2 7 -3 7 -2 7 -3 6 -2 7 -3 7 -2 
7 -3 7 -2 6 -3 7 -2 7 -3 7 -3 7 -2 6 -3 
7 -3 7 -2 7 -3 7 -3 6 -3 7 -3 7 -2 7 -3 
7 -3 6 -3 7 -3 7 -3 7 -3 7 -3 6 -3 7 -3 
7 -3 7 -4 7 -3 6 -3 7 -3 7 -4 7 -3 7 -3 
6 -4 7 -3 7 -4 7 -3 7 -4 6 -4 7 -3 7 -4 
7 -4 7 -4 6 -3 7 -4 7 -4 7 -4 7 -5 6 -4 
7 -4 7 -4 7 -4 7 -5 6 -4 7 -5 7 -5 7 -4 
7 -5 6 -5 7 -5 7 -5 7 -5 7 -5 6 -6 7 -5 
7 -6 7 -5 7 -6 6 -6 7 -6 7 -6 7 -6 7 -7 
6 -6 7 -7 7 -7 7 -7 7 -8 6 -7 7 -8 7 -8 
7 -8 7 -9 6 -8 7 -9 7 -10 7 -10 7 -10 6 -10 
7 -11 7 -11 7 -12 7 -13 6 -13 7 -14 7 -14 7 -16 
7 -16 6 -18 7 -19 7 -20 7 -22 7 -24 6 -987 641 3159 264 MP stroke
DD
/c11 { 0.000000 0.750000 0.750000 sr} bdef
c11
7 0 7 -1 7 -1 7 0 7 -1 6 0 7 -1 7 -1 
7 0 7 -1 6 0 7 -1 7 -1 7 0 7 -1 6 0 
7 -1 7 -1 7 0 7 -1 6 0 7 -1 7 -1 7 0 
7 -1 6 0 7 -1 7 -1 7 0 7 -1 6 0 7 -1 
7 -1 7 0 7 -1 6 -1 7 0 7 -1 7 0 7 -1 
6 -1 7 0 7 -1 7 -1 7 0 6 -1 7 0 7 -1 
7 -1 7 0 6 -1 7 -1 7 0 7 -1 7 0 6 -1 
7 -1 7 0 7 -1 7 -1 6 0 7 -1 7 -1 7 0 
7 -1 6 -1 7 0 7 -1 7 0 7 -1 6 -1 7 0 
7 -1 7 -1 7 0 6 -1 7 -1 7 0 7 -1 7 -1 
6 0 7 -1 7 -1 7 0 7 -1 6 -1 7 0 7 -1 
7 -1 7 0 6 -1 7 -1 7 0 7 -1 7 -1 6 0 
7 -1 7 -1 7 0 7 -1 6 -1 7 0 7 -1 7 -1 
7 0 6 -1 7 -1 7 -1 7 0 7 -1 6 -1 7 0 
7 -1 7 -1 7 0 6 -1 7 -1 7 0 7 -1 7 -1 
6 -1 7 0 7 -1 7 -1 7 0 6 -1 7 -1 7 -1 
7 0 7 -1 6 -1 7 0 7 -1 7 -1 7 -1 6 0 
7 -1 7 -1 7 0 7 -1 6 -1 7 -1 7 0 7 -1 
7 -1 6 -1 7 0 7 -1 7 -1 7 -1 6 0 7 -1 
7 -1 7 0 7 -1 6 -1 7 -1 7 0 7 -1 7 -1 
6 -1 7 -1 7 0 7 -1 7 -1 6 -1 7 0 7 -1 
7 -1 7 -1 6 0 7 -1 7 -1 7 -1 7 -1 6 0 
7 -1 7 -1 7 -1 7 0 6 -1 7 -1 7 -1 7 -1 
7 0 6 -1 7 -1 7 -1 7 -1 7 0 6 -1 7 -1 
7 -1 7 -1 7 0 6 -1 7 -1 7 -1 7 -1 7 -1 
6 0 7 -1 7 -1 7 -1 7 -1 6 0 7 -1 7 -1 
7 -1 7 -1 6 -1 7 -1 7 0 7 -1 7 -1 6 -1 
7 -1 7 -1 7 0 7 -1 6 -1 7 -1 7 -1 7 -1 
7 -1 6 -1 7 0 7 -1 7 -1 7 -1 6 -1 7 -1 
7 -1 7 -1 7 0 6 -1 7 -1 7 -1 7 -1 7 -1 
6 -1 7 -1 7 -1 7 -1 7 -1 6 0 7 -1 7 -1 
7 -1 7 -1 6 -1 7 -1 7 -1 7 -1 7 -1 6 -1 
7 -1 7 -1 7 -1 7 -1 6 -1 7 0 7 -1 7 -1 
7 -1 6 -1 7 -1 7 -1 7 -1 7 -1 6 -1 7 -1 
7 -1 7 -1 7 -1 6 -1 7 -1 7 -1 7 -1 7 -1 
6 -1 7 -1 7 -1 7 -1 7 -1 7 -1 6 -1 7 -1 
7 -1 7 -2 7 -1 6 -1 7 -1 7 -1 7 -1 7 -1 
6 -1 7 -1 7 -1 2429 1485 300 MP stroke
7 -1 7 -1 6 -1 7 -1 7 -1 7 -2 7 -1 6 -1 
7 -1 7 -1 7 -1 7 -1 6 -1 7 -1 7 -2 7 -1 
7 -1 6 -1 7 -1 7 -1 7 -1 7 -2 6 -1 7 -1 
7 -1 7 -1 7 -1 6 -2 7 -1 7 -1 7 -1 7 -1 
6 -2 7 -1 7 -1 7 -1 7 -1 6 -2 7 -1 7 -1 
7 -1 7 -2 6 -1 7 -1 7 -1 7 -2 7 -1 6 -1 
7 -2 7 -1 7 -1 7 -1 6 -2 7 -1 7 -1 7 -2 
7 -1 6 -1 7 -2 7 -1 7 -1 7 -2 6 -1 7 -2 
7 -1 7 -1 7 -2 6 -1 7 -1 7 -2 7 -1 7 -2 
6 -1 7 -2 7 -1 7 -2 7 -1 6 -1 7 -2 7 -1 
7 -2 7 -1 6 -2 7 -1 7 -2 7 -1 7 -2 6 -1 
7 -2 7 -2 7 -1 7 -2 6 -1 7 -2 7 -2 7 -1 
7 -2 6 -1 7 -2 7 -2 7 -1 7 -2 6 -2 7 -1 
7 -2 7 -2 7 -1 6 -2 7 -2 7 -2 7 -1 7 -2 
6 -2 7 -2 7 -1 7 -2 7 -2 6 -2 7 -2 7 -2 
7 -1 7 -2 6 -2 7 -2 7 -2 7 -2 7 -2 6 -2 
7 -2 7 -2 7 -2 7 -2 6 -2 7 -2 7 -2 7 -2 
7 -2 6 -2 7 -2 7 -2 7 -3 7 -2 6 -2 7 -2 
7 -2 7 -3 7 -2 6 -2 7 -2 7 -3 7 -2 7 -2 
6 -3 7 -2 7 -3 7 -2 7 -2 6 -3 7 -2 7 -3 
7 -2 7 -3 6 -3 7 -2 7 -3 7 -3 7 -2 6 -3 
7 -3 7 -2 7 -3 7 -3 6 -3 7 -3 7 -3 7 -3 
7 -3 6 -3 7 -3 7 -3 7 -3 7 -3 6 -3 7 -3 
7 -4 7 -3 7 -3 6 -4 7 -3 7 -4 7 -3 7 -4 
6 -3 7 -4 7 -4 7 -4 7 -3 6 -4 7 -4 7 -4 
7 -4 7 -4 6 -5 7 -4 7 -4 7 -5 7 -4 6 -5 
7 -4 7 -5 7 -5 7 -5 6 -5 7 -5 7 -5 7 -5 
7 -6 6 -5 7 -6 7 -6 7 -5 7 -6 6 -7 7 -6 
7 -6 7 -7 7 -7 6 -7 7 -7 7 -7 7 -8 7 -8 
6 -8 7 -8 7 -9 7 -9 7 -9 6 -10 7 -9 7 -11 
7 -11 7 -11 6 -12 7 -12 7 -13 7 -14 7 -14 6 -15 
7 -17 7 -17 7 -19 7 -20 6 -22 7 -24 7 -27 7 -29 
7 -34 6 -39 7 -45 7 -56 7 -73 7 -102 6 -418 641 3159 264 MP stroke
gr

24 w
c11
DD
0 sg
1481 3567 mt 
(Transmission Rate [kbps]) s
 295 2180 mt  -90 rotate
(PSNR [dB]) s
90 rotate
%%IncludeResource: font Helvetica
/Helvetica /ISOLatin1Encoding 120 FMSR

 624 3202 mt 
( ) s
4447  313 mt 
( ) s
SO
6 w
1 sg
0 1074 1400 0 0 -1074 3002 2864 4 MP
PP
-1400 0 0 1074 1400 0 0 -1074 3002 2864 5 MP stroke
4 w
DO
SO
6 w
0 sg
3002 2864 mt 4402 2864 L
3002 1790 mt 4402 1790 L
3002 2864 mt 3002 1790 L
4402 2864 mt 4402 1790 L
3002 2864 mt 4402 2864 L
3002 2864 mt 3002 1790 L
3002 2864 mt 4402 2864 L
3002 1790 mt 4402 1790 L
3002 2864 mt 3002 1790 L
4402 2864 mt 4402 1790 L
%%IncludeResource: font Helvetica
/Helvetica /ISOLatin1Encoding 192 FMSR

3645 2008 mt 
(data1) s
gs 3002 1790 1401 1075 rc
24 w
c8
495 0 3100 1940 2 MP stroke
gr

24 w
c8
0 sg
3645 2266 mt 
(data2) s
gs 3002 1790 1401 1075 rc
DA
c9
495 0 3100 2198 2 MP stroke
SO
gr

c9
0 sg
3645 2525 mt 
(data3) s
gs 3002 1790 1401 1075 rc
DO
c10
495 0 3100 2455 2 MP stroke
SO
gr

c10
0 sg
3645 2783 mt 
(data4) s
gs 3002 1790 1401 1075 rc
DD
c11
495 0 3100 2713 2 MP stroke
SO
6 w
gr

6 w
c11

end %%Color Dict

eplot
%%EndObject

epage
end

showpage

%%Trailer
%%EOF
