%!PS-Adobe-2.0 EPSF-1.2
%%Creator: MATLAB, The MathWorks, Inc. Version 8.1.0.604 (R2013a). Operating System: Darwin 14.1.0 Darwin Kernel Version 14.1.0: Thu Feb 26 19:26:47 PST 2015; root:xnu-2782.10.73~1/RELEASE_X86_64 x86_64.
%%Title: ./Q7_23.eps
%%CreationDate: 03/24/2015  14:18:53
%%DocumentNeededFonts: Helvetica
%%DocumentProcessColors: Cyan Magenta Yellow Black
%%Extensions: CMYK
%%Pages: 1
%%BoundingBox:    53   193   549   602
%%EndComments

%%BeginProlog
% MathWorks dictionary
/MathWorks 160 dict begin
% definition operators
/bdef {bind def} bind def
/ldef {load def} bind def
/xdef {exch def} bdef
/xstore {exch store} bdef
% operator abbreviations
/c  /clip ldef
/cc /concat ldef
/cp /closepath ldef
/gr /grestore ldef
/gs /gsave ldef
/mt /moveto ldef
/np /newpath ldef
/cm /currentmatrix ldef
/sm /setmatrix ldef
/rm /rmoveto ldef
/rl /rlineto ldef
/s {show newpath} bdef
/sc {setcmykcolor} bdef
/sr /setrgbcolor ldef
/sg /setgray ldef
/w /setlinewidth ldef
/j /setlinejoin ldef
/cap /setlinecap ldef
/rc {rectclip} bdef
/rf {rectfill} bdef
% page state control
/pgsv () def
/bpage {/pgsv save def} bdef
/epage {pgsv restore} bdef
/bplot /gsave ldef
/eplot {stroke grestore} bdef
% orientation switch
/portraitMode 0 def /landscapeMode 1 def /rotateMode 2 def
% coordinate system mappings
/dpi2point 0 def
% font control
/FontSize 0 def
/FMS {/FontSize xstore findfont [FontSize 0 0 FontSize neg 0 0]
  makefont setfont} bdef
/reencode {exch dup where {pop load} {pop StandardEncoding} ifelse
  exch dup 3 1 roll findfont dup length dict begin
  { 1 index /FID ne {def}{pop pop} ifelse } forall
  /Encoding exch def currentdict end definefont pop} bdef
/isroman {findfont /CharStrings get /Agrave known} bdef
/FMSR {3 1 roll 1 index dup isroman {reencode} {pop pop} ifelse
  exch FMS} bdef
/csm {1 dpi2point div -1 dpi2point div scale neg translate
 dup landscapeMode eq {pop -90 rotate}
  {rotateMode eq {90 rotate} if} ifelse} bdef
% line types: solid, dotted, dashed, dotdash
/SO { [] 0 setdash } bdef
/DO { [.5 dpi2point mul 4 dpi2point mul] 0 setdash } bdef
/DA { [6 dpi2point mul] 0 setdash } bdef
/DD { [.5 dpi2point mul 4 dpi2point mul 6 dpi2point mul 4
  dpi2point mul] 0 setdash } bdef
% macros for lines and objects
/L {lineto stroke} bdef
/MP {3 1 roll moveto 1 sub {rlineto} repeat} bdef
/AP {{rlineto} repeat} bdef
/PDlw -1 def
/W {/PDlw currentlinewidth def setlinewidth} def
/PP {closepath eofill} bdef
/DP {closepath stroke} bdef
/MR {4 -2 roll moveto dup  0 exch rlineto exch 0 rlineto
  neg 0 exch rlineto closepath} bdef
/FR {MR stroke} bdef
/PR {MR fill} bdef
/L1i {{currentfile picstr readhexstring pop} image} bdef
/tMatrix matrix def
/MakeOval {newpath tMatrix currentmatrix pop translate scale
0 0 1 0 360 arc tMatrix setmatrix} bdef
/FO {MakeOval stroke} bdef
/PO {MakeOval fill} bdef
/PD {currentlinewidth 2 div 0 360 arc fill
   PDlw -1 eq not {PDlw w /PDlw -1 def} if} def
/FA {newpath tMatrix currentmatrix pop translate scale
  0 0 1 5 -2 roll arc tMatrix setmatrix stroke} bdef
/PA {newpath tMatrix currentmatrix pop	translate 0 0 moveto scale
  0 0 1 5 -2 roll arc closepath tMatrix setmatrix fill} bdef
/FAn {newpath tMatrix currentmatrix pop translate scale
  0 0 1 5 -2 roll arcn tMatrix setmatrix stroke} bdef
/PAn {newpath tMatrix currentmatrix pop translate 0 0 moveto scale
  0 0 1 5 -2 roll arcn closepath tMatrix setmatrix fill} bdef
/vradius 0 def /hradius 0 def /lry 0 def
/lrx 0 def /uly 0 def /ulx 0 def /rad 0 def
/MRR {/vradius xdef /hradius xdef /lry xdef /lrx xdef /uly xdef
  /ulx xdef newpath tMatrix currentmatrix pop ulx hradius add uly
  vradius add translate hradius vradius scale 0 0 1 180 270 arc 
  tMatrix setmatrix lrx hradius sub uly vradius add translate
  hradius vradius scale 0 0 1 270 360 arc tMatrix setmatrix
  lrx hradius sub lry vradius sub translate hradius vradius scale
  0 0 1 0 90 arc tMatrix setmatrix ulx hradius add lry vradius sub
  translate hradius vradius scale 0 0 1 90 180 arc tMatrix setmatrix
  closepath} bdef
/FRR {MRR stroke } bdef
/PRR {MRR fill } bdef
/MlrRR {/lry xdef /lrx xdef /uly xdef /ulx xdef /rad lry uly sub 2 div def
  newpath tMatrix currentmatrix pop ulx rad add uly rad add translate
  rad rad scale 0 0 1 90 270 arc tMatrix setmatrix lrx rad sub lry rad
  sub translate rad rad scale 0 0 1 270 90 arc tMatrix setmatrix
  closepath} bdef
/FlrRR {MlrRR stroke } bdef
/PlrRR {MlrRR fill } bdef
/MtbRR {/lry xdef /lrx xdef /uly xdef /ulx xdef /rad lrx ulx sub 2 div def
  newpath tMatrix currentmatrix pop ulx rad add uly rad add translate
  rad rad scale 0 0 1 180 360 arc tMatrix setmatrix lrx rad sub lry rad
  sub translate rad rad scale 0 0 1 0 180 arc tMatrix setmatrix
  closepath} bdef
/FtbRR {MtbRR stroke } bdef
/PtbRR {MtbRR fill } bdef
/stri 6 array def /dtri 6 array def
/smat 6 array def /dmat 6 array def
/tmat1 6 array def /tmat2 6 array def /dif 3 array def
/asub {/ind2 exch def /ind1 exch def dup dup
  ind1 get exch ind2 get sub exch } bdef
/tri_to_matrix {
  2 0 asub 3 1 asub 4 0 asub 5 1 asub
  dup 0 get exch 1 get 7 -1 roll astore } bdef
/compute_transform {
  dmat dtri tri_to_matrix tmat1 invertmatrix 
  smat stri tri_to_matrix tmat2 concatmatrix } bdef
/ds {stri astore pop} bdef
/dt {dtri astore pop} bdef
/db {2 copy /cols xdef /rows xdef mul dup 3 mul string
  currentfile exch readhexstring pop
  dup 0 3 index getinterval /rbmap xdef
  dup 2 index dup getinterval /gbmap xdef
  1 index dup 2 mul exch getinterval /bbmap xdef pop pop}bdef
/it {gs np dtri aload pop moveto lineto lineto cp c
  cols rows 8 compute_transform 
  rbmap gbmap bbmap true 3 colorimage gr}bdef
/il {newpath moveto lineto stroke}bdef
currentdict end def
%%EndProlog

%%BeginSetup
MathWorks begin

0 cap

end
%%EndSetup

%%Page: 1 1
%%BeginPageSetup
%%PageBoundingBox:    53   193   549   602
MathWorks begin
bpage
%%EndPageSetup

%%BeginObject: obj1
bplot

/dpi2point 12 def
portraitMode 0216 7344 csm

  430   110  5946  4916 MR c np
87 dict begin %Colortable dictionary
/c0 { 0.000000 0.000000 0.000000 sr} bdef
/c1 { 1.000000 1.000000 1.000000 sr} bdef
/c2 { 0.900000 0.000000 0.000000 sr} bdef
/c3 { 0.000000 0.820000 0.000000 sr} bdef
/c4 { 0.000000 0.000000 0.800000 sr} bdef
/c5 { 0.910000 0.820000 0.320000 sr} bdef
/c6 { 1.000000 0.260000 0.820000 sr} bdef
/c7 { 0.000000 0.820000 0.820000 sr} bdef
c0
1 j
1 sg
   0    0 6918 5189 PR
6 w
0 4228 5361 0 0 -4228 899 4617 4 MP
PP
-5361 0 0 4228 5361 0 0 -4228 899 4617 5 MP stroke
4 w
DO
0 sg
 899 4617 mt  899  389 L
 899  389 mt  899  389 L
1792 4617 mt 1792  389 L
1792  389 mt 1792  389 L
2686 4617 mt 2686  389 L
2686  389 mt 2686  389 L
3579 4617 mt 3579  389 L
3579  389 mt 3579  389 L
4473 4617 mt 4473  389 L
4473  389 mt 4473  389 L
5366 4617 mt 5366  389 L
5366  389 mt 5366  389 L
6260 4617 mt 6260  389 L
6260  389 mt 6260  389 L
 899 4617 mt 6260 4617 L
6260 4617 mt 6260 4617 L
 899 4088 mt 6260 4088 L
6260 4088 mt 6260 4088 L
 899 3560 mt 6260 3560 L
6260 3560 mt 6260 3560 L
 899 3031 mt 6260 3031 L
6260 3031 mt 6260 3031 L
 899 2503 mt 6260 2503 L
6260 2503 mt 6260 2503 L
 899 1974 mt 6260 1974 L
6260 1974 mt 6260 1974 L
 899 1446 mt 6260 1446 L
6260 1446 mt 6260 1446 L
 899  917 mt 6260  917 L
6260  917 mt 6260  917 L
 899  389 mt 6260  389 L
6260  389 mt 6260  389 L
SO
6 w
 899 4617 mt 6260 4617 L
 899  389 mt 6260  389 L
 899 4617 mt  899  389 L
6260 4617 mt 6260  389 L
 899 4617 mt 6260 4617 L
 899 4617 mt  899  389 L
 899 4617 mt  899 4563 L
 899  389 mt  899  442 L
%%IncludeResource: font Helvetica
/Helvetica /ISOLatin1Encoding 120 FMSR

 866 4762 mt 
(0) s
1792 4617 mt 1792 4563 L
1792  389 mt 1792  442 L
1759 4762 mt 
(5) s
2686 4617 mt 2686 4563 L
2686  389 mt 2686  442 L
2620 4762 mt 
(10) s
3579 4617 mt 3579 4563 L
3579  389 mt 3579  442 L
3513 4762 mt 
(15) s
4473 4617 mt 4473 4563 L
4473  389 mt 4473  442 L
4407 4762 mt 
(20) s
5366 4617 mt 5366 4563 L
5366  389 mt 5366  442 L
5300 4762 mt 
(25) s
6260 4617 mt 6260 4563 L
6260  389 mt 6260  442 L
6194 4762 mt 
(30) s
 899 4617 mt  952 4617 L
6260 4617 mt 6206 4617 L
 798 4661 mt 
(0) s
 899 4088 mt  952 4088 L
6260 4088 mt 6206 4088 L
 798 4132 mt 
(5) s
 899 3560 mt  952 3560 L
6260 3560 mt 6206 3560 L
 731 3604 mt 
(10) s
 899 3031 mt  952 3031 L
6260 3031 mt 6206 3031 L
 731 3075 mt 
(15) s
 899 2503 mt  952 2503 L
6260 2503 mt 6206 2503 L
 731 2547 mt 
(20) s
 899 1974 mt  952 1974 L
6260 1974 mt 6206 1974 L
 731 2018 mt 
(25) s
 899 1446 mt  952 1446 L
6260 1446 mt 6206 1446 L
 731 1490 mt 
(30) s
 899  917 mt  952  917 L
6260  917 mt 6206  917 L
 731  961 mt 
(35) s
 899  389 mt  952  389 L
6260  389 mt 6206  389 L
 731  433 mt 
(40) s
 899 4617 mt 6260 4617 L
 899  389 mt 6260  389 L
 899 4617 mt  899  389 L
6260 4617 mt 6260  389 L
gs 899 389 5362 4229 MR c np
24 w
/c8 { 1.000000 0.000000 0.000000 sr} bdef
c8
179 -111 179 151 179 -205 178 -310 179 392 179 400 178 -799 179 385 
179 108 178 464 179 -205 179 -425 179 331 178 -269 179 -464 179 -238 
178 356 179 -175 179 345 178 -74 179 142 179 74 179 -233 178 472 
179 -489 179 224 178 -763 179 1080 179 -288 1077 2089 30 MP stroke
DA
/c9 { 0.000000 1.000000 0.000000 sr} bdef
c9
179 -150 179 826 179 -527 178 74 179 941 179 -111 178 -41 179 -19 
179 -1434 178 1748 179 -1189 179 747 179 90 178 -101 179 519 179 -1309 
178 936 179 413 179 -30 178 -1018 179 -415 179 780 179 -137 178 -909 
179 1079 179 30 178 140 179 131 179 -588 1077 2696 30 MP stroke
DO
/c10 { 0.000000 0.000000 1.000000 sr} bdef
c10
179 0 179 -185 179 164 178 118 179 -1080 179 -7 178 203 179 -87 
179 16 178 -18 179 419 179 -13 179 67 178 -59 179 108 179 -42 
178 -122 179 148 179 -84 178 524 179 -47 179 -66 179 104 178 6 
179 -901 179 -21 178 -11 179 -52 179 68 1077 2076 30 MP stroke
DD
/c11 { 0.000000 1.000000 1.000000 sr} bdef
c11
179 83 179 -60 179 3 178 31 179 334 179 -276 178 246 179 -39 
179 264 178 -976 179 0 179 -2 179 -183 178 136 179 167 179 347 
178 -222 179 -61 179 -14 178 326 179 -26 179 -184 179 62 178 44 
179 524 179 -133 178 110 179 -159 179 218 1077 1085 30 MP stroke
gr

24 w
c11
DD
0 sg
%%IncludeResource: font Helvetica
/Helvetica /ISOLatin1Encoding 192 FMSR

3058 4958 mt 
(GOP [index]) s
 633 2968 mt  -90 rotate
(PSNR [dB]) s
90 rotate
%%IncludeResource: font Helvetica
/Helvetica /ISOLatin1Encoding 120 FMSR

2931  294 mt 
(Method= 07, RUN = 23, ) s
 882 4660 mt 
( ) s
6244  431 mt 
( ) s
SO
6 w
1 sg
0 626 859 0 0 -626 959 1075 4 MP
PP
-859 0 0 626 859 0 0 -626 959 1075 5 MP stroke
4 w
DO
SO
6 w
0 sg
 959 1075 mt 1818 1075 L
 959  449 mt 1818  449 L
 959 1075 mt  959  449 L
1818 1075 mt 1818  449 L
 959 1075 mt 1818 1075 L
 959 1075 mt  959  449 L
 959 1075 mt 1818 1075 L
 959  449 mt 1818  449 L
 959 1075 mt  959  449 L
1818 1075 mt 1818  449 L
1406  583 mt 
(User 1) s
gs 959 449 860 627 MR c np
24 w
c8
344 0 1027 540 2 MP stroke
gr

24 w
c8
0 sg
1406  731 mt 
(User 2) s
gs 959 449 860 627 MR c np
DA
c9
344 0 1027 688 2 MP stroke
SO
gr

c9
0 sg
1406  878 mt 
(User 3) s
gs 959 449 860 627 MR c np
DO
c10
344 0 1027 835 2 MP stroke
SO
gr

c10
0 sg
1406 1026 mt 
(User 4) s
gs 959 449 860 627 MR c np
DD
c11
344 0 1027 983 2 MP stroke
SO
6 w
gr

6 w
c11

end %%Color Dict

eplot
%%EndObject

epage
end

showpage

%%Trailer
%%EOF
