%!PS-Adobe-3.0 EPSF-3.0
%%Creator: MATLAB, The MathWorks, Inc. Version 8.1.0.604 (R2013a). Operating System: Darwin 13.4.0 Darwin Kernel Version 13.4.0: Sun Aug 17 19:50:11 PDT 2014; root:xnu-2422.115.4~1/RELEASE_X86_64 x86_64.
%%Title: /Users/le/Work/project3/Figures/Results/0923/R0_W5_SCh8_U1of4.eps
%%CreationDate: 09/23/2014  18:07:58
%%DocumentNeededFonts: Helvetica
%%DocumentProcessColors: Cyan Magenta Yellow Black
%%LanguageLevel: 2
%%Pages: 1
%%BoundingBox:    72   209   539   582
%%EndComments

%%BeginProlog
% MathWorks dictionary
/MathWorks 160 dict begin
% definition operators
/bdef {bind def} bind def
/ldef {load def} bind def
/xdef {exch def} bdef
/xstore {exch store} bdef
% operator abbreviations
/c  /clip ldef
/cc /concat ldef
/cp /closepath ldef
/gr /grestore ldef
/gs /gsave ldef
/mt /moveto ldef
/np /newpath ldef
/cm /currentmatrix ldef
/sm /setmatrix ldef
/rm /rmoveto ldef
/rl /rlineto ldef
/s {show newpath} bdef
/sc {setcmykcolor} bdef
/sr /setrgbcolor ldef
/sg /setgray ldef
/w /setlinewidth ldef
/j /setlinejoin ldef
/cap /setlinecap ldef
/rc {rectclip} bdef
/rf {rectfill} bdef
% page state control
/pgsv () def
/bpage {/pgsv save def} bdef
/epage {pgsv restore} bdef
/bplot /gsave ldef
/eplot {stroke grestore} bdef
% orientation switch
/portraitMode 0 def /landscapeMode 1 def /rotateMode 2 def
% coordinate system mappings
/dpi2point 0 def
% font control
/FontSize 0 def
/FMS {/FontSize xstore findfont [FontSize 0 0 FontSize neg 0 0]
  makefont setfont} bdef
/reencode {exch dup where {pop load} {pop StandardEncoding} ifelse
  exch dup 3 1 roll findfont dup length dict begin
  { 1 index /FID ne {def}{pop pop} ifelse } forall
  /Encoding exch def currentdict end definefont pop} bdef
/isroman {findfont /CharStrings get /Agrave known} bdef
/FMSR {3 1 roll 1 index dup isroman {reencode} {pop pop} ifelse
  exch FMS} bdef
/csm {1 dpi2point div -1 dpi2point div scale neg translate
 dup landscapeMode eq {pop -90 rotate}
  {rotateMode eq {90 rotate} if} ifelse} bdef
% line types: solid, dotted, dashed, dotdash
/SO { [] 0 setdash } bdef
/DO { [.5 dpi2point mul 4 dpi2point mul] 0 setdash } bdef
/DA { [6 dpi2point mul] 0 setdash } bdef
/DD { [.5 dpi2point mul 4 dpi2point mul 6 dpi2point mul 4
  dpi2point mul] 0 setdash } bdef
% macros for lines and objects
/L {lineto stroke} bdef
/MP {3 1 roll moveto 1 sub {rlineto} repeat} bdef
/AP {{rlineto} repeat} bdef
/PDlw -1 def
/W {/PDlw currentlinewidth def setlinewidth} def
/PP {closepath eofill} bdef
/DP {closepath stroke} bdef
/MR {4 -2 roll moveto dup  0 exch rlineto exch 0 rlineto
  neg 0 exch rlineto closepath} bdef
/FR {MR stroke} bdef
/PR {MR fill} bdef
/L1i {{currentfile picstr readhexstring pop} image} bdef
/tMatrix matrix def
/MakeOval {newpath tMatrix currentmatrix pop translate scale
0 0 1 0 360 arc tMatrix setmatrix} bdef
/FO {MakeOval stroke} bdef
/PO {MakeOval fill} bdef
/PD {currentlinewidth 2 div 0 360 arc fill
   PDlw -1 eq not {PDlw w /PDlw -1 def} if} def
/FA {newpath tMatrix currentmatrix pop translate scale
  0 0 1 5 -2 roll arc tMatrix setmatrix stroke} bdef
/PA {newpath tMatrix currentmatrix pop	translate 0 0 moveto scale
  0 0 1 5 -2 roll arc closepath tMatrix setmatrix fill} bdef
/FAn {newpath tMatrix currentmatrix pop translate scale
  0 0 1 5 -2 roll arcn tMatrix setmatrix stroke} bdef
/PAn {newpath tMatrix currentmatrix pop translate 0 0 moveto scale
  0 0 1 5 -2 roll arcn closepath tMatrix setmatrix fill} bdef
/vradius 0 def /hradius 0 def /lry 0 def
/lrx 0 def /uly 0 def /ulx 0 def /rad 0 def
/MRR {/vradius xdef /hradius xdef /lry xdef /lrx xdef /uly xdef
  /ulx xdef newpath tMatrix currentmatrix pop ulx hradius add uly
  vradius add translate hradius vradius scale 0 0 1 180 270 arc 
  tMatrix setmatrix lrx hradius sub uly vradius add translate
  hradius vradius scale 0 0 1 270 360 arc tMatrix setmatrix
  lrx hradius sub lry vradius sub translate hradius vradius scale
  0 0 1 0 90 arc tMatrix setmatrix ulx hradius add lry vradius sub
  translate hradius vradius scale 0 0 1 90 180 arc tMatrix setmatrix
  closepath} bdef
/FRR {MRR stroke } bdef
/PRR {MRR fill } bdef
/MlrRR {/lry xdef /lrx xdef /uly xdef /ulx xdef /rad lry uly sub 2 div def
  newpath tMatrix currentmatrix pop ulx rad add uly rad add translate
  rad rad scale 0 0 1 90 270 arc tMatrix setmatrix lrx rad sub lry rad
  sub translate rad rad scale 0 0 1 270 90 arc tMatrix setmatrix
  closepath} bdef
/FlrRR {MlrRR stroke } bdef
/PlrRR {MlrRR fill } bdef
/MtbRR {/lry xdef /lrx xdef /uly xdef /ulx xdef /rad lrx ulx sub 2 div def
  newpath tMatrix currentmatrix pop ulx rad add uly rad add translate
  rad rad scale 0 0 1 180 360 arc tMatrix setmatrix lrx rad sub lry rad
  sub translate rad rad scale 0 0 1 0 180 arc tMatrix setmatrix
  closepath} bdef
/FtbRR {MtbRR stroke } bdef
/PtbRR {MtbRR fill } bdef
/stri 6 array def /dtri 6 array def
/smat 6 array def /dmat 6 array def
/tmat1 6 array def /tmat2 6 array def /dif 3 array def
/asub {/ind2 exch def /ind1 exch def dup dup
  ind1 get exch ind2 get sub exch } bdef
/tri_to_matrix {
  2 0 asub 3 1 asub 4 0 asub 5 1 asub
  dup 0 get exch 1 get 7 -1 roll astore } bdef
/compute_transform {
  dmat dtri tri_to_matrix tmat1 invertmatrix 
  smat stri tri_to_matrix tmat2 concatmatrix } bdef
/ds {stri astore pop} bdef
/dt {dtri astore pop} bdef
/db {2 copy /cols xdef /rows xdef mul dup 3 mul string
  currentfile 
  3 index 0 eq {/ASCIIHexDecode filter}
  {/ASCII85Decode filter 3 index 2 eq {/RunLengthDecode filter} if }
  ifelse exch readstring pop
  dup 0 3 index getinterval /rbmap xdef
  dup 2 index dup getinterval /gbmap xdef
  1 index dup 2 mul exch getinterval /bbmap xdef pop pop}bdef
/it {gs np dtri aload pop moveto lineto lineto cp c
  cols rows 8 compute_transform 
  rbmap gbmap bbmap true 3 colorimage gr}bdef
/il {newpath moveto lineto stroke}bdef
currentdict end def
%%EndProlog

%%BeginSetup
MathWorks begin

0 cap

end
%%EndSetup

%%Page: 1 1
%%BeginPageSetup
%%PageBoundingBox:    72   209   539   582
MathWorks begin
bpage
%%EndPageSetup

%%BeginObject: obj1
bplot

/dpi2point 12 def
portraitMode 0864 6984 csm

    0     0  5604  4476 rc
85 dict begin %Colortable dictionary
/c0 { 0.000000 0.000000 0.000000 sr} bdef
/c1 { 1.000000 1.000000 1.000000 sr} bdef
/c2 { 0.900000 0.000000 0.000000 sr} bdef
/c3 { 0.000000 0.820000 0.000000 sr} bdef
/c4 { 0.000000 0.000000 0.800000 sr} bdef
/c5 { 0.910000 0.820000 0.320000 sr} bdef
/c6 { 1.000000 0.260000 0.820000 sr} bdef
/c7 { 0.000000 0.820000 0.820000 sr} bdef
c0
1 j
1 sg
   0    0 5605 4477 rf
6 w
0 3648 4343 0 0 -3648 729 3984 4 MP
PP
-4343 0 0 3648 4343 0 0 -3648 729 3984 5 MP stroke
4 w
DO
0 sg
 729 3984 mt  729  336 L
 729  336 mt  729  336 L
1163 3984 mt 1163  336 L
1163  336 mt 1163  336 L
1597 3984 mt 1597  336 L
1597  336 mt 1597  336 L
2031 3984 mt 2031  336 L
2031  336 mt 2031  336 L
2466 3984 mt 2466  336 L
2466  336 mt 2466  336 L
2900 3984 mt 2900  336 L
2900  336 mt 2900  336 L
3334 3984 mt 3334  336 L
3334  336 mt 3334  336 L
3769 3984 mt 3769  336 L
3769  336 mt 3769  336 L
4203 3984 mt 4203  336 L
4203  336 mt 4203  336 L
4637 3984 mt 4637  336 L
4637  336 mt 4637  336 L
5072 3984 mt 5072  336 L
5072  336 mt 5072  336 L
 729 3984 mt 5072 3984 L
5072 3984 mt 5072 3984 L
 729 3528 mt 5072 3528 L
5072 3528 mt 5072 3528 L
 729 3072 mt 5072 3072 L
5072 3072 mt 5072 3072 L
 729 2616 mt 5072 2616 L
5072 2616 mt 5072 2616 L
 729 2160 mt 5072 2160 L
5072 2160 mt 5072 2160 L
 729 1704 mt 5072 1704 L
5072 1704 mt 5072 1704 L
 729 1248 mt 5072 1248 L
5072 1248 mt 5072 1248 L
 729  792 mt 5072  792 L
5072  792 mt 5072  792 L
 729  336 mt 5072  336 L
5072  336 mt 5072  336 L
SO
6 w
 729 3984 mt 5072 3984 L
 729  336 mt 5072  336 L
 729 3984 mt  729  336 L
5072 3984 mt 5072  336 L
 729 3984 mt 5072 3984 L
 729 3984 mt  729  336 L
 729 3984 mt  729 3940 L
 729  336 mt  729  379 L
%%IncludeResource: font Helvetica
/Helvetica /ISOLatin1Encoding 120 FMSR

 696 4129 mt 
(0) s
1163 3984 mt 1163 3940 L
1163  336 mt 1163  379 L
1130 4129 mt 
(5) s
1597 3984 mt 1597 3940 L
1597  336 mt 1597  379 L
1531 4129 mt 
(10) s
2031 3984 mt 2031 3940 L
2031  336 mt 2031  379 L
1965 4129 mt 
(15) s
2466 3984 mt 2466 3940 L
2466  336 mt 2466  379 L
2400 4129 mt 
(20) s
2900 3984 mt 2900 3940 L
2900  336 mt 2900  379 L
2834 4129 mt 
(25) s
3334 3984 mt 3334 3940 L
3334  336 mt 3334  379 L
3268 4129 mt 
(30) s
3769 3984 mt 3769 3940 L
3769  336 mt 3769  379 L
3703 4129 mt 
(35) s
4203 3984 mt 4203 3940 L
4203  336 mt 4203  379 L
4137 4129 mt 
(40) s
4637 3984 mt 4637 3940 L
4637  336 mt 4637  379 L
4571 4129 mt 
(45) s
5072 3984 mt 5072 3940 L
5072  336 mt 5072  379 L
5006 4129 mt 
(50) s
 729 3984 mt  772 3984 L
5072 3984 mt 5028 3984 L
 561 4028 mt 
(14) s
 729 3528 mt  772 3528 L
5072 3528 mt 5028 3528 L
 561 3572 mt 
(15) s
 729 3072 mt  772 3072 L
5072 3072 mt 5028 3072 L
 561 3116 mt 
(16) s
 729 2616 mt  772 2616 L
5072 2616 mt 5028 2616 L
 561 2660 mt 
(17) s
 729 2160 mt  772 2160 L
5072 2160 mt 5028 2160 L
 561 2204 mt 
(18) s
 729 1704 mt  772 1704 L
5072 1704 mt 5028 1704 L
 561 1748 mt 
(19) s
 729 1248 mt  772 1248 L
5072 1248 mt 5028 1248 L
 561 1292 mt 
(20) s
 729  792 mt  772  792 L
5072  792 mt 5028  792 L
 561  836 mt 
(21) s
 729  336 mt  772  336 L
5072  336 mt 5028  336 L
 561  380 mt 
(22) s
 729 3984 mt 5072 3984 L
 729  336 mt 5072  336 L
 729 3984 mt  729  336 L
5072 3984 mt 5072  336 L
gs 729 336 4344 3649 rc
12 w
/c8 { 0.000000 0.000000 1.000000 sr} bdef
c8
87 296 87 -233 87 442 87 -706 87 384 87 727 87 -355 86 474 
87 -427 87 575 87 35 87 -1277 87 416 87 433 86 320 87 -921 
87 220 87 -340 87 340 87 246 87 -2208 86 1427 87 827 87 -399 
87 654 87 262 87 -1344 87 587 86 -1131 87 544 87 587 87 -331 
87 -61 87 -410 87 996 86 -246 87 52 87 194 87 -194 87 574 
87 -1161 87 916 86 166 87 -1297 87 -420 87 1636 87 -686 87 57 
87 265 815 1607 50 MP stroke
/c9 { 0.000000 0.500000 0.000000 sr} bdef
c9
87 680 87 -226 87 100 87 -1198 87 1064 87 -180 87 37 86 143 
87 -218 87 352 87 64 87 -940 87 599 87 143 86 -70 87 -350 
87 385 87 -222 87 -163 87 454 87 -679 86 465 87 214 87 -541 
87 364 87 277 87 -826 87 512 86 -157 87 337 87 0 87 134 
87 -512 87 -42 87 385 86 -262 87 398 87 -319 87 75 87 143 
87 -645 87 645 86 134 87 -471 87 -126 87 428 87 -428 87 357 
87 207 815 764 50 MP stroke
gr

12 w
c9
gs 742 532 4404 1471 rc
 779  764 mt  851  764 L
 815  728 mt  815  800 L
 866  971 mt  938  971 L
 902  935 mt  902 1007 L
 953 1328 mt 1025 1328 L
 989 1292 mt  989 1364 L
1040  900 mt 1112  900 L
1076  864 mt 1076  936 L
1127 1328 mt 1199 1328 L
1163 1292 mt 1163 1364 L
1214 1202 mt 1286 1202 L
1250 1166 mt 1250 1238 L
1301  731 mt 1373  731 L
1337  695 mt 1337  767 L
1387  865 mt 1459  865 L
1423  829 mt 1423  901 L
1474 1510 mt 1546 1510 L
1510 1474 mt 1510 1546 L
1561  865 mt 1633  865 L
1597  829 mt 1597  901 L
1648 1008 mt 1720 1008 L
1684  972 mt 1684 1044 L
1735 1083 mt 1807 1083 L
1771 1047 mt 1771 1119 L
1822  764 mt 1894  764 L
1858  728 mt 1858  800 L
1909 1162 mt 1981 1162 L
1945 1126 mt 1945 1198 L
1995  900 mt 2067  900 L
2031  864 mt 2031  936 L
2082 1285 mt 2154 1285 L
2118 1249 mt 2118 1321 L
2169 1243 mt 2241 1243 L
2205 1207 mt 2205 1279 L
2256  731 mt 2328  731 L
2292  695 mt 2292  767 L
2343  865 mt 2415  865 L
2379  829 mt 2379  901 L
2430  865 mt 2502  865 L
2466  829 mt 2466  901 L
2517 1202 mt 2589 1202 L
2553 1166 mt 2553 1238 L
2603 1045 mt 2675 1045 L
2639 1009 mt 2639 1081 L
2690 1557 mt 2762 1557 L
2726 1521 mt 2726 1593 L
2777  731 mt 2849  731 L
2813  695 mt 2813  767 L
2864 1008 mt 2936 1008 L
2900  972 mt 2900 1044 L
2951 1372 mt 3023 1372 L
2987 1336 mt 2987 1408 L
3038  831 mt 3110  831 L
3074  795 mt 3074  867 L
3125 1045 mt 3197 1045 L
3161 1009 mt 3161 1081 L
3211 1510 mt 3283 1510 L
3247 1474 mt 3247 1546 L
3298  831 mt 3370  831 L
3334  795 mt 3334  867 L
3385 1285 mt 3457 1285 L
3421 1249 mt 3421 1321 L
3472 1122 mt 3544 1122 L
3508 1086 mt 3508 1158 L
3559  900 mt 3631  900 L
3595  864 mt 3595  936 L
3646 1285 mt 3718 1285 L
3682 1249 mt 3682 1321 L
3733  935 mt 3805  935 L
3769  899 mt 3769  971 L
3819  865 mt 3891  865 L
3855  829 mt 3855  901 L
3906 1008 mt 3978 1008 L
3942  972 mt 3942 1044 L
3993 1607 mt 4065 1607 L
4029 1571 mt 4029 1643 L
4080  667 mt 4152  667 L
4116  631 mt 4116  703 L
4167  731 mt 4239  731 L
4203  695 mt 4203  767 L
4254 1083 mt 4326 1083 L
4290 1047 mt 4290 1119 L
4341  865 mt 4413  865 L
4377  829 mt 4377  901 L
4427 1008 mt 4499 1008 L
4463  972 mt 4463 1044 L
4514 1045 mt 4586 1045 L
4550 1009 mt 4550 1081 L
4601  865 mt 4673  865 L
4637  829 mt 4637  901 L
4688 1929 mt 4760 1929 L
4724 1893 mt 4724 1965 L
4775  731 mt 4847  731 L
4811  695 mt 4811  767 L
4862  831 mt 4934  831 L
4898  795 mt 4898  867 L
4949  605 mt 5021  605 L
4985  569 mt 4985  641 L
5036 1285 mt 5108 1285 L
5072 1249 mt 5072 1321 L
gr

gs 729 336 4344 3649 rc
6 w
/c10 { 1.000000 0.000000 0.000000 sr} bdef
c10
87 517 87 -62 87 -130 87 -713 87 679 87 -177 87 73 86 138 
87 -34 87 286 87 -186 87 -352 87 183 87 -35 86 299 87 -335 
87 -37 87 -154 87 365 87 98 87 -346 86 110 87 268 87 -268 
87 0 87 268 87 -341 87 177 86 -104 87 171 87 0 87 0 
87 -244 87 -37 87 314 86 -277 87 211 87 0 87 -103 87 295 
87 -723 87 564 86 -33 87 -365 87 -166 87 357 87 -314 87 202 
87 384 815 699 50 MP stroke
gr

6 w
c10
gs 742 472 4404 1112 rc
  36   36  815  699 FO
  36   36  902 1083 FO
  36   36  989 1285 FO
  36   36 1076  971 FO
  36   36 1163 1328 FO
  36   36 1250 1162 FO
  36   36 1337  797 FO
  36   36 1423  764 FO
  36   36 1510 1328 FO
  36   36 1597  605 FO
  36   36 1684  900 FO
  36   36 1771  797 FO
  36   36 1858  797 FO
  36   36 1945 1008 FO
  36   36 2031  731 FO
  36   36 2118 1045 FO
  36   36 2205 1008 FO
  36   36 2292  764 FO
  36   36 2379  764 FO
  36   36 2466  764 FO
  36   36 2553  935 FO
  36   36 2639  831 FO
  36   36 2726 1008 FO
  36   36 2813  667 FO
  36   36 2900  935 FO
  36   36 2987  935 FO
  36   36 3074  667 FO
  36   36 3161  935 FO
  36   36 3247 1045 FO
  36   36 3334  699 FO
  36   36 3421  797 FO
  36   36 3508 1162 FO
  36   36 3595 1008 FO
  36   36 3682  971 FO
  36   36 3769  636 FO
  36   36 3855  935 FO
  36   36 3942  900 FO
  36   36 4029 1083 FO
  36   36 4116  731 FO
  36   36 4203  545 FO
  36   36 4290  831 FO
  36   36 4377  797 FO
  36   36 4463  935 FO
  36   36 4550 1008 FO
  36   36 4637  831 FO
  36   36 4724 1510 FO
  36   36 4811  797 FO
  36   36 4898  667 FO
  36   36 4985  605 FO
  36   36 5072 1122 FO
gr

gs 729 336 4344 3649 rc
gr

0 sg
%%IncludeResource: font Helvetica
/Helvetica /ISOLatin1Encoding 168 FMSR

2712 4307 mt 
(GOP) s
 469 2567 mt  -90 rotate
(PSNR [dB]) s
90 rotate
1469  231 mt 
(Run0, User 1 of 4, windowPastGOP=5) s
%%IncludeResource: font Helvetica
/Helvetica /ISOLatin1Encoding 120 FMSR

 712 4027 mt 
( ) s
5056  378 mt 
( ) s
1 sg
0 563 2001 0 0 -563 938 3720 4 MP
PP
-2001 0 0 563 2001 0 0 -563 938 3720 5 MP stroke
4 w
DO
SO
6 w
0 sg
 938 3720 mt 2939 3720 L
 938 3157 mt 2939 3157 L
 938 3720 mt  938 3157 L
2939 3720 mt 2939 3157 L
 938 3720 mt 2939 3720 L
 938 3720 mt  938 3157 L
 938 3720 mt 2939 3720 L
 938 3157 mt 2939 3157 L
 938 3720 mt  938 3157 L
2939 3720 mt 2939 3157 L
1442 3307 mt 
(Block-wise) s
gs 938 3157 2002 564 rc
12 w
c8
388 0 1015 3264 2 MP stroke
gr

12 w
c8
0 sg
1442 3481 mt 
(Sequential Optimization) s
gs 938 3157 2002 564 rc
c9
388 0 1015 3438 2 MP stroke
gs 1136 3365 147 147 rc
1173 3438 mt 1245 3438 L
1209 3402 mt 1209 3474 L
gr

gr

c9
0 sg
1442 3655 mt 
(Novel Optimization) s
gs 938 3157 2002 564 rc
6 w
c10
388 0 1015 3612 2 MP stroke
gs 1136 3539 147 147 rc
  36   36 1209 3612 FO
gr

gr

6 w
c10

end %%Color Dict

eplot
%%EndObject

epage
end

showpage

%%Trailer
%%EOF
