%!PS-Adobe-3.0 EPSF-3.0
%%Creator: MATLAB, The MathWorks, Inc. Version 8.1.0.604 (R2013a). Operating System: Darwin 13.4.0 Darwin Kernel Version 13.4.0: Sun Aug 17 19:50:11 PDT 2014; root:xnu-2422.115.4~1/RELEASE_X86_64 x86_64.
%%Title: /Users/le/Work/project3/Figures/Results/0923/R0_W5_SCh8_U3of4.eps
%%CreationDate: 09/23/2014  18:13:04
%%DocumentNeededFonts: Helvetica
%%DocumentProcessColors: Cyan Magenta Yellow Black
%%LanguageLevel: 2
%%Pages: 1
%%BoundingBox:    72   209   539   582
%%EndComments

%%BeginProlog
% MathWorks dictionary
/MathWorks 160 dict begin
% definition operators
/bdef {bind def} bind def
/ldef {load def} bind def
/xdef {exch def} bdef
/xstore {exch store} bdef
% operator abbreviations
/c  /clip ldef
/cc /concat ldef
/cp /closepath ldef
/gr /grestore ldef
/gs /gsave ldef
/mt /moveto ldef
/np /newpath ldef
/cm /currentmatrix ldef
/sm /setmatrix ldef
/rm /rmoveto ldef
/rl /rlineto ldef
/s {show newpath} bdef
/sc {setcmykcolor} bdef
/sr /setrgbcolor ldef
/sg /setgray ldef
/w /setlinewidth ldef
/j /setlinejoin ldef
/cap /setlinecap ldef
/rc {rectclip} bdef
/rf {rectfill} bdef
% page state control
/pgsv () def
/bpage {/pgsv save def} bdef
/epage {pgsv restore} bdef
/bplot /gsave ldef
/eplot {stroke grestore} bdef
% orientation switch
/portraitMode 0 def /landscapeMode 1 def /rotateMode 2 def
% coordinate system mappings
/dpi2point 0 def
% font control
/FontSize 0 def
/FMS {/FontSize xstore findfont [FontSize 0 0 FontSize neg 0 0]
  makefont setfont} bdef
/reencode {exch dup where {pop load} {pop StandardEncoding} ifelse
  exch dup 3 1 roll findfont dup length dict begin
  { 1 index /FID ne {def}{pop pop} ifelse } forall
  /Encoding exch def currentdict end definefont pop} bdef
/isroman {findfont /CharStrings get /Agrave known} bdef
/FMSR {3 1 roll 1 index dup isroman {reencode} {pop pop} ifelse
  exch FMS} bdef
/csm {1 dpi2point div -1 dpi2point div scale neg translate
 dup landscapeMode eq {pop -90 rotate}
  {rotateMode eq {90 rotate} if} ifelse} bdef
% line types: solid, dotted, dashed, dotdash
/SO { [] 0 setdash } bdef
/DO { [.5 dpi2point mul 4 dpi2point mul] 0 setdash } bdef
/DA { [6 dpi2point mul] 0 setdash } bdef
/DD { [.5 dpi2point mul 4 dpi2point mul 6 dpi2point mul 4
  dpi2point mul] 0 setdash } bdef
% macros for lines and objects
/L {lineto stroke} bdef
/MP {3 1 roll moveto 1 sub {rlineto} repeat} bdef
/AP {{rlineto} repeat} bdef
/PDlw -1 def
/W {/PDlw currentlinewidth def setlinewidth} def
/PP {closepath eofill} bdef
/DP {closepath stroke} bdef
/MR {4 -2 roll moveto dup  0 exch rlineto exch 0 rlineto
  neg 0 exch rlineto closepath} bdef
/FR {MR stroke} bdef
/PR {MR fill} bdef
/L1i {{currentfile picstr readhexstring pop} image} bdef
/tMatrix matrix def
/MakeOval {newpath tMatrix currentmatrix pop translate scale
0 0 1 0 360 arc tMatrix setmatrix} bdef
/FO {MakeOval stroke} bdef
/PO {MakeOval fill} bdef
/PD {currentlinewidth 2 div 0 360 arc fill
   PDlw -1 eq not {PDlw w /PDlw -1 def} if} def
/FA {newpath tMatrix currentmatrix pop translate scale
  0 0 1 5 -2 roll arc tMatrix setmatrix stroke} bdef
/PA {newpath tMatrix currentmatrix pop	translate 0 0 moveto scale
  0 0 1 5 -2 roll arc closepath tMatrix setmatrix fill} bdef
/FAn {newpath tMatrix currentmatrix pop translate scale
  0 0 1 5 -2 roll arcn tMatrix setmatrix stroke} bdef
/PAn {newpath tMatrix currentmatrix pop translate 0 0 moveto scale
  0 0 1 5 -2 roll arcn closepath tMatrix setmatrix fill} bdef
/vradius 0 def /hradius 0 def /lry 0 def
/lrx 0 def /uly 0 def /ulx 0 def /rad 0 def
/MRR {/vradius xdef /hradius xdef /lry xdef /lrx xdef /uly xdef
  /ulx xdef newpath tMatrix currentmatrix pop ulx hradius add uly
  vradius add translate hradius vradius scale 0 0 1 180 270 arc 
  tMatrix setmatrix lrx hradius sub uly vradius add translate
  hradius vradius scale 0 0 1 270 360 arc tMatrix setmatrix
  lrx hradius sub lry vradius sub translate hradius vradius scale
  0 0 1 0 90 arc tMatrix setmatrix ulx hradius add lry vradius sub
  translate hradius vradius scale 0 0 1 90 180 arc tMatrix setmatrix
  closepath} bdef
/FRR {MRR stroke } bdef
/PRR {MRR fill } bdef
/MlrRR {/lry xdef /lrx xdef /uly xdef /ulx xdef /rad lry uly sub 2 div def
  newpath tMatrix currentmatrix pop ulx rad add uly rad add translate
  rad rad scale 0 0 1 90 270 arc tMatrix setmatrix lrx rad sub lry rad
  sub translate rad rad scale 0 0 1 270 90 arc tMatrix setmatrix
  closepath} bdef
/FlrRR {MlrRR stroke } bdef
/PlrRR {MlrRR fill } bdef
/MtbRR {/lry xdef /lrx xdef /uly xdef /ulx xdef /rad lrx ulx sub 2 div def
  newpath tMatrix currentmatrix pop ulx rad add uly rad add translate
  rad rad scale 0 0 1 180 360 arc tMatrix setmatrix lrx rad sub lry rad
  sub translate rad rad scale 0 0 1 0 180 arc tMatrix setmatrix
  closepath} bdef
/FtbRR {MtbRR stroke } bdef
/PtbRR {MtbRR fill } bdef
/stri 6 array def /dtri 6 array def
/smat 6 array def /dmat 6 array def
/tmat1 6 array def /tmat2 6 array def /dif 3 array def
/asub {/ind2 exch def /ind1 exch def dup dup
  ind1 get exch ind2 get sub exch } bdef
/tri_to_matrix {
  2 0 asub 3 1 asub 4 0 asub 5 1 asub
  dup 0 get exch 1 get 7 -1 roll astore } bdef
/compute_transform {
  dmat dtri tri_to_matrix tmat1 invertmatrix 
  smat stri tri_to_matrix tmat2 concatmatrix } bdef
/ds {stri astore pop} bdef
/dt {dtri astore pop} bdef
/db {2 copy /cols xdef /rows xdef mul dup 3 mul string
  currentfile 
  3 index 0 eq {/ASCIIHexDecode filter}
  {/ASCII85Decode filter 3 index 2 eq {/RunLengthDecode filter} if }
  ifelse exch readstring pop
  dup 0 3 index getinterval /rbmap xdef
  dup 2 index dup getinterval /gbmap xdef
  1 index dup 2 mul exch getinterval /bbmap xdef pop pop}bdef
/it {gs np dtri aload pop moveto lineto lineto cp c
  cols rows 8 compute_transform 
  rbmap gbmap bbmap true 3 colorimage gr}bdef
/il {newpath moveto lineto stroke}bdef
currentdict end def
%%EndProlog

%%BeginSetup
MathWorks begin

0 cap

end
%%EndSetup

%%Page: 1 1
%%BeginPageSetup
%%PageBoundingBox:    72   209   539   582
MathWorks begin
bpage
%%EndPageSetup

%%BeginObject: obj1
bplot

/dpi2point 12 def
portraitMode 0864 6984 csm

    0     0  5604  4476 rc
85 dict begin %Colortable dictionary
/c0 { 0.000000 0.000000 0.000000 sr} bdef
/c1 { 1.000000 1.000000 1.000000 sr} bdef
/c2 { 0.900000 0.000000 0.000000 sr} bdef
/c3 { 0.000000 0.820000 0.000000 sr} bdef
/c4 { 0.000000 0.000000 0.800000 sr} bdef
/c5 { 0.910000 0.820000 0.320000 sr} bdef
/c6 { 1.000000 0.260000 0.820000 sr} bdef
/c7 { 0.000000 0.820000 0.820000 sr} bdef
c0
1 j
1 sg
   0    0 5605 4477 rf
6 w
0 3648 4343 0 0 -3648 729 3984 4 MP
PP
-4343 0 0 3648 4343 0 0 -3648 729 3984 5 MP stroke
4 w
DO
0 sg
 729 3984 mt  729  336 L
 729  336 mt  729  336 L
1163 3984 mt 1163  336 L
1163  336 mt 1163  336 L
1597 3984 mt 1597  336 L
1597  336 mt 1597  336 L
2031 3984 mt 2031  336 L
2031  336 mt 2031  336 L
2466 3984 mt 2466  336 L
2466  336 mt 2466  336 L
2900 3984 mt 2900  336 L
2900  336 mt 2900  336 L
3334 3984 mt 3334  336 L
3334  336 mt 3334  336 L
3769 3984 mt 3769  336 L
3769  336 mt 3769  336 L
4203 3984 mt 4203  336 L
4203  336 mt 4203  336 L
4637 3984 mt 4637  336 L
4637  336 mt 4637  336 L
5072 3984 mt 5072  336 L
5072  336 mt 5072  336 L
 729 3984 mt 5072 3984 L
5072 3984 mt 5072 3984 L
 729 3462 mt 5072 3462 L
5072 3462 mt 5072 3462 L
 729 2941 mt 5072 2941 L
5072 2941 mt 5072 2941 L
 729 2420 mt 5072 2420 L
5072 2420 mt 5072 2420 L
 729 1899 mt 5072 1899 L
5072 1899 mt 5072 1899 L
 729 1378 mt 5072 1378 L
5072 1378 mt 5072 1378 L
 729  857 mt 5072  857 L
5072  857 mt 5072  857 L
 729  336 mt 5072  336 L
5072  336 mt 5072  336 L
SO
6 w
 729 3984 mt 5072 3984 L
 729  336 mt 5072  336 L
 729 3984 mt  729  336 L
5072 3984 mt 5072  336 L
 729 3984 mt 5072 3984 L
 729 3984 mt  729  336 L
 729 3984 mt  729 3940 L
 729  336 mt  729  379 L
%%IncludeResource: font Helvetica
/Helvetica /ISOLatin1Encoding 120 FMSR

 696 4129 mt 
(0) s
1163 3984 mt 1163 3940 L
1163  336 mt 1163  379 L
1130 4129 mt 
(5) s
1597 3984 mt 1597 3940 L
1597  336 mt 1597  379 L
1531 4129 mt 
(10) s
2031 3984 mt 2031 3940 L
2031  336 mt 2031  379 L
1965 4129 mt 
(15) s
2466 3984 mt 2466 3940 L
2466  336 mt 2466  379 L
2400 4129 mt 
(20) s
2900 3984 mt 2900 3940 L
2900  336 mt 2900  379 L
2834 4129 mt 
(25) s
3334 3984 mt 3334 3940 L
3334  336 mt 3334  379 L
3268 4129 mt 
(30) s
3769 3984 mt 3769 3940 L
3769  336 mt 3769  379 L
3703 4129 mt 
(35) s
4203 3984 mt 4203 3940 L
4203  336 mt 4203  379 L
4137 4129 mt 
(40) s
4637 3984 mt 4637 3940 L
4637  336 mt 4637  379 L
4571 4129 mt 
(45) s
5072 3984 mt 5072 3940 L
5072  336 mt 5072  379 L
5006 4129 mt 
(50) s
 729 3984 mt  772 3984 L
5072 3984 mt 5028 3984 L
 561 4028 mt 
(15) s
 729 3462 mt  772 3462 L
5072 3462 mt 5028 3462 L
 561 3506 mt 
(16) s
 729 2941 mt  772 2941 L
5072 2941 mt 5028 2941 L
 561 2985 mt 
(17) s
 729 2420 mt  772 2420 L
5072 2420 mt 5028 2420 L
 561 2464 mt 
(18) s
 729 1899 mt  772 1899 L
5072 1899 mt 5028 1899 L
 561 1943 mt 
(19) s
 729 1378 mt  772 1378 L
5072 1378 mt 5028 1378 L
 561 1422 mt 
(20) s
 729  857 mt  772  857 L
5072  857 mt 5028  857 L
 561  901 mt 
(21) s
 729  336 mt  772  336 L
5072  336 mt 5028  336 L
 561  380 mt 
(22) s
 729 3984 mt 5072 3984 L
 729  336 mt 5072  336 L
 729 3984 mt  729  336 L
5072 3984 mt 5072  336 L
gs 729 336 4344 3649 rc
/c8 { 0.000000 0.000000 1.000000 sr} bdef
c8
87 1890 87 -1177 87 -551 87 425 87 126 87 -475 87 535 86 228 
87 -55 87 670 87 -1029 87 467 87 -222 87 -378 86 1244 87 -985 
87 -1750 87 1275 87 763 87 157 87 -385 86 0 87 228 87 -480 
87 967 87 365 87 -1021 87 -378 86 -1019 87 1963 87 -625 87 -1038 
87 -195 87 1350 87 -303 86 126 87 -1278 87 647 87 302 87 617 
87 -480 87 -209 86 1304 87 -1701 87 858 87 -1233 87 -450 87 1431 
87 480 815 1677 50 MP stroke
/c9 { 0.000000 0.500000 0.000000 sr} bdef
c9
87 944 87 246 87 -438 87 -441 87 400 87 -214 87 -91 86 305 
87 412 87 -106 87 -148 87 -814 87 737 87 -340 86 340 87 -580 
87 416 87 -366 87 826 87 -71 87 -432 86 -274 87 317 87 -222 
87 305 87 342 87 -342 87 -305 86 222 87 164 87 -250 87 -434 
87 203 87 -99 87 657 86 -558 87 520 87 -161 87 -42 87 241 
87 -372 87 88 86 359 87 -492 87 -397 87 697 87 -393 87 352 
87 41 815 980 50 MP stroke
gr

c9
gs 742 469 4404 1337 rc
 779  980 mt  851  980 L
 815  944 mt  815 1016 L
 866 1021 mt  938 1021 L
 902  985 mt  902 1057 L
 953 1373 mt 1025 1373 L
 989 1337 mt  989 1409 L
1040  980 mt 1112  980 L
1076  944 mt 1076 1016 L
1127 1677 mt 1199 1677 L
1163 1641 mt 1163 1713 L
1214 1280 mt 1286 1280 L
1250 1244 mt 1250 1316 L
1301  788 mt 1373  788 L
1337  752 mt 1337  824 L
1387 1147 mt 1459 1147 L
1423 1111 mt 1423 1183 L
1474 1235 mt 1546 1235 L
1510 1199 mt 1510 1271 L
1561  863 mt 1633  863 L
1597  827 mt 1597  899 L
1648 1104 mt 1720 1104 L
1684 1068 mt 1684 1140 L
1735 1062 mt 1807 1062 L
1771 1026 mt 1771 1098 L
1822  901 mt 1894  901 L
1858  865 mt 1858  937 L
1909 1421 mt 1981 1421 L
1945 1385 mt 1945 1457 L
1995  863 mt 2067  863 L
2031  827 mt 2031  899 L
2082 1520 mt 2154 1520 L
2118 1484 mt 2118 1556 L
2169 1421 mt 2241 1421 L
2205 1385 mt 2205 1457 L
2256 1624 mt 2328 1624 L
2292 1588 mt 2292 1660 L
2343 1190 mt 2415 1190 L
2379 1154 mt 2379 1226 L
2430  940 mt 2502  940 L
2466  904 mt 2466  976 L
2517 1104 mt 2589 1104 L
2553 1068 mt 2553 1140 L
2603 1326 mt 2675 1326 L
2639 1290 mt 2639 1362 L
2690 1021 mt 2762 1021 L
2726  985 mt 2726 1057 L
2777  679 mt 2849  679 L
2813  643 mt 2813  715 L
2864 1021 mt 2936 1021 L
2900  985 mt 2900 1057 L
2951 1326 mt 3023 1326 L
2987 1290 mt 2987 1362 L
3038 1104 mt 3110 1104 L
3074 1068 mt 3074 1140 L
3125 1421 mt 3197 1421 L
3161 1385 mt 3161 1457 L
3211 1147 mt 3283 1147 L
3247 1111 mt 3247 1183 L
3298  715 mt 3370  715 L
3334  679 mt 3334  751 L
3385  644 mt 3457  644 L
3421  608 mt 3421  680 L
3472 1470 mt 3544 1470 L
3508 1434 mt 3508 1506 L
3559 1104 mt 3631 1104 L
3595 1068 mt 3595 1140 L
3646 1520 mt 3718 1520 L
3682 1484 mt 3682 1556 L
3733  940 mt 3805  940 L
3769  904 mt 3769  976 L
3819 1280 mt 3891 1280 L
3855 1244 mt 3855 1316 L
3906  940 mt 3978  940 L
3942  904 mt 3942  976 L
3993 1677 mt 4065 1677 L
4029 1641 mt 4029 1713 L
4080  863 mt 4152  863 L
4116  827 mt 4116  899 L
4167  715 mt 4239  715 L
4203  679 mt 4203  751 L
4254  609 mt 4326  609 L
4290  573 mt 4290  645 L
4341 1021 mt 4413 1021 L
4377  985 mt 4377 1057 L
4427 1326 mt 4499 1326 L
4463 1290 mt 4463 1362 L
4514 1235 mt 4586 1235 L
4550 1199 mt 4550 1271 L
4601 1021 mt 4673 1021 L
4637  985 mt 4637 1057 L
4688 1421 mt 4760 1421 L
4724 1385 mt 4724 1457 L
4775  980 mt 4847  980 L
4811  944 mt 4811 1016 L
4862  542 mt 4934  542 L
4898  506 mt 4898  578 L
4949  788 mt 5021  788 L
4985  752 mt 4985  824 L
5036 1732 mt 5108 1732 L
5072 1696 mt 5072 1768 L
gr

gs 729 336 4344 3649 rc
/c10 { 1.000000 0.000000 0.000000 sr} bdef
c10
87 798 87 -104 87 -261 87 -684 87 980 87 -336 87 40 86 296 
87 -219 87 387 87 -275 87 -353 87 203 87 0 86 292 87 -142 
87 -353 87 42 87 161 87 222 87 -261 86 115 87 110 87 -347 
87 82 87 371 87 -371 87 0 86 -82 87 487 87 -326 87 -79 
87 -41 87 41 87 265 86 -347 87 199 87 -117 87 79 87 359 
87 -784 87 682 86 69 87 -487 87 -85 87 322 87 -410 87 372 
87 387 815 476 50 MP stroke
gr

c10
gs 742 403 4404 1295 rc
  36   36  815  476 FO
  36   36  902  863 FO
  36   36  989 1235 FO
  36   36 1076  825 FO
  36   36 1163 1147 FO
  36   36 1250 1062 FO
  36   36 1337  575 FO
  36   36 1423  644 FO
  36   36 1510 1326 FO
  36   36 1597  542 FO
  36   36 1684  901 FO
  36   36 1771  980 FO
  36   36 1858  863 FO
  36   36 1945 1062 FO
  36   36 2031  715 FO
  36   36 2118  980 FO
  36   36 2205 1021 FO
  36   36 2292  980 FO
  36   36 2379  901 FO
  36   36 2466  575 FO
  36   36 2553 1062 FO
  36   36 2639  980 FO
  36   36 2726  980 FO
  36   36 2813  609 FO
  36   36 2900  980 FO
  36   36 2987 1062 FO
  36   36 3074  715 FO
  36   36 3161  825 FO
  36   36 3247  940 FO
  36   36 3334  679 FO
  36   36 3421  901 FO
  36   36 3508 1062 FO
  36   36 3595 1104 FO
  36   36 3682  751 FO
  36   36 3769  609 FO
  36   36 3855  901 FO
  36   36 3942  901 FO
  36   36 4029 1104 FO
  36   36 4116  751 FO
  36   36 4203  476 FO
  36   36 4290  863 FO
  36   36 4377  644 FO
  36   36 4463  940 FO
  36   36 4550  980 FO
  36   36 4637  644 FO
  36   36 4724 1624 FO
  36   36 4811  940 FO
  36   36 4898  679 FO
  36   36 4985  575 FO
  36   36 5072 1373 FO
gr

gs 729 336 4344 3649 rc
gr

0 sg
%%IncludeResource: font Helvetica
/Helvetica /ISOLatin1Encoding 168 FMSR

2712 4307 mt 
(GOP) s
 469 2544 mt  -90 rotate
(PSNR[dB]) s
90 rotate
1492  231 mt 
(Run0,User 3 of 4, windowPastGOP=5) s

end %%Color Dict

eplot
%%EndObject

epage
end

showpage

%%Trailer
%%EOF
