%!PS-Adobe-3.0 EPSF-3.0
%%Creator: MATLAB, The MathWorks, Inc. Version 8.1.0.604 (R2013a). Operating System: Darwin 13.4.0 Darwin Kernel Version 13.4.0: Sun Aug 17 19:50:11 PDT 2014; root:xnu-2422.115.4~1/RELEASE_X86_64 x86_64.
%%Title: /Users/le/Work/project3/Figures/Results/0923/R0_W5_SCh8_U4of4.eps
%%CreationDate: 09/23/2014  18:14:55
%%DocumentNeededFonts: Helvetica
%%DocumentProcessColors: Cyan Magenta Yellow Black
%%LanguageLevel: 2
%%Pages: 1
%%BoundingBox:    72   209   539   582
%%EndComments

%%BeginProlog
% MathWorks dictionary
/MathWorks 160 dict begin
% definition operators
/bdef {bind def} bind def
/ldef {load def} bind def
/xdef {exch def} bdef
/xstore {exch store} bdef
% operator abbreviations
/c  /clip ldef
/cc /concat ldef
/cp /closepath ldef
/gr /grestore ldef
/gs /gsave ldef
/mt /moveto ldef
/np /newpath ldef
/cm /currentmatrix ldef
/sm /setmatrix ldef
/rm /rmoveto ldef
/rl /rlineto ldef
/s {show newpath} bdef
/sc {setcmykcolor} bdef
/sr /setrgbcolor ldef
/sg /setgray ldef
/w /setlinewidth ldef
/j /setlinejoin ldef
/cap /setlinecap ldef
/rc {rectclip} bdef
/rf {rectfill} bdef
% page state control
/pgsv () def
/bpage {/pgsv save def} bdef
/epage {pgsv restore} bdef
/bplot /gsave ldef
/eplot {stroke grestore} bdef
% orientation switch
/portraitMode 0 def /landscapeMode 1 def /rotateMode 2 def
% coordinate system mappings
/dpi2point 0 def
% font control
/FontSize 0 def
/FMS {/FontSize xstore findfont [FontSize 0 0 FontSize neg 0 0]
  makefont setfont} bdef
/reencode {exch dup where {pop load} {pop StandardEncoding} ifelse
  exch dup 3 1 roll findfont dup length dict begin
  { 1 index /FID ne {def}{pop pop} ifelse } forall
  /Encoding exch def currentdict end definefont pop} bdef
/isroman {findfont /CharStrings get /Agrave known} bdef
/FMSR {3 1 roll 1 index dup isroman {reencode} {pop pop} ifelse
  exch FMS} bdef
/csm {1 dpi2point div -1 dpi2point div scale neg translate
 dup landscapeMode eq {pop -90 rotate}
  {rotateMode eq {90 rotate} if} ifelse} bdef
% line types: solid, dotted, dashed, dotdash
/SO { [] 0 setdash } bdef
/DO { [.5 dpi2point mul 4 dpi2point mul] 0 setdash } bdef
/DA { [6 dpi2point mul] 0 setdash } bdef
/DD { [.5 dpi2point mul 4 dpi2point mul 6 dpi2point mul 4
  dpi2point mul] 0 setdash } bdef
% macros for lines and objects
/L {lineto stroke} bdef
/MP {3 1 roll moveto 1 sub {rlineto} repeat} bdef
/AP {{rlineto} repeat} bdef
/PDlw -1 def
/W {/PDlw currentlinewidth def setlinewidth} def
/PP {closepath eofill} bdef
/DP {closepath stroke} bdef
/MR {4 -2 roll moveto dup  0 exch rlineto exch 0 rlineto
  neg 0 exch rlineto closepath} bdef
/FR {MR stroke} bdef
/PR {MR fill} bdef
/L1i {{currentfile picstr readhexstring pop} image} bdef
/tMatrix matrix def
/MakeOval {newpath tMatrix currentmatrix pop translate scale
0 0 1 0 360 arc tMatrix setmatrix} bdef
/FO {MakeOval stroke} bdef
/PO {MakeOval fill} bdef
/PD {currentlinewidth 2 div 0 360 arc fill
   PDlw -1 eq not {PDlw w /PDlw -1 def} if} def
/FA {newpath tMatrix currentmatrix pop translate scale
  0 0 1 5 -2 roll arc tMatrix setmatrix stroke} bdef
/PA {newpath tMatrix currentmatrix pop	translate 0 0 moveto scale
  0 0 1 5 -2 roll arc closepath tMatrix setmatrix fill} bdef
/FAn {newpath tMatrix currentmatrix pop translate scale
  0 0 1 5 -2 roll arcn tMatrix setmatrix stroke} bdef
/PAn {newpath tMatrix currentmatrix pop translate 0 0 moveto scale
  0 0 1 5 -2 roll arcn closepath tMatrix setmatrix fill} bdef
/vradius 0 def /hradius 0 def /lry 0 def
/lrx 0 def /uly 0 def /ulx 0 def /rad 0 def
/MRR {/vradius xdef /hradius xdef /lry xdef /lrx xdef /uly xdef
  /ulx xdef newpath tMatrix currentmatrix pop ulx hradius add uly
  vradius add translate hradius vradius scale 0 0 1 180 270 arc 
  tMatrix setmatrix lrx hradius sub uly vradius add translate
  hradius vradius scale 0 0 1 270 360 arc tMatrix setmatrix
  lrx hradius sub lry vradius sub translate hradius vradius scale
  0 0 1 0 90 arc tMatrix setmatrix ulx hradius add lry vradius sub
  translate hradius vradius scale 0 0 1 90 180 arc tMatrix setmatrix
  closepath} bdef
/FRR {MRR stroke } bdef
/PRR {MRR fill } bdef
/MlrRR {/lry xdef /lrx xdef /uly xdef /ulx xdef /rad lry uly sub 2 div def
  newpath tMatrix currentmatrix pop ulx rad add uly rad add translate
  rad rad scale 0 0 1 90 270 arc tMatrix setmatrix lrx rad sub lry rad
  sub translate rad rad scale 0 0 1 270 90 arc tMatrix setmatrix
  closepath} bdef
/FlrRR {MlrRR stroke } bdef
/PlrRR {MlrRR fill } bdef
/MtbRR {/lry xdef /lrx xdef /uly xdef /ulx xdef /rad lrx ulx sub 2 div def
  newpath tMatrix currentmatrix pop ulx rad add uly rad add translate
  rad rad scale 0 0 1 180 360 arc tMatrix setmatrix lrx rad sub lry rad
  sub translate rad rad scale 0 0 1 0 180 arc tMatrix setmatrix
  closepath} bdef
/FtbRR {MtbRR stroke } bdef
/PtbRR {MtbRR fill } bdef
/stri 6 array def /dtri 6 array def
/smat 6 array def /dmat 6 array def
/tmat1 6 array def /tmat2 6 array def /dif 3 array def
/asub {/ind2 exch def /ind1 exch def dup dup
  ind1 get exch ind2 get sub exch } bdef
/tri_to_matrix {
  2 0 asub 3 1 asub 4 0 asub 5 1 asub
  dup 0 get exch 1 get 7 -1 roll astore } bdef
/compute_transform {
  dmat dtri tri_to_matrix tmat1 invertmatrix 
  smat stri tri_to_matrix tmat2 concatmatrix } bdef
/ds {stri astore pop} bdef
/dt {dtri astore pop} bdef
/db {2 copy /cols xdef /rows xdef mul dup 3 mul string
  currentfile 
  3 index 0 eq {/ASCIIHexDecode filter}
  {/ASCII85Decode filter 3 index 2 eq {/RunLengthDecode filter} if }
  ifelse exch readstring pop
  dup 0 3 index getinterval /rbmap xdef
  dup 2 index dup getinterval /gbmap xdef
  1 index dup 2 mul exch getinterval /bbmap xdef pop pop}bdef
/it {gs np dtri aload pop moveto lineto lineto cp c
  cols rows 8 compute_transform 
  rbmap gbmap bbmap true 3 colorimage gr}bdef
/il {newpath moveto lineto stroke}bdef
currentdict end def
%%EndProlog

%%BeginSetup
MathWorks begin

0 cap

end
%%EndSetup

%%Page: 1 1
%%BeginPageSetup
%%PageBoundingBox:    72   209   539   582
MathWorks begin
bpage
%%EndPageSetup

%%BeginObject: obj1
bplot

/dpi2point 12 def
portraitMode 0864 6984 csm

    0     0  5604  4476 rc
85 dict begin %Colortable dictionary
/c0 { 0.000000 0.000000 0.000000 sr} bdef
/c1 { 1.000000 1.000000 1.000000 sr} bdef
/c2 { 0.900000 0.000000 0.000000 sr} bdef
/c3 { 0.000000 0.820000 0.000000 sr} bdef
/c4 { 0.000000 0.000000 0.800000 sr} bdef
/c5 { 0.910000 0.820000 0.320000 sr} bdef
/c6 { 1.000000 0.260000 0.820000 sr} bdef
/c7 { 0.000000 0.820000 0.820000 sr} bdef
c0
1 j
1 sg
   0    0 5605 4477 rf
6 w
0 3648 4343 0 0 -3648 729 3984 4 MP
PP
-4343 0 0 3648 4343 0 0 -3648 729 3984 5 MP stroke
4 w
DO
0 sg
 729 3984 mt  729  336 L
 729  336 mt  729  336 L
1163 3984 mt 1163  336 L
1163  336 mt 1163  336 L
1597 3984 mt 1597  336 L
1597  336 mt 1597  336 L
2031 3984 mt 2031  336 L
2031  336 mt 2031  336 L
2466 3984 mt 2466  336 L
2466  336 mt 2466  336 L
2900 3984 mt 2900  336 L
2900  336 mt 2900  336 L
3334 3984 mt 3334  336 L
3334  336 mt 3334  336 L
3769 3984 mt 3769  336 L
3769  336 mt 3769  336 L
4203 3984 mt 4203  336 L
4203  336 mt 4203  336 L
4637 3984 mt 4637  336 L
4637  336 mt 4637  336 L
5072 3984 mt 5072  336 L
5072  336 mt 5072  336 L
 729 3984 mt 5072 3984 L
5072 3984 mt 5072 3984 L
 729 3578 mt 5072 3578 L
5072 3578 mt 5072 3578 L
 729 3173 mt 5072 3173 L
5072 3173 mt 5072 3173 L
 729 2768 mt 5072 2768 L
5072 2768 mt 5072 2768 L
 729 2362 mt 5072 2362 L
5072 2362 mt 5072 2362 L
 729 1957 mt 5072 1957 L
5072 1957 mt 5072 1957 L
 729 1552 mt 5072 1552 L
5072 1552 mt 5072 1552 L
 729 1146 mt 5072 1146 L
5072 1146 mt 5072 1146 L
 729  741 mt 5072  741 L
5072  741 mt 5072  741 L
 729  336 mt 5072  336 L
5072  336 mt 5072  336 L
SO
6 w
 729 3984 mt 5072 3984 L
 729  336 mt 5072  336 L
 729 3984 mt  729  336 L
5072 3984 mt 5072  336 L
 729 3984 mt 5072 3984 L
 729 3984 mt  729  336 L
 729 3984 mt  729 3940 L
 729  336 mt  729  379 L
%%IncludeResource: font Helvetica
/Helvetica /ISOLatin1Encoding 120 FMSR

 696 4129 mt 
(0) s
1163 3984 mt 1163 3940 L
1163  336 mt 1163  379 L
1130 4129 mt 
(5) s
1597 3984 mt 1597 3940 L
1597  336 mt 1597  379 L
1531 4129 mt 
(10) s
2031 3984 mt 2031 3940 L
2031  336 mt 2031  379 L
1965 4129 mt 
(15) s
2466 3984 mt 2466 3940 L
2466  336 mt 2466  379 L
2400 4129 mt 
(20) s
2900 3984 mt 2900 3940 L
2900  336 mt 2900  379 L
2834 4129 mt 
(25) s
3334 3984 mt 3334 3940 L
3334  336 mt 3334  379 L
3268 4129 mt 
(30) s
3769 3984 mt 3769 3940 L
3769  336 mt 3769  379 L
3703 4129 mt 
(35) s
4203 3984 mt 4203 3940 L
4203  336 mt 4203  379 L
4137 4129 mt 
(40) s
4637 3984 mt 4637 3940 L
4637  336 mt 4637  379 L
4571 4129 mt 
(45) s
5072 3984 mt 5072 3940 L
5072  336 mt 5072  379 L
5006 4129 mt 
(50) s
 729 3984 mt  772 3984 L
5072 3984 mt 5028 3984 L
 561 4028 mt 
(18) s
 729 3578 mt  772 3578 L
5072 3578 mt 5028 3578 L
 461 3622 mt 
(18.5) s
 729 3173 mt  772 3173 L
5072 3173 mt 5028 3173 L
 561 3217 mt 
(19) s
 729 2768 mt  772 2768 L
5072 2768 mt 5028 2768 L
 461 2812 mt 
(19.5) s
 729 2362 mt  772 2362 L
5072 2362 mt 5028 2362 L
 561 2406 mt 
(20) s
 729 1957 mt  772 1957 L
5072 1957 mt 5028 1957 L
 461 2001 mt 
(20.5) s
 729 1552 mt  772 1552 L
5072 1552 mt 5028 1552 L
 561 1596 mt 
(21) s
 729 1146 mt  772 1146 L
5072 1146 mt 5028 1146 L
 461 1190 mt 
(21.5) s
 729  741 mt  772  741 L
5072  741 mt 5028  741 L
 561  785 mt 
(22) s
 729  336 mt  772  336 L
5072  336 mt 5028  336 L
 461  380 mt 
(22.5) s
 729 3984 mt 5072 3984 L
 729  336 mt 5072  336 L
 729 3984 mt  729  336 L
5072 3984 mt 5072  336 L
gs 729 336 4344 3649 rc
/c8 { 0.000000 0.000000 1.000000 sr} bdef
c8
87 0 87 673 87 723 87 -1547 87 76 87 -660 87 1408 86 -2217 
87 2217 87 -600 87 1115 87 -2015 87 0 87 1246 86 -1064 87 -679 
87 1743 87 -977 87 483 87 928 87 0 86 -1161 87 1276 87 -1795 
87 676 87 224 87 -1091 87 2042 86 -1414 87 674 87 -592 87 592 
87 389 87 -1146 87 1714 86 -2358 87 1401 87 389 87 -1063 87 674 
87 -1302 87 -414 86 697 87 1154 87 -1246 87 -392 87 574 87 1193 
87 -129 815 1936 50 MP stroke
/c9 { 0.000000 0.500000 0.000000 sr} bdef
c9
87 600 87 -254 87 129 87 -1665 87 1970 87 -501 87 67 86 65 
87 -269 87 973 87 -515 87 -458 87 0 87 69 86 200 87 -874 
87 82 87 233 87 559 87 189 87 -600 86 600 87 238 87 -1219 
87 660 87 501 87 -305 87 -264 86 -69 87 396 87 -63 87 -623 
87 359 87 510 87 -60 86 -1292 87 910 87 321 87 -125 87 186 
87 -1207 87 2385 86 -1239 87 -1146 87 757 87 389 87 -458 87 269 
87 250 815 1621 50 MP stroke
gr

c9
 779 1621 mt  851 1621 L
 815 1585 mt  815 1657 L
 866 1871 mt  938 1871 L
 902 1835 mt  902 1907 L
 953 2140 mt 1025 2140 L
 989 2104 mt  989 2176 L
1040 1682 mt 1112 1682 L
1076 1646 mt 1076 1718 L
1127 2071 mt 1199 2071 L
1163 2035 mt 1163 2107 L
1214 2828 mt 1286 2828 L
1250 2792 mt 1250 2864 L
1301 1682 mt 1373 1682 L
1337 1646 mt 1337 1718 L
1387  443 mt 1459  443 L
1423  407 mt 1423  479 L
1474 2828 mt 1546 2828 L
1510 2792 mt 1510 2864 L
1561 1621 mt 1633 1621 L
1597 1585 mt 1597 1657 L
1648 1807 mt 1720 1807 L
1684 1771 mt 1684 1843 L
1735 1682 mt 1807 1682 L
1771 1646 mt 1771 1718 L
1822 2003 mt 1894 2003 L
1858 1967 mt 1858 2039 L
1909 2913 mt 1981 2913 L
1945 2877 mt 1945 2949 L
1995 1621 mt 2067 1621 L
2031 1585 mt 2031 1657 L
2082 1561 mt 2154 1561 L
2118 1525 mt 2118 1597 L
2169 2071 mt 2241 2071 L
2205 2035 mt 2205 2107 L
2256 2430 mt 2328 2430 L
2292 2394 mt 2292 2466 L
2343 1807 mt 2415 1807 L
2379 1771 mt 2379 1843 L
2430 1744 mt 2502 1744 L
2466 1708 mt 2466 1780 L
2517 2140 mt 2589 2140 L
2553 2104 mt 2553 2176 L
2603 2071 mt 2675 2071 L
2639 2035 mt 2639 2107 L
2690 1807 mt 2762 1807 L
2726 1771 mt 2726 1843 L
2777 1502 mt 2849 1502 L
2813 1466 mt 2813 1538 L
2864 2003 mt 2936 2003 L
2900 1967 mt 2900 2039 L
2951 2663 mt 3023 2663 L
2987 2627 mt 2987 2699 L
3038 1444 mt 3110 1444 L
3074 1408 mt 3074 1480 L
3125 1682 mt 3197 1682 L
3161 1646 mt 3161 1718 L
3211 2282 mt 3283 2282 L
3247 2246 mt 3247 2318 L
3298 1682 mt 3370 1682 L
3334 1646 mt 3334 1718 L
3385 1871 mt 3457 1871 L
3421 1835 mt 3421 1907 L
3472 2430 mt 3544 2430 L
3508 2394 mt 3508 2466 L
3559 2663 mt 3631 2663 L
3595 2627 mt 3595 2699 L
3646 2745 mt 3718 2745 L
3682 2709 mt 3682 2781 L
3733 1871 mt 3805 1871 L
3769 1835 mt 3769 1907 L
3819 2071 mt 3891 2071 L
3855 2035 mt 3855 2107 L
3906 2140 mt 3978 2140 L
3942 2104 mt 3942 2176 L
3993 2140 mt 4065 2140 L
4029 2104 mt 4029 2176 L
4080 1682 mt 4152 1682 L
4116 1646 mt 4116 1718 L
4167 1167 mt 4239 1167 L
4203 1131 mt 4203 1203 L
4254 2140 mt 4326 2140 L
4290 2104 mt 4290 2176 L
4341 1871 mt 4413 1871 L
4377 1835 mt 4377 1907 L
4427 1936 mt 4499 1936 L
4463 1900 mt 4463 1972 L
4514 2003 mt 4586 2003 L
4550 1967 mt 4550 2039 L
4601 1502 mt 4673 1502 L
4637 1466 mt 4637 1538 L
4688 3472 mt 4760 3472 L
4724 3436 mt 4724 3508 L
4775 1807 mt 4847 1807 L
4811 1771 mt 4811 1843 L
4862 1936 mt 4934 1936 L
4898 1900 mt 4898 1972 L
4949 1682 mt 5021 1682 L
4985 1646 mt 4985 1718 L
5036 2282 mt 5108 2282 L
5072 2246 mt 5072 2318 L
gs 729 336 4344 3649 rc
/c10 { 1.000000 0.000000 0.000000 sr} bdef
c10
87 824 87 -125 87 -129 87 -1246 87 1111 87 -359 87 359 86 68 
87 -279 87 538 87 -63 87 -777 87 154 87 148 86 538 87 -686 
87 -76 87 76 87 220 87 466 87 -396 86 -215 87 548 87 -777 
87 229 87 548 87 -699 87 435 86 -211 87 475 87 -129 87 -135 
87 68 87 -352 87 548 86 -264 87 327 87 62 87 -321 87 442 
87 -1023 87 840 86 123 87 -589 87 -145 87 673 87 -673 87 419 
87 549 815 1387 50 MP stroke
gr

c10
  36   36  815 1387 FO
  36   36  902 1936 FO
  36   36  989 2355 FO
  36   36 1076 1682 FO
  36   36 1163 2355 FO
  36   36 1250 2210 FO
  36   36 1337 1621 FO
  36   36 1423 1744 FO
  36   36 1510 2584 FO
  36   36 1597 1561 FO
  36   36 1684 2003 FO
  36   36 1771 1682 FO
  36   36 1858 1744 FO
  36   36 1945 2071 FO
  36   36 2031 1807 FO
  36   36 2118 2355 FO
  36   36 2205 2003 FO
  36   36 2292 2071 FO
  36   36 2379 1936 FO
  36   36 2466 1807 FO
  36   36 2553 2282 FO
  36   36 2639 2071 FO
  36   36 2726 2506 FO
  36   36 2813 1807 FO
  36   36 2900 2355 FO
  36   36 2987 2584 FO
  36   36 3074 1807 FO
  36   36 3161 2355 FO
  36   36 3247 2140 FO
  36   36 3334 1744 FO
  36   36 3421 2210 FO
  36   36 3508 2430 FO
  36   36 3595 2506 FO
  36   36 3682 2430 FO
  36   36 3769 1744 FO
  36   36 3855 2282 FO
  36   36 3942 2430 FO
  36   36 4029 2584 FO
  36   36 4116 1807 FO
  36   36 4203 1744 FO
  36   36 4290 2282 FO
  36   36 4377 2003 FO
  36   36 4463 2071 FO
  36   36 4550 2430 FO
  36   36 4637 2071 FO
  36   36 4724 3182 FO
  36   36 4811 1936 FO
  36   36 4898 1807 FO
  36   36 4985 1682 FO
  36   36 5072 2506 FO
gs 729 336 4344 3649 rc
gr

0 sg
%%IncludeResource: font Helvetica
/Helvetica /ISOLatin1Encoding 168 FMSR

2712 4307 mt 
(GOP) s
 369 2544 mt  -90 rotate
(PSNR[dB]) s
90 rotate
1492  231 mt 
(Run0,User 4 of 4, windowPastGOP=5) s
%%IncludeResource: font Helvetica
/Helvetica /ISOLatin1Encoding 120 FMSR

 712 4027 mt 
( ) s
5056  378 mt 
( ) s
1 sg
0 564 1859 0 0 -564 3156 948 4 MP
PP
-1859 0 0 564 1859 0 0 -564 3156 948 5 MP stroke
4 w
DO
SO
6 w
0 sg
3156  948 mt 5015  948 L
3156  384 mt 5015  384 L
3156  948 mt 3156  384 L
5015  948 mt 5015  384 L
3156  948 mt 5015  948 L
3156  948 mt 3156  384 L
3156  948 mt 5015  948 L
3156  384 mt 5015  384 L
3156  948 mt 3156  384 L
5015  948 mt 5015  384 L
3624  534 mt 
(Block-wise) s
gs 3156 384 1860 565 rc
c8
360 0 3228 492 2 MP stroke
gr

c8
0 sg
3624  709 mt 
(Sequential Optimization) s
gs 3156 384 1860 565 rc
c9
360 0 3228 666 2 MP stroke
gs 3335 593 147 147 rc
3372  666 mt 3444  666 L
3408  630 mt 3408  702 L
gr

gr

c9
0 sg
3624  883 mt 
(Novel Optimization) s
gs 3156 384 1860 565 rc
c10
360 0 3228 839 2 MP stroke
gs 3335 766 147 147 rc
  36   36 3408  839 FO
gr

gr

c10

end %%Color Dict

eplot
%%EndObject

epage
end

showpage

%%Trailer
%%EOF
