%!PS-Adobe-3.0 EPSF-3.0
%%Creator: MATLAB, The MathWorks, Inc. Version 8.1.0.604 (R2013a). Operating System: Darwin 13.4.0 Darwin Kernel Version 13.4.0: Sun Aug 17 19:50:11 PDT 2014; root:xnu-2422.115.4~1/RELEASE_X86_64 x86_64.
%%Title: /Users/le/Work/project3/Figures/Results/0923/R0_W5_SCh8_U2of4.eps
%%CreationDate: 09/23/2014  18:16:45
%%DocumentNeededFonts: Helvetica
%%DocumentProcessColors: Cyan Magenta Yellow Black
%%LanguageLevel: 2
%%Pages: 1
%%BoundingBox:    72   209   539   582
%%EndComments

%%BeginProlog
% MathWorks dictionary
/MathWorks 160 dict begin
% definition operators
/bdef {bind def} bind def
/ldef {load def} bind def
/xdef {exch def} bdef
/xstore {exch store} bdef
% operator abbreviations
/c  /clip ldef
/cc /concat ldef
/cp /closepath ldef
/gr /grestore ldef
/gs /gsave ldef
/mt /moveto ldef
/np /newpath ldef
/cm /currentmatrix ldef
/sm /setmatrix ldef
/rm /rmoveto ldef
/rl /rlineto ldef
/s {show newpath} bdef
/sc {setcmykcolor} bdef
/sr /setrgbcolor ldef
/sg /setgray ldef
/w /setlinewidth ldef
/j /setlinejoin ldef
/cap /setlinecap ldef
/rc {rectclip} bdef
/rf {rectfill} bdef
% page state control
/pgsv () def
/bpage {/pgsv save def} bdef
/epage {pgsv restore} bdef
/bplot /gsave ldef
/eplot {stroke grestore} bdef
% orientation switch
/portraitMode 0 def /landscapeMode 1 def /rotateMode 2 def
% coordinate system mappings
/dpi2point 0 def
% font control
/FontSize 0 def
/FMS {/FontSize xstore findfont [FontSize 0 0 FontSize neg 0 0]
  makefont setfont} bdef
/reencode {exch dup where {pop load} {pop StandardEncoding} ifelse
  exch dup 3 1 roll findfont dup length dict begin
  { 1 index /FID ne {def}{pop pop} ifelse } forall
  /Encoding exch def currentdict end definefont pop} bdef
/isroman {findfont /CharStrings get /Agrave known} bdef
/FMSR {3 1 roll 1 index dup isroman {reencode} {pop pop} ifelse
  exch FMS} bdef
/csm {1 dpi2point div -1 dpi2point div scale neg translate
 dup landscapeMode eq {pop -90 rotate}
  {rotateMode eq {90 rotate} if} ifelse} bdef
% line types: solid, dotted, dashed, dotdash
/SO { [] 0 setdash } bdef
/DO { [.5 dpi2point mul 4 dpi2point mul] 0 setdash } bdef
/DA { [6 dpi2point mul] 0 setdash } bdef
/DD { [.5 dpi2point mul 4 dpi2point mul 6 dpi2point mul 4
  dpi2point mul] 0 setdash } bdef
% macros for lines and objects
/L {lineto stroke} bdef
/MP {3 1 roll moveto 1 sub {rlineto} repeat} bdef
/AP {{rlineto} repeat} bdef
/PDlw -1 def
/W {/PDlw currentlinewidth def setlinewidth} def
/PP {closepath eofill} bdef
/DP {closepath stroke} bdef
/MR {4 -2 roll moveto dup  0 exch rlineto exch 0 rlineto
  neg 0 exch rlineto closepath} bdef
/FR {MR stroke} bdef
/PR {MR fill} bdef
/L1i {{currentfile picstr readhexstring pop} image} bdef
/tMatrix matrix def
/MakeOval {newpath tMatrix currentmatrix pop translate scale
0 0 1 0 360 arc tMatrix setmatrix} bdef
/FO {MakeOval stroke} bdef
/PO {MakeOval fill} bdef
/PD {currentlinewidth 2 div 0 360 arc fill
   PDlw -1 eq not {PDlw w /PDlw -1 def} if} def
/FA {newpath tMatrix currentmatrix pop translate scale
  0 0 1 5 -2 roll arc tMatrix setmatrix stroke} bdef
/PA {newpath tMatrix currentmatrix pop	translate 0 0 moveto scale
  0 0 1 5 -2 roll arc closepath tMatrix setmatrix fill} bdef
/FAn {newpath tMatrix currentmatrix pop translate scale
  0 0 1 5 -2 roll arcn tMatrix setmatrix stroke} bdef
/PAn {newpath tMatrix currentmatrix pop translate 0 0 moveto scale
  0 0 1 5 -2 roll arcn closepath tMatrix setmatrix fill} bdef
/vradius 0 def /hradius 0 def /lry 0 def
/lrx 0 def /uly 0 def /ulx 0 def /rad 0 def
/MRR {/vradius xdef /hradius xdef /lry xdef /lrx xdef /uly xdef
  /ulx xdef newpath tMatrix currentmatrix pop ulx hradius add uly
  vradius add translate hradius vradius scale 0 0 1 180 270 arc 
  tMatrix setmatrix lrx hradius sub uly vradius add translate
  hradius vradius scale 0 0 1 270 360 arc tMatrix setmatrix
  lrx hradius sub lry vradius sub translate hradius vradius scale
  0 0 1 0 90 arc tMatrix setmatrix ulx hradius add lry vradius sub
  translate hradius vradius scale 0 0 1 90 180 arc tMatrix setmatrix
  closepath} bdef
/FRR {MRR stroke } bdef
/PRR {MRR fill } bdef
/MlrRR {/lry xdef /lrx xdef /uly xdef /ulx xdef /rad lry uly sub 2 div def
  newpath tMatrix currentmatrix pop ulx rad add uly rad add translate
  rad rad scale 0 0 1 90 270 arc tMatrix setmatrix lrx rad sub lry rad
  sub translate rad rad scale 0 0 1 270 90 arc tMatrix setmatrix
  closepath} bdef
/FlrRR {MlrRR stroke } bdef
/PlrRR {MlrRR fill } bdef
/MtbRR {/lry xdef /lrx xdef /uly xdef /ulx xdef /rad lrx ulx sub 2 div def
  newpath tMatrix currentmatrix pop ulx rad add uly rad add translate
  rad rad scale 0 0 1 180 360 arc tMatrix setmatrix lrx rad sub lry rad
  sub translate rad rad scale 0 0 1 0 180 arc tMatrix setmatrix
  closepath} bdef
/FtbRR {MtbRR stroke } bdef
/PtbRR {MtbRR fill } bdef
/stri 6 array def /dtri 6 array def
/smat 6 array def /dmat 6 array def
/tmat1 6 array def /tmat2 6 array def /dif 3 array def
/asub {/ind2 exch def /ind1 exch def dup dup
  ind1 get exch ind2 get sub exch } bdef
/tri_to_matrix {
  2 0 asub 3 1 asub 4 0 asub 5 1 asub
  dup 0 get exch 1 get 7 -1 roll astore } bdef
/compute_transform {
  dmat dtri tri_to_matrix tmat1 invertmatrix 
  smat stri tri_to_matrix tmat2 concatmatrix } bdef
/ds {stri astore pop} bdef
/dt {dtri astore pop} bdef
/db {2 copy /cols xdef /rows xdef mul dup 3 mul string
  currentfile 
  3 index 0 eq {/ASCIIHexDecode filter}
  {/ASCII85Decode filter 3 index 2 eq {/RunLengthDecode filter} if }
  ifelse exch readstring pop
  dup 0 3 index getinterval /rbmap xdef
  dup 2 index dup getinterval /gbmap xdef
  1 index dup 2 mul exch getinterval /bbmap xdef pop pop}bdef
/it {gs np dtri aload pop moveto lineto lineto cp c
  cols rows 8 compute_transform 
  rbmap gbmap bbmap true 3 colorimage gr}bdef
/il {newpath moveto lineto stroke}bdef
currentdict end def
%%EndProlog

%%BeginSetup
MathWorks begin

0 cap

end
%%EndSetup

%%Page: 1 1
%%BeginPageSetup
%%PageBoundingBox:    72   209   539   582
MathWorks begin
bpage
%%EndPageSetup

%%BeginObject: obj1
bplot

/dpi2point 12 def
portraitMode 0864 6984 csm

    0     0  5604  4476 rc
85 dict begin %Colortable dictionary
/c0 { 0.000000 0.000000 0.000000 sr} bdef
/c1 { 1.000000 1.000000 1.000000 sr} bdef
/c2 { 0.900000 0.000000 0.000000 sr} bdef
/c3 { 0.000000 0.820000 0.000000 sr} bdef
/c4 { 0.000000 0.000000 0.800000 sr} bdef
/c5 { 0.910000 0.820000 0.320000 sr} bdef
/c6 { 1.000000 0.260000 0.820000 sr} bdef
/c7 { 0.000000 0.820000 0.820000 sr} bdef
c0
1 j
1 sg
   0    0 5605 4477 rf
6 w
0 3648 4343 0 0 -3648 729 3984 4 MP
PP
-4343 0 0 3648 4343 0 0 -3648 729 3984 5 MP stroke
4 w
DO
0 sg
 729 3984 mt  729  336 L
 729  336 mt  729  336 L
1163 3984 mt 1163  336 L
1163  336 mt 1163  336 L
1597 3984 mt 1597  336 L
1597  336 mt 1597  336 L
2031 3984 mt 2031  336 L
2031  336 mt 2031  336 L
2466 3984 mt 2466  336 L
2466  336 mt 2466  336 L
2900 3984 mt 2900  336 L
2900  336 mt 2900  336 L
3334 3984 mt 3334  336 L
3334  336 mt 3334  336 L
3769 3984 mt 3769  336 L
3769  336 mt 3769  336 L
4203 3984 mt 4203  336 L
4203  336 mt 4203  336 L
4637 3984 mt 4637  336 L
4637  336 mt 4637  336 L
5072 3984 mt 5072  336 L
5072  336 mt 5072  336 L
 729 3984 mt 5072 3984 L
5072 3984 mt 5072 3984 L
 729 3528 mt 5072 3528 L
5072 3528 mt 5072 3528 L
 729 3072 mt 5072 3072 L
5072 3072 mt 5072 3072 L
 729 2616 mt 5072 2616 L
5072 2616 mt 5072 2616 L
 729 2160 mt 5072 2160 L
5072 2160 mt 5072 2160 L
 729 1704 mt 5072 1704 L
5072 1704 mt 5072 1704 L
 729 1248 mt 5072 1248 L
5072 1248 mt 5072 1248 L
 729  792 mt 5072  792 L
5072  792 mt 5072  792 L
 729  336 mt 5072  336 L
5072  336 mt 5072  336 L
SO
6 w
 729 3984 mt 5072 3984 L
 729  336 mt 5072  336 L
 729 3984 mt  729  336 L
5072 3984 mt 5072  336 L
 729 3984 mt 5072 3984 L
 729 3984 mt  729  336 L
 729 3984 mt  729 3940 L
 729  336 mt  729  379 L
%%IncludeResource: font Helvetica
/Helvetica /ISOLatin1Encoding 120 FMSR

 696 4129 mt 
(0) s
1163 3984 mt 1163 3940 L
1163  336 mt 1163  379 L
1130 4129 mt 
(5) s
1597 3984 mt 1597 3940 L
1597  336 mt 1597  379 L
1531 4129 mt 
(10) s
2031 3984 mt 2031 3940 L
2031  336 mt 2031  379 L
1965 4129 mt 
(15) s
2466 3984 mt 2466 3940 L
2466  336 mt 2466  379 L
2400 4129 mt 
(20) s
2900 3984 mt 2900 3940 L
2900  336 mt 2900  379 L
2834 4129 mt 
(25) s
3334 3984 mt 3334 3940 L
3334  336 mt 3334  379 L
3268 4129 mt 
(30) s
3769 3984 mt 3769 3940 L
3769  336 mt 3769  379 L
3703 4129 mt 
(35) s
4203 3984 mt 4203 3940 L
4203  336 mt 4203  379 L
4137 4129 mt 
(40) s
4637 3984 mt 4637 3940 L
4637  336 mt 4637  379 L
4571 4129 mt 
(45) s
5072 3984 mt 5072 3940 L
5072  336 mt 5072  379 L
5006 4129 mt 
(50) s
 729 3984 mt  772 3984 L
5072 3984 mt 5028 3984 L
 461 4028 mt 
(18.5) s
 729 3528 mt  772 3528 L
5072 3528 mt 5028 3528 L
 561 3572 mt 
(19) s
 729 3072 mt  772 3072 L
5072 3072 mt 5028 3072 L
 461 3116 mt 
(19.5) s
 729 2616 mt  772 2616 L
5072 2616 mt 5028 2616 L
 561 2660 mt 
(20) s
 729 2160 mt  772 2160 L
5072 2160 mt 5028 2160 L
 461 2204 mt 
(20.5) s
 729 1704 mt  772 1704 L
5072 1704 mt 5028 1704 L
 561 1748 mt 
(21) s
 729 1248 mt  772 1248 L
5072 1248 mt 5028 1248 L
 461 1292 mt 
(21.5) s
 729  792 mt  772  792 L
5072  792 mt 5028  792 L
 561  836 mt 
(22) s
 729  336 mt  772  336 L
5072  336 mt 5028  336 L
 461  380 mt 
(22.5) s
 729 3984 mt 5072 3984 L
 729  336 mt 5072  336 L
 729 3984 mt  729  336 L
5072 3984 mt 5072  336 L
gs 729 336 4344 3649 rc
/c8 { 0.000000 0.000000 1.000000 sr} bdef
c8
87 0 87 0 87 0 87 0 87 0 87 0 87 0 86 0 
87 0 87 0 87 0 87 0 87 0 87 0 86 0 87 0 
87 0 87 0 87 0 87 0 87 0 86 0 87 0 87 0 
87 0 87 0 87 0 87 0 86 0 87 0 87 0 87 0 
87 0 87 0 87 0 86 0 87 0 87 0 87 0 87 0 
87 0 87 0 86 0 87 0 87 0 87 0 87 0 87 0 
87 0 815 556 50 MP stroke
/c9 { 0.000000 0.500000 0.000000 sr} bdef
c9
87 2353 87 -733 87 259 87 -2297 87 2038 87 -277 87 0 86 536 
87 -536 87 536 87 0 87 -1499 87 963 87 0 86 780 87 -503 
87 -573 87 -320 87 320 87 832 87 -832 86 0 87 573 87 -1620 
87 1620 87 0 87 -1620 87 1620 86 -573 87 832 87 -536 87 -963 
87 667 87 -320 87 893 86 -1240 87 963 87 277 87 -277 87 536 
87 -1152 87 320 86 832 87 -1499 87 0 87 963 87 -296 87 296 
87 277 815 1714 50 MP stroke
gr

c9
gs 742 908 4404 2918 rc
 779 1714 mt  851 1714 L
 815 1678 mt  815 1750 L
 866 1991 mt  938 1991 L
 902 1955 mt  902 2027 L
 953 2287 mt 1025 2287 L
 989 2251 mt  989 2323 L
1040 1991 mt 1112 1991 L
1076 1955 mt 1076 2027 L
1127 2954 mt 1199 2954 L
1163 2918 mt 1163 2990 L
1214 2954 mt 1286 2954 L
1250 2918 mt 1250 2990 L
1301 1455 mt 1373 1455 L
1337 1419 mt 1337 1491 L
1387 2287 mt 1459 2287 L
1423 2251 mt 1423 2323 L
1474 2607 mt 1546 2607 L
1510 2571 mt 1510 2643 L
1561 1455 mt 1633 1455 L
1597 1419 mt 1597 1491 L
1648 1991 mt 1720 1991 L
1684 1955 mt 1684 2027 L
1735 1714 mt 1807 1714 L
1771 1678 mt 1771 1750 L
1822 1991 mt 1894 1991 L
1858 1955 mt 1858 2027 L
1909 2954 mt 1981 2954 L
1945 2918 mt 1945 2990 L
1995 1714 mt 2067 1714 L
2031 1678 mt 2031 1750 L
2082 2607 mt 2154 2607 L
2118 2571 mt 2118 2643 L
2169 2287 mt 2241 2287 L
2205 2251 mt 2205 2323 L
2256 2954 mt 2328 2954 L
2292 2918 mt 2292 2990 L
2343 1991 mt 2415 1991 L
2379 1955 mt 2379 2027 L
2430 1455 mt 2502 1455 L
2466 1419 mt 2466 1491 L
2517 2287 mt 2589 2287 L
2553 2251 mt 2553 2323 L
2603 1714 mt 2675 1714 L
2639 1678 mt 2639 1750 L
2690 3334 mt 2762 3334 L
2726 3298 mt 2726 3370 L
2777 1714 mt 2849 1714 L
2813 1678 mt 2813 1750 L
2864 1714 mt 2936 1714 L
2900 1678 mt 2900 1750 L
2951 3334 mt 3023 3334 L
2987 3298 mt 2987 3370 L
3038 1714 mt 3110 1714 L
3074 1678 mt 3074 1750 L
3125 2287 mt 3197 2287 L
3161 2251 mt 3161 2323 L
3211 2287 mt 3283 2287 L
3247 2251 mt 3247 2323 L
3298 1455 mt 3370 1455 L
3334 1419 mt 3334 1491 L
3385 2287 mt 3457 2287 L
3421 2251 mt 3421 2323 L
3472 2607 mt 3544 2607 L
3508 2571 mt 3508 2643 L
3559 2287 mt 3631 2287 L
3595 2251 mt 3595 2323 L
3646 1714 mt 3718 1714 L
3682 1678 mt 3682 1750 L
3733 1211 mt 3805 1211 L
3769 1175 mt 3769 1247 L
3819 1991 mt 3891 1991 L
3855 1955 mt 3855 2027 L
3906 1991 mt 3978 1991 L
3942 1955 mt 3942 2027 L
3993 2954 mt 4065 2954 L
4029 2918 mt 4029 2990 L
4080 1455 mt 4152 1455 L
4116 1419 mt 4116 1491 L
4167 1455 mt 4239 1455 L
4203 1419 mt 4203 1491 L
4254 1991 mt 4326 1991 L
4290 1955 mt 4290 2027 L
4341 1455 mt 4413 1455 L
4377 1419 mt 4377 1491 L
4427 1991 mt 4499 1991 L
4463 1955 mt 4463 2027 L
4514 1991 mt 4586 1991 L
4550 1955 mt 4550 2027 L
4601 1714 mt 4673 1714 L
4637 1678 mt 4637 1750 L
4688 3752 mt 4760 3752 L
4724 3716 mt 4724 3788 L
4775 1455 mt 4847 1455 L
4811 1419 mt 4811 1491 L
4862 1714 mt 4934 1714 L
4898 1678 mt 4898 1750 L
4949  981 mt 5021  981 L
4985  945 mt 4985 1017 L
5036 3334 mt 5108 3334 L
5072 3298 mt 5072 3370 L
gr

gs 729 336 4344 3649 rc
/c10 { 1.000000 0.000000 0.000000 sr} bdef
c10
87 1435 87 -655 87 230 87 -1306 87 1306 87 -230 87 0 86 230 
87 -230 87 448 87 -448 87 -503 87 503 87 0 86 448 87 -692 
87 0 87 -259 87 503 87 448 87 -692 86 0 87 692 87 -951 
87 503 87 230 87 -733 87 503 86 -244 87 474 87 -230 87 -503 
87 259 87 -536 87 780 86 -503 87 503 87 -503 87 259 87 474 
87 -1010 87 536 86 244 87 -1076 87 0 87 832 87 -832 87 296 
87 536 815 1455 50 MP stroke
gr

c10
gs 742 483 4404 1878 rc
  36   36  815 1455 FO
  36   36  902 1991 FO
  36   36  989 2287 FO
  36   36 1076 1455 FO
  36   36 1163 2287 FO
  36   36 1250 2287 FO
  36   36 1337 1211 FO
  36   36 1423 1455 FO
  36   36 1510 1991 FO
  36   36 1597  981 FO
  36   36 1684 1455 FO
  36   36 1771 1714 FO
  36   36 1858 1211 FO
  36   36 1945 1714 FO
  36   36 2031 1211 FO
  36   36 2118 1991 FO
  36   36 2205 1455 FO
  36   36 2292 1714 FO
  36   36 2379 1211 FO
  36   36 2466  981 FO
  36   36 2553 1455 FO
  36   36 2639 1211 FO
  36   36 2726 1714 FO
  36   36 2813  981 FO
  36   36 2900 1211 FO
  36   36 2987 1714 FO
  36   36 3074  763 FO
  36   36 3161 1455 FO
  36   36 3247 1455 FO
  36   36 3334  763 FO
  36   36 3421 1211 FO
  36   36 3508 1714 FO
  36   36 3595 1455 FO
  36   36 3682 1455 FO
  36   36 3769  763 FO
  36   36 3855 1211 FO
  36   36 3942 1211 FO
  36   36 4029 1714 FO
  36   36 4116 1211 FO
  36   36 4203  763 FO
  36   36 4290 1211 FO
  36   36 4377  981 FO
  36   36 4463 1211 FO
  36   36 4550 1211 FO
  36   36 4637  981 FO
  36   36 4724 2287 FO
  36   36 4811  981 FO
  36   36 4898 1211 FO
  36   36 4985  556 FO
  36   36 5072 1991 FO
gr

gs 729 336 4344 3649 rc
gr

0 sg
%%IncludeResource: font Helvetica
/Helvetica /ISOLatin1Encoding 168 FMSR

2712 4307 mt 
(GOP) s
 369 2544 mt  -90 rotate
(PSNR[dB]) s
90 rotate
1492  231 mt 
(Run0,User 2 of 4, windowPastGOP=5) s
%%IncludeResource: font Helvetica
/Helvetica /ISOLatin1Encoding 120 FMSR

 712 4027 mt 
( ) s
5056  378 mt 
( ) s
1 sg
0 564 1859 0 0 -564 816 3912 4 MP
PP
-1859 0 0 564 1859 0 0 -564 816 3912 5 MP stroke
4 w
DO
SO
6 w
0 sg
 816 3912 mt 2675 3912 L
 816 3348 mt 2675 3348 L
 816 3912 mt  816 3348 L
2675 3912 mt 2675 3348 L
 816 3912 mt 2675 3912 L
 816 3912 mt  816 3348 L
 816 3912 mt 2675 3912 L
 816 3348 mt 2675 3348 L
 816 3912 mt  816 3348 L
2675 3912 mt 2675 3348 L
1284 3498 mt 
(Block-wise) s
gs 816 3348 1860 565 rc
c8
360 0 888 3456 2 MP stroke
gr

c8
0 sg
1284 3673 mt 
(Sequential Optimization) s
gs 816 3348 1860 565 rc
c9
360 0 888 3630 2 MP stroke
gs 995 3557 147 147 rc
1032 3630 mt 1104 3630 L
1068 3594 mt 1068 3666 L
gr

gr

c9
0 sg
1284 3847 mt 
(Novel Optimization) s
gs 816 3348 1860 565 rc
c10
360 0 888 3803 2 MP stroke
gs 995 3730 147 147 rc
  36   36 1068 3803 FO
gr

gr

c10

end %%Color Dict

eplot
%%EndObject

epage
end

showpage

%%Trailer
%%EOF
