%!PS-Adobe-3.0 EPSF-3.0
%%Creator: MATLAB, The MathWorks, Inc. Version 8.1.0.604 (R2013a). Operating System: Darwin 13.4.0 Darwin Kernel Version 13.4.0: Sun Aug 17 19:50:11 PDT 2014; root:xnu-2422.115.4~1/RELEASE_X86_64 x86_64.
%%Title: /Users/le/Work/NovelOP_gopU.eps
%%CreationDate: 09/25/2014  14:02:24
%%DocumentNeededFonts: Helvetica
%%DocumentProcessColors: Cyan Magenta Yellow Black
%%LanguageLevel: 2
%%Pages: 1
%%BoundingBox:    72   202   539   589
%%EndComments

%%BeginProlog
% MathWorks dictionary
/MathWorks 160 dict begin
% definition operators
/bdef {bind def} bind def
/ldef {load def} bind def
/xdef {exch def} bdef
/xstore {exch store} bdef
% operator abbreviations
/c  /clip ldef
/cc /concat ldef
/cp /closepath ldef
/gr /grestore ldef
/gs /gsave ldef
/mt /moveto ldef
/np /newpath ldef
/cm /currentmatrix ldef
/sm /setmatrix ldef
/rm /rmoveto ldef
/rl /rlineto ldef
/s {show newpath} bdef
/sc {setcmykcolor} bdef
/sr /setrgbcolor ldef
/sg /setgray ldef
/w /setlinewidth ldef
/j /setlinejoin ldef
/cap /setlinecap ldef
/rc {rectclip} bdef
/rf {rectfill} bdef
% page state control
/pgsv () def
/bpage {/pgsv save def} bdef
/epage {pgsv restore} bdef
/bplot /gsave ldef
/eplot {stroke grestore} bdef
% orientation switch
/portraitMode 0 def /landscapeMode 1 def /rotateMode 2 def
% coordinate system mappings
/dpi2point 0 def
% font control
/FontSize 0 def
/FMS {/FontSize xstore findfont [FontSize 0 0 FontSize neg 0 0]
  makefont setfont} bdef
/reencode {exch dup where {pop load} {pop StandardEncoding} ifelse
  exch dup 3 1 roll findfont dup length dict begin
  { 1 index /FID ne {def}{pop pop} ifelse } forall
  /Encoding exch def currentdict end definefont pop} bdef
/isroman {findfont /CharStrings get /Agrave known} bdef
/FMSR {3 1 roll 1 index dup isroman {reencode} {pop pop} ifelse
  exch FMS} bdef
/csm {1 dpi2point div -1 dpi2point div scale neg translate
 dup landscapeMode eq {pop -90 rotate}
  {rotateMode eq {90 rotate} if} ifelse} bdef
% line types: solid, dotted, dashed, dotdash
/SO { [] 0 setdash } bdef
/DO { [.5 dpi2point mul 4 dpi2point mul] 0 setdash } bdef
/DA { [6 dpi2point mul] 0 setdash } bdef
/DD { [.5 dpi2point mul 4 dpi2point mul 6 dpi2point mul 4
  dpi2point mul] 0 setdash } bdef
% macros for lines and objects
/L {lineto stroke} bdef
/MP {3 1 roll moveto 1 sub {rlineto} repeat} bdef
/AP {{rlineto} repeat} bdef
/PDlw -1 def
/W {/PDlw currentlinewidth def setlinewidth} def
/PP {closepath eofill} bdef
/DP {closepath stroke} bdef
/MR {4 -2 roll moveto dup  0 exch rlineto exch 0 rlineto
  neg 0 exch rlineto closepath} bdef
/FR {MR stroke} bdef
/PR {MR fill} bdef
/L1i {{currentfile picstr readhexstring pop} image} bdef
/tMatrix matrix def
/MakeOval {newpath tMatrix currentmatrix pop translate scale
0 0 1 0 360 arc tMatrix setmatrix} bdef
/FO {MakeOval stroke} bdef
/PO {MakeOval fill} bdef
/PD {currentlinewidth 2 div 0 360 arc fill
   PDlw -1 eq not {PDlw w /PDlw -1 def} if} def
/FA {newpath tMatrix currentmatrix pop translate scale
  0 0 1 5 -2 roll arc tMatrix setmatrix stroke} bdef
/PA {newpath tMatrix currentmatrix pop	translate 0 0 moveto scale
  0 0 1 5 -2 roll arc closepath tMatrix setmatrix fill} bdef
/FAn {newpath tMatrix currentmatrix pop translate scale
  0 0 1 5 -2 roll arcn tMatrix setmatrix stroke} bdef
/PAn {newpath tMatrix currentmatrix pop translate 0 0 moveto scale
  0 0 1 5 -2 roll arcn closepath tMatrix setmatrix fill} bdef
/vradius 0 def /hradius 0 def /lry 0 def
/lrx 0 def /uly 0 def /ulx 0 def /rad 0 def
/MRR {/vradius xdef /hradius xdef /lry xdef /lrx xdef /uly xdef
  /ulx xdef newpath tMatrix currentmatrix pop ulx hradius add uly
  vradius add translate hradius vradius scale 0 0 1 180 270 arc 
  tMatrix setmatrix lrx hradius sub uly vradius add translate
  hradius vradius scale 0 0 1 270 360 arc tMatrix setmatrix
  lrx hradius sub lry vradius sub translate hradius vradius scale
  0 0 1 0 90 arc tMatrix setmatrix ulx hradius add lry vradius sub
  translate hradius vradius scale 0 0 1 90 180 arc tMatrix setmatrix
  closepath} bdef
/FRR {MRR stroke } bdef
/PRR {MRR fill } bdef
/MlrRR {/lry xdef /lrx xdef /uly xdef /ulx xdef /rad lry uly sub 2 div def
  newpath tMatrix currentmatrix pop ulx rad add uly rad add translate
  rad rad scale 0 0 1 90 270 arc tMatrix setmatrix lrx rad sub lry rad
  sub translate rad rad scale 0 0 1 270 90 arc tMatrix setmatrix
  closepath} bdef
/FlrRR {MlrRR stroke } bdef
/PlrRR {MlrRR fill } bdef
/MtbRR {/lry xdef /lrx xdef /uly xdef /ulx xdef /rad lrx ulx sub 2 div def
  newpath tMatrix currentmatrix pop ulx rad add uly rad add translate
  rad rad scale 0 0 1 180 360 arc tMatrix setmatrix lrx rad sub lry rad
  sub translate rad rad scale 0 0 1 0 180 arc tMatrix setmatrix
  closepath} bdef
/FtbRR {MtbRR stroke } bdef
/PtbRR {MtbRR fill } bdef
/stri 6 array def /dtri 6 array def
/smat 6 array def /dmat 6 array def
/tmat1 6 array def /tmat2 6 array def /dif 3 array def
/asub {/ind2 exch def /ind1 exch def dup dup
  ind1 get exch ind2 get sub exch } bdef
/tri_to_matrix {
  2 0 asub 3 1 asub 4 0 asub 5 1 asub
  dup 0 get exch 1 get 7 -1 roll astore } bdef
/compute_transform {
  dmat dtri tri_to_matrix tmat1 invertmatrix 
  smat stri tri_to_matrix tmat2 concatmatrix } bdef
/ds {stri astore pop} bdef
/dt {dtri astore pop} bdef
/db {2 copy /cols xdef /rows xdef mul dup 3 mul string
  currentfile 
  3 index 0 eq {/ASCIIHexDecode filter}
  {/ASCII85Decode filter 3 index 2 eq {/RunLengthDecode filter} if }
  ifelse exch readstring pop
  dup 0 3 index getinterval /rbmap xdef
  dup 2 index dup getinterval /gbmap xdef
  1 index dup 2 mul exch getinterval /bbmap xdef pop pop}bdef
/it {gs np dtri aload pop moveto lineto lineto cp c
  cols rows 8 compute_transform 
  rbmap gbmap bbmap true 3 colorimage gr}bdef
/il {newpath moveto lineto stroke}bdef
currentdict end def
%%EndProlog

%%BeginSetup
MathWorks begin

0 cap

end
%%EndSetup

%%Page: 1 1
%%BeginPageSetup
%%PageBoundingBox:    72   202   539   589
MathWorks begin
bpage
%%EndPageSetup

%%BeginObject: obj1
bplot

/dpi2point 12 def
portraitMode 0864 7068 csm

    0     0  5604  4633 rc
85 dict begin %Colortable dictionary
/c0 { 0.000000 0.000000 0.000000 sr} bdef
/c1 { 1.000000 1.000000 1.000000 sr} bdef
/c2 { 0.900000 0.000000 0.000000 sr} bdef
/c3 { 0.000000 0.820000 0.000000 sr} bdef
/c4 { 0.000000 0.000000 0.800000 sr} bdef
/c5 { 0.910000 0.820000 0.320000 sr} bdef
/c6 { 1.000000 0.260000 0.820000 sr} bdef
/c7 { 0.000000 0.820000 0.820000 sr} bdef
c0
1 j
1 sg
   0    0 5605 4634 rf
6 w
0 3776 4343 0 0 -3776 729 4123 4 MP
PP
-4343 0 0 3776 4343 0 0 -3776 729 4123 5 MP stroke
4 w
DO
0 sg
 729 4123 mt  729  347 L
 729  347 mt  729  347 L
1163 4123 mt 1163  347 L
1163  347 mt 1163  347 L
1597 4123 mt 1597  347 L
1597  347 mt 1597  347 L
2031 4123 mt 2031  347 L
2031  347 mt 2031  347 L
2466 4123 mt 2466  347 L
2466  347 mt 2466  347 L
2900 4123 mt 2900  347 L
2900  347 mt 2900  347 L
3334 4123 mt 3334  347 L
3334  347 mt 3334  347 L
3769 4123 mt 3769  347 L
3769  347 mt 3769  347 L
4203 4123 mt 4203  347 L
4203  347 mt 4203  347 L
4637 4123 mt 4637  347 L
4637  347 mt 4637  347 L
5072 4123 mt 5072  347 L
5072  347 mt 5072  347 L
 729 4123 mt 5072 4123 L
5072 4123 mt 5072 4123 L
 729 3745 mt 5072 3745 L
5072 3745 mt 5072 3745 L
 729 3367 mt 5072 3367 L
5072 3367 mt 5072 3367 L
 729 2990 mt 5072 2990 L
5072 2990 mt 5072 2990 L
 729 2612 mt 5072 2612 L
5072 2612 mt 5072 2612 L
 729 2235 mt 5072 2235 L
5072 2235 mt 5072 2235 L
 729 1857 mt 5072 1857 L
5072 1857 mt 5072 1857 L
 729 1479 mt 5072 1479 L
5072 1479 mt 5072 1479 L
 729 1102 mt 5072 1102 L
5072 1102 mt 5072 1102 L
 729  724 mt 5072  724 L
5072  724 mt 5072  724 L
 729  347 mt 5072  347 L
5072  347 mt 5072  347 L
SO
6 w
 729 4123 mt 5072 4123 L
 729  347 mt 5072  347 L
 729 4123 mt  729  347 L
5072 4123 mt 5072  347 L
 729 4123 mt 5072 4123 L
 729 4123 mt  729  347 L
 729 4123 mt  729 4079 L
 729  347 mt  729  390 L
%%IncludeResource: font Helvetica
/Helvetica /ISOLatin1Encoding 120 FMSR

 696 4268 mt 
(0) s
1163 4123 mt 1163 4079 L
1163  347 mt 1163  390 L
1130 4268 mt 
(5) s
1597 4123 mt 1597 4079 L
1597  347 mt 1597  390 L
1531 4268 mt 
(10) s
2031 4123 mt 2031 4079 L
2031  347 mt 2031  390 L
1965 4268 mt 
(15) s
2466 4123 mt 2466 4079 L
2466  347 mt 2466  390 L
2400 4268 mt 
(20) s
2900 4123 mt 2900 4079 L
2900  347 mt 2900  390 L
2834 4268 mt 
(25) s
3334 4123 mt 3334 4079 L
3334  347 mt 3334  390 L
3268 4268 mt 
(30) s
3769 4123 mt 3769 4079 L
3769  347 mt 3769  390 L
3703 4268 mt 
(35) s
4203 4123 mt 4203 4079 L
4203  347 mt 4203  390 L
4137 4268 mt 
(40) s
4637 4123 mt 4637 4079 L
4637  347 mt 4637  390 L
4571 4268 mt 
(45) s
5072 4123 mt 5072 4079 L
5072  347 mt 5072  390 L
5006 4268 mt 
(50) s
 729 4123 mt  772 4123 L
5072 4123 mt 5028 4123 L
 461 4167 mt 
(13.8) s
 729 3745 mt  772 3745 L
5072 3745 mt 5028 3745 L
 561 3789 mt 
(14) s
 729 3367 mt  772 3367 L
5072 3367 mt 5028 3367 L
 461 3411 mt 
(14.2) s
 729 2990 mt  772 2990 L
5072 2990 mt 5028 2990 L
 461 3034 mt 
(14.4) s
 729 2612 mt  772 2612 L
5072 2612 mt 5028 2612 L
 461 2656 mt 
(14.6) s
 729 2235 mt  772 2235 L
5072 2235 mt 5028 2235 L
 461 2279 mt 
(14.8) s
 729 1857 mt  772 1857 L
5072 1857 mt 5028 1857 L
 561 1901 mt 
(15) s
 729 1479 mt  772 1479 L
5072 1479 mt 5028 1479 L
 461 1523 mt 
(15.2) s
 729 1102 mt  772 1102 L
5072 1102 mt 5028 1102 L
 461 1146 mt 
(15.4) s
 729  724 mt  772  724 L
5072  724 mt 5028  724 L
 461  768 mt 
(15.6) s
 729  347 mt  772  347 L
5072  347 mt 5028  347 L
 461  391 mt 
(15.8) s
 729 4123 mt 5072 4123 L
 729  347 mt 5072  347 L
 729 4123 mt  729  347 L
5072 4123 mt 5072  347 L
gs 729 347 4344 3777 rc
DA
/c8 { 0.000000 0.000000 1.000000 sr} bdef
c8
87 -334 87 34 87 -207 87 150 87 -92 87 272 87 -112 86 -11 
87 -57 87 -92 87 182 87 -33 87 0 87 -347 86 625 87 -602 
87 267 87 -126 87 103 87 237 87 121 86 -496 87 184 87 0 
87 377 87 22 87 -783 87 663 86 -200 87 200 87 -200 87 123 
87 -191 87 -324 87 690 86 -667 87 82 87 -93 87 47 87 288 
87 -265 87 47 86 -141 87 152 87 -211 87 106 87 -238 87 -172 
87 -12 815 3241 50 MP stroke
gr

c8
DA
gs 742 2069 4404 1246 rc
SO
 779 3241 mt  851 3241 L
 815 3205 mt  815 3277 L
 866 3229 mt  938 3229 L
 902 3193 mt  902 3265 L
 953 3057 mt 1025 3057 L
 989 3021 mt  989 3093 L
1040 2819 mt 1112 2819 L
1076 2783 mt 1076 2855 L
1127 2925 mt 1199 2925 L
1163 2889 mt 1163 2961 L
1214 2714 mt 1286 2714 L
1250 2678 mt 1250 2750 L
1301 2866 mt 1373 2866 L
1337 2830 mt 1337 2902 L
1387 2725 mt 1459 2725 L
1423 2689 mt 1423 2761 L
1474 2772 mt 1546 2772 L
1510 2736 mt 1510 2808 L
1561 2507 mt 1633 2507 L
1597 2471 mt 1597 2543 L
1648 2795 mt 1720 2795 L
1684 2759 mt 1684 2831 L
1735 2842 mt 1807 2842 L
1771 2806 mt 1771 2878 L
1822 2749 mt 1894 2749 L
1858 2713 mt 1858 2785 L
1909 2831 mt 1981 2831 L
1945 2795 mt 1945 2867 L
1995 2164 mt 2067 2164 L
2031 2128 mt 2031 2200 L
2082 2854 mt 2154 2854 L
2118 2818 mt 2118 2890 L
2169 2530 mt 2241 2530 L
2205 2494 mt 2205 2566 L
2256 2339 mt 2328 2339 L
2292 2303 mt 2292 2375 L
2343 2462 mt 2415 2462 L
2379 2426 mt 2379 2498 L
2430 2262 mt 2502 2262 L
2466 2226 mt 2466 2298 L
2517 2462 mt 2589 2462 L
2553 2426 mt 2553 2498 L
2603 2262 mt 2675 2262 L
2639 2226 mt 2639 2298 L
2690 2925 mt 2762 2925 L
2726 2889 mt 2726 2961 L
2777 2142 mt 2849 2142 L
2813 2106 mt 2813 2178 L
2864 2164 mt 2936 2164 L
2900 2128 mt 2900 2200 L
2951 2541 mt 3023 2541 L
2987 2505 mt 2987 2577 L
3038 2541 mt 3110 2541 L
3074 2505 mt 3074 2577 L
3125 2725 mt 3197 2725 L
3161 2689 mt 3161 2761 L
3211 2229 mt 3283 2229 L
3247 2193 mt 3247 2265 L
3298 2350 mt 3370 2350 L
3334 2314 mt 3334 2386 L
3385 2587 mt 3457 2587 L
3421 2551 mt 3421 2623 L
3472 2690 mt 3544 2690 L
3508 2654 mt 3508 2726 L
3559 2564 mt 3631 2564 L
3595 2528 mt 3595 2600 L
3646 2831 mt 3718 2831 L
3682 2795 mt 3682 2867 L
3733 2229 mt 3805 2229 L
3769 2193 mt 3769 2265 L
3819 2854 mt 3891 2854 L
3855 2818 mt 3855 2890 L
3906 2507 mt 3978 2507 L
3942 2471 mt 3942 2543 L
3993 2507 mt 4065 2507 L
4029 2471 mt 4029 2543 L
4080 2474 mt 4152 2474 L
4116 2438 mt 4116 2510 L
4167 2656 mt 4239 2656 L
4203 2620 mt 4203 2692 L
4254 2564 mt 4326 2564 L
4290 2528 mt 4290 2600 L
4341 2507 mt 4413 2507 L
4377 2471 mt 4377 2543 L
4427 2496 mt 4499 2496 L
4463 2460 mt 4463 2532 L
4514 2384 mt 4586 2384 L
4550 2348 mt 4550 2420 L
4601 2656 mt 4673 2656 L
4637 2620 mt 4637 2692 L
4688 2564 mt 4760 2564 L
4724 2528 mt 4724 2600 L
4775 2714 mt 4847 2714 L
4811 2678 mt 4811 2750 L
4862 2507 mt 4934 2507 L
4898 2471 mt 4898 2543 L
4949 2541 mt 5021 2541 L
4985 2505 mt 4985 2577 L
5036 2207 mt 5108 2207 L
5072 2171 mt 5072 2243 L
DA
gr

gs 729 347 4344 3777 rc
/c9 { 0.000000 0.500000 0.000000 sr} bdef
c9
87 -228 87 38 87 -116 87 78 87 -117 87 419 87 -188 86 -38 
87 -115 87 -78 87 0 87 193 87 -271 87 78 86 307 87 -625 
87 435 87 -274 87 157 87 0 87 307 86 -464 87 -325 87 -42 
87 406 87 0 87 -659 87 418 86 -20 87 -187 87 -255 87 129 
87 -347 87 -316 87 578 86 -671 87 -47 87 0 87 0 87 277 
87 -277 87 47 86 -141 87 188 87 -283 87 95 87 -240 87 -148 
87 0 815 3266 50 MP stroke
gr

c9
gs 742 797 4404 2543 rc
SO
  36   36  815 3266 FO
  36   36  902 3266 FO
  36   36  989 3118 FO
  36   36 1076 2878 FO
  36   36 1163 2973 FO
  36   36 1250 2690 FO
  36   36 1337 2878 FO
  36   36 1423 2737 FO
  36   36 1510 2784 FO
  36   36 1597 2507 FO
  36   36 1684 2784 FO
  36   36 1771 2784 FO
  36   36 1858 2784 FO
  36   36 1945 2737 FO
  36   36 2031 2066 FO
  36   36 2118 2644 FO
  36   36 2205 2328 FO
  36   36 2292 1981 FO
  36   36 2379 2110 FO
  36   36 2466 1855 FO
  36   36 2553 1668 FO
  36   36 2639 1648 FO
  36   36 2726 2066 FO
  36   36 2813 1407 FO
  36   36 2900 1407 FO
  36   36 2987 1813 FO
  36   36 3074 1771 FO
  36   36 3161 1446 FO
  36   36 3247  982 FO
  36   36 3334 1289 FO
  36   36 3421 1289 FO
  36   36 3508 1446 FO
  36   36 3595 1172 FO
  36   36 3682 1607 FO
  36   36 3769  982 FO
  36   36 3855 1289 FO
  36   36 3942 1367 FO
  36   36 4029 1096 FO
  36   36 4116 1289 FO
  36   36 4203 1289 FO
  36   36 4290 1211 FO
  36   36 4377 1096 FO
  36   36 4463 1058 FO
  36   36 4550  870 FO
  36   36 4637 1289 FO
  36   36 4724 1172 FO
  36   36 4811 1250 FO
  36   36 4898 1134 FO
  36   36 4985 1172 FO
  36   36 5072  944 FO
DA
gr

gs 729 347 4344 3777 rc
/c10 { 1.000000 0.000000 0.000000 sr} bdef
c10
87 -310 87 91 87 -278 87 265 87 -211 87 367 87 -221 86 39 
87 -79 87 -133 87 199 87 130 87 -236 87 -26 86 275 87 -249 
87 197 87 -290 87 406 87 178 87 -38 86 -243 87 -65 87 104 
87 304 87 86 87 -351 87 413 86 -324 87 433 87 -294 87 245 
87 -220 87 -202 87 732 86 -580 87 198 87 -37 87 61 87 346 
87 -261 87 108 86 -72 87 190 87 -226 87 108 87 -254 87 -99 
87 -12 815 3290 50 MP stroke
gr

c10
gs 742 2687 4404 1338 rc
SO
0 j
41 71 -82 0 41 -71 815 3337 4 MP
DP
41 71 -82 0 41 -71 902 3325 4 MP
DP
41 71 -82 0 41 -71 989 3226 4 MP
DP
41 71 -82 0 41 -71 1076 2972 4 MP
DP
41 71 -82 0 41 -71 1163 3080 4 MP
DP
41 71 -82 0 41 -71 1250 2854 4 MP
DP
41 71 -82 0 41 -71 1337 3044 4 MP
DP
41 71 -82 0 41 -71 1423 2972 4 MP
DP
41 71 -82 0 41 -71 1510 3080 4 MP
DP
41 71 -82 0 41 -71 1597 2819 4 MP
DP
41 71 -82 0 41 -71 1684 3165 4 MP
DP
41 71 -82 0 41 -71 1771 3226 4 MP
DP
41 71 -82 0 41 -71 1858 3189 4 MP
DP
41 71 -82 0 41 -71 1945 3387 4 MP
DP
41 71 -82 0 41 -71 2031 2807 4 MP
DP
41 71 -82 0 41 -71 2118 3539 4 MP
DP
41 71 -82 0 41 -71 2205 3337 4 MP
DP
41 71 -82 0 41 -71 2292 3117 4 MP
DP
41 71 -82 0 41 -71 2379 3362 4 MP
DP
41 71 -82 0 41 -71 2466 3068 4 MP
DP
41 71 -82 0 41 -71 2553 3501 4 MP
DP
41 71 -82 0 41 -71 2639 3177 4 MP
DP
41 71 -82 0 41 -71 2726 3590 4 MP
DP
41 71 -82 0 41 -71 2813 3239 4 MP
DP
41 71 -82 0 41 -71 2900 3325 4 MP
DP
41 71 -82 0 41 -71 2987 3629 4 MP
DP
41 71 -82 0 41 -71 3074 3733 4 MP
DP
41 71 -82 0 41 -71 3161 3668 4 MP
DP
41 71 -82 0 41 -71 3247 3425 4 MP
DP
41 71 -82 0 41 -71 3334 3387 4 MP
DP
41 71 -82 0 41 -71 3421 3565 4 MP
DP
41 71 -82 0 41 -71 3508 3971 4 MP
DP
41 71 -82 0 41 -71 3595 3681 4 MP
DP
41 71 -82 0 41 -71 3682 3878 4 MP
DP
41 71 -82 0 41 -71 3769 3629 4 MP
DP
41 71 -82 0 41 -71 3855 3904 4 MP
DP
41 71 -82 0 41 -71 3942 3878 4 MP
DP
41 71 -82 0 41 -71 4029 3642 4 MP
DP
41 71 -82 0 41 -71 4116 3772 4 MP
DP
41 71 -82 0 41 -71 4203 3971 4 MP
DP
41 71 -82 0 41 -71 4290 3838 4 MP
DP
41 71 -82 0 41 -71 4377 3759 4 MP
DP
41 71 -82 0 41 -71 4463 3798 4 MP
DP
41 71 -82 0 41 -71 4550 3577 4 MP
DP
41 71 -82 0 41 -71 4637 3944 4 MP
DP
41 71 -82 0 41 -71 4724 3733 4 MP
DP
41 71 -82 0 41 -71 4811 3998 4 MP
DP
41 71 -82 0 41 -71 4898 3720 4 MP
DP
41 71 -82 0 41 -71 4985 3811 4 MP
DP
41 71 -82 0 41 -71 5072 3501 4 MP
DP
DA
gr

gs 729 347 4344 3777 rc
/c11 { 0.000000 0.750000 0.750000 sr} bdef
c11
87 -134 87 170 87 -244 87 111 87 -62 87 467 87 -333 86 157 
87 -328 87 0 87 62 87 182 87 -256 87 49 86 432 87 -619 
87 249 87 -136 87 221 87 238 87 -23 86 -350 87 -123 87 86 
87 123 87 169 87 -479 87 455 86 -354 87 221 87 -73 87 218 
87 -267 87 -175 87 701 86 -576 87 87 87 37 87 97 87 412 
87 -400 87 108 86 -132 87 250 87 -238 87 96 87 -218 87 -99 
87 -12 815 3278 50 MP stroke
gr

c11
gs 742 2560 4404 930 rc
SO
24 W
815 3278 PD
24 W
902 3266 PD
24 W
989 3167 PD
24 W
1076 2949 PD
24 W
1163 3045 PD
24 W
1250 2807 PD
24 W
1337 3057 PD
24 W
1423 2925 PD
24 W
1510 3033 PD
24 W
1597 2633 PD
24 W
1684 3045 PD
24 W
1771 3142 PD
24 W
1858 3179 PD
24 W
1945 3266 PD
24 W
2031 2690 PD
24 W
2118 3391 PD
24 W
2205 3216 PD
24 W
2292 2949 PD
24 W
2379 3167 PD
24 W
2466 3094 PD
24 W
2553 3315 PD
24 W
2639 2961 PD
24 W
2726 3416 PD
24 W
2813 2937 PD
24 W
2900 3106 PD
24 W
2987 3229 PD
24 W
3074 3315 PD
24 W
3161 3192 PD
24 W
3247 2842 PD
24 W
3334 2819 PD
24 W
3421 3057 PD
24 W
3508 3278 PD
24 W
3595 3142 PD
24 W
3682 3391 PD
24 W
3769 2772 PD
24 W
3855 3204 PD
24 W
3942 3253 PD
24 W
4029 2997 PD
24 W
4116 3179 PD
24 W
4203 3241 PD
24 W
4290 3241 PD
24 W
4377 2913 PD
24 W
4463 3070 PD
24 W
4550 2737 PD
24 W
4637 3204 PD
24 W
4724 3142 PD
24 W
4811 3253 PD
24 W
4898 3009 PD
24 W
4985 3179 PD
24 W
5072 3045 PD
DA
gr

gs 729 347 4344 3777 rc
gr

0 sg
%%IncludeResource: font Helvetica
/Helvetica /ISOLatin1Encoding 168 FMSR

2712 4446 mt 
(GOP) s
 369 2619 mt  -90 rotate
(PSNR[dB]) s
90 rotate
1802  242 mt 
(Novel OP with window size=5) s
%%IncludeResource: font Helvetica
/Helvetica /ISOLatin1Encoding 120 FMSR

 712 4166 mt 
( ) s
5056  389 mt 
( ) s
SO
1 sg
0 738 863 0 0 -738 724 1155 4 MP
PP
-863 0 0 738 863 0 0 -738 724 1155 5 MP stroke
4 w
DO
SO
6 w
0 sg
 724 1155 mt 1587 1155 L
 724  417 mt 1587  417 L
 724 1155 mt  724  417 L
1587 1155 mt 1587  417 L
 724 1155 mt 1587 1155 L
 724 1155 mt  724  417 L
 724 1155 mt 1587 1155 L
 724  417 mt 1587  417 L
 724 1155 mt  724  417 L
1587 1155 mt 1587  417 L
1192  567 mt 
(data1) s
gs 724 417 864 739 rc
DA
c8
360 0 795 525 2 MP stroke
SO
gs 902 452 147 147 rc
 939  525 mt 1011  525 L
 975  489 mt  975  561 L
gr

gr

c8
0 sg
1192  741 mt 
(data2) s
gs 724 417 864 739 rc
DA
c9
360 0 795 699 2 MP stroke
SO
gs 902 626 147 147 rc
  36   36  975  699 FO
gr

gr

c9
0 sg
1192  916 mt 
(data3) s
gs 724 417 864 739 rc
DA
c10
360 0 795 872 2 MP stroke
SO
gs 902 799 147 147 rc
0 j
41 71 -82 0 41 -71 975 919 4 MP
DP
gr

gr

c10
0 sg
1192 1090 mt 
(data4) s
gs 724 417 864 739 rc
DA
c11
360 0 795 1046 2 MP stroke
SO
gs 902 973 147 147 rc
24 W
975 1046 PD
gr

gr

c11

end %%Color Dict

eplot
%%EndObject

epage
end

showpage

%%Trailer
%%EOF
