%!PS-Adobe-3.0 EPSF-3.0
%%Creator: MATLAB, The MathWorks, Inc. Version 8.1.0.604 (R2013a). Operating System: Darwin 13.3.0 Darwin Kernel Version 13.3.0: Tue Jun  3 21:27:35 PDT 2014; root:xnu-2422.110.17~1/RELEASE_X86_64 x86_64.
%%Title: /Users/le/Work/project3/Video/DeRe_u1.eps
%%CreationDate: 09/05/2014  12:08:11
%%DocumentNeededFonts: Helvetica
%%DocumentProcessColors: Cyan Magenta Yellow Black
%%LanguageLevel: 2
%%Pages: 1
%%BoundingBox:    72   221   539   570
%%EndComments

%%BeginProlog
% MathWorks dictionary
/MathWorks 160 dict begin
% definition operators
/bdef {bind def} bind def
/ldef {load def} bind def
/xdef {exch def} bdef
/xstore {exch store} bdef
% operator abbreviations
/c  /clip ldef
/cc /concat ldef
/cp /closepath ldef
/gr /grestore ldef
/gs /gsave ldef
/mt /moveto ldef
/np /newpath ldef
/cm /currentmatrix ldef
/sm /setmatrix ldef
/rm /rmoveto ldef
/rl /rlineto ldef
/s {show newpath} bdef
/sc {setcmykcolor} bdef
/sr /setrgbcolor ldef
/sg /setgray ldef
/w /setlinewidth ldef
/j /setlinejoin ldef
/cap /setlinecap ldef
/rc {rectclip} bdef
/rf {rectfill} bdef
% page state control
/pgsv () def
/bpage {/pgsv save def} bdef
/epage {pgsv restore} bdef
/bplot /gsave ldef
/eplot {stroke grestore} bdef
% orientation switch
/portraitMode 0 def /landscapeMode 1 def /rotateMode 2 def
% coordinate system mappings
/dpi2point 0 def
% font control
/FontSize 0 def
/FMS {/FontSize xstore findfont [FontSize 0 0 FontSize neg 0 0]
  makefont setfont} bdef
/reencode {exch dup where {pop load} {pop StandardEncoding} ifelse
  exch dup 3 1 roll findfont dup length dict begin
  { 1 index /FID ne {def}{pop pop} ifelse } forall
  /Encoding exch def currentdict end definefont pop} bdef
/isroman {findfont /CharStrings get /Agrave known} bdef
/FMSR {3 1 roll 1 index dup isroman {reencode} {pop pop} ifelse
  exch FMS} bdef
/csm {1 dpi2point div -1 dpi2point div scale neg translate
 dup landscapeMode eq {pop -90 rotate}
  {rotateMode eq {90 rotate} if} ifelse} bdef
% line types: solid, dotted, dashed, dotdash
/SO { [] 0 setdash } bdef
/DO { [.5 dpi2point mul 4 dpi2point mul] 0 setdash } bdef
/DA { [6 dpi2point mul] 0 setdash } bdef
/DD { [.5 dpi2point mul 4 dpi2point mul 6 dpi2point mul 4
  dpi2point mul] 0 setdash } bdef
% macros for lines and objects
/L {lineto stroke} bdef
/MP {3 1 roll moveto 1 sub {rlineto} repeat} bdef
/AP {{rlineto} repeat} bdef
/PDlw -1 def
/W {/PDlw currentlinewidth def setlinewidth} def
/PP {closepath eofill} bdef
/DP {closepath stroke} bdef
/MR {4 -2 roll moveto dup  0 exch rlineto exch 0 rlineto
  neg 0 exch rlineto closepath} bdef
/FR {MR stroke} bdef
/PR {MR fill} bdef
/L1i {{currentfile picstr readhexstring pop} image} bdef
/tMatrix matrix def
/MakeOval {newpath tMatrix currentmatrix pop translate scale
0 0 1 0 360 arc tMatrix setmatrix} bdef
/FO {MakeOval stroke} bdef
/PO {MakeOval fill} bdef
/PD {currentlinewidth 2 div 0 360 arc fill
   PDlw -1 eq not {PDlw w /PDlw -1 def} if} def
/FA {newpath tMatrix currentmatrix pop translate scale
  0 0 1 5 -2 roll arc tMatrix setmatrix stroke} bdef
/PA {newpath tMatrix currentmatrix pop	translate 0 0 moveto scale
  0 0 1 5 -2 roll arc closepath tMatrix setmatrix fill} bdef
/FAn {newpath tMatrix currentmatrix pop translate scale
  0 0 1 5 -2 roll arcn tMatrix setmatrix stroke} bdef
/PAn {newpath tMatrix currentmatrix pop translate 0 0 moveto scale
  0 0 1 5 -2 roll arcn closepath tMatrix setmatrix fill} bdef
/vradius 0 def /hradius 0 def /lry 0 def
/lrx 0 def /uly 0 def /ulx 0 def /rad 0 def
/MRR {/vradius xdef /hradius xdef /lry xdef /lrx xdef /uly xdef
  /ulx xdef newpath tMatrix currentmatrix pop ulx hradius add uly
  vradius add translate hradius vradius scale 0 0 1 180 270 arc 
  tMatrix setmatrix lrx hradius sub uly vradius add translate
  hradius vradius scale 0 0 1 270 360 arc tMatrix setmatrix
  lrx hradius sub lry vradius sub translate hradius vradius scale
  0 0 1 0 90 arc tMatrix setmatrix ulx hradius add lry vradius sub
  translate hradius vradius scale 0 0 1 90 180 arc tMatrix setmatrix
  closepath} bdef
/FRR {MRR stroke } bdef
/PRR {MRR fill } bdef
/MlrRR {/lry xdef /lrx xdef /uly xdef /ulx xdef /rad lry uly sub 2 div def
  newpath tMatrix currentmatrix pop ulx rad add uly rad add translate
  rad rad scale 0 0 1 90 270 arc tMatrix setmatrix lrx rad sub lry rad
  sub translate rad rad scale 0 0 1 270 90 arc tMatrix setmatrix
  closepath} bdef
/FlrRR {MlrRR stroke } bdef
/PlrRR {MlrRR fill } bdef
/MtbRR {/lry xdef /lrx xdef /uly xdef /ulx xdef /rad lrx ulx sub 2 div def
  newpath tMatrix currentmatrix pop ulx rad add uly rad add translate
  rad rad scale 0 0 1 180 360 arc tMatrix setmatrix lrx rad sub lry rad
  sub translate rad rad scale 0 0 1 0 180 arc tMatrix setmatrix
  closepath} bdef
/FtbRR {MtbRR stroke } bdef
/PtbRR {MtbRR fill } bdef
/stri 6 array def /dtri 6 array def
/smat 6 array def /dmat 6 array def
/tmat1 6 array def /tmat2 6 array def /dif 3 array def
/asub {/ind2 exch def /ind1 exch def dup dup
  ind1 get exch ind2 get sub exch } bdef
/tri_to_matrix {
  2 0 asub 3 1 asub 4 0 asub 5 1 asub
  dup 0 get exch 1 get 7 -1 roll astore } bdef
/compute_transform {
  dmat dtri tri_to_matrix tmat1 invertmatrix 
  smat stri tri_to_matrix tmat2 concatmatrix } bdef
/ds {stri astore pop} bdef
/dt {dtri astore pop} bdef
/db {2 copy /cols xdef /rows xdef mul dup 3 mul string
  currentfile 
  3 index 0 eq {/ASCIIHexDecode filter}
  {/ASCII85Decode filter 3 index 2 eq {/RunLengthDecode filter} if }
  ifelse exch readstring pop
  dup 0 3 index getinterval /rbmap xdef
  dup 2 index dup getinterval /gbmap xdef
  1 index dup 2 mul exch getinterval /bbmap xdef pop pop}bdef
/it {gs np dtri aload pop moveto lineto lineto cp c
  cols rows 8 compute_transform 
  rbmap gbmap bbmap true 3 colorimage gr}bdef
/il {newpath moveto lineto stroke}bdef
currentdict end def
%%EndProlog

%%BeginSetup
MathWorks begin

0 cap

end
%%EndSetup

%%Page: 1 1
%%BeginPageSetup
%%PageBoundingBox:    72   221   539   570
MathWorks begin
bpage
%%EndPageSetup

%%BeginObject: obj1
bplot

/dpi2point 12 def
portraitMode 0864 6840 csm

    0     0  5604  4188 rc
85 dict begin %Colortable dictionary
/c0 { 0.000000 0.000000 0.000000 sr} bdef
/c1 { 1.000000 1.000000 1.000000 sr} bdef
/c2 { 0.900000 0.000000 0.000000 sr} bdef
/c3 { 0.000000 0.820000 0.000000 sr} bdef
/c4 { 0.000000 0.000000 0.800000 sr} bdef
/c5 { 0.910000 0.820000 0.320000 sr} bdef
/c6 { 1.000000 0.260000 0.820000 sr} bdef
/c7 { 0.000000 0.820000 0.820000 sr} bdef
c0
1 j
1 sg
   0    0 5605 4189 rf
6 w
0 3413 4343 0 0 -3413 729 3727 4 MP
PP
-4343 0 0 3413 4343 0 0 -3413 729 3727 5 MP stroke
4 w
DO
0 sg
 729 3727 mt  729  314 L
 729  314 mt  729  314 L
1452 3727 mt 1452  314 L
1452  314 mt 1452  314 L
2176 3727 mt 2176  314 L
2176  314 mt 2176  314 L
2900 3727 mt 2900  314 L
2900  314 mt 2900  314 L
3624 3727 mt 3624  314 L
3624  314 mt 3624  314 L
4348 3727 mt 4348  314 L
4348  314 mt 4348  314 L
5072 3727 mt 5072  314 L
5072  314 mt 5072  314 L
 729 3727 mt 5072 3727 L
5072 3727 mt 5072 3727 L
 729 3239 mt 5072 3239 L
5072 3239 mt 5072 3239 L
 729 2751 mt 5072 2751 L
5072 2751 mt 5072 2751 L
 729 2264 mt 5072 2264 L
5072 2264 mt 5072 2264 L
 729 1776 mt 5072 1776 L
5072 1776 mt 5072 1776 L
 729 1289 mt 5072 1289 L
5072 1289 mt 5072 1289 L
 729  801 mt 5072  801 L
5072  801 mt 5072  801 L
 729  314 mt 5072  314 L
5072  314 mt 5072  314 L
SO
6 w
 729 3727 mt 5072 3727 L
 729  314 mt 5072  314 L
 729 3727 mt  729  314 L
5072 3727 mt 5072  314 L
 729 3727 mt 5072 3727 L
 729 3727 mt  729  314 L
 729 3727 mt  729 3683 L
 729  314 mt  729  357 L
%%IncludeResource: font Helvetica
/Helvetica /ISOLatin1Encoding 192 FMSR

 676 3939 mt 
(0) s
1452 3727 mt 1452 3683 L
1452  314 mt 1452  357 L
1292 3939 mt 
(100) s
2176 3727 mt 2176 3683 L
2176  314 mt 2176  357 L
2016 3939 mt 
(200) s
2900 3727 mt 2900 3683 L
2900  314 mt 2900  357 L
2740 3939 mt 
(300) s
3624 3727 mt 3624 3683 L
3624  314 mt 3624  357 L
3464 3939 mt 
(400) s
4348 3727 mt 4348 3683 L
4348  314 mt 4348  357 L
4188 3939 mt 
(500) s
5072 3727 mt 5072 3683 L
5072  314 mt 5072  357 L
4912 3939 mt 
(600) s
 729 3727 mt  772 3727 L
5072 3727 mt 5028 3727 L
 588 3798 mt 
(5) s
 729 3239 mt  772 3239 L
5072 3239 mt 5028 3239 L
 481 3310 mt 
(10) s
 729 2751 mt  772 2751 L
5072 2751 mt 5028 2751 L
 481 2822 mt 
(15) s
 729 2264 mt  772 2264 L
5072 2264 mt 5028 2264 L
 481 2335 mt 
(20) s
 729 1776 mt  772 1776 L
5072 1776 mt 5028 1776 L
 481 1847 mt 
(25) s
 729 1289 mt  772 1289 L
5072 1289 mt 5028 1289 L
 481 1360 mt 
(30) s
 729  801 mt  772  801 L
5072  801 mt 5028  801 L
 481  872 mt 
(35) s
 729  314 mt  772  314 L
5072  314 mt 5028  314 L
 481  385 mt 
(40) s
 729 3727 mt 5072 3727 L
 729  314 mt 5072  314 L
 729 3727 mt  729  314 L
5072 3727 mt 5072  314 L
gs 729 314 4344 3414 rc
/c8 { 0.000000 0.000000 1.000000 sr} bdef
c8
8 -1 7 -2 7 -1 7 -2 8 -2 7 -1 7 -2 7 -2 
8 -1 7 -2 7 -2 7 -1 8 -2 7 -1 7 -2 7 -2 
8 -1 7 -2 7 -2 7 -1 8 -2 7 -1 7 -2 7 -2 
7 -1 8 -2 7 -2 7 -1 7 -2 8 -1 7 -2 7 -2 
7 -1 8 -2 7 -2 7 -1 7 -2 8 -1 7 -2 7 -2 
7 -1 8 -2 7 -2 7 -1 7 -2 7 -1 8 -2 7 -2 
7 -1 7 -2 8 -1 7 -2 7 -2 7 -1 8 -2 7 -1 
7 -2 7 -2 8 -1 7 -2 7 -2 7 -1 8 -2 7 -1 
7 -2 7 -2 7 -1 8 -2 7 -1 7 -2 7 -2 8 -1 
7 -2 7 -1 7 -2 8 -2 7 -1 7 -2 7 -2 8 -1 
7 -2 7 -1 7 -2 8 -2 7 -1 7 -2 7 -1 7 -2 
8 -2 7 -1 7 -2 7 -1 8 -2 7 -2 7 -1 7 -2 
8 -2 7 -1 7 -2 7 -1 8 -2 7 -2 7 -1 7 -2 
8 -1 7 -2 7 -2 7 -1 7 -2 8 -2 7 -1 7 -2 
7 -1 8 -2 7 -2 7 -1 7 -2 8 -1 7 -2 7 -2 
7 -1 8 -2 7 -2 7 -1 7 -2 8 -1 7 -2 7 -2 
7 -1 7 -2 8 -2 7 -1 7 -2 7 -1 8 -2 7 -2 
7 -1 7 -2 8 -2 7 -1 7 -2 7 -2 8 -1 7 -2 
7 -1 7 -2 8 -2 7 -1 7 -2 7 -2 7 -1 8 -2 
7 -2 7 -1 7 -2 8 -2 7 -1 7 -2 7 -2 8 -1 
7 -2 7 -1 7 -2 8 -2 7 -1 7 -2 7 -2 8 -1 
7 -2 7 -2 7 -1 7 -2 8 -2 7 -1 7 -2 7 -2 
8 -1 7 -2 7 -2 7 -1 8 -2 7 -2 7 -2 7 -1 
8 -2 7 -2 7 -1 7 -2 8 -2 7 -1 7 -2 7 -2 
7 -1 8 -2 7 -2 7 -2 7 -1 8 -2 7 -2 7 -1 
7 -2 8 -2 7 -1 7 -2 7 -2 8 -2 7 -1 7 -2 
7 -2 8 -2 7 -1 7 -2 7 -2 8 -1 7 -2 7 -2 
7 -2 7 -1 8 -2 7 -2 7 -2 7 -1 8 -2 7 -2 
7 -2 7 -1 8 -2 7 -2 7 -2 7 -1 8 -2 7 -2 
7 -2 7 -1 8 -2 7 -2 7 -2 7 -2 7 -1 8 -2 
7 -2 7 -2 7 -2 8 -1 7 -2 7 -2 7 -2 8 -2 
7 -1 7 -2 7 -2 8 -2 7 -2 7 -1 7 -2 8 -2 
7 -2 7 -2 7 -2 7 -1 8 -2 7 -2 7 -2 7 -2 
8 -2 7 -2 7 -1 7 -2 8 -2 7 -2 7 -2 7 -2 
8 -2 7 -1 7 -2 7 -2 8 -2 7 -2 7 -2 7 -2 
7 -2 8 -2 7 -2 7 -1 7 -2 8 -2 7 -2 7 -2 
7 -2 8 -2 7 -2 7 -2 7 -2 8 -2 7 -2 7 -2 
7 -2 8 -2 7 -2 2907 870 300 MP stroke
7 -2 7 -2 7 -2 8 -2 7 -2 7 -2 7 -2 8 -2 
7 -2 7 -2 7 -2 8 -2 7 -2 7 -2 7 -2 8 -2 
7 -2 7 -2 7 -2 8 -2 7 -2 7 -2 7 -2 7 -2 
8 -2 7 -2 7 -2 7 -2 8 -3 7 -2 7 -2 7 -2 
8 -2 7 -2 7 -2 7 -2 8 -3 7 -2 7 -2 7 -2 
8 -2 7 -2 7 -2 7 -3 7 -2 8 -2 7 -2 7 -2 
7 -3 8 -2 7 -2 7 -2 7 -3 8 -2 7 -2 7 -2 
7 -3 8 -2 7 -2 7 -2 7 -3 8 -2 7 -2 7 -3 
7 -2 7 -2 8 -2 7 -3 7 -2 7 -2 8 -3 7 -2 
7 -3 7 -2 8 -2 7 -3 7 -2 7 -3 8 -2 7 -2 
7 -3 7 -2 8 -3 7 -2 7 -3 7 -2 7 -3 8 -2 
7 -3 7 -2 7 -3 8 -2 7 -3 7 -2 7 -3 8 -2 
7 -3 7 -2 7 -3 8 -3 7 -2 7 -3 7 -2 8 -3 
7 -3 7 -2 7 -3 8 -3 7 -2 7 -3 7 -3 7 -3 
8 -2 7 -3 7 -3 7 -3 8 -2 7 -3 7 -3 7 -3 
8 -3 7 -3 7 -2 7 -3 8 -3 7 -3 7 -3 7 -3 
8 -3 7 -3 7 -3 7 -3 7 -3 8 -3 7 -3 7 -3 
7 -3 8 -3 7 -3 7 -3 7 -3 8 -3 7 -3 7 -4 
7 -3 8 -3 7 -3 7 -3 7 -4 8 -3 7 -3 7 -4 
7 -3 7 -3 8 -4 7 -3 7 -3 7 -4 8 -3 7 -4 
7 -3 7 -4 8 -3 7 -4 7 -3 7 -4 8 -4 7 -3 
7 -4 7 -3 8 -4 7 -4 7 -4 7 -3 7 -4 8 -4 
7 -4 7 -4 7 -4 8 -4 7 -4 7 -4 7 -4 8 -4 
7 -4 7 -4 7 -4 8 -4 7 -5 7 -4 7 -4 8 -4 
7 -5 7 -4 7 -5 7 -4 8 -5 7 -4 7 -5 7 -4 
8 -5 7 -5 7 -4 7 -5 8 -5 7 -5 7 -5 7 -5 
8 -5 7 -5 7 -5 7 -5 8 -5 7 -6 7 -5 7 -6 
7 -5 8 -5 7 -6 7 -6 7 -5 8 -6 7 -6 7 -6 
7 -6 8 -6 7 -6 7 -6 7 -7 8 -6 7 -6 7 -7 
7 -7 8 -6 7 -7 7 -7 7 -7 7 -7 8 -7 7 -8 
7 -7 7 -8 8 -7 7 -8 7 -8 7 -8 8 -8 7 -9 
7 -8 7 -9 8 -9 7 -9 7 -9 7 -9 8 -10 7 -9 
7 -10 7 -11 7 -10 8 -11 7 -11 7 -11 7 -11 8 -12 
7 -12 7 -12 7 -13 8 -13 7 -14 7 -14 7 -14 8 -15 
7 -15 7 -16 7 -16 8 -18 7 -17 7 -19 7 -19 7 -20 
8 -22 7 -22 7 -23 7 -25 8 -26 7 -28 7 -30 7 -32 
8 -35 7 -37 7 -41 7 -46 8 -51 7 -58 7 -67 7 -79 
8 -97 7 -126 7 -180 743 3158 300 MP stroke
7 -319 736 3477 2 MP stroke
gr

c8
0 sg
%%IncludeResource: font Helvetica
/Helvetica /ISOLatin1Encoding 168 FMSR

2586 4117 mt 
(Re [bps]) s
 416 2433 mt  -90 rotate
(PSNR [dB]) s
90 rotate
1839  168 mt 
([Wang2013] User 1 of 4 UTs) s

end %%Color Dict

eplot
%%EndObject

epage
end

showpage

%%Trailer
%%EOF
