%!PS-Adobe-3.0 EPSF-3.0
%%Creator: MATLAB, The MathWorks, Inc. Version 8.1.0.604 (R2013a). Operating System: Darwin 14.1.0 Darwin Kernel Version 14.1.0: Thu Feb 26 19:26:47 PST 2015; root:xnu-2782.10.73~1/RELEASE_X86_64 x86_64.
%%Title: /Users/le/Work/3.Projects/project3/RefVideoData/DistortionRate_DWang.eps
%%CreationDate: 03/20/2015  15:18:18
%%DocumentNeededFonts: Helvetica
%%DocumentProcessColors: Cyan Magenta Yellow Black
%%LanguageLevel: 2
%%Pages: 1
%%BoundingBox:   -10   189   625   602
%%EndComments

%%BeginProlog
% MathWorks dictionary
/MathWorks 160 dict begin
% definition operators
/bdef {bind def} bind def
/ldef {load def} bind def
/xdef {exch def} bdef
/xstore {exch store} bdef
% operator abbreviations
/c  /clip ldef
/cc /concat ldef
/cp /closepath ldef
/gr /grestore ldef
/gs /gsave ldef
/mt /moveto ldef
/np /newpath ldef
/cm /currentmatrix ldef
/sm /setmatrix ldef
/rm /rmoveto ldef
/rl /rlineto ldef
/s {show newpath} bdef
/sc {setcmykcolor} bdef
/sr /setrgbcolor ldef
/sg /setgray ldef
/w /setlinewidth ldef
/j /setlinejoin ldef
/cap /setlinecap ldef
/rc {rectclip} bdef
/rf {rectfill} bdef
% page state control
/pgsv () def
/bpage {/pgsv save def} bdef
/epage {pgsv restore} bdef
/bplot /gsave ldef
/eplot {stroke grestore} bdef
% orientation switch
/portraitMode 0 def /landscapeMode 1 def /rotateMode 2 def
% coordinate system mappings
/dpi2point 0 def
% font control
/FontSize 0 def
/FMS {/FontSize xstore findfont [FontSize 0 0 FontSize neg 0 0]
  makefont setfont} bdef
/reencode {exch dup where {pop load} {pop StandardEncoding} ifelse
  exch dup 3 1 roll findfont dup length dict begin
  { 1 index /FID ne {def}{pop pop} ifelse } forall
  /Encoding exch def currentdict end definefont pop} bdef
/isroman {findfont /CharStrings get /Agrave known} bdef
/FMSR {3 1 roll 1 index dup isroman {reencode} {pop pop} ifelse
  exch FMS} bdef
/csm {1 dpi2point div -1 dpi2point div scale neg translate
 dup landscapeMode eq {pop -90 rotate}
  {rotateMode eq {90 rotate} if} ifelse} bdef
% line types: solid, dotted, dashed, dotdash
/SO { [] 0 setdash } bdef
/DO { [.5 dpi2point mul 4 dpi2point mul] 0 setdash } bdef
/DA { [6 dpi2point mul] 0 setdash } bdef
/DD { [.5 dpi2point mul 4 dpi2point mul 6 dpi2point mul 4
  dpi2point mul] 0 setdash } bdef
% macros for lines and objects
/L {lineto stroke} bdef
/MP {3 1 roll moveto 1 sub {rlineto} repeat} bdef
/AP {{rlineto} repeat} bdef
/PDlw -1 def
/W {/PDlw currentlinewidth def setlinewidth} def
/PP {closepath eofill} bdef
/DP {closepath stroke} bdef
/MR {4 -2 roll moveto dup  0 exch rlineto exch 0 rlineto
  neg 0 exch rlineto closepath} bdef
/FR {MR stroke} bdef
/PR {MR fill} bdef
/L1i {{currentfile picstr readhexstring pop} image} bdef
/tMatrix matrix def
/MakeOval {newpath tMatrix currentmatrix pop translate scale
0 0 1 0 360 arc tMatrix setmatrix} bdef
/FO {MakeOval stroke} bdef
/PO {MakeOval fill} bdef
/PD {currentlinewidth 2 div 0 360 arc fill
   PDlw -1 eq not {PDlw w /PDlw -1 def} if} def
/FA {newpath tMatrix currentmatrix pop translate scale
  0 0 1 5 -2 roll arc tMatrix setmatrix stroke} bdef
/PA {newpath tMatrix currentmatrix pop	translate 0 0 moveto scale
  0 0 1 5 -2 roll arc closepath tMatrix setmatrix fill} bdef
/FAn {newpath tMatrix currentmatrix pop translate scale
  0 0 1 5 -2 roll arcn tMatrix setmatrix stroke} bdef
/PAn {newpath tMatrix currentmatrix pop translate 0 0 moveto scale
  0 0 1 5 -2 roll arcn closepath tMatrix setmatrix fill} bdef
/vradius 0 def /hradius 0 def /lry 0 def
/lrx 0 def /uly 0 def /ulx 0 def /rad 0 def
/MRR {/vradius xdef /hradius xdef /lry xdef /lrx xdef /uly xdef
  /ulx xdef newpath tMatrix currentmatrix pop ulx hradius add uly
  vradius add translate hradius vradius scale 0 0 1 180 270 arc 
  tMatrix setmatrix lrx hradius sub uly vradius add translate
  hradius vradius scale 0 0 1 270 360 arc tMatrix setmatrix
  lrx hradius sub lry vradius sub translate hradius vradius scale
  0 0 1 0 90 arc tMatrix setmatrix ulx hradius add lry vradius sub
  translate hradius vradius scale 0 0 1 90 180 arc tMatrix setmatrix
  closepath} bdef
/FRR {MRR stroke } bdef
/PRR {MRR fill } bdef
/MlrRR {/lry xdef /lrx xdef /uly xdef /ulx xdef /rad lry uly sub 2 div def
  newpath tMatrix currentmatrix pop ulx rad add uly rad add translate
  rad rad scale 0 0 1 90 270 arc tMatrix setmatrix lrx rad sub lry rad
  sub translate rad rad scale 0 0 1 270 90 arc tMatrix setmatrix
  closepath} bdef
/FlrRR {MlrRR stroke } bdef
/PlrRR {MlrRR fill } bdef
/MtbRR {/lry xdef /lrx xdef /uly xdef /ulx xdef /rad lrx ulx sub 2 div def
  newpath tMatrix currentmatrix pop ulx rad add uly rad add translate
  rad rad scale 0 0 1 180 360 arc tMatrix setmatrix lrx rad sub lry rad
  sub translate rad rad scale 0 0 1 0 180 arc tMatrix setmatrix
  closepath} bdef
/FtbRR {MtbRR stroke } bdef
/PtbRR {MtbRR fill } bdef
/stri 6 array def /dtri 6 array def
/smat 6 array def /dmat 6 array def
/tmat1 6 array def /tmat2 6 array def /dif 3 array def
/asub {/ind2 exch def /ind1 exch def dup dup
  ind1 get exch ind2 get sub exch } bdef
/tri_to_matrix {
  2 0 asub 3 1 asub 4 0 asub 5 1 asub
  dup 0 get exch 1 get 7 -1 roll astore } bdef
/compute_transform {
  dmat dtri tri_to_matrix tmat1 invertmatrix 
  smat stri tri_to_matrix tmat2 concatmatrix } bdef
/ds {stri astore pop} bdef
/dt {dtri astore pop} bdef
/db {2 copy /cols xdef /rows xdef mul dup 3 mul string
  currentfile 
  3 index 0 eq {/ASCIIHexDecode filter}
  {/ASCII85Decode filter 3 index 2 eq {/RunLengthDecode filter} if }
  ifelse exch readstring pop
  dup 0 3 index getinterval /rbmap xdef
  dup 2 index dup getinterval /gbmap xdef
  1 index dup 2 mul exch getinterval /bbmap xdef pop pop}bdef
/it {gs np dtri aload pop moveto lineto lineto cp c
  cols rows 8 compute_transform 
  rbmap gbmap bbmap true 3 colorimage gr}bdef
/il {newpath moveto lineto stroke}bdef
currentdict end def
%%EndProlog

%%BeginSetup
MathWorks begin

0 cap

end
%%EndSetup

%%Page: 1 1
%%BeginPageSetup
%%PageBoundingBox:   -10   189   625   602
MathWorks begin
bpage
%%EndPageSetup

%%BeginObject: obj1
bplot

/dpi2point 12 def
portraitMode -0120 7224 csm

    0     0  7620  4956 rc
85 dict begin %Colortable dictionary
/c0 { 0.000000 0.000000 0.000000 sr} bdef
/c1 { 1.000000 1.000000 1.000000 sr} bdef
/c2 { 0.900000 0.000000 0.000000 sr} bdef
/c3 { 0.000000 0.820000 0.000000 sr} bdef
/c4 { 0.000000 0.000000 0.800000 sr} bdef
/c5 { 0.910000 0.820000 0.320000 sr} bdef
/c6 { 1.000000 0.260000 0.820000 sr} bdef
/c7 { 0.000000 0.820000 0.820000 sr} bdef
c0
1 j
1 sg
   0    0 7621 4957 rf
6 w
0 4039 5905 0 0 -4039 991 4411 4 MP
PP
-5905 0 0 4039 5905 0 0 -4039 991 4411 5 MP stroke
4 w
DO
0 sg
1218 4411 mt 1218  372 L
1218  372 mt 1218  372 L
1785 4411 mt 1785  372 L
1785  372 mt 1785  372 L
2353 4411 mt 2353  372 L
2353  372 mt 2353  372 L
2921 4411 mt 2921  372 L
2921  372 mt 2921  372 L
3489 4411 mt 3489  372 L
3489  372 mt 3489  372 L
4057 4411 mt 4057  372 L
4057  372 mt 4057  372 L
4624 4411 mt 4624  372 L
4624  372 mt 4624  372 L
5192 4411 mt 5192  372 L
5192  372 mt 5192  372 L
5760 4411 mt 5760  372 L
5760  372 mt 5760  372 L
6328 4411 mt 6328  372 L
6328  372 mt 6328  372 L
6896 4411 mt 6896  372 L
6896  372 mt 6896  372 L
 991 4411 mt 6896 4411 L
6896 4411 mt 6896 4411 L
 991 3603 mt 6896 3603 L
6896 3603 mt 6896 3603 L
 991 2795 mt 6896 2795 L
6896 2795 mt 6896 2795 L
 991 1987 mt 6896 1987 L
6896 1987 mt 6896 1987 L
 991 1179 mt 6896 1179 L
6896 1179 mt 6896 1179 L
 991  372 mt 6896  372 L
6896  372 mt 6896  372 L
SO
6 w
 991 4411 mt 6896 4411 L
 991  372 mt 6896  372 L
 991 4411 mt  991  372 L
6896 4411 mt 6896  372 L
 991 4411 mt 6896 4411 L
 991 4411 mt  991  372 L
1218 4411 mt 1218 4351 L
1218  372 mt 1218  431 L
%%IncludeResource: font Helvetica
/Helvetica /ISOLatin1Encoding 168 FMSR

1078 4601 mt 
(100) s
1785 4411 mt 1785 4351 L
1785  372 mt 1785  431 L
1645 4601 mt 
(150) s
2353 4411 mt 2353 4351 L
2353  372 mt 2353  431 L
2213 4601 mt 
(200) s
2921 4411 mt 2921 4351 L
2921  372 mt 2921  431 L
2781 4601 mt 
(250) s
3489 4411 mt 3489 4351 L
3489  372 mt 3489  431 L
3349 4601 mt 
(300) s
4057 4411 mt 4057 4351 L
4057  372 mt 4057  431 L
3917 4601 mt 
(350) s
4624 4411 mt 4624 4351 L
4624  372 mt 4624  431 L
4484 4601 mt 
(400) s
5192 4411 mt 5192 4351 L
5192  372 mt 5192  431 L
5052 4601 mt 
(450) s
5760 4411 mt 5760 4351 L
5760  372 mt 5760  431 L
5620 4601 mt 
(500) s
6328 4411 mt 6328 4351 L
6328  372 mt 6328  431 L
6188 4601 mt 
(550) s
6896 4411 mt 6896 4351 L
6896  372 mt 6896  431 L
6756 4601 mt 
(600) s
 991 4411 mt 1050 4411 L
6896 4411 mt 6836 4411 L
 770 4473 mt 
(20) s
 991 3603 mt 1050 3603 L
6896 3603 mt 6836 3603 L
 770 3665 mt 
(25) s
 991 2795 mt 1050 2795 L
6896 2795 mt 6836 2795 L
 770 2857 mt 
(30) s
 991 1987 mt 1050 1987 L
6896 1987 mt 6836 1987 L
 770 2049 mt 
(35) s
 991 1179 mt 1050 1179 L
6896 1179 mt 6836 1179 L
 770 1241 mt 
(40) s
 991  372 mt 1050  372 L
6896  372 mt 6836  372 L
 770  434 mt 
(45) s
 991 4411 mt 6896 4411 L
 991  372 mt 6896  372 L
 991 4411 mt  991  372 L
6896 4411 mt 6896  372 L
gs 991 372 5906 4040 rc
18 w
/c8 { 0.000000 0.000000 1.000000 sr} bdef
c8
12 -4 11 -3 12 -3 11 -3 11 -3 12 -3 11 -3 11 -3 
12 -4 11 -3 11 -3 12 -3 11 -3 11 -3 12 -3 11 -3 
12 -3 11 -4 11 -3 12 -3 11 -3 11 -3 12 -3 11 -3 
11 -3 12 -3 11 -3 11 -3 12 -3 11 -3 12 -4 11 -3 
11 -3 12 -3 11 -3 11 -3 12 -3 11 -3 11 -3 12 -3 
11 -3 11 -3 12 -3 11 -3 12 -3 11 -3 11 -3 12 -3 
11 -3 11 -3 12 -3 11 -3 11 -4 12 -3 11 -3 11 -3 
12 -3 11 -3 11 -3 12 -3 11 -3 12 -3 11 -3 11 -3 
12 -3 11 -3 11 -3 12 -3 11 -3 11 -3 12 -3 11 -3 
11 -3 12 -3 11 -3 12 -3 11 -3 11 -3 12 -3 11 -3 
11 -3 12 -3 11 -3 11 -3 12 -3 11 -3 11 -3 12 -3 
11 -3 12 -3 11 -3 11 -3 12 -3 11 -3 11 -3 12 -3 
11 -3 11 -3 12 -3 11 -3 11 -3 12 -3 11 -3 11 -3 
12 -3 11 -3 12 -3 11 -3 11 -3 12 -3 11 -3 11 -3 
12 -3 11 -3 11 -3 12 -3 11 -3 11 -3 12 -3 11 -3 
12 -3 11 -3 11 -3 12 -3 11 -3 11 -3 12 -3 11 -3 
11 -3 12 -3 11 -3 11 -3 12 -3 11 -3 12 -3 11 -3 
11 -3 12 -3 11 -3 11 -3 12 -3 11 -3 11 -3 12 -4 
11 -3 11 -3 12 -3 11 -3 12 -3 11 -3 11 -3 12 -3 
11 -3 11 -3 12 -3 11 -3 11 -3 12 -3 11 -3 11 -3 
12 -3 11 -3 11 -3 12 -3 11 -4 12 -3 11 -3 11 -3 
12 -3 11 -3 11 -3 12 -3 11 -3 11 -3 12 -3 11 -3 
11 -3 12 -4 11 -3 12 -3 11 -3 11 -3 12 -3 11 -3 
11 -3 12 -3 11 -3 11 -4 12 -3 11 -3 11 -3 12 -3 
11 -3 12 -3 11 -3 11 -4 12 -3 11 -3 11 -3 12 -3 
11 -3 11 -4 12 -3 11 -3 11 -3 12 -3 11 -3 11 -4 
12 -3 11 -3 12 -3 11 -3 11 -3 12 -4 11 -3 11 -3 
12 -3 11 -4 11 -3 12 -3 11 -3 11 -3 12 -4 11 -3 
12 -3 11 -3 11 -4 12 -3 11 -3 11 -3 12 -4 11 -3 
11 -3 12 -3 11 -4 11 -3 12 -3 11 -4 12 -3 11 -3 
11 -4 12 -3 11 -3 11 -4 12 -3 11 -3 11 -4 12 -3 
11 -3 11 -4 12 -3 11 -3 12 -4 11 -3 11 -3 12 -4 
11 -3 11 -4 12 -3 11 -3 11 -4 12 -3 11 -4 11 -3 
12 -4 11 -3 11 -3 12 -4 11 -3 12 -4 11 -3 11 -4 
12 -3 11 -4 11 -3 12 -4 11 -3 11 -4 12 -3 11 -4 
11 -4 12 -3 11 -4 12 -3 11 -4 11 -3 12 -4 11 -4 
11 -3 12 -4 11 -3 11 -4 12 -4 11 -3 11 -4 12 -4 
11 -3 12 -4 11 -4 3500 2140 300 MP stroke
11 -3 12 -4 11 -4 11 -3 12 -4 11 -4 11 -4 12 -3 
11 -4 11 -4 12 -4 11 -3 11 -4 12 -4 11 -4 12 -4 
11 -4 11 -3 12 -4 11 -4 11 -4 12 -4 11 -4 11 -4 
12 -4 11 -4 11 -3 12 -4 11 -4 12 -4 11 -4 11 -4 
12 -4 11 -4 11 -4 12 -4 11 -4 11 -5 12 -4 11 -4 
11 -4 12 -4 11 -4 12 -4 11 -4 11 -4 12 -5 11 -4 
11 -4 12 -4 11 -4 11 -5 12 -4 11 -4 11 -5 12 -4 
11 -4 12 -4 11 -5 11 -4 12 -5 11 -4 11 -4 12 -5 
11 -4 11 -5 12 -4 11 -5 11 -4 12 -5 11 -4 11 -5 
12 -4 11 -5 12 -5 11 -4 11 -5 12 -4 11 -5 11 -5 
12 -5 11 -4 11 -5 12 -5 11 -5 11 -4 12 -5 11 -5 
12 -5 11 -5 11 -5 12 -5 11 -5 11 -5 12 -5 11 -5 
11 -5 12 -5 11 -5 11 -5 12 -5 11 -5 12 -6 11 -5 
11 -5 12 -5 11 -6 11 -5 12 -5 11 -6 11 -5 12 -6 
11 -5 11 -6 12 -5 11 -6 11 -5 12 -6 11 -6 12 -5 
11 -6 11 -6 12 -5 11 -6 11 -6 12 -6 11 -6 11 -6 
12 -6 11 -6 11 -6 12 -6 11 -6 12 -6 11 -7 11 -6 
12 -6 11 -6 11 -7 12 -6 11 -7 11 -6 12 -7 11 -6 
11 -7 12 -7 11 -6 12 -7 11 -7 11 -7 12 -7 11 -7 
11 -7 12 -7 11 -7 11 -7 12 -7 11 -8 11 -7 12 -8 
11 -7 12 -8 11 -7 11 -8 12 -8 11 -8 11 -7 12 -8 
11 -8 11 -9 12 -8 11 -8 11 -8 12 -9 11 -8 11 -9 
12 -8 11 -9 12 -9 11 -9 11 -9 12 -9 11 -9 11 -10 
12 -9 11 -10 11 -9 12 -10 11 -10 11 -10 12 -10 11 -10 
12 -11 11 -10 11 -11 12 -11 11 -10 11 -12 12 -11 11 -11 
11 -12 12 -11 11 -12 11 -12 12 -12 11 -13 12 -12 11 -13 
11 -13 12 -13 11 -14 11 -14 12 -13 11 -15 11 -14 12 -15 
11 -15 11 -15 12 -15 11 -16 11 -17 991 3587 222 MP stroke
DA
/c9 { 0.000000 0.500000 0.000000 sr} bdef
c9
12 -1 11 -2 12 -2 11 -1 11 -2 12 -2 11 -1 11 -2 
12 -2 11 -1 11 -2 12 -2 11 -1 11 -2 12 -2 11 -1 
12 -2 11 -2 11 -2 12 -1 11 -2 11 -2 12 -1 11 -2 
11 -2 12 -1 11 -2 11 -2 12 -2 11 -1 12 -2 11 -2 
11 -2 12 -1 11 -2 11 -2 12 -1 11 -2 11 -2 12 -2 
11 -1 11 -2 12 -2 11 -2 12 -1 11 -2 11 -2 12 -2 
11 -1 11 -2 12 -2 11 -2 11 -1 12 -2 11 -2 11 -2 
12 -2 11 -1 11 -2 12 -2 11 -2 12 -2 11 -1 11 -2 
12 -2 11 -2 11 -2 12 -1 11 -2 11 -2 12 -2 11 -2 
11 -1 12 -2 11 -2 12 -2 11 -2 11 -2 12 -1 11 -2 
11 -2 12 -2 11 -2 11 -2 12 -2 11 -1 11 -2 12 -2 
11 -2 12 -2 11 -2 11 -2 12 -1 11 -2 11 -2 12 -2 
11 -2 11 -2 12 -2 11 -2 11 -2 12 -2 11 -1 11 -2 
12 -2 11 -2 12 -2 11 -2 11 -2 12 -2 11 -2 11 -2 
12 -2 11 -2 11 -2 12 -2 11 -2 11 -1 12 -2 11 -2 
12 -2 11 -2 11 -2 12 -2 11 -2 11 -2 12 -2 11 -2 
11 -2 12 -2 11 -2 11 -2 12 -2 11 -2 12 -2 11 -2 
11 -2 12 -2 11 -2 11 -2 12 -2 11 -3 11 -2 12 -2 
11 -2 11 -2 12 -2 11 -2 12 -2 11 -2 11 -2 12 -2 
11 -2 11 -2 12 -2 11 -3 11 -2 12 -2 11 -2 11 -2 
12 -2 11 -2 11 -2 12 -2 11 -3 12 -2 11 -2 11 -2 
12 -2 11 -2 11 -2 12 -3 11 -2 11 -2 12 -2 11 -2 
11 -3 12 -2 11 -2 12 -2 11 -2 11 -3 12 -2 11 -2 
11 -2 12 -2 11 -3 11 -2 12 -2 11 -2 11 -3 12 -2 
11 -2 12 -2 11 -3 11 -2 12 -2 11 -3 11 -2 12 -2 
11 -2 11 -3 12 -2 11 -2 11 -3 12 -2 11 -2 11 -3 
12 -2 11 -2 12 -3 11 -2 11 -2 12 -3 11 -2 11 -3 
12 -2 11 -2 11 -3 12 -2 11 -3 11 -2 12 -2 11 -3 
12 -2 11 -3 11 -2 12 -3 11 -2 11 -3 12 -2 11 -2 
11 -3 12 -2 11 -3 11 -2 12 -3 11 -2 12 -3 11 -3 
11 -2 12 -3 11 -2 11 -3 12 -2 11 -3 11 -2 12 -3 
11 -3 11 -2 12 -3 11 -2 12 -3 11 -3 11 -2 12 -3 
11 -3 11 -2 12 -3 11 -3 11 -2 12 -3 11 -3 11 -2 
12 -3 11 -3 11 -2 12 -3 11 -3 12 -3 11 -2 11 -3 
12 -3 11 -3 11 -2 12 -3 11 -3 11 -3 12 -3 11 -2 
11 -3 12 -3 11 -3 12 -3 11 -3 11 -3 12 -3 11 -2 
11 -3 12 -3 11 -3 11 -3 12 -3 11 -3 11 -3 12 -3 
11 -3 12 -3 11 -3 3500 2961 300 MP stroke
11 -3 12 -3 11 -3 11 -3 12 -3 11 -3 11 -3 12 -3 
11 -3 11 -3 12 -4 11 -3 11 -3 12 -3 11 -3 12 -3 
11 -4 11 -3 12 -3 11 -3 11 -3 12 -4 11 -3 11 -3 
12 -3 11 -4 11 -3 12 -3 11 -4 12 -3 11 -3 11 -4 
12 -3 11 -3 11 -4 12 -3 11 -4 11 -3 12 -4 11 -3 
11 -3 12 -4 11 -3 12 -4 11 -4 11 -3 12 -4 11 -3 
11 -4 12 -3 11 -4 11 -4 12 -3 11 -4 11 -4 12 -3 
11 -4 12 -4 11 -4 11 -3 12 -4 11 -4 11 -4 12 -4 
11 -4 11 -3 12 -4 11 -4 11 -4 12 -4 11 -4 11 -4 
12 -4 11 -4 12 -4 11 -4 11 -4 12 -4 11 -4 11 -5 
12 -4 11 -4 11 -4 12 -4 11 -5 11 -4 12 -4 11 -4 
12 -5 11 -4 11 -4 12 -5 11 -4 11 -5 12 -4 11 -5 
11 -4 12 -5 11 -4 11 -5 12 -5 11 -4 12 -5 11 -5 
11 -4 12 -5 11 -5 11 -5 12 -5 11 -4 11 -5 12 -5 
11 -5 11 -5 12 -5 11 -5 11 -5 12 -5 11 -6 12 -5 
11 -5 11 -5 12 -6 11 -5 11 -5 12 -6 11 -5 11 -6 
12 -5 11 -6 11 -5 12 -6 11 -5 12 -6 11 -6 11 -6 
12 -6 11 -5 11 -6 12 -6 11 -6 11 -6 12 -6 11 -7 
11 -6 12 -6 11 -6 12 -7 11 -6 11 -7 12 -6 11 -7 
11 -6 12 -7 11 -7 11 -6 12 -7 11 -7 11 -7 12 -7 
11 -7 12 -7 11 -8 11 -7 12 -7 11 -8 11 -7 12 -8 
11 -8 11 -7 12 -8 11 -8 11 -8 12 -8 11 -8 11 -9 
12 -8 11 -8 12 -9 11 -8 11 -9 12 -9 11 -9 11 -9 
12 -9 11 -9 11 -10 12 -9 11 -10 11 -10 12 -9 11 -10 
12 -11 11 -10 11 -10 12 -11 11 -11 11 -10 12 -11 11 -12 
11 -11 12 -12 11 -11 11 -12 12 -12 11 -13 12 -12 11 -13 
11 -13 12 -13 11 -13 11 -14 12 -14 11 -14 11 -15 12 -15 
11 -15 11 -15 12 -16 11 -16 11 -16 991 4307 222 MP stroke
DO
24 w
/c10 { 1.000000 0.000000 0.000000 sr} bdef
c10
12 -3 11 -3 12 -3 11 -2 11 -3 12 -3 11 -3 11 -3 
12 -3 11 -2 11 -3 12 -3 11 -3 11 -3 12 -3 11 -2 
12 -3 11 -3 11 -3 12 -3 11 -2 11 -3 12 -3 11 -3 
11 -3 12 -2 11 -3 11 -3 12 -3 11 -3 12 -2 11 -3 
11 -3 12 -3 11 -3 11 -2 12 -3 11 -3 11 -3 12 -3 
11 -2 11 -3 12 -3 11 -3 12 -2 11 -3 11 -3 12 -3 
11 -3 11 -2 12 -3 11 -3 11 -3 12 -3 11 -2 11 -3 
12 -3 11 -3 11 -2 12 -3 11 -3 12 -3 11 -3 11 -2 
12 -3 11 -3 11 -3 12 -2 11 -3 11 -3 12 -3 11 -3 
11 -2 12 -3 11 -3 12 -3 11 -3 11 -2 12 -3 11 -3 
11 -3 12 -2 11 -3 11 -3 12 -3 11 -3 11 -2 12 -3 
11 -3 12 -3 11 -3 11 -2 12 -3 11 -3 11 -3 12 -2 
11 -3 11 -3 12 -3 11 -3 11 -2 12 -3 11 -3 11 -3 
12 -3 11 -2 12 -3 11 -3 11 -3 12 -3 11 -2 11 -3 
12 -3 11 -3 11 -3 12 -2 11 -3 11 -3 12 -3 11 -3 
12 -3 11 -2 11 -3 12 -3 11 -3 11 -3 12 -2 11 -3 
11 -3 12 -3 11 -3 11 -3 12 -2 11 -3 12 -3 11 -3 
11 -3 12 -3 11 -2 11 -3 12 -3 11 -3 11 -3 12 -3 
11 -3 11 -2 12 -3 11 -3 12 -3 11 -3 11 -3 12 -3 
11 -2 11 -3 12 -3 11 -3 11 -3 12 -3 11 -3 11 -3 
12 -2 11 -3 11 -3 12 -3 11 -3 12 -3 11 -3 11 -3 
12 -3 11 -2 11 -3 12 -3 11 -3 11 -3 12 -3 11 -3 
11 -3 12 -3 11 -3 12 -3 11 -3 11 -2 12 -3 11 -3 
11 -3 12 -3 11 -3 11 -3 12 -3 11 -3 11 -3 12 -3 
11 -3 12 -3 11 -3 11 -3 12 -3 11 -3 11 -3 12 -3 
11 -3 11 -3 12 -3 11 -3 11 -3 12 -3 11 -3 11 -3 
12 -3 11 -3 12 -3 11 -3 11 -3 12 -3 11 -3 11 -3 
12 -3 11 -3 11 -3 12 -3 11 -3 11 -4 12 -3 11 -3 
12 -3 11 -3 11 -3 12 -3 11 -3 11 -3 12 -3 11 -3 
11 -4 12 -3 11 -3 11 -3 12 -3 11 -3 12 -3 11 -4 
11 -3 12 -3 11 -3 11 -3 12 -3 11 -4 11 -3 12 -3 
11 -3 11 -3 12 -4 11 -3 12 -3 11 -3 11 -3 12 -4 
11 -3 11 -3 12 -3 11 -4 11 -3 12 -3 11 -4 11 -3 
12 -3 11 -3 11 -4 12 -3 11 -3 12 -4 11 -3 11 -3 
12 -4 11 -3 11 -3 12 -4 11 -3 11 -3 12 -4 11 -3 
11 -4 12 -3 11 -3 12 -4 11 -3 11 -4 12 -3 11 -3 
11 -4 12 -3 11 -4 11 -3 12 -4 11 -3 11 -4 12 -3 
11 -4 12 -3 11 -4 3500 2352 300 MP stroke
11 -3 12 -4 11 -4 11 -3 12 -4 11 -3 11 -4 12 -3 
11 -4 11 -4 12 -3 11 -4 11 -4 12 -3 11 -4 12 -3 
11 -4 11 -4 12 -4 11 -3 11 -4 12 -4 11 -3 11 -4 
12 -4 11 -4 11 -3 12 -4 11 -4 12 -4 11 -4 11 -4 
12 -3 11 -4 11 -4 12 -4 11 -4 11 -4 12 -4 11 -4 
11 -4 12 -3 11 -4 12 -4 11 -4 11 -4 12 -4 11 -4 
11 -4 12 -4 11 -5 11 -4 12 -4 11 -4 11 -4 12 -4 
11 -4 12 -4 11 -4 11 -5 12 -4 11 -4 11 -4 12 -5 
11 -4 11 -4 12 -4 11 -5 11 -4 12 -4 11 -5 11 -4 
12 -4 11 -5 12 -4 11 -5 11 -4 12 -5 11 -4 11 -5 
12 -4 11 -5 11 -4 12 -5 11 -4 11 -5 12 -5 11 -4 
12 -5 11 -5 11 -4 12 -5 11 -5 11 -5 12 -4 11 -5 
11 -5 12 -5 11 -5 11 -5 12 -5 11 -5 12 -5 11 -5 
11 -5 12 -5 11 -5 11 -5 12 -5 11 -5 11 -5 12 -5 
11 -6 11 -5 12 -5 11 -6 11 -5 12 -5 11 -6 12 -5 
11 -6 11 -5 12 -6 11 -5 11 -6 12 -5 11 -6 11 -6 
12 -5 11 -6 11 -6 12 -6 11 -5 12 -6 11 -6 11 -6 
12 -6 11 -6 11 -6 12 -6 11 -6 11 -7 12 -6 11 -6 
11 -6 12 -7 11 -6 12 -6 11 -7 11 -6 12 -7 11 -7 
11 -6 12 -7 11 -7 11 -7 12 -6 11 -7 11 -7 12 -7 
11 -7 12 -8 11 -7 11 -7 12 -7 11 -8 11 -7 12 -8 
11 -7 11 -8 12 -7 11 -8 11 -8 12 -8 11 -8 11 -8 
12 -8 11 -8 12 -9 11 -8 11 -8 12 -9 11 -8 11 -9 
12 -9 11 -9 11 -9 12 -9 11 -9 11 -9 12 -10 11 -9 
12 -10 11 -9 11 -10 12 -10 11 -10 11 -10 12 -11 11 -10 
11 -11 12 -10 11 -11 11 -11 12 -11 11 -12 12 -11 11 -12 
11 -11 12 -12 11 -13 11 -12 12 -12 11 -13 11 -13 12 -13 
11 -14 11 -13 12 -14 11 -14 11 -15 991 3711 222 MP stroke
DD
18 w
/c11 { 0.000000 0.749020 0.749020 sr} bdef
c11
12 -3 11 -4 12 -3 11 -3 11 -3 12 -4 11 -3 11 -3 
12 -3 11 -3 11 -4 12 -3 11 -3 11 -3 12 -3 11 -4 
12 -3 11 -3 11 -3 12 -3 11 -4 11 -3 12 -3 11 -3 
11 -3 12 -3 11 -4 11 -3 12 -3 11 -3 12 -3 11 -3 
11 -4 12 -3 11 -3 11 -3 12 -3 11 -3 11 -3 12 -4 
11 -3 11 -3 12 -3 11 -3 12 -3 11 -3 11 -3 12 -4 
11 -3 11 -3 12 -3 11 -3 11 -3 12 -3 11 -3 11 -3 
12 -4 11 -3 11 -3 12 -3 11 -3 12 -3 11 -3 11 -3 
12 -3 11 -3 11 -4 12 -3 11 -3 11 -3 12 -3 11 -3 
11 -3 12 -3 11 -3 12 -3 11 -3 11 -4 12 -3 11 -3 
11 -3 12 -3 11 -3 11 -3 12 -3 11 -3 11 -3 12 -3 
11 -3 12 -3 11 -4 11 -3 12 -3 11 -3 11 -3 12 -3 
11 -3 11 -3 12 -3 11 -3 11 -3 12 -3 11 -3 11 -3 
12 -4 11 -3 12 -3 11 -3 11 -3 12 -3 11 -3 11 -3 
12 -3 11 -3 11 -3 12 -3 11 -3 11 -3 12 -4 11 -3 
12 -3 11 -3 11 -3 12 -3 11 -3 11 -3 12 -3 11 -3 
11 -3 12 -3 11 -3 11 -4 12 -3 11 -3 12 -3 11 -3 
11 -3 12 -3 11 -3 11 -3 12 -3 11 -3 11 -3 12 -4 
11 -3 11 -3 12 -3 11 -3 12 -3 11 -3 11 -3 12 -3 
11 -3 11 -4 12 -3 11 -3 11 -3 12 -3 11 -3 11 -3 
12 -3 11 -3 11 -4 12 -3 11 -3 12 -3 11 -3 11 -3 
12 -3 11 -3 11 -4 12 -3 11 -3 11 -3 12 -3 11 -3 
11 -3 12 -4 11 -3 12 -3 11 -3 11 -3 12 -3 11 -3 
11 -4 12 -3 11 -3 11 -3 12 -3 11 -3 11 -4 12 -3 
11 -3 12 -3 11 -3 11 -4 12 -3 11 -3 11 -3 12 -3 
11 -4 11 -3 12 -3 11 -3 11 -3 12 -4 11 -3 11 -3 
12 -3 11 -4 12 -3 11 -3 11 -3 12 -4 11 -3 11 -3 
12 -3 11 -4 11 -3 12 -3 11 -3 11 -4 12 -3 11 -3 
12 -4 11 -3 11 -3 12 -3 11 -4 11 -3 12 -3 11 -4 
11 -3 12 -3 11 -4 11 -3 12 -3 11 -4 12 -3 11 -3 
11 -4 12 -3 11 -4 11 -3 12 -3 11 -4 11 -3 12 -3 
11 -4 11 -3 12 -4 11 -3 12 -4 11 -3 11 -3 12 -4 
11 -3 11 -4 12 -3 11 -4 11 -3 12 -4 11 -3 11 -4 
12 -3 11 -4 11 -3 12 -4 11 -3 12 -4 11 -3 11 -4 
12 -3 11 -4 11 -3 12 -4 11 -3 11 -4 12 -4 11 -3 
11 -4 12 -3 11 -4 12 -4 11 -3 11 -4 12 -3 11 -4 
11 -4 12 -3 11 -4 11 -4 12 -3 11 -4 11 -4 12 -4 
11 -3 12 -4 11 -4 3500 1399 300 MP stroke
11 -3 12 -4 11 -4 11 -4 12 -4 11 -3 11 -4 12 -4 
11 -4 11 -4 12 -3 11 -4 11 -4 12 -4 11 -4 12 -4 
11 -4 11 -3 12 -4 11 -4 11 -4 12 -4 11 -4 11 -4 
12 -4 11 -4 11 -4 12 -4 11 -4 12 -4 11 -4 11 -4 
12 -4 11 -4 11 -4 12 -4 11 -5 11 -4 12 -4 11 -4 
11 -4 12 -4 11 -4 12 -5 11 -4 11 -4 12 -4 11 -5 
11 -4 12 -4 11 -4 11 -5 12 -4 11 -4 11 -5 12 -4 
11 -4 12 -5 11 -4 11 -5 12 -4 11 -4 11 -5 12 -4 
11 -5 11 -4 12 -5 11 -5 11 -4 12 -5 11 -4 11 -5 
12 -5 11 -4 12 -5 11 -5 11 -4 12 -5 11 -5 11 -4 
12 -5 11 -5 11 -5 12 -5 11 -5 11 -4 12 -5 11 -5 
12 -5 11 -5 11 -5 12 -5 11 -5 11 -5 12 -5 11 -6 
11 -5 12 -5 11 -5 11 -5 12 -5 11 -6 12 -5 11 -5 
11 -6 12 -5 11 -5 11 -6 12 -5 11 -6 11 -5 12 -6 
11 -5 11 -6 12 -5 11 -6 11 -6 12 -5 11 -6 12 -6 
11 -6 11 -6 12 -5 11 -6 11 -6 12 -6 11 -6 11 -6 
12 -6 11 -6 11 -7 12 -6 11 -6 12 -6 11 -7 11 -6 
12 -6 11 -7 11 -6 12 -7 11 -6 11 -7 12 -7 11 -6 
11 -7 12 -7 11 -7 12 -7 11 -7 11 -7 12 -7 11 -7 
11 -7 12 -7 11 -7 11 -8 12 -7 11 -8 11 -7 12 -8 
11 -7 12 -8 11 -8 11 -8 12 -8 11 -8 11 -8 12 -8 
11 -8 11 -8 12 -9 11 -8 11 -9 12 -8 11 -9 11 -9 
12 -9 11 -8 12 -10 11 -9 11 -9 12 -9 11 -10 11 -9 
12 -10 11 -10 11 -10 12 -10 11 -10 11 -10 12 -10 11 -11 
12 -11 11 -10 11 -11 12 -11 11 -12 11 -11 12 -12 11 -11 
11 -12 12 -12 11 -12 11 -13 12 -12 11 -13 12 -13 11 -13 
11 -14 12 -14 11 -14 11 -14 12 -14 11 -15 11 -15 12 -15 
11 -16 11 -16 12 -16 11 -16 11 -17 991 2877 222 MP stroke
gr

18 w
c11
DD
0 sg
3350 4779 mt 
(Data rate [kbps]) s
 678 2798 mt  -90 rotate
(PSNR [dB]) s
90 rotate
SO
6 w

end %%Color Dict

eplot
%%EndObject

epage
end

showpage

%%Trailer
%%EOF
