47.49679907943175, 576.6955649917433
49.48704234939464, 553.1581740976642
51.47728561935804, 528.7154989384287
53.46752888932107, 507.89396083982024
56.45289379426586, 478.9248643548005
60.433380334192464, 445.42934654399596
64.41386687411884, 416.0076079263974
68.39435341404536, 389.75436423684806
72.37483995397182, 366.66961547534777
76.35532649389805, 346.3007195093181
81.33093466880617, 323.81949359125565
87.3016644786958, 300.58386411889586
93.27239428858537, 279.7623260202878
100.23824573345662, 258.9407879216796
109.194340448291, 236.6707949988205
119.1455567981071, 215.84925690021234
130.09189478290466, 196.3252929149957
143.0284760376656, 177.5945303811546
160.27725104401333, 156.9454273806716
180.6219600258595, 138.03504495295016
203.17805041877585, 121.5387538989804
225.29186452947815, 108.46242562449245
246.52112607575242, 98.29398014111402
269.4089236803293, 89.19998820476522
292.0976969579099, 81.50507195093195
313.90507678736395, 75.29740841842752
336.0820732240968, 69.73637650389253
357.97474919369193, 64.98363411181913
381.1942540099293, 60.381772430604485
402.04442160002026, 56.93307046810233
424.6478987374596, 53.44125973106884
448.03325715952724, 50.04644373673034
470.2244696196167, 47.466383581033256
491.60536874836436, 44.77639605028139
515.7726084550607, 42.4485222255926
598.7941848592404, 36.542620114806965
575.5725190839689, 36.11111111111134
538.9312977099233, 38.88888888888863
