%!PS-Adobe-3.0 EPSF-3.0
%%Creator: MATLAB, The MathWorks, Inc. Version 8.1.0.604 (R2013a). Operating System: Darwin 13.4.0 Darwin Kernel Version 13.4.0: Sun Aug 17 19:50:11 PDT 2014; root:xnu-2422.115.4~1/RELEASE_X86_64 x86_64.
%%Title: /Users/le/Work/project3/Figures/Results/0925/w20/comparison_gopU016_UT2.eps
%%CreationDate: 09/25/2014  22:35:55
%%DocumentNeededFonts: Helvetica
%%DocumentProcessColors: Cyan Magenta Yellow Black
%%LanguageLevel: 2
%%Pages: 1
%%BoundingBox:    51   209   559   582
%%EndComments

%%BeginProlog
% MathWorks dictionary
/MathWorks 160 dict begin
% definition operators
/bdef {bind def} bind def
/ldef {load def} bind def
/xdef {exch def} bdef
/xstore {exch store} bdef
% operator abbreviations
/c  /clip ldef
/cc /concat ldef
/cp /closepath ldef
/gr /grestore ldef
/gs /gsave ldef
/mt /moveto ldef
/np /newpath ldef
/cm /currentmatrix ldef
/sm /setmatrix ldef
/rm /rmoveto ldef
/rl /rlineto ldef
/s {show newpath} bdef
/sc {setcmykcolor} bdef
/sr /setrgbcolor ldef
/sg /setgray ldef
/w /setlinewidth ldef
/j /setlinejoin ldef
/cap /setlinecap ldef
/rc {rectclip} bdef
/rf {rectfill} bdef
% page state control
/pgsv () def
/bpage {/pgsv save def} bdef
/epage {pgsv restore} bdef
/bplot /gsave ldef
/eplot {stroke grestore} bdef
% orientation switch
/portraitMode 0 def /landscapeMode 1 def /rotateMode 2 def
% coordinate system mappings
/dpi2point 0 def
% font control
/FontSize 0 def
/FMS {/FontSize xstore findfont [FontSize 0 0 FontSize neg 0 0]
  makefont setfont} bdef
/reencode {exch dup where {pop load} {pop StandardEncoding} ifelse
  exch dup 3 1 roll findfont dup length dict begin
  { 1 index /FID ne {def}{pop pop} ifelse } forall
  /Encoding exch def currentdict end definefont pop} bdef
/isroman {findfont /CharStrings get /Agrave known} bdef
/FMSR {3 1 roll 1 index dup isroman {reencode} {pop pop} ifelse
  exch FMS} bdef
/csm {1 dpi2point div -1 dpi2point div scale neg translate
 dup landscapeMode eq {pop -90 rotate}
  {rotateMode eq {90 rotate} if} ifelse} bdef
% line types: solid, dotted, dashed, dotdash
/SO { [] 0 setdash } bdef
/DO { [.5 dpi2point mul 4 dpi2point mul] 0 setdash } bdef
/DA { [6 dpi2point mul] 0 setdash } bdef
/DD { [.5 dpi2point mul 4 dpi2point mul 6 dpi2point mul 4
  dpi2point mul] 0 setdash } bdef
% macros for lines and objects
/L {lineto stroke} bdef
/MP {3 1 roll moveto 1 sub {rlineto} repeat} bdef
/AP {{rlineto} repeat} bdef
/PDlw -1 def
/W {/PDlw currentlinewidth def setlinewidth} def
/PP {closepath eofill} bdef
/DP {closepath stroke} bdef
/MR {4 -2 roll moveto dup  0 exch rlineto exch 0 rlineto
  neg 0 exch rlineto closepath} bdef
/FR {MR stroke} bdef
/PR {MR fill} bdef
/L1i {{currentfile picstr readhexstring pop} image} bdef
/tMatrix matrix def
/MakeOval {newpath tMatrix currentmatrix pop translate scale
0 0 1 0 360 arc tMatrix setmatrix} bdef
/FO {MakeOval stroke} bdef
/PO {MakeOval fill} bdef
/PD {currentlinewidth 2 div 0 360 arc fill
   PDlw -1 eq not {PDlw w /PDlw -1 def} if} def
/FA {newpath tMatrix currentmatrix pop translate scale
  0 0 1 5 -2 roll arc tMatrix setmatrix stroke} bdef
/PA {newpath tMatrix currentmatrix pop	translate 0 0 moveto scale
  0 0 1 5 -2 roll arc closepath tMatrix setmatrix fill} bdef
/FAn {newpath tMatrix currentmatrix pop translate scale
  0 0 1 5 -2 roll arcn tMatrix setmatrix stroke} bdef
/PAn {newpath tMatrix currentmatrix pop translate 0 0 moveto scale
  0 0 1 5 -2 roll arcn closepath tMatrix setmatrix fill} bdef
/vradius 0 def /hradius 0 def /lry 0 def
/lrx 0 def /uly 0 def /ulx 0 def /rad 0 def
/MRR {/vradius xdef /hradius xdef /lry xdef /lrx xdef /uly xdef
  /ulx xdef newpath tMatrix currentmatrix pop ulx hradius add uly
  vradius add translate hradius vradius scale 0 0 1 180 270 arc 
  tMatrix setmatrix lrx hradius sub uly vradius add translate
  hradius vradius scale 0 0 1 270 360 arc tMatrix setmatrix
  lrx hradius sub lry vradius sub translate hradius vradius scale
  0 0 1 0 90 arc tMatrix setmatrix ulx hradius add lry vradius sub
  translate hradius vradius scale 0 0 1 90 180 arc tMatrix setmatrix
  closepath} bdef
/FRR {MRR stroke } bdef
/PRR {MRR fill } bdef
/MlrRR {/lry xdef /lrx xdef /uly xdef /ulx xdef /rad lry uly sub 2 div def
  newpath tMatrix currentmatrix pop ulx rad add uly rad add translate
  rad rad scale 0 0 1 90 270 arc tMatrix setmatrix lrx rad sub lry rad
  sub translate rad rad scale 0 0 1 270 90 arc tMatrix setmatrix
  closepath} bdef
/FlrRR {MlrRR stroke } bdef
/PlrRR {MlrRR fill } bdef
/MtbRR {/lry xdef /lrx xdef /uly xdef /ulx xdef /rad lrx ulx sub 2 div def
  newpath tMatrix currentmatrix pop ulx rad add uly rad add translate
  rad rad scale 0 0 1 180 360 arc tMatrix setmatrix lrx rad sub lry rad
  sub translate rad rad scale 0 0 1 0 180 arc tMatrix setmatrix
  closepath} bdef
/FtbRR {MtbRR stroke } bdef
/PtbRR {MtbRR fill } bdef
/stri 6 array def /dtri 6 array def
/smat 6 array def /dmat 6 array def
/tmat1 6 array def /tmat2 6 array def /dif 3 array def
/asub {/ind2 exch def /ind1 exch def dup dup
  ind1 get exch ind2 get sub exch } bdef
/tri_to_matrix {
  2 0 asub 3 1 asub 4 0 asub 5 1 asub
  dup 0 get exch 1 get 7 -1 roll astore } bdef
/compute_transform {
  dmat dtri tri_to_matrix tmat1 invertmatrix 
  smat stri tri_to_matrix tmat2 concatmatrix } bdef
/ds {stri astore pop} bdef
/dt {dtri astore pop} bdef
/db {2 copy /cols xdef /rows xdef mul dup 3 mul string
  currentfile 
  3 index 0 eq {/ASCIIHexDecode filter}
  {/ASCII85Decode filter 3 index 2 eq {/RunLengthDecode filter} if }
  ifelse exch readstring pop
  dup 0 3 index getinterval /rbmap xdef
  dup 2 index dup getinterval /gbmap xdef
  1 index dup 2 mul exch getinterval /bbmap xdef pop pop}bdef
/it {gs np dtri aload pop moveto lineto lineto cp c
  cols rows 8 compute_transform 
  rbmap gbmap bbmap true 3 colorimage gr}bdef
/il {newpath moveto lineto stroke}bdef
currentdict end def
%%EndProlog

%%BeginSetup
MathWorks begin

0 cap

end
%%EndSetup

%%Page: 1 1
%%BeginPageSetup
%%PageBoundingBox:    51   209   559   582
MathWorks begin
bpage
%%EndPageSetup

%%BeginObject: obj1
bplot

/dpi2point 12 def
portraitMode 0612 6984 csm

    0     0  6096  4476 rc
86 dict begin %Colortable dictionary
/c0 { 0.000000 0.000000 0.000000 sr} bdef
/c1 { 1.000000 1.000000 1.000000 sr} bdef
/c2 { 0.900000 0.000000 0.000000 sr} bdef
/c3 { 0.000000 0.820000 0.000000 sr} bdef
/c4 { 0.000000 0.000000 0.800000 sr} bdef
/c5 { 0.910000 0.820000 0.320000 sr} bdef
/c6 { 1.000000 0.260000 0.820000 sr} bdef
/c7 { 0.000000 0.820000 0.820000 sr} bdef
c0
1 j
1 sg
   0    0 6097 4477 rf
6 w
0 3648 4629 0 0 -3648 864 3960 4 MP
PP
-4629 0 0 3648 4629 0 0 -3648 864 3960 5 MP stroke
4 w
DO
0 sg
 864 3960 mt  864  312 L
 864  312 mt  864  312 L
1789 3960 mt 1789  312 L
1789  312 mt 1789  312 L
2715 3960 mt 2715  312 L
2715  312 mt 2715  312 L
3641 3960 mt 3641  312 L
3641  312 mt 3641  312 L
4567 3960 mt 4567  312 L
4567  312 mt 4567  312 L
5493 3960 mt 5493  312 L
5493  312 mt 5493  312 L
 864 3960 mt 5493 3960 L
5493 3960 mt 5493 3960 L
 864 3423 mt 5493 3423 L
5493 3423 mt 5493 3423 L
 864 2887 mt 5493 2887 L
5493 2887 mt 5493 2887 L
 864 2350 mt 5493 2350 L
5493 2350 mt 5493 2350 L
 864 1814 mt 5493 1814 L
5493 1814 mt 5493 1814 L
 864 1277 mt 5493 1277 L
5493 1277 mt 5493 1277 L
 864  741 mt 5493  741 L
5493  741 mt 5493  741 L
SO
6 w
 864 3960 mt 5493 3960 L
 864  312 mt 5493  312 L
 864 3960 mt  864  312 L
5493 3960 mt 5493  312 L
 864 3960 mt 5493 3960 L
 864 3960 mt  864  312 L
 864 3960 mt  864 3913 L
 864  312 mt  864  358 L
%%IncludeResource: font Helvetica
/Helvetica /ISOLatin1Encoding 168 FMSR

 818 4150 mt 
(0) s
1789 3960 mt 1789 3913 L
1789  312 mt 1789  358 L
1696 4150 mt 
(20) s
2715 3960 mt 2715 3913 L
2715  312 mt 2715  358 L
2622 4150 mt 
(40) s
3641 3960 mt 3641 3913 L
3641  312 mt 3641  358 L
3548 4150 mt 
(60) s
4567 3960 mt 4567 3913 L
4567  312 mt 4567  358 L
4474 4150 mt 
(80) s
5493 3960 mt 5493 3913 L
5493  312 mt 5493  358 L
5353 4150 mt 
(100) s
 864 3960 mt  910 3960 L
5493 3960 mt 5446 3960 L
 503 4022 mt 
(13.5) s
 864 3423 mt  910 3423 L
5493 3423 mt 5446 3423 L
 643 3485 mt 
(14) s
 864 2887 mt  910 2887 L
5493 2887 mt 5446 2887 L
 503 2949 mt 
(14.5) s
 864 2350 mt  910 2350 L
5493 2350 mt 5446 2350 L
 643 2412 mt 
(15) s
 864 1814 mt  910 1814 L
5493 1814 mt 5446 1814 L
 503 1876 mt 
(15.5) s
 864 1277 mt  910 1277 L
5493 1277 mt 5446 1277 L
 643 1339 mt 
(16) s
 864  741 mt  910  741 L
5493  741 mt 5446  741 L
 503  803 mt 
(16.5) s
 864 3960 mt 5493 3960 L
 864  312 mt 5493  312 L
 864 3960 mt  864  312 L
5493 3960 mt 5493  312 L
2990 4328 mt 
(GOP) s
 411 2543 mt  -90 rotate
(PSNR [dB]) s
90 rotate
1699  180 mt 
(Comparison of UT2 delivered Utilization) s
%%IncludeResource: font Helvetica
/Helvetica /ISOLatin1Encoding 120 FMSR

 847 4003 mt 
( ) s
5477  354 mt 
( ) s
gs 864 312 4630 3649 rc
DA
/c8 { 0.000000 0.000000 1.000000 sr} bdef
c8
47 0 46 0 46 0 47 0 46 0 46 0 47 0 46 0 
46 0 46 0 47 0 46 0 46 0 47 0 46 0 46 0 
46 0 47 0 46 0 46 0 47 0 46 0 46 0 46 0 
47 0 46 0 46 0 47 0 46 0 46 0 46 0 47 0 
46 0 46 0 47 0 46 0 46 0 47 0 46 0 46 0 
46 0 47 0 46 0 46 0 47 0 46 0 46 0 46 0 
47 0 46 0 46 0 47 0 46 0 46 0 46 0 47 0 
46 0 46 -38 47 38 46 0 46 0 46 0 47 0 46 0 
46 0 47 0 46 0 46 0 47 0 46 0 46 0 46 0 
47 0 46 0 46 0 47 0 46 0 46 0 46 0 47 0 
46 0 46 0 47 0 46 0 46 0 46 0 47 0 46 0 
46 0 47 0 46 0 46 0 46 0 47 0 46 0 46 0 
47 0 46 0 46 0 910 1251 100 MP stroke
gr

c8
DA
gs 837 1178 4730 185 rc
SO
  36   36  910 1251 FO
  36   36  956 1251 FO
  36   36 1002 1251 FO
  36   36 1049 1251 FO
  36   36 1095 1251 FO
  36   36 1141 1251 FO
  36   36 1188 1251 FO
  36   36 1234 1251 FO
  36   36 1280 1251 FO
  36   36 1326 1251 FO
  36   36 1373 1251 FO
  36   36 1419 1251 FO
  36   36 1465 1251 FO
  36   36 1512 1251 FO
  36   36 1558 1251 FO
  36   36 1604 1251 FO
  36   36 1650 1251 FO
  36   36 1697 1251 FO
  36   36 1743 1251 FO
  36   36 1789 1251 FO
  36   36 1836 1251 FO
  36   36 1882 1251 FO
  36   36 1928 1251 FO
  36   36 1974 1251 FO
  36   36 2021 1251 FO
  36   36 2067 1251 FO
  36   36 2113 1251 FO
  36   36 2160 1251 FO
  36   36 2206 1251 FO
  36   36 2252 1251 FO
  36   36 2298 1251 FO
  36   36 2345 1251 FO
  36   36 2391 1251 FO
  36   36 2437 1251 FO
  36   36 2484 1251 FO
  36   36 2530 1251 FO
  36   36 2576 1251 FO
  36   36 2623 1251 FO
  36   36 2669 1251 FO
  36   36 2715 1251 FO
  36   36 2761 1251 FO
  36   36 2808 1289 FO
  36   36 2854 1251 FO
  36   36 2900 1251 FO
  36   36 2947 1251 FO
  36   36 2993 1251 FO
  36   36 3039 1251 FO
  36   36 3085 1251 FO
  36   36 3132 1251 FO
  36   36 3178 1251 FO
  36   36 3224 1251 FO
  36   36 3271 1251 FO
  36   36 3317 1251 FO
  36   36 3363 1251 FO
  36   36 3409 1251 FO
  36   36 3456 1251 FO
  36   36 3502 1251 FO
  36   36 3548 1251 FO
  36   36 3595 1251 FO
  36   36 3641 1251 FO
  36   36 3687 1251 FO
  36   36 3733 1251 FO
  36   36 3780 1251 FO
  36   36 3826 1251 FO
  36   36 3872 1251 FO
  36   36 3919 1251 FO
  36   36 3965 1251 FO
  36   36 4011 1251 FO
  36   36 4058 1251 FO
  36   36 4104 1251 FO
  36   36 4150 1251 FO
  36   36 4196 1251 FO
  36   36 4243 1251 FO
  36   36 4289 1251 FO
  36   36 4335 1251 FO
  36   36 4382 1251 FO
  36   36 4428 1251 FO
  36   36 4474 1251 FO
  36   36 4520 1251 FO
  36   36 4567 1251 FO
  36   36 4613 1251 FO
  36   36 4659 1251 FO
  36   36 4706 1251 FO
  36   36 4752 1251 FO
  36   36 4798 1251 FO
  36   36 4844 1251 FO
  36   36 4891 1251 FO
  36   36 4937 1251 FO
  36   36 4983 1251 FO
  36   36 5030 1251 FO
  36   36 5076 1251 FO
  36   36 5122 1251 FO
  36   36 5168 1251 FO
  36   36 5215 1251 FO
  36   36 5261 1251 FO
  36   36 5307 1251 FO
  36   36 5354 1251 FO
  36   36 5400 1251 FO
  36   36 5446 1251 FO
  36   36 5493 1251 FO
DA
gr

gs 864 312 4630 3649 rc
/c9 { 0.000000 0.498039 0.000000 sr} bdef
c9
47 214 46 -554 46 340 47 -55 46 55 46 -111 47 -113 46 -296 
46 465 46 164 47 -691 46 796 46 52 47 -211 46 -110 46 -112 
46 56 47 -171 46 282 46 -55 47 -345 46 289 46 -56 46 222 
47 -166 46 0 46 -56 47 -115 46 0 46 282 46 266 47 -377 
46 0 46 166 47 107 46 -273 46 -661 47 605 46 112 46 110 
46 -110 47 164 46 -391 46 171 47 -229 46 -120 46 349 46 -171 
47 -58 46 58 46 227 47 -169 46 57 46 -415 46 358 47 57 
46 112 46 217 47 -444 46 58 46 57 46 -115 47 -58 46 229 
46 -56 47 56 46 -113 46 -116 47 -60 46 0 46 289 46 -229 
47 -180 46 -125 46 185 47 0 46 -185 46 534 46 -229 47 395 
46 -515 46 236 47 -58 46 58 46 -236 46 -60 47 -62 46 637 
46 -515 47 -248 46 541 46 112 46 -465 47 120 46 -308 46 0 
47 248 46 60 46 -182 910 3594 100 MP stroke
gr

c9
gs 837 2673 4730 1185 rc
SO
24 W
910 3594 PD
24 W
956 3412 PD
24 W
1002 3472 PD
24 W
1049 3720 PD
24 W
1095 3720 PD
24 W
1141 3412 PD
24 W
1188 3532 PD
24 W
1234 3067 PD
24 W
1280 3179 PD
24 W
1326 3720 PD
24 W
1373 3472 PD
24 W
1419 2957 PD
24 W
1465 3594 PD
24 W
1512 3532 PD
24 W
1558 3472 PD
24 W
1604 3236 PD
24 W
1650 3294 PD
24 W
1697 3236 PD
24 W
1743 3472 PD
24 W
1789 2957 PD
24 W
1836 3352 PD
24 W
1882 3123 PD
24 W
1928 3657 PD
24 W
1974 3472 PD
24 W
2021 3472 PD
24 W
2067 3657 PD
24 W
2113 3532 PD
24 W
2160 3352 PD
24 W
2206 3123 PD
24 W
2252 3412 PD
24 W
2298 3412 PD
24 W
2345 3352 PD
24 W
2391 3236 PD
24 W
2437 3123 PD
24 W
2484 3179 PD
24 W
2530 3123 PD
24 W
2576 3352 PD
24 W
2623 3294 PD
24 W
2669 3179 PD
24 W
2715 3236 PD
24 W
2761 3294 PD
24 W
2808 2850 PD
24 W
2854 3067 PD
24 W
2900 3179 PD
24 W
2947 3236 PD
24 W
2993 3594 PD
24 W
3039 3179 PD
24 W
3085 3236 PD
24 W
3132 3067 PD
24 W
3178 3294 PD
24 W
3224 3352 PD
24 W
3271 3294 PD
24 W
3317 3123 PD
24 W
3363 3472 PD
24 W
3409 3352 PD
24 W
3456 3123 PD
24 W
3502 3294 PD
24 W
3548 2903 PD
24 W
3595 3067 PD
24 W
3641 2957 PD
24 W
3687 3067 PD
24 W
3733 3179 PD
24 W
3780 3784 PD
24 W
3826 3123 PD
24 W
3872 2850 PD
24 W
3919 2957 PD
24 W
3965 3123 PD
24 W
4011 3123 PD
24 W
4058 2746 PD
24 W
4104 3012 PD
24 W
4150 3294 PD
24 W
4196 3294 PD
24 W
4243 3179 PD
24 W
4289 3123 PD
24 W
4335 3123 PD
24 W
4382 2957 PD
24 W
4428 3179 PD
24 W
4474 3123 PD
24 W
4520 3412 PD
24 W
4567 3067 PD
24 W
4613 3012 PD
24 W
4659 3294 PD
24 W
4706 3123 PD
24 W
4752 3179 PD
24 W
4798 3067 PD
24 W
4844 2957 PD
24 W
4891 2746 PD
24 W
4937 2798 PD
24 W
4983 3594 PD
24 W
5030 2903 PD
24 W
5076 3067 PD
24 W
5122 3532 PD
24 W
5168 3236 PD
24 W
5215 3123 PD
24 W
5261 3012 PD
24 W
5307 3067 PD
24 W
5354 3012 PD
24 W
5400 3352 PD
24 W
5446 2798 PD
24 W
5493 3012 PD
DA
gr

gs 864 312 4630 3649 rc
/c10 { 1.000000 0.000000 0.000000 sr} bdef
c10
47 86 46 -86 46 86 47 -43 46 252 46 -383 47 0 46 88 
46 129 46 42 47 -85 46 127 46 -84 47 -86 46 0 46 86 
46 -86 47 -176 46 133 46 -44 47 -89 46 219 46 -264 46 221 
47 -87 46 -89 46 133 47 -178 46 90 46 174 46 291 47 -646 
46 -47 46 183 47 176 46 -43 46 -133 47 45 46 44 46 173 
46 -352 47 559 46 -559 46 223 47 -44 46 -366 46 232 46 -232 
47 0 46 232 46 307 47 -217 46 44 46 -366 46 94 47 -46 
46 274 46 -22 47 -300 46 232 46 -45 46 -187 47 48 46 139 
46 90 47 0 46 -422 46 97 47 0 46 458 46 129 46 -684 
47 97 46 -196 46 244 47 0 46 -397 46 397 46 -145 47 239 
46 -288 46 0 47 0 46 335 46 -486 46 -52 47 153 46 292 
46 -193 47 -149 46 198 46 -98 46 -255 47 52 46 -211 46 -110 
47 217 46 -53 46 -391 910 3294 100 MP stroke
gr

c10
gs 837 1489 4730 1879 rc
SO
 885 3269 mt  935 3319 L
 935 3269 mt  885 3319 L
 931 2878 mt  981 2928 L
 981 2878 mt  931 2928 L
 977 2825 mt 1027 2875 L
1027 2825 mt  977 2875 L
1024 3042 mt 1074 3092 L
1074 3042 mt 1024 3092 L
1070 2932 mt 1120 2982 L
1120 2932 mt 1070 2982 L
1116 2721 mt 1166 2771 L
1166 2721 mt 1116 2771 L
1163 2773 mt 1213 2823 L
1213 2773 mt 1163 2823 L
1209 2518 mt 1259 2568 L
1259 2518 mt 1209 2568 L
1255 2420 mt 1305 2470 L
1305 2420 mt 1255 2470 L
1301 2618 mt 1351 2668 L
1351 2618 mt 1301 2668 L
1348 2469 mt 1398 2519 L
1398 2469 mt 1348 2519 L
1394 2276 mt 1444 2326 L
1444 2276 mt 1394 2326 L
1440 2568 mt 1490 2618 L
1490 2568 mt 1440 2618 L
1487 2721 mt 1537 2771 L
1537 2721 mt 1487 2771 L
1533 2669 mt 1583 2719 L
1583 2669 mt 1533 2719 L
1579 2183 mt 1629 2233 L
1629 2183 mt 1579 2233 L
1625 2518 mt 1675 2568 L
1675 2518 mt 1625 2568 L
1672 2518 mt 1722 2568 L
1722 2518 mt 1672 2568 L
1718 2518 mt 1768 2568 L
1768 2518 mt 1718 2568 L
1764 2230 mt 1814 2280 L
1814 2230 mt 1764 2280 L
1811 2469 mt 1861 2519 L
1861 2469 mt 1811 2519 L
1857 2324 mt 1907 2374 L
1907 2324 mt 1857 2374 L
1903 2721 mt 1953 2771 L
1953 2721 mt 1903 2771 L
1949 2324 mt 1999 2374 L
1999 2324 mt 1949 2374 L
1996 2324 mt 2046 2374 L
2046 2324 mt 1996 2374 L
2042 2568 mt 2092 2618 L
2092 2568 mt 2042 2618 L
2088 2372 mt 2138 2422 L
2138 2372 mt 2088 2422 L
2135 2469 mt 2185 2519 L
2185 2469 mt 2135 2519 L
2181 1785 mt 2231 1835 L
2231 1785 mt 2181 1835 L
2227 1914 mt 2277 1964 L
2277 1914 mt 2227 1964 L
2273 2372 mt 2323 2422 L
2323 2372 mt 2273 2422 L
2320 2372 mt 2370 2422 L
2370 2372 mt 2320 2422 L
2366 2469 mt 2416 2519 L
2416 2469 mt 2366 2519 L
2412 2047 mt 2462 2097 L
2462 2047 mt 2412 2097 L
2459 2047 mt 2509 2097 L
2509 2047 mt 2459 2097 L
2505 2137 mt 2555 2187 L
2555 2137 mt 2505 2187 L
2551 2276 mt 2601 2326 L
2601 2276 mt 2551 2326 L
2598 2324 mt 2648 2374 L
2648 2324 mt 2598 2374 L
2644 2137 mt 2694 2187 L
2694 2137 mt 2644 2187 L
2690 2092 mt 2740 2142 L
2740 2092 mt 2690 2142 L
2736 2324 mt 2786 2374 L
2786 2324 mt 2736 2374 L
2783 2024 mt 2833 2074 L
2833 2024 mt 2783 2074 L
2829 2002 mt 2879 2052 L
2879 2002 mt 2829 2052 L
2875 2276 mt 2925 2326 L
2925 2276 mt 2875 2326 L
2922 2230 mt 2972 2280 L
2972 2230 mt 2922 2280 L
2968 2324 mt 3018 2374 L
3018 2324 mt 2968 2374 L
3014 1958 mt 3064 2008 L
3064 1958 mt 3014 2008 L
3060 2002 mt 3110 2052 L
3110 2002 mt 3060 2052 L
3107 1785 mt 3157 1835 L
3157 1785 mt 3107 1835 L
3153 2092 mt 3203 2142 L
3203 2092 mt 3153 2142 L
3199 2324 mt 3249 2374 L
3249 2324 mt 3199 2374 L
3246 2324 mt 3296 2374 L
3296 2324 mt 3246 2374 L
3292 2092 mt 3342 2142 L
3342 2092 mt 3292 2142 L
3338 2324 mt 3388 2374 L
3388 2324 mt 3338 2374 L
3384 1958 mt 3434 2008 L
3434 1958 mt 3384 2008 L
3431 1914 mt 3481 1964 L
3481 1914 mt 3431 1964 L
3477 2137 mt 3527 2187 L
3527 2137 mt 3477 2187 L
3523 1578 mt 3573 1628 L
3573 1578 mt 3523 1628 L
3570 2137 mt 3620 2187 L
3620 2137 mt 3570 2187 L
3616 1785 mt 3666 1835 L
3666 1785 mt 3616 1835 L
3662 1958 mt 3712 2008 L
3712 1958 mt 3662 2008 L
3708 2002 mt 3758 2052 L
3758 2002 mt 3708 2052 L
3755 2047 mt 3805 2097 L
3805 2047 mt 3755 2097 L
3801 1914 mt 3851 1964 L
3851 1914 mt 3801 1964 L
3847 1871 mt 3897 1921 L
3897 1871 mt 3847 1921 L
3894 2047 mt 3944 2097 L
3944 2047 mt 3894 2097 L
3940 2230 mt 3990 2280 L
3990 2230 mt 3940 2280 L
3986 2183 mt 4036 2233 L
4036 2183 mt 3986 2233 L
4033 1537 mt 4083 1587 L
4083 1537 mt 4033 1587 L
4079 1828 mt 4129 1878 L
4129 1828 mt 4079 1878 L
4125 2002 mt 4175 2052 L
4175 2002 mt 4125 2052 L
4171 2092 mt 4221 2142 L
4221 2092 mt 4171 2142 L
4218 1914 mt 4268 1964 L
4268 1914 mt 4218 1964 L
4264 2047 mt 4314 2097 L
4314 2047 mt 4264 2097 L
4310 1958 mt 4360 2008 L
4360 1958 mt 4310 2008 L
4357 1871 mt 4407 1921 L
4407 1871 mt 4357 1921 L
4403 2092 mt 4453 2142 L
4453 2092 mt 4403 2142 L
4449 1828 mt 4499 1878 L
4499 1828 mt 4449 1878 L
4495 2047 mt 4545 2097 L
4545 2047 mt 4495 2097 L
4542 1958 mt 4592 2008 L
4592 1958 mt 4542 2008 L
4588 1914 mt 4638 1964 L
4638 1914 mt 4588 1964 L
4634 2047 mt 4684 2097 L
4684 2047 mt 4634 2097 L
4681 1871 mt 4731 1921 L
4731 1871 mt 4681 1921 L
4727 1785 mt 4777 1835 L
4777 1785 mt 4727 1835 L
4773 1871 mt 4823 1921 L
4823 1871 mt 4773 1921 L
4819 1871 mt 4869 1921 L
4869 1871 mt 4819 1921 L
4866 1785 mt 4916 1835 L
4916 1785 mt 4866 1835 L
4912 1701 mt 4962 1751 L
4962 1701 mt 4912 1751 L
4958 1828 mt 5008 1878 L
5008 1828 mt 4958 1878 L
5005 1743 mt 5055 1793 L
5055 1743 mt 5005 1793 L
5051 1785 mt 5101 1835 L
5101 1785 mt 5051 1835 L
5097 1914 mt 5147 1964 L
5147 1914 mt 5097 1964 L
5143 2002 mt 5193 2052 L
5193 2002 mt 5143 2052 L
5190 2002 mt 5240 2052 L
5240 2002 mt 5190 2052 L
5236 1619 mt 5286 1669 L
5286 1619 mt 5236 1669 L
5282 1871 mt 5332 1921 L
5332 1871 mt 5282 1921 L
5329 1828 mt 5379 1878 L
5379 1828 mt 5329 1878 L
5375 1914 mt 5425 1964 L
5425 1914 mt 5375 1964 L
5421 1828 mt 5471 1878 L
5471 1828 mt 5421 1878 L
5468 1914 mt 5518 1964 L
5518 1914 mt 5468 1964 L
DA
gr

gs 864 312 4630 3649 rc
SO
gr

SO
1 sg
0 623 1799 0 0 -623 3541 1091 4 MP
PP
-1799 0 0 623 1799 0 0 -623 3541 1091 5 MP stroke
4 w
DO
SO
6 w
0 sg
3541 1091 mt 5340 1091 L
3541  468 mt 5340  468 L
3541 1091 mt 3541  468 L
5340 1091 mt 5340  468 L
3541 1091 mt 5340 1091 L
3541 1091 mt 3541  468 L
3541 1091 mt 5340 1091 L
3541  468 mt 5340  468 L
3541 1091 mt 3541  468 L
5340 1091 mt 5340  468 L
4009  630 mt 
(Block-wise Assignment) s
gs 3541 468 1800 624 rc
DA
c8
360 0 3613 587 2 MP stroke
SO
gs 3720 514 147 147 rc
  36   36 3793  587 FO
gr

gr

c8
0 sg
4009  822 mt 
(Sequential OP) s
gs 3541 468 1800 624 rc
DA
/c11 { 0.000000 0.500000 0.000000 sr} bdef
c11
360 0 3613 779 2 MP stroke
SO
gs 3720 706 147 147 rc
24 W
3793 779 PD
gr

gr

c11
0 sg
4009 1014 mt 
(Novel OP) s
gs 3541 468 1800 624 rc
DA
c10
360 0 3613 971 2 MP stroke
3793 971 PD
SO
gr

c10

end %%Color Dict

eplot
%%EndObject

epage
end

showpage

%%Trailer
%%EOF
