%!PS-Adobe-3.0 EPSF-3.0
%%Creator: MATLAB, The MathWorks, Inc. Version 8.1.0.604 (R2013a). Operating System: Darwin 13.4.0 Darwin Kernel Version 13.4.0: Sun Aug 17 19:50:11 PDT 2014; root:xnu-2422.115.4~1/RELEASE_X86_64 x86_64.
%%Title: /Users/le/Work/project3/Figures/Results/0925/w20/comparison_gopU016_UT1.eps
%%CreationDate: 09/25/2014  22:38:20
%%DocumentNeededFonts: Helvetica
%%DocumentProcessColors: Cyan Magenta Yellow Black
%%LanguageLevel: 2
%%Pages: 1
%%BoundingBox:    51   209   559   582
%%EndComments

%%BeginProlog
% MathWorks dictionary
/MathWorks 160 dict begin
% definition operators
/bdef {bind def} bind def
/ldef {load def} bind def
/xdef {exch def} bdef
/xstore {exch store} bdef
% operator abbreviations
/c  /clip ldef
/cc /concat ldef
/cp /closepath ldef
/gr /grestore ldef
/gs /gsave ldef
/mt /moveto ldef
/np /newpath ldef
/cm /currentmatrix ldef
/sm /setmatrix ldef
/rm /rmoveto ldef
/rl /rlineto ldef
/s {show newpath} bdef
/sc {setcmykcolor} bdef
/sr /setrgbcolor ldef
/sg /setgray ldef
/w /setlinewidth ldef
/j /setlinejoin ldef
/cap /setlinecap ldef
/rc {rectclip} bdef
/rf {rectfill} bdef
% page state control
/pgsv () def
/bpage {/pgsv save def} bdef
/epage {pgsv restore} bdef
/bplot /gsave ldef
/eplot {stroke grestore} bdef
% orientation switch
/portraitMode 0 def /landscapeMode 1 def /rotateMode 2 def
% coordinate system mappings
/dpi2point 0 def
% font control
/FontSize 0 def
/FMS {/FontSize xstore findfont [FontSize 0 0 FontSize neg 0 0]
  makefont setfont} bdef
/reencode {exch dup where {pop load} {pop StandardEncoding} ifelse
  exch dup 3 1 roll findfont dup length dict begin
  { 1 index /FID ne {def}{pop pop} ifelse } forall
  /Encoding exch def currentdict end definefont pop} bdef
/isroman {findfont /CharStrings get /Agrave known} bdef
/FMSR {3 1 roll 1 index dup isroman {reencode} {pop pop} ifelse
  exch FMS} bdef
/csm {1 dpi2point div -1 dpi2point div scale neg translate
 dup landscapeMode eq {pop -90 rotate}
  {rotateMode eq {90 rotate} if} ifelse} bdef
% line types: solid, dotted, dashed, dotdash
/SO { [] 0 setdash } bdef
/DO { [.5 dpi2point mul 4 dpi2point mul] 0 setdash } bdef
/DA { [6 dpi2point mul] 0 setdash } bdef
/DD { [.5 dpi2point mul 4 dpi2point mul 6 dpi2point mul 4
  dpi2point mul] 0 setdash } bdef
% macros for lines and objects
/L {lineto stroke} bdef
/MP {3 1 roll moveto 1 sub {rlineto} repeat} bdef
/AP {{rlineto} repeat} bdef
/PDlw -1 def
/W {/PDlw currentlinewidth def setlinewidth} def
/PP {closepath eofill} bdef
/DP {closepath stroke} bdef
/MR {4 -2 roll moveto dup  0 exch rlineto exch 0 rlineto
  neg 0 exch rlineto closepath} bdef
/FR {MR stroke} bdef
/PR {MR fill} bdef
/L1i {{currentfile picstr readhexstring pop} image} bdef
/tMatrix matrix def
/MakeOval {newpath tMatrix currentmatrix pop translate scale
0 0 1 0 360 arc tMatrix setmatrix} bdef
/FO {MakeOval stroke} bdef
/PO {MakeOval fill} bdef
/PD {currentlinewidth 2 div 0 360 arc fill
   PDlw -1 eq not {PDlw w /PDlw -1 def} if} def
/FA {newpath tMatrix currentmatrix pop translate scale
  0 0 1 5 -2 roll arc tMatrix setmatrix stroke} bdef
/PA {newpath tMatrix currentmatrix pop	translate 0 0 moveto scale
  0 0 1 5 -2 roll arc closepath tMatrix setmatrix fill} bdef
/FAn {newpath tMatrix currentmatrix pop translate scale
  0 0 1 5 -2 roll arcn tMatrix setmatrix stroke} bdef
/PAn {newpath tMatrix currentmatrix pop translate 0 0 moveto scale
  0 0 1 5 -2 roll arcn closepath tMatrix setmatrix fill} bdef
/vradius 0 def /hradius 0 def /lry 0 def
/lrx 0 def /uly 0 def /ulx 0 def /rad 0 def
/MRR {/vradius xdef /hradius xdef /lry xdef /lrx xdef /uly xdef
  /ulx xdef newpath tMatrix currentmatrix pop ulx hradius add uly
  vradius add translate hradius vradius scale 0 0 1 180 270 arc 
  tMatrix setmatrix lrx hradius sub uly vradius add translate
  hradius vradius scale 0 0 1 270 360 arc tMatrix setmatrix
  lrx hradius sub lry vradius sub translate hradius vradius scale
  0 0 1 0 90 arc tMatrix setmatrix ulx hradius add lry vradius sub
  translate hradius vradius scale 0 0 1 90 180 arc tMatrix setmatrix
  closepath} bdef
/FRR {MRR stroke } bdef
/PRR {MRR fill } bdef
/MlrRR {/lry xdef /lrx xdef /uly xdef /ulx xdef /rad lry uly sub 2 div def
  newpath tMatrix currentmatrix pop ulx rad add uly rad add translate
  rad rad scale 0 0 1 90 270 arc tMatrix setmatrix lrx rad sub lry rad
  sub translate rad rad scale 0 0 1 270 90 arc tMatrix setmatrix
  closepath} bdef
/FlrRR {MlrRR stroke } bdef
/PlrRR {MlrRR fill } bdef
/MtbRR {/lry xdef /lrx xdef /uly xdef /ulx xdef /rad lrx ulx sub 2 div def
  newpath tMatrix currentmatrix pop ulx rad add uly rad add translate
  rad rad scale 0 0 1 180 360 arc tMatrix setmatrix lrx rad sub lry rad
  sub translate rad rad scale 0 0 1 0 180 arc tMatrix setmatrix
  closepath} bdef
/FtbRR {MtbRR stroke } bdef
/PtbRR {MtbRR fill } bdef
/stri 6 array def /dtri 6 array def
/smat 6 array def /dmat 6 array def
/tmat1 6 array def /tmat2 6 array def /dif 3 array def
/asub {/ind2 exch def /ind1 exch def dup dup
  ind1 get exch ind2 get sub exch } bdef
/tri_to_matrix {
  2 0 asub 3 1 asub 4 0 asub 5 1 asub
  dup 0 get exch 1 get 7 -1 roll astore } bdef
/compute_transform {
  dmat dtri tri_to_matrix tmat1 invertmatrix 
  smat stri tri_to_matrix tmat2 concatmatrix } bdef
/ds {stri astore pop} bdef
/dt {dtri astore pop} bdef
/db {2 copy /cols xdef /rows xdef mul dup 3 mul string
  currentfile 
  3 index 0 eq {/ASCIIHexDecode filter}
  {/ASCII85Decode filter 3 index 2 eq {/RunLengthDecode filter} if }
  ifelse exch readstring pop
  dup 0 3 index getinterval /rbmap xdef
  dup 2 index dup getinterval /gbmap xdef
  1 index dup 2 mul exch getinterval /bbmap xdef pop pop}bdef
/it {gs np dtri aload pop moveto lineto lineto cp c
  cols rows 8 compute_transform 
  rbmap gbmap bbmap true 3 colorimage gr}bdef
/il {newpath moveto lineto stroke}bdef
currentdict end def
%%EndProlog

%%BeginSetup
MathWorks begin

0 cap

end
%%EndSetup

%%Page: 1 1
%%BeginPageSetup
%%PageBoundingBox:    51   209   559   582
MathWorks begin
bpage
%%EndPageSetup

%%BeginObject: obj1
bplot

/dpi2point 12 def
portraitMode 0612 6984 csm

    0     0  6096  4476 rc
86 dict begin %Colortable dictionary
/c0 { 0.000000 0.000000 0.000000 sr} bdef
/c1 { 1.000000 1.000000 1.000000 sr} bdef
/c2 { 0.900000 0.000000 0.000000 sr} bdef
/c3 { 0.000000 0.820000 0.000000 sr} bdef
/c4 { 0.000000 0.000000 0.800000 sr} bdef
/c5 { 0.910000 0.820000 0.320000 sr} bdef
/c6 { 1.000000 0.260000 0.820000 sr} bdef
/c7 { 0.000000 0.820000 0.820000 sr} bdef
c0
1 j
1 sg
   0    0 6097 4477 rf
6 w
0 3648 4629 0 0 -3648 864 3960 4 MP
PP
-4629 0 0 3648 4629 0 0 -3648 864 3960 5 MP stroke
4 w
DO
0 sg
 864 3960 mt  864  312 L
 864  312 mt  864  312 L
1789 3960 mt 1789  312 L
1789  312 mt 1789  312 L
2715 3960 mt 2715  312 L
2715  312 mt 2715  312 L
3641 3960 mt 3641  312 L
3641  312 mt 3641  312 L
4567 3960 mt 4567  312 L
4567  312 mt 4567  312 L
5493 3960 mt 5493  312 L
5493  312 mt 5493  312 L
 864 3960 mt 5493 3960 L
5493 3960 mt 5493 3960 L
 864 3390 mt 5493 3390 L
5493 3390 mt 5493 3390 L
 864 2820 mt 5493 2820 L
5493 2820 mt 5493 2820 L
 864 2249 mt 5493 2249 L
5493 2249 mt 5493 2249 L
 864 1679 mt 5493 1679 L
5493 1679 mt 5493 1679 L
 864 1109 mt 5493 1109 L
5493 1109 mt 5493 1109 L
 864  539 mt 5493  539 L
5493  539 mt 5493  539 L
SO
6 w
 864 3960 mt 5493 3960 L
 864  312 mt 5493  312 L
 864 3960 mt  864  312 L
5493 3960 mt 5493  312 L
 864 3960 mt 5493 3960 L
 864 3960 mt  864  312 L
 864 3960 mt  864 3913 L
 864  312 mt  864  358 L
%%IncludeResource: font Helvetica
/Helvetica /ISOLatin1Encoding 168 FMSR

 818 4150 mt 
(0) s
1789 3960 mt 1789 3913 L
1789  312 mt 1789  358 L
1696 4150 mt 
(20) s
2715 3960 mt 2715 3913 L
2715  312 mt 2715  358 L
2622 4150 mt 
(40) s
3641 3960 mt 3641 3913 L
3641  312 mt 3641  358 L
3548 4150 mt 
(60) s
4567 3960 mt 4567 3913 L
4567  312 mt 4567  358 L
4474 4150 mt 
(80) s
5493 3960 mt 5493 3913 L
5493  312 mt 5493  358 L
5353 4150 mt 
(100) s
 864 3960 mt  910 3960 L
5493 3960 mt 5446 3960 L
 643 4022 mt 
(12) s
 864 3390 mt  910 3390 L
5493 3390 mt 5446 3390 L
 503 3452 mt 
(12.5) s
 864 2820 mt  910 2820 L
5493 2820 mt 5446 2820 L
 643 2882 mt 
(13) s
 864 2249 mt  910 2249 L
5493 2249 mt 5446 2249 L
 503 2311 mt 
(13.5) s
 864 1679 mt  910 1679 L
5493 1679 mt 5446 1679 L
 643 1741 mt 
(14) s
 864 1109 mt  910 1109 L
5493 1109 mt 5446 1109 L
 503 1171 mt 
(14.5) s
 864  539 mt  910  539 L
5493  539 mt 5446  539 L
 643  601 mt 
(15) s
 864 3960 mt 5493 3960 L
 864  312 mt 5493  312 L
 864 3960 mt  864  312 L
5493 3960 mt 5493  312 L
2990 4328 mt 
(GOP) s
 411 2543 mt  -90 rotate
(PSNR [dB]) s
90 rotate
1699  180 mt 
(Comparison of UT1 delivered Utilization) s
%%IncludeResource: font Helvetica
/Helvetica /ISOLatin1Encoding 120 FMSR

 847 4003 mt 
( ) s
5477  354 mt 
( ) s
gs 864 312 4630 3649 rc
DA
/c8 { 0.000000 0.000000 1.000000 sr} bdef
c8
47 392 46 -38 46 57 47 56 46 306 46 -457 47 -155 46 58 
46 448 46 -275 47 -474 46 511 46 413 47 -158 46 -892 46 998 
46 -123 47 -1390 46 1020 46 -58 47 -39 46 19 46 173 46 -643 
47 -519 46 709 46 -733 47 649 46 -625 46 851 46 514 47 -656 
46 41 46 61 47 351 46 -372 46 315 47 -155 46 397 46 -456 
46 -415 47 552 46 -361 46 698 47 -241 46 -77 46 496 46 -419 
47 -869 46 812 46 -20 47 134 46 326 46 -696 46 -647 47 825 
46 376 46 -203 47 -173 46 483 46 -784 46 -126 47 656 46 -37 
46 -95 47 206 46 -283 46 -822 47 704 46 510 46 -109 46 -130 
47 328 46 -579 46 837 47 -978 46 161 46 193 46 -846 47 1436 
46 -783 46 -181 47 505 46 -56 46 0 46 -210 47 39 46 -58 
46 211 47 -493 46 622 46 267 46 -176 47 -530 46 118 46 -965 
47 1448 46 18 46 -619 910 2821 100 MP stroke
gr

c8
DA
SO
  36   36  910 2821 FO
  36   36  956 2202 FO
  36   36 1002 2220 FO
  36   36 1049 3668 FO
  36   36 1095 2703 FO
  36   36 1141 2821 FO
  36   36 1188 2291 FO
  36   36 1234 2115 FO
  36   36 1280 2382 FO
  36   36 1326 3004 FO
  36   36 1373 2511 FO
  36   36 1419 2722 FO
  36   36 1465 2664 FO
  36   36 1512 2703 FO
  36   36 1558 2493 FO
  36   36 1604 2493 FO
  36   36 1650 2437 FO
  36   36 1697 2942 FO
  36   36 1743 2761 FO
  36   36 1789 1978 FO
  36   36 1836 3414 FO
  36   36 1882 2568 FO
  36   36 1928 2761 FO
  36   36 1974 2922 FO
  36   36 2021 1944 FO
  36   36 2067 2781 FO
  36   36 2113 2202 FO
  36   36 2160 2530 FO
  36   36 2206 2400 FO
  36   36 2252 2291 FO
  36   36 2298 2801 FO
  36   36 2345 3505 FO
  36   36 2391 2683 FO
  36   36 2437 2400 FO
  36   36 2484 2606 FO
  36   36 2530 2511 FO
  36   36 2576 2474 FO
  36   36 2623 3130 FO
  36   36 2669 3004 FO
  36   36 2715 2220 FO
  36   36 2761 2703 FO
  36   36 2808 2530 FO
  36   36 2854 2327 FO
  36   36 2900 2703 FO
  36   36 2947 3528 FO
  36   36 2993 2881 FO
  36   36 3039 2185 FO
  36   36 3085 2511 FO
  36   36 3132 2645 FO
  36   36 3178 2625 FO
  36   36 3224 3437 FO
  36   36 3271 2568 FO
  36   36 3317 2149 FO
  36   36 3363 2645 FO
  36   36 3409 2568 FO
  36   36 3456 2327 FO
  36   36 3502 3025 FO
  36   36 3548 2664 FO
  36   36 3595 3216 FO
  36   36 3641 2801 FO
  36   36 3687 2345 FO
  36   36 3733 2742 FO
  36   36 3780 2587 FO
  36   36 3826 2902 FO
  36   36 3872 2530 FO
  36   36 3919 2881 FO
  36   36 3965 2942 FO
  36   36 4011 2983 FO
  36   36 4058 2327 FO
  36   36 4104 2841 FO
  36   36 4150 3692 FO
  36   36 4196 3067 FO
  36   36 4243 3716 FO
  36   36 4289 2983 FO
  36   36 4335 3692 FO
  36   36 4382 3173 FO
  36   36 4428 2530 FO
  36   36 4474 2703 FO
  36   36 4520 2722 FO
  36   36 4567 2683 FO
  36   36 4613 2625 FO
  36   36 4659 3645 FO
  36   36 4706 2255 FO
  36   36 4752 2132 FO
  36   36 4798 3130 FO
  36   36 4844 2238 FO
  36   36 4891 2080 FO
  36   36 4937 2493 FO
  36   36 4983 3004 FO
  36   36 5030 2530 FO
  36   36 5076 2255 FO
  36   36 5122 2703 FO
  36   36 5168 2761 FO
  36   36 5215 2606 FO
  36   36 5261 2149 FO
  36   36 5307 2455 FO
  36   36 5354 2511 FO
  36   36 5400 2568 FO
  36   36 5446 2530 FO
  36   36 5493 2922 FO
DA
gs 864 312 4630 3649 rc
/c9 { 0.000000 0.498039 0.000000 sr} bdef
c9
47 189 46 -369 46 -15 47 -47 46 557 46 -330 47 -321 46 -144 
46 568 46 -132 47 0 46 387 46 -169 47 -43 46 -160 46 -291 
46 246 47 -538 46 627 46 29 47 -589 46 676 46 -404 46 447 
47 -218 46 -60 46 -138 47 -222 46 449 46 218 46 -14 47 -604 
46 250 46 -299 47 479 46 258 46 -484 47 0 46 107 46 60 
46 117 47 200 46 -392 46 178 47 -523 46 191 46 -47 46 78 
47 108 46 -249 46 324 47 -261 46 607 46 -437 46 -249 47 95 
46 348 46 -29 47 -241 46 -319 46 545 46 -257 47 31 46 46 
46 481 47 -345 46 -292 46 -292 47 83 46 545 46 203 46 -781 
47 258 46 -258 46 413 47 61 46 -200 46 -16 46 -111 47 577 
46 -561 46 296 47 30 46 148 46 -621 46 66 47 208 46 93 
46 -93 47 15 46 332 46 -224 46 -364 47 114 46 -230 46 50 
47 369 46 -386 46 -101 910 2029 100 MP stroke
gr

c9
SO
24 W
910 2029 PD
24 W
956 1928 PD
24 W
1002 1542 PD
24 W
1049 1911 PD
24 W
1095 1961 PD
24 W
1141 1731 PD
24 W
1188 1845 PD
24 W
1234 1481 PD
24 W
1280 1257 PD
24 W
1326 1589 PD
24 W
1373 1604 PD
24 W
1419 1511 PD
24 W
1465 1604 PD
24 W
1512 1812 PD
24 W
1558 1878 PD
24 W
1604 1257 PD
24 W
1650 1405 PD
24 W
1697 1435 PD
24 W
1743 1731 PD
24 W
1789 1170 PD
24 W
1836 1747 PD
24 W
1882 1636 PD
24 W
1928 1620 PD
24 W
1974 1420 PD
24 W
2021 1481 PD
24 W
2067 1894 PD
24 W
2113 1636 PD
24 W
2160 1894 PD
24 W
2206 1113 PD
24 W
2252 1316 PD
24 W
2298 1861 PD
24 W
2345 1944 PD
24 W
2391 1652 PD
24 W
2437 1360 PD
24 W
2484 1015 PD
24 W
2530 1496 PD
24 W
2576 1542 PD
24 W
2623 1573 PD
24 W
2669 1316 PD
24 W
2715 1861 PD
24 W
2761 1542 PD
24 W
2808 1301 PD
24 W
2854 1272 PD
24 W
2900 1620 PD
24 W
2947 1715 PD
24 W
2993 1466 PD
24 W
3039 1029 PD
24 W
3085 1636 PD
24 W
3132 1375 PD
24 W
3178 1699 PD
24 W
3224 1450 PD
24 W
3271 1558 PD
24 W
3317 1636 PD
24 W
3363 1589 PD
24 W
3409 1780 PD
24 W
3456 1257 PD
24 W
3502 1435 PD
24 W
3548 1043 PD
24 W
3595 1243 PD
24 W
3641 1360 PD
24 W
3687 1420 PD
24 W
3733 1527 PD
24 W
3780 1527 PD
24 W
3826 1043 PD
24 W
3872 1301 PD
24 W
3919 1780 PD
24 W
3965 1481 PD
24 W
4011 1731 PD
24 W
4058 1127 PD
24 W
4104 1113 PD
24 W
4150 1331 PD
24 W
4196 1780 PD
24 W
4243 1558 PD
24 W
4289 1420 PD
24 W
4335 1360 PD
24 W
4382 1142 PD
24 W
4428 1589 PD
24 W
4474 1185 PD
24 W
4520 1861 PD
24 W
4567 1272 PD
24 W
4613 1301 PD
24 W
4659 1928 PD
24 W
4706 1390 PD
24 W
4752 1636 PD
24 W
4798 1345 PD
24 W
4844 1185 PD
24 W
4891 1142 PD
24 W
4937 973 PD
24 W
4983 1360 PD
24 W
5030 1360 PD
24 W
5076 1228 PD
24 W
5122 1796 PD
24 W
5168 1652 PD
24 W
5215 1331 PD
24 W
5261 1001 PD
24 W
5307 1558 PD
24 W
5354 1511 PD
24 W
5400 1496 PD
24 W
5446 1127 PD
24 W
5493 1316 PD
DA
gs 864 312 4630 3649 rc
/c10 { 1.000000 0.000000 0.000000 sr} bdef
c10
47 68 46 -82 46 108 47 -331 46 398 46 -327 47 70 46 -198 
46 253 46 41 47 -426 46 507 46 -95 47 0 46 0 46 0 
46 41 47 -292 46 141 46 205 47 -289 46 153 46 -97 46 84 
47 27 46 82 46 -306 47 -87 46 101 46 210 46 370 47 -523 
46 14 46 112 47 215 46 -79 46 -206 47 83 46 -27 46 229 
46 -202 47 307 46 -144 46 -204 47 -112 46 -29 46 237 46 -265 
47 14 46 210 46 109 47 -178 46 191 46 -332 46 -145 47 188 
46 329 46 -94 47 -41 46 227 46 -464 46 141 47 -98 46 126 
46 0 47 203 46 -189 46 -313 47 116 46 412 46 -53 46 -505 
47 301 46 -228 46 200 47 56 46 -418 46 348 46 56 47 243 
46 -299 46 -85 47 223 46 214 46 -552 46 101 47 127 46 28 
46 55 47 -97 46 165 46 -41 46 -166 47 -57 46 -57 46 -87 
47 215 46 -71 46 -385 910 1527 100 MP stroke
gr

c10
SO
 885 1502 mt  935 1552 L
 935 1502 mt  885 1552 L
 931 1117 mt  981 1167 L
 981 1117 mt  931 1167 L
 977 1046 mt 1027 1096 L
1027 1046 mt  977 1096 L
1024 1261 mt 1074 1311 L
1074 1261 mt 1024 1311 L
1070 1174 mt 1120 1224 L
1120 1174 mt 1070 1224 L
1116 1117 mt 1166 1167 L
1166 1117 mt 1116 1167 L
1163 1060 mt 1213 1110 L
1213 1060 mt 1163 1110 L
1209  894 mt 1259  944 L
1259  894 mt 1209  944 L
1255  853 mt 1305  903 L
1305  853 mt 1255  903 L
1301 1018 mt 1351 1068 L
1351 1018 mt 1301 1068 L
1348  921 mt 1398  971 L
1398  921 mt 1348  971 L
1394  976 mt 1444 1026 L
1444  976 mt 1394 1026 L
1440 1004 mt 1490 1054 L
1490 1004 mt 1440 1054 L
1487 1131 mt 1537 1181 L
1537 1131 mt 1487 1181 L
1533 1232 mt 1583 1282 L
1583 1232 mt 1533 1282 L
1579  680 mt 1629  730 L
1629  680 mt 1579  730 L
1625  894 mt 1675  944 L
1675  894 mt 1625  944 L
1672 1117 mt 1722 1167 L
1722 1117 mt 1672 1167 L
1718 1032 mt 1768 1082 L
1768 1032 mt 1718 1082 L
1764  733 mt 1814  783 L
1814  733 mt 1764  783 L
1811  976 mt 1861 1026 L
1861  976 mt 1811 1026 L
1857 1032 mt 1907 1082 L
1907 1032 mt 1857 1082 L
1903 1380 mt 1953 1430 L
1953 1380 mt 1903 1430 L
1949  962 mt 1999 1012 L
1999  962 mt 1949 1012 L
1996 1018 mt 2046 1068 L
2046 1018 mt 1996 1068 L
2042 1218 mt 2092 1268 L
2092 1218 mt 2042 1268 L
2088  990 mt 2138 1040 L
2138  990 mt 2088 1040 L
2135 1291 mt 2185 1341 L
2185 1291 mt 2135 1341 L
2181  786 mt 2231  836 L
2231  786 mt 2181  836 L
2227  733 mt 2277  783 L
2277  733 mt 2227  783 L
2273 1145 mt 2323 1195 L
2323 1145 mt 2273 1195 L
2320 1261 mt 2370 1311 L
2370 1261 mt 2320 1311 L
2366  948 mt 2416  998 L
2416  948 mt 2366  998 L
2412  759 mt 2462  809 L
2462  759 mt 2412  809 L
2459  962 mt 2509 1012 L
2509  962 mt 2459 1012 L
2505  962 mt 2555 1012 L
2555  962 mt 2505 1012 L
2551 1088 mt 2601 1138 L
2601 1088 mt 2551 1138 L
2598  990 mt 2648 1040 L
2648  990 mt 2598 1040 L
2644 1131 mt 2694 1181 L
2694 1131 mt 2644 1181 L
2690  667 mt 2740  717 L
2740  667 mt 2690  717 L
2736  894 mt 2786  944 L
2786  894 mt 2736  944 L
2783  853 mt 2833  903 L
2833  853 mt 2783  903 L
2829  759 mt 2879  809 L
2879  759 mt 2829  809 L
2875 1088 mt 2925 1138 L
2925 1088 mt 2875 1138 L
2922 1276 mt 2972 1326 L
2972 1276 mt 2922 1326 L
2968 1131 mt 3018 1181 L
3018 1131 mt 2968 1181 L
3014  799 mt 3064  849 L
3064  799 mt 3014  849 L
3060  990 mt 3110 1040 L
3110  990 mt 3060 1040 L
3107  812 mt 3157  862 L
3157  812 mt 3107  862 L
3153  921 mt 3203  971 L
3203  921 mt 3153  971 L
3199 1131 mt 3249 1181 L
3249 1131 mt 3199 1181 L
3246 1145 mt 3296 1195 L
3296 1145 mt 3246 1195 L
3292  880 mt 3342  930 L
3342  880 mt 3292  930 L
3338 1117 mt 3388 1167 L
3388 1117 mt 3338 1167 L
3384 1088 mt 3434 1138 L
3434 1088 mt 3384 1138 L
3431  976 mt 3481 1026 L
3481  976 mt 3431 1026 L
3477  772 mt 3527  822 L
3527  772 mt 3477  822 L
3523  628 mt 3573  678 L
3573  628 mt 3523  678 L
3570  935 mt 3620  985 L
3620  935 mt 3570  985 L
3616  733 mt 3666  783 L
3666  733 mt 3616  783 L
3662  962 mt 3712 1012 L
3712  962 mt 3662 1012 L
3708  935 mt 3758  985 L
3758  935 mt 3708  985 L
3755 1018 mt 3805 1068 L
3805 1018 mt 3755 1068 L
3801  812 mt 3851  862 L
3851  812 mt 3801  862 L
3847  733 mt 3897  783 L
3897  733 mt 3847  783 L
3894  948 mt 3944  998 L
3944  948 mt 3894  998 L
3940 1060 mt 3990 1110 L
3990 1060 mt 3940 1110 L
3986 1074 mt 4036 1124 L
4036 1074 mt 3986 1124 L
4033  551 mt 4083  601 L
4083  551 mt 4033  601 L
4079  921 mt 4129  971 L
4129  921 mt 4079  971 L
4125 1131 mt 4175 1181 L
4175 1131 mt 4125 1181 L
4171 1232 mt 4221 1282 L
4221 1232 mt 4171 1282 L
4218 1145 mt 4268 1195 L
4268 1145 mt 4218 1195 L
4264  839 mt 4314  889 L
4314  839 mt 4264  889 L
4310  921 mt 4360  971 L
4360  921 mt 4310  971 L
4357  948 mt 4407  998 L
4407  948 mt 4357  998 L
4403 1032 mt 4453 1082 L
4453 1032 mt 4403 1082 L
4449  935 mt 4499  985 L
4499  935 mt 4449  985 L
4495 1088 mt 4545 1138 L
4545 1088 mt 4495 1138 L
4542  799 mt 4592  849 L
4592  799 mt 4542  849 L
4588 1004 mt 4638 1054 L
4638 1004 mt 4588 1054 L
4634 1145 mt 4684 1195 L
4684 1145 mt 4634 1195 L
4681  853 mt 4731  903 L
4731  853 mt 4681  903 L
4727  894 mt 4777  944 L
4777  894 mt 4727  944 L
4773  894 mt 4823  944 L
4823  894 mt 4773  944 L
4819  894 mt 4869  944 L
4869  894 mt 4819  944 L
4866  894 mt 4916  944 L
4916  894 mt 4866  944 L
4912  799 mt 4962  849 L
4962  799 mt 4912  849 L
4958 1306 mt 5008 1356 L
5008 1306 mt 4958 1356 L
5005  880 mt 5055  930 L
5055  880 mt 5005  930 L
5051  921 mt 5101  971 L
5101  921 mt 5051  971 L
5097 1174 mt 5147 1224 L
5147 1174 mt 5097 1224 L
5143  976 mt 5193 1026 L
5193  976 mt 5143 1026 L
5190 1046 mt 5240 1096 L
5240 1046 mt 5190 1096 L
5236  719 mt 5286  769 L
5286  719 mt 5236  769 L
5282 1117 mt 5332 1167 L
5332 1117 mt 5282 1167 L
5329  786 mt 5379  836 L
5379  786 mt 5329  836 L
5375  894 mt 5425  944 L
5425  894 mt 5375  944 L
5421  812 mt 5471  862 L
5471  812 mt 5421  862 L
5468  880 mt 5518  930 L
5518  880 mt 5468  930 L
DA
gs 864 312 4630 3649 rc
SO
gr

SO
1 sg
0 623 1799 0 0 -623 1225 3923 4 MP
PP
-1799 0 0 623 1799 0 0 -623 1225 3923 5 MP stroke
4 w
DO
SO
6 w
0 sg
1225 3923 mt 3024 3923 L
1225 3300 mt 3024 3300 L
1225 3923 mt 1225 3300 L
3024 3923 mt 3024 3300 L
1225 3923 mt 3024 3923 L
1225 3923 mt 1225 3300 L
1225 3923 mt 3024 3923 L
1225 3300 mt 3024 3300 L
1225 3923 mt 1225 3300 L
3024 3923 mt 3024 3300 L
1693 3462 mt 
(Block-wise Assignment) s
gs 1225 3300 1800 624 rc
DA
c8
360 0 1297 3419 2 MP stroke
SO
gs 1404 3346 147 147 rc
  36   36 1477 3419 FO
gr

gr

c8
0 sg
1693 3654 mt 
(Sequential OP) s
gs 1225 3300 1800 624 rc
DA
/c11 { 0.000000 0.500000 0.000000 sr} bdef
c11
360 0 1297 3611 2 MP stroke
SO
gs 1404 3538 147 147 rc
24 W
1477 3611 PD
gr

gr

c11
0 sg
1693 3846 mt 
(Novel OP) s
gs 1225 3300 1800 624 rc
DA
c10
360 0 1297 3803 2 MP stroke
1477 3803 PD
SO
gr

c10

end %%Color Dict

eplot
%%EndObject

epage
end

showpage

%%Trailer
%%EOF
