%!PS-Adobe-3.0 EPSF-3.0
%%Creator: MATLAB, The MathWorks, Inc. Version 8.1.0.604 (R2013a). Operating System: Darwin 13.4.0 Darwin Kernel Version 13.4.0: Sun Aug 17 19:50:11 PDT 2014; root:xnu-2422.115.4~1/RELEASE_X86_64 x86_64.
%%Title: /Users/le/Work/project3/Figures/Results/0925/w20/comparison_jitter016_u4_r0.eps
%%CreationDate: 09/26/2014  14:06:33
%%DocumentNeededFonts: Helvetica
%%DocumentProcessColors: Cyan Magenta Yellow Black
%%LanguageLevel: 2
%%Pages: 1
%%BoundingBox:    51   196   559   595
%%EndComments

%%BeginProlog
% MathWorks dictionary
/MathWorks 160 dict begin
% definition operators
/bdef {bind def} bind def
/ldef {load def} bind def
/xdef {exch def} bdef
/xstore {exch store} bdef
% operator abbreviations
/c  /clip ldef
/cc /concat ldef
/cp /closepath ldef
/gr /grestore ldef
/gs /gsave ldef
/mt /moveto ldef
/np /newpath ldef
/cm /currentmatrix ldef
/sm /setmatrix ldef
/rm /rmoveto ldef
/rl /rlineto ldef
/s {show newpath} bdef
/sc {setcmykcolor} bdef
/sr /setrgbcolor ldef
/sg /setgray ldef
/w /setlinewidth ldef
/j /setlinejoin ldef
/cap /setlinecap ldef
/rc {rectclip} bdef
/rf {rectfill} bdef
% page state control
/pgsv () def
/bpage {/pgsv save def} bdef
/epage {pgsv restore} bdef
/bplot /gsave ldef
/eplot {stroke grestore} bdef
% orientation switch
/portraitMode 0 def /landscapeMode 1 def /rotateMode 2 def
% coordinate system mappings
/dpi2point 0 def
% font control
/FontSize 0 def
/FMS {/FontSize xstore findfont [FontSize 0 0 FontSize neg 0 0]
  makefont setfont} bdef
/reencode {exch dup where {pop load} {pop StandardEncoding} ifelse
  exch dup 3 1 roll findfont dup length dict begin
  { 1 index /FID ne {def}{pop pop} ifelse } forall
  /Encoding exch def currentdict end definefont pop} bdef
/isroman {findfont /CharStrings get /Agrave known} bdef
/FMSR {3 1 roll 1 index dup isroman {reencode} {pop pop} ifelse
  exch FMS} bdef
/csm {1 dpi2point div -1 dpi2point div scale neg translate
 dup landscapeMode eq {pop -90 rotate}
  {rotateMode eq {90 rotate} if} ifelse} bdef
% line types: solid, dotted, dashed, dotdash
/SO { [] 0 setdash } bdef
/DO { [.5 dpi2point mul 4 dpi2point mul] 0 setdash } bdef
/DA { [6 dpi2point mul] 0 setdash } bdef
/DD { [.5 dpi2point mul 4 dpi2point mul 6 dpi2point mul 4
  dpi2point mul] 0 setdash } bdef
% macros for lines and objects
/L {lineto stroke} bdef
/MP {3 1 roll moveto 1 sub {rlineto} repeat} bdef
/AP {{rlineto} repeat} bdef
/PDlw -1 def
/W {/PDlw currentlinewidth def setlinewidth} def
/PP {closepath eofill} bdef
/DP {closepath stroke} bdef
/MR {4 -2 roll moveto dup  0 exch rlineto exch 0 rlineto
  neg 0 exch rlineto closepath} bdef
/FR {MR stroke} bdef
/PR {MR fill} bdef
/L1i {{currentfile picstr readhexstring pop} image} bdef
/tMatrix matrix def
/MakeOval {newpath tMatrix currentmatrix pop translate scale
0 0 1 0 360 arc tMatrix setmatrix} bdef
/FO {MakeOval stroke} bdef
/PO {MakeOval fill} bdef
/PD {currentlinewidth 2 div 0 360 arc fill
   PDlw -1 eq not {PDlw w /PDlw -1 def} if} def
/FA {newpath tMatrix currentmatrix pop translate scale
  0 0 1 5 -2 roll arc tMatrix setmatrix stroke} bdef
/PA {newpath tMatrix currentmatrix pop	translate 0 0 moveto scale
  0 0 1 5 -2 roll arc closepath tMatrix setmatrix fill} bdef
/FAn {newpath tMatrix currentmatrix pop translate scale
  0 0 1 5 -2 roll arcn tMatrix setmatrix stroke} bdef
/PAn {newpath tMatrix currentmatrix pop translate 0 0 moveto scale
  0 0 1 5 -2 roll arcn closepath tMatrix setmatrix fill} bdef
/vradius 0 def /hradius 0 def /lry 0 def
/lrx 0 def /uly 0 def /ulx 0 def /rad 0 def
/MRR {/vradius xdef /hradius xdef /lry xdef /lrx xdef /uly xdef
  /ulx xdef newpath tMatrix currentmatrix pop ulx hradius add uly
  vradius add translate hradius vradius scale 0 0 1 180 270 arc 
  tMatrix setmatrix lrx hradius sub uly vradius add translate
  hradius vradius scale 0 0 1 270 360 arc tMatrix setmatrix
  lrx hradius sub lry vradius sub translate hradius vradius scale
  0 0 1 0 90 arc tMatrix setmatrix ulx hradius add lry vradius sub
  translate hradius vradius scale 0 0 1 90 180 arc tMatrix setmatrix
  closepath} bdef
/FRR {MRR stroke } bdef
/PRR {MRR fill } bdef
/MlrRR {/lry xdef /lrx xdef /uly xdef /ulx xdef /rad lry uly sub 2 div def
  newpath tMatrix currentmatrix pop ulx rad add uly rad add translate
  rad rad scale 0 0 1 90 270 arc tMatrix setmatrix lrx rad sub lry rad
  sub translate rad rad scale 0 0 1 270 90 arc tMatrix setmatrix
  closepath} bdef
/FlrRR {MlrRR stroke } bdef
/PlrRR {MlrRR fill } bdef
/MtbRR {/lry xdef /lrx xdef /uly xdef /ulx xdef /rad lrx ulx sub 2 div def
  newpath tMatrix currentmatrix pop ulx rad add uly rad add translate
  rad rad scale 0 0 1 180 360 arc tMatrix setmatrix lrx rad sub lry rad
  sub translate rad rad scale 0 0 1 0 180 arc tMatrix setmatrix
  closepath} bdef
/FtbRR {MtbRR stroke } bdef
/PtbRR {MtbRR fill } bdef
/stri 6 array def /dtri 6 array def
/smat 6 array def /dmat 6 array def
/tmat1 6 array def /tmat2 6 array def /dif 3 array def
/asub {/ind2 exch def /ind1 exch def dup dup
  ind1 get exch ind2 get sub exch } bdef
/tri_to_matrix {
  2 0 asub 3 1 asub 4 0 asub 5 1 asub
  dup 0 get exch 1 get 7 -1 roll astore } bdef
/compute_transform {
  dmat dtri tri_to_matrix tmat1 invertmatrix 
  smat stri tri_to_matrix tmat2 concatmatrix } bdef
/ds {stri astore pop} bdef
/dt {dtri astore pop} bdef
/db {2 copy /cols xdef /rows xdef mul dup 3 mul string
  currentfile 
  3 index 0 eq {/ASCIIHexDecode filter}
  {/ASCII85Decode filter 3 index 2 eq {/RunLengthDecode filter} if }
  ifelse exch readstring pop
  dup 0 3 index getinterval /rbmap xdef
  dup 2 index dup getinterval /gbmap xdef
  1 index dup 2 mul exch getinterval /bbmap xdef pop pop}bdef
/it {gs np dtri aload pop moveto lineto lineto cp c
  cols rows 8 compute_transform 
  rbmap gbmap bbmap true 3 colorimage gr}bdef
/il {newpath moveto lineto stroke}bdef
currentdict end def
%%EndProlog

%%BeginSetup
MathWorks begin

0 cap

end
%%EndSetup

%%Page: 1 1
%%BeginPageSetup
%%PageBoundingBox:    51   196   559   595
MathWorks begin
bpage
%%EndPageSetup

%%BeginObject: obj1
bplot

/dpi2point 12 def
portraitMode 0612 7140 csm

    0     0  6096  4788 rc
85 dict begin %Colortable dictionary
/c0 { 0.000000 0.000000 0.000000 sr} bdef
/c1 { 1.000000 1.000000 1.000000 sr} bdef
/c2 { 0.900000 0.000000 0.000000 sr} bdef
/c3 { 0.000000 0.820000 0.000000 sr} bdef
/c4 { 0.000000 0.000000 0.800000 sr} bdef
/c5 { 0.910000 0.820000 0.320000 sr} bdef
/c6 { 1.000000 0.260000 0.820000 sr} bdef
/c7 { 0.000000 0.820000 0.820000 sr} bdef
c0
1 j
1 sg
   0    0 6097 4789 rf
6 w
0 3902 4725 0 0 -3902 792 4261 4 MP
PP
-4725 0 0 3902 4725 0 0 -3902 792 4261 5 MP stroke
4 w
DO
0 sg
 792 4261 mt  792  359 L
 792  359 mt  792  359 L
1737 4261 mt 1737  359 L
1737  359 mt 1737  359 L
2682 4261 mt 2682  359 L
2682  359 mt 2682  359 L
3627 4261 mt 3627  359 L
3627  359 mt 3627  359 L
4572 4261 mt 4572  359 L
4572  359 mt 4572  359 L
5517 4261 mt 5517  359 L
5517  359 mt 5517  359 L
 792 4261 mt 5517 4261 L
5517 4261 mt 5517 4261 L
 792 3870 mt 5517 3870 L
5517 3870 mt 5517 3870 L
 792 3480 mt 5517 3480 L
5517 3480 mt 5517 3480 L
 792 3090 mt 5517 3090 L
5517 3090 mt 5517 3090 L
 792 2700 mt 5517 2700 L
5517 2700 mt 5517 2700 L
 792 2310 mt 5517 2310 L
5517 2310 mt 5517 2310 L
 792 1919 mt 5517 1919 L
5517 1919 mt 5517 1919 L
 792 1529 mt 5517 1529 L
5517 1529 mt 5517 1529 L
 792 1139 mt 5517 1139 L
5517 1139 mt 5517 1139 L
 792  749 mt 5517  749 L
5517  749 mt 5517  749 L
 792  359 mt 5517  359 L
5517  359 mt 5517  359 L
SO
6 w
 792 4261 mt 5517 4261 L
 792  359 mt 5517  359 L
 792 4261 mt  792  359 L
5517 4261 mt 5517  359 L
 792 4261 mt 5517 4261 L
 792 4261 mt  792  359 L
 792 4261 mt  792 4213 L
 792  359 mt  792  406 L
%%IncludeResource: font Helvetica
/Helvetica /ISOLatin1Encoding 168 FMSR

 578 4451 mt 
(-1.5) s
1737 4261 mt 1737 4213 L
1737  359 mt 1737  406 L
1593 4451 mt 
(-1) s
2682 4261 mt 2682 4213 L
2682  359 mt 2682  406 L
2468 4451 mt 
(-0.5) s
3627 4261 mt 3627 4213 L
3627  359 mt 3627  406 L
3581 4451 mt 
(0) s
4572 4261 mt 4572 4213 L
4572  359 mt 4572  406 L
4456 4451 mt 
(0.5) s
5517 4261 mt 5517 4213 L
5517  359 mt 5517  406 L
5471 4451 mt 
(1) s
 792 4261 mt  839 4261 L
5517 4261 mt 5469 4261 L
 664 4323 mt 
(0) s
 792 3870 mt  839 3870 L
5517 3870 mt 5469 3870 L
 524 3932 mt 
(0.1) s
 792 3480 mt  839 3480 L
5517 3480 mt 5469 3480 L
 524 3542 mt 
(0.2) s
 792 3090 mt  839 3090 L
5517 3090 mt 5469 3090 L
 524 3152 mt 
(0.3) s
 792 2700 mt  839 2700 L
5517 2700 mt 5469 2700 L
 524 2762 mt 
(0.4) s
 792 2310 mt  839 2310 L
5517 2310 mt 5469 2310 L
 524 2372 mt 
(0.5) s
 792 1919 mt  839 1919 L
5517 1919 mt 5469 1919 L
 524 1981 mt 
(0.6) s
 792 1529 mt  839 1529 L
5517 1529 mt 5469 1529 L
 524 1591 mt 
(0.7) s
 792 1139 mt  839 1139 L
5517 1139 mt 5469 1139 L
 524 1201 mt 
(0.8) s
 792  749 mt  839  749 L
5517  749 mt 5469  749 L
 524  811 mt 
(0.9) s
 792  359 mt  839  359 L
5517  359 mt 5469  359 L
 664  421 mt 
(1) s
 792 4261 mt 5517 4261 L
 792  359 mt 5517  359 L
 792 4261 mt  792  359 L
5517 4261 mt 5517  359 L
gs 792 359 4726 3903 rc
/c8 { 0.000000 0.000000 1.000000 sr} bdef
c8
0 -39 95 0 0 -39 443 0 0 -40 16 0 0 -39 56 0 
0 -40 16 0 0 -39 109 0 0 -39 22 0 0 -40 119 0 
0 -39 8 0 0 -40 26 0 0 -39 18 0 0 -39 23 0 
0 -79 2 0 0 -40 17 0 0 -39 44 0 0 -40 13 0 
0 -39 15 0 0 -39 60 0 0 -40 1 0 0 -39 44 0 
0 -40 79 0 0 -39 2 0 0 -39 15 0 0 -40 8 0 
0 -39 85 0 0 -40 13 0 0 -39 16 0 0 -40 28 0 
0 -39 8 0 0 -39 30 0 0 -40 3 0 0 -39 30 0 
0 -40 4 0 0 -39 6 0 0 -39 9 0 0 -40 17 0 
0 -39 11 0 0 -40 7 0 0 -39 3 0 0 -39 57 0 
0 -79 2 0 0 -40 3 0 0 -39 2 0 0 -40 3 0 
0 -39 18 0 0 -39 4 0 0 -40 2 0 0 -39 5 0 
0 -40 16 0 0 -39 28 0 0 -39 31 0 0 -40 49 0 
0 -39 81 0 0 -40 2 0 0 -39 47 0 0 -40 21 0 
0 -39 26 0 0 -39 14 0 0 -40 50 0 0 -39 14 0 
0 -40 20 0 0 -39 26 0 0 -39 37 0 0 -40 35 0 
0 -39 19 0 0 -40 11 0 0 -39 13 0 0 -39 5 0 
0 -79 7 0 0 -40 5 0 0 -39 25 0 0 -40 7 0 
0 -39 11 0 0 -39 54 0 0 -40 36 0 0 -39 23 0 
0 -40 91 0 0 -39 10 0 0 -39 25 0 0 -40 1 0 
0 -39 27 0 0 -40 3 0 0 -39 18 0 0 -79 94 0 
0 -39 31 0 0 -40 3 0 0 -39 103 0 0 -40 48 0 
0 -39 175 0 0 -39 97 0 0 -40 116 0 0 -39 167 0 
0 -40 186 0 0 -39 354 0 0 -40 1489 4261 190 MP stroke
gr

c8
0 sg
%%IncludeResource: font Helvetica
/Helvetica /ISOLatin1Encoding 120 FMSR

3123 4594 mt 
(x) s
 442 2418 mt  -90 rotate
(F\(x\)) s
90 rotate
%%IncludeResource: font Helvetica
/Helvetica /ISOLatin1Encoding 168 FMSR

 962  227 mt 
(Emipical cdf of utilization jitter between GOP for UT 4, ru\
n0) s
gs 792 359 4726 3903 rc
/c9 { 0.000000 0.500000 0.000000 sr} bdef
c9
0 -39 6 0 0 -39 45 0 0 -40 32 0 0 -39 62 0 
0 -40 27 0 0 -39 99 0 0 -39 43 0 0 -40 69 0 
0 -39 50 0 0 -40 16 0 0 -39 26 0 0 -39 33 0 
0 -40 45 0 0 -39 2 0 0 -40 2 0 0 -39 64 0 
0 -40 8 0 0 -39 4 0 0 -39 26 0 0 -40 21 0 
0 -39 22 0 0 -40 16 0 0 -39 30 0 0 -39 75 0 
0 -40 1 0 0 -39 48 0 0 -40 18 0 0 -39 2 0 
0 -40 15 0 0 -39 2 0 0 -39 3 0 0 -40 20 0 
0 -39 2 0 0 -40 0 -39 31 0 0 -39 14 0 0 -40 
8 0 0 -39 3 0 0 -40 18 0 0 -39 4 0 0 -39 
22 0 0 -40 1 0 0 -39 27 0 0 -40 4 0 0 -79 
21 0 0 -39 24 0 0 -39 2 0 0 -40 49 0 0 -39 
24 0 0 -40 26 0 0 -39 0 -39 1 0 0 -40 1 0 
0 -39 0 -40 21 0 0 -39 2 0 0 -40 2 0 0 -39 
19 0 0 -39 3 0 0 -40 5 0 0 -39 11 0 0 -40 
12 0 0 -39 37 0 0 -39 20 0 0 -40 36 0 0 -39 
0 -40 11 0 0 -39 6 0 0 -39 36 0 0 -40 13 0 
0 -39 18 0 0 -40 8 0 0 -39 7 0 0 -40 27 0 
0 -39 31 0 0 -39 27 0 0 -40 0 -39 5 0 0 -40 
13 0 0 -39 78 0 0 -39 4 0 0 -40 14 0 0 -39 
60 0 0 -40 4 0 0 -39 5 0 0 -40 9 0 0 -39 
12 0 0 -39 8 0 0 -40 1 0 0 -39 54 0 0 -40 
14 0 0 -39 249 0 0 -39 92 0 0 -40 56 0 0 -39 
9 0 0 -40 166 0 0 -39 270 0 0 -40 2100 4261 191 MP stroke
gr

c9
2075 4236 mt 2125 4286 L
2125 4236 mt 2075 4286 L
2075 4196 mt 2125 4246 L
2125 4196 mt 2075 4246 L
2345 4196 mt 2395 4246 L
2395 4196 mt 2345 4246 L
2345 4157 mt 2395 4207 L
2395 4157 mt 2345 4207 L
2511 4157 mt 2561 4207 L
2561 4157 mt 2511 4207 L
2511 4117 mt 2561 4167 L
2561 4117 mt 2511 4167 L
2520 4117 mt 2570 4167 L
2570 4117 mt 2520 4167 L
2520 4078 mt 2570 4128 L
2570 4078 mt 2520 4128 L
2576 4078 mt 2626 4128 L
2626 4078 mt 2576 4128 L
2576 4038 mt 2626 4088 L
2626 4038 mt 2576 4088 L
2668 4038 mt 2718 4088 L
2718 4038 mt 2668 4088 L
2668 3999 mt 2718 4049 L
2718 3999 mt 2668 4049 L
2917 3999 mt 2967 4049 L
2967 3999 mt 2917 4049 L
2917 3960 mt 2967 4010 L
2967 3960 mt 2917 4010 L
2931 3960 mt 2981 4010 L
2981 3960 mt 2931 4010 L
2931 3920 mt 2981 3970 L
2981 3920 mt 2931 3970 L
2985 3920 mt 3035 3970 L
3035 3920 mt 2985 3970 L
2985 3881 mt 3035 3931 L
3035 3881 mt 2985 3931 L
2986 3881 mt 3036 3931 L
3036 3881 mt 2986 3931 L
2986 3841 mt 3036 3891 L
3036 3841 mt 2986 3891 L
2994 3841 mt 3044 3891 L
3044 3841 mt 2994 3891 L
2994 3802 mt 3044 3852 L
3044 3802 mt 2994 3852 L
3006 3802 mt 3056 3852 L
3056 3802 mt 3006 3852 L
3006 3763 mt 3056 3813 L
3056 3763 mt 3006 3813 L
3015 3763 mt 3065 3813 L
3065 3763 mt 3015 3813 L
3015 3723 mt 3065 3773 L
3065 3723 mt 3015 3773 L
3020 3723 mt 3070 3773 L
3070 3723 mt 3020 3773 L
3020 3684 mt 3070 3734 L
3070 3684 mt 3020 3734 L
3024 3684 mt 3074 3734 L
3074 3684 mt 3024 3734 L
3024 3644 mt 3074 3694 L
3074 3644 mt 3024 3694 L
3084 3644 mt 3134 3694 L
3134 3644 mt 3084 3694 L
3084 3605 mt 3134 3655 L
3134 3605 mt 3084 3655 L
3098 3605 mt 3148 3655 L
3148 3605 mt 3098 3655 L
3098 3565 mt 3148 3615 L
3148 3565 mt 3098 3615 L
3102 3565 mt 3152 3615 L
3152 3565 mt 3102 3615 L
3102 3526 mt 3152 3576 L
3152 3526 mt 3102 3576 L
3180 3526 mt 3230 3576 L
3230 3526 mt 3180 3576 L
3180 3487 mt 3230 3537 L
3230 3487 mt 3180 3537 L
3193 3487 mt 3243 3537 L
3243 3487 mt 3193 3537 L
3193 3447 mt 3243 3497 L
3243 3447 mt 3193 3497 L
3198 3447 mt 3248 3497 L
3248 3447 mt 3198 3497 L
3198 3408 mt 3248 3458 L
3248 3408 mt 3198 3458 L
3198 3368 mt 3248 3418 L
3248 3368 mt 3198 3418 L
3225 3368 mt 3275 3418 L
3275 3368 mt 3225 3418 L
3225 3329 mt 3275 3379 L
3275 3329 mt 3225 3379 L
3256 3329 mt 3306 3379 L
3306 3329 mt 3256 3379 L
3256 3290 mt 3306 3340 L
3306 3290 mt 3256 3340 L
3283 3290 mt 3333 3340 L
3333 3290 mt 3283 3340 L
3283 3250 mt 3333 3300 L
3333 3250 mt 3283 3300 L
3290 3250 mt 3340 3300 L
3340 3250 mt 3290 3300 L
3290 3211 mt 3340 3261 L
3340 3211 mt 3290 3261 L
3298 3211 mt 3348 3261 L
3348 3211 mt 3298 3261 L
3298 3171 mt 3348 3221 L
3348 3171 mt 3298 3221 L
3316 3171 mt 3366 3221 L
3366 3171 mt 3316 3221 L
3316 3132 mt 3366 3182 L
3366 3132 mt 3316 3182 L
3329 3132 mt 3379 3182 L
3379 3132 mt 3329 3182 L
3329 3092 mt 3379 3142 L
3379 3092 mt 3329 3142 L
3365 3092 mt 3415 3142 L
3415 3092 mt 3365 3142 L
3365 3053 mt 3415 3103 L
3415 3053 mt 3365 3103 L
3371 3053 mt 3421 3103 L
3421 3053 mt 3371 3103 L
3371 3014 mt 3421 3064 L
3421 3014 mt 3371 3064 L
3382 3014 mt 3432 3064 L
3432 3014 mt 3382 3064 L
3382 2974 mt 3432 3024 L
3432 2974 mt 3382 3024 L
3382 2935 mt 3432 2985 L
3432 2935 mt 3382 2985 L
3418 2935 mt 3468 2985 L
3468 2935 mt 3418 2985 L
3418 2895 mt 3468 2945 L
3468 2895 mt 3418 2945 L
3438 2895 mt 3488 2945 L
3488 2895 mt 3438 2945 L
3438 2856 mt 3488 2906 L
3488 2856 mt 3438 2906 L
3475 2856 mt 3525 2906 L
3525 2856 mt 3475 2906 L
3475 2817 mt 3525 2867 L
3525 2817 mt 3475 2867 L
3487 2817 mt 3537 2867 L
3537 2817 mt 3487 2867 L
3487 2777 mt 3537 2827 L
3537 2777 mt 3487 2827 L
3498 2777 mt 3548 2827 L
3548 2777 mt 3498 2827 L
3498 2738 mt 3548 2788 L
3548 2738 mt 3498 2788 L
3503 2738 mt 3553 2788 L
3553 2738 mt 3503 2788 L
3503 2698 mt 3553 2748 L
3553 2698 mt 3503 2748 L
3506 2698 mt 3556 2748 L
3556 2698 mt 3506 2748 L
3506 2659 mt 3556 2709 L
3556 2659 mt 3506 2709 L
3525 2659 mt 3575 2709 L
3575 2659 mt 3525 2709 L
3525 2620 mt 3575 2670 L
3575 2620 mt 3525 2670 L
3527 2620 mt 3577 2670 L
3577 2620 mt 3527 2670 L
3527 2580 mt 3577 2630 L
3577 2580 mt 3527 2630 L
3529 2580 mt 3579 2630 L
3579 2580 mt 3529 2630 L
3529 2541 mt 3579 2591 L
3579 2541 mt 3529 2591 L
3550 2541 mt 3600 2591 L
3600 2541 mt 3550 2591 L
3550 2501 mt 3600 2551 L
3600 2501 mt 3550 2551 L
3550 2462 mt 3600 2512 L
3600 2462 mt 3550 2512 L
3551 2462 mt 3601 2512 L
3601 2462 mt 3551 2512 L
3551 2422 mt 3601 2472 L
3601 2422 mt 3551 2472 L
3552 2422 mt 3602 2472 L
3602 2422 mt 3552 2472 L
3552 2383 mt 3602 2433 L
3602 2383 mt 3552 2433 L
3552 2344 mt 3602 2394 L
3602 2344 mt 3552 2394 L
3578 2344 mt 3628 2394 L
3628 2344 mt 3578 2394 L
3578 2304 mt 3628 2354 L
3628 2304 mt 3578 2354 L
3602 2304 mt 3652 2354 L
3652 2304 mt 3602 2354 L
3602 2265 mt 3652 2315 L
3652 2265 mt 3602 2315 L
3651 2265 mt 3701 2315 L
3701 2265 mt 3651 2315 L
3651 2225 mt 3701 2275 L
3701 2225 mt 3651 2275 L
3653 2225 mt 3703 2275 L
3703 2225 mt 3653 2275 L
3653 2186 mt 3703 2236 L
3703 2186 mt 3653 2236 L
3677 2186 mt 3727 2236 L
3727 2186 mt 3677 2236 L
3677 2147 mt 3727 2197 L
3727 2147 mt 3677 2197 L
3698 2147 mt 3748 2197 L
3748 2147 mt 3698 2197 L
3698 2068 mt 3748 2118 L
3748 2068 mt 3698 2118 L
3702 2068 mt 3752 2118 L
3752 2068 mt 3702 2118 L
3702 2028 mt 3752 2078 L
3752 2028 mt 3702 2078 L
3729 2028 mt 3779 2078 L
3779 2028 mt 3729 2078 L
3729 1989 mt 3779 2039 L
3779 1989 mt 3729 2039 L
3730 1989 mt 3780 2039 L
3780 1989 mt 3730 2039 L
3730 1949 mt 3780 1999 L
3780 1949 mt 3730 1999 L
3752 1949 mt 3802 1999 L
3802 1949 mt 3752 1999 L
3752 1910 mt 3802 1960 L
3802 1910 mt 3752 1960 L
3756 1910 mt 3806 1960 L
3806 1910 mt 3756 1960 L
3756 1871 mt 3806 1921 L
3806 1871 mt 3756 1921 L
3774 1871 mt 3824 1921 L
3824 1871 mt 3774 1921 L
3774 1831 mt 3824 1881 L
3824 1831 mt 3774 1881 L
3777 1831 mt 3827 1881 L
3827 1831 mt 3777 1881 L
3777 1792 mt 3827 1842 L
3827 1792 mt 3777 1842 L
3785 1792 mt 3835 1842 L
3835 1792 mt 3785 1842 L
3785 1752 mt 3835 1802 L
3835 1752 mt 3785 1802 L
3799 1752 mt 3849 1802 L
3849 1752 mt 3799 1802 L
3799 1713 mt 3849 1763 L
3849 1713 mt 3799 1763 L
3830 1713 mt 3880 1763 L
3880 1713 mt 3830 1763 L
3830 1674 mt 3880 1724 L
3880 1674 mt 3830 1724 L
3830 1634 mt 3880 1684 L
3880 1634 mt 3830 1684 L
3832 1634 mt 3882 1684 L
3882 1634 mt 3832 1684 L
3832 1595 mt 3882 1645 L
3882 1595 mt 3832 1645 L
3852 1595 mt 3902 1645 L
3902 1595 mt 3852 1645 L
3852 1555 mt 3902 1605 L
3902 1555 mt 3852 1605 L
3855 1555 mt 3905 1605 L
3905 1555 mt 3855 1605 L
3855 1516 mt 3905 1566 L
3905 1516 mt 3855 1566 L
3857 1516 mt 3907 1566 L
3907 1516 mt 3857 1566 L
3857 1477 mt 3907 1527 L
3907 1477 mt 3857 1527 L
3872 1477 mt 3922 1527 L
3922 1477 mt 3872 1527 L
3872 1437 mt 3922 1487 L
3922 1437 mt 3872 1487 L
3874 1437 mt 3924 1487 L
3924 1437 mt 3874 1487 L
3874 1398 mt 3924 1448 L
3924 1398 mt 3874 1448 L
3892 1398 mt 3942 1448 L
3942 1398 mt 3892 1448 L
3892 1358 mt 3942 1408 L
3942 1358 mt 3892 1408 L
3940 1358 mt 3990 1408 L
3990 1358 mt 3940 1408 L
3940 1319 mt 3990 1369 L
3990 1319 mt 3940 1369 L
3941 1319 mt 3991 1369 L
3991 1319 mt 3941 1369 L
3941 1279 mt 3991 1329 L
3991 1279 mt 3941 1329 L
4016 1279 mt 4066 1329 L
4066 1279 mt 4016 1329 L
4016 1240 mt 4066 1290 L
4066 1240 mt 4016 1290 L
4046 1240 mt 4096 1290 L
4096 1240 mt 4046 1290 L
4046 1201 mt 4096 1251 L
4096 1201 mt 4046 1251 L
4062 1201 mt 4112 1251 L
4112 1201 mt 4062 1251 L
4062 1161 mt 4112 1211 L
4112 1161 mt 4062 1211 L
4084 1161 mt 4134 1211 L
4134 1161 mt 4084 1211 L
4084 1122 mt 4134 1172 L
4134 1122 mt 4084 1172 L
4105 1122 mt 4155 1172 L
4155 1122 mt 4105 1172 L
4105 1082 mt 4155 1132 L
4155 1082 mt 4105 1132 L
4131 1082 mt 4181 1132 L
4181 1082 mt 4131 1132 L
4131 1043 mt 4181 1093 L
4181 1043 mt 4131 1093 L
4135 1043 mt 4185 1093 L
4185 1043 mt 4135 1093 L
4135 1004 mt 4185 1054 L
4185 1004 mt 4135 1054 L
4143 1004 mt 4193 1054 L
4193 1004 mt 4143 1054 L
4143  964 mt 4193 1014 L
4193  964 mt 4143 1014 L
4207  964 mt 4257 1014 L
4257  964 mt 4207 1014 L
4207  925 mt 4257  975 L
4257  925 mt 4207  975 L
4209  925 mt 4259  975 L
4259  925 mt 4209  975 L
4209  885 mt 4259  935 L
4259  885 mt 4209  935 L
4211  885 mt 4261  935 L
4261  885 mt 4211  935 L
4211  846 mt 4261  896 L
4261  846 mt 4211  896 L
4256  846 mt 4306  896 L
4306  846 mt 4256  896 L
4256  806 mt 4306  856 L
4306  806 mt 4256  856 L
4289  806 mt 4339  856 L
4339  806 mt 4289  856 L
4289  767 mt 4339  817 L
4339  767 mt 4289  817 L
4315  767 mt 4365  817 L
4365  767 mt 4315  817 L
4315  728 mt 4365  778 L
4365  728 mt 4315  778 L
4331  728 mt 4381  778 L
4381  728 mt 4331  778 L
4331  688 mt 4381  738 L
4381  688 mt 4331  738 L
4381  688 mt 4431  738 L
4431  688 mt 4381  738 L
4381  649 mt 4431  699 L
4431  649 mt 4381  699 L
4450  649 mt 4500  699 L
4500  649 mt 4450  699 L
4450  609 mt 4500  659 L
4500  609 mt 4450  659 L
4493  609 mt 4543  659 L
4543  609 mt 4493  659 L
4493  570 mt 4543  620 L
4543  570 mt 4493  620 L
4592  570 mt 4642  620 L
4642  570 mt 4592  620 L
4592  531 mt 4642  581 L
4642  531 mt 4592  581 L
4619  531 mt 4669  581 L
4669  531 mt 4619  581 L
4619  491 mt 4669  541 L
4669  491 mt 4619  541 L
4681  491 mt 4731  541 L
4731  491 mt 4681  541 L
4681  452 mt 4731  502 L
4731  452 mt 4681  502 L
4713  452 mt 4763  502 L
4763  452 mt 4713  502 L
4713  412 mt 4763  462 L
4763  412 mt 4713  462 L
4758  412 mt 4808  462 L
4808  412 mt 4758  462 L
4758  373 mt 4808  423 L
4808  373 mt 4758  423 L
4764  373 mt 4814  423 L
4814  373 mt 4764  423 L
4764  334 mt 4814  384 L
4814  334 mt 4764  384 L
gs 792 359 4726 3903 rc
/c10 { 1.000000 0.000000 0.000000 sr} bdef
c10
0 -39 30 0 0 -39 51 0 0 -40 17 0 0 -39 18 0 
0 -40 6 0 0 -39 21 0 0 -39 20 0 0 -40 99 0 
0 -39 13 0 0 -40 1 0 0 -39 7 0 0 -39 52 0 
0 -40 6 0 0 -39 2 0 0 -79 30 0 0 -40 4 0 
0 -39 4 0 0 -39 3 0 0 -40 8 0 0 -39 22 0 
0 -40 2 0 0 -39 3 0 0 -39 7 0 0 -40 52 0 
0 -39 14 0 0 -40 10 0 0 -39 20 0 0 -40 29 0 
0 -39 3 0 0 -39 1 0 0 -40 1 0 0 -39 21 0 
0 -40 3 0 0 -39 3 0 0 -39 5 0 0 -40 19 0 
0 -39 0 -40 1 0 0 -39 4 0 0 -39 18 0 0 -40 
1 0 0 -39 3 0 0 -40 26 0 0 -39 28 0 0 -40 
0 -39 25 0 0 -118 26 0 0 -40 1 0 0 -78 0 -40 
26 0 0 -39 3 0 0 -40 24 0 0 -39 0 -40 2 0 
0 -39 19 0 0 -39 57 0 0 -40 2 0 0 -39 0 -40 
2 0 0 -39 23 0 0 -39 3 0 0 -40 18 0 0 -39 
3 0 0 -40 7 0 0 -39 2 0 0 -39 14 0 0 -40 
10 0 0 -39 20 0 0 -40 15 0 0 -39 12 0 0 -40 
18 0 0 -39 7 0 0 -39 3 0 0 -40 10 0 0 -39 
2 0 0 -40 15 0 0 -39 3 0 0 -39 1 0 0 -40 
16 0 0 -39 13 0 0 -79 2 0 0 -40 11 0 0 -39 
24 0 0 -39 40 0 0 -40 12 0 0 -39 20 0 0 -40 
5 0 0 -39 18 0 0 -39 59 0 0 -40 24 0 0 -39 
4 0 0 -40 12 0 0 -39 94 0 0 -40 2925 4261 183 MP stroke
gr

c10
2889 4261 mt 2961 4261 L
2925 4225 mt 2925 4297 L
2889 4221 mt 2961 4221 L
2925 4185 mt 2925 4257 L
2983 4221 mt 3055 4221 L
3019 4185 mt 3019 4257 L
2983 4182 mt 3055 4182 L
3019 4146 mt 3019 4218 L
2995 4182 mt 3067 4182 L
3031 4146 mt 3031 4218 L
2995 4142 mt 3067 4142 L
3031 4106 mt 3031 4178 L
2999 4142 mt 3071 4142 L
3035 4106 mt 3035 4178 L
2999 4103 mt 3071 4103 L
3035 4067 mt 3035 4139 L
3023 4103 mt 3095 4103 L
3059 4067 mt 3059 4139 L
3023 4063 mt 3095 4063 L
3059 4027 mt 3059 4099 L
3082 4063 mt 3154 4063 L
3118 4027 mt 3118 4099 L
3082 4024 mt 3154 4024 L
3118 3988 mt 3118 4060 L
3100 4024 mt 3172 4024 L
3136 3988 mt 3136 4060 L
3100 3985 mt 3172 3985 L
3136 3949 mt 3136 4021 L
3105 3985 mt 3177 3985 L
3141 3949 mt 3141 4021 L
3105 3945 mt 3177 3945 L
3141 3909 mt 3141 3981 L
3125 3945 mt 3197 3945 L
3161 3909 mt 3161 3981 L
3125 3906 mt 3197 3906 L
3161 3870 mt 3161 3942 L
3137 3906 mt 3209 3906 L
3173 3870 mt 3173 3942 L
3137 3866 mt 3209 3866 L
3173 3830 mt 3173 3902 L
3177 3866 mt 3249 3866 L
3213 3830 mt 3213 3902 L
3177 3827 mt 3249 3827 L
3213 3791 mt 3213 3863 L
3201 3827 mt 3273 3827 L
3237 3791 mt 3237 3863 L
3201 3788 mt 3273 3788 L
3237 3752 mt 3237 3824 L
3212 3788 mt 3284 3788 L
3248 3752 mt 3248 3824 L
3212 3748 mt 3284 3748 L
3248 3712 mt 3248 3784 L
3214 3748 mt 3286 3748 L
3250 3712 mt 3250 3784 L
3214 3669 mt 3286 3669 L
3250 3633 mt 3250 3705 L
3227 3669 mt 3299 3669 L
3263 3633 mt 3263 3705 L
3227 3630 mt 3299 3630 L
3263 3594 mt 3263 3666 L
3243 3630 mt 3315 3630 L
3279 3594 mt 3279 3666 L
3243 3590 mt 3315 3590 L
3279 3554 mt 3279 3626 L
3244 3590 mt 3316 3590 L
3280 3554 mt 3280 3626 L
3244 3551 mt 3316 3551 L
3280 3515 mt 3280 3587 L
3247 3551 mt 3319 3551 L
3283 3515 mt 3283 3587 L
3247 3512 mt 3319 3512 L
3283 3476 mt 3283 3548 L
3262 3512 mt 3334 3512 L
3298 3476 mt 3298 3548 L
3262 3472 mt 3334 3472 L
3298 3436 mt 3298 3508 L
3264 3472 mt 3336 3472 L
3300 3436 mt 3300 3508 L
3264 3433 mt 3336 3433 L
3300 3397 mt 3300 3469 L
3274 3433 mt 3346 3433 L
3310 3397 mt 3310 3469 L
3274 3393 mt 3346 3393 L
3310 3357 mt 3310 3429 L
3277 3393 mt 3349 3393 L
3313 3357 mt 3313 3429 L
3277 3354 mt 3349 3354 L
3313 3318 mt 3313 3390 L
3284 3354 mt 3356 3354 L
3320 3318 mt 3320 3390 L
3284 3315 mt 3356 3315 L
3320 3279 mt 3320 3351 L
3302 3315 mt 3374 3315 L
3338 3279 mt 3338 3351 L
3302 3275 mt 3374 3275 L
3338 3239 mt 3338 3311 L
3314 3275 mt 3386 3275 L
3350 3239 mt 3350 3311 L
3314 3236 mt 3386 3236 L
3350 3200 mt 3350 3272 L
3329 3236 mt 3401 3236 L
3365 3200 mt 3365 3272 L
3329 3196 mt 3401 3196 L
3365 3160 mt 3365 3232 L
3349 3196 mt 3421 3196 L
3385 3160 mt 3385 3232 L
3349 3157 mt 3421 3157 L
3385 3121 mt 3385 3193 L
3359 3157 mt 3431 3157 L
3395 3121 mt 3395 3193 L
3359 3117 mt 3431 3117 L
3395 3081 mt 3395 3153 L
3373 3117 mt 3445 3117 L
3409 3081 mt 3409 3153 L
3373 3078 mt 3445 3078 L
3409 3042 mt 3409 3114 L
3375 3078 mt 3447 3078 L
3411 3042 mt 3411 3114 L
3375 3039 mt 3447 3039 L
3411 3003 mt 3411 3075 L
3382 3039 mt 3454 3039 L
3418 3003 mt 3418 3075 L
3382 2999 mt 3454 2999 L
3418 2963 mt 3418 3035 L
3385 2999 mt 3457 2999 L
3421 2963 mt 3421 3035 L
3385 2960 mt 3457 2960 L
3421 2924 mt 3421 2996 L
3403 2960 mt 3475 2960 L
3439 2924 mt 3439 2996 L
3403 2920 mt 3475 2920 L
3439 2884 mt 3439 2956 L
3406 2920 mt 3478 2920 L
3442 2884 mt 3442 2956 L
3406 2881 mt 3478 2881 L
3442 2845 mt 3442 2917 L
3429 2881 mt 3501 2881 L
3465 2845 mt 3465 2917 L
3429 2842 mt 3501 2842 L
3465 2806 mt 3465 2878 L
3431 2842 mt 3503 2842 L
3467 2806 mt 3467 2878 L
3431 2802 mt 3503 2802 L
3467 2766 mt 3467 2838 L
3431 2763 mt 3503 2763 L
3467 2727 mt 3467 2799 L
3433 2763 mt 3505 2763 L
3469 2727 mt 3469 2799 L
3433 2723 mt 3505 2723 L
3469 2687 mt 3469 2759 L
3490 2723 mt 3562 2723 L
3526 2687 mt 3526 2759 L
3490 2684 mt 3562 2684 L
3526 2648 mt 3526 2720 L
3509 2684 mt 3581 2684 L
3545 2648 mt 3545 2720 L
3509 2645 mt 3581 2645 L
3545 2609 mt 3545 2681 L
3511 2645 mt 3583 2645 L
3547 2609 mt 3547 2681 L
3511 2605 mt 3583 2605 L
3547 2569 mt 3547 2641 L
3511 2566 mt 3583 2566 L
3547 2530 mt 3547 2602 L
3535 2566 mt 3607 2566 L
3571 2530 mt 3571 2602 L
3535 2526 mt 3607 2526 L
3571 2490 mt 3571 2562 L
3538 2526 mt 3610 2526 L
3574 2490 mt 3574 2562 L
3538 2487 mt 3610 2487 L
3574 2451 mt 3574 2523 L
3564 2487 mt 3636 2487 L
3600 2451 mt 3600 2523 L
3564 2447 mt 3636 2447 L
3600 2411 mt 3600 2483 L
3564 2369 mt 3636 2369 L
3600 2333 mt 3600 2405 L
3565 2369 mt 3637 2369 L
3601 2333 mt 3601 2405 L
3565 2329 mt 3637 2329 L
3601 2293 mt 3601 2365 L
3591 2329 mt 3663 2329 L
3627 2293 mt 3627 2365 L
3591 2211 mt 3663 2211 L
3627 2175 mt 3627 2247 L
3616 2211 mt 3688 2211 L
3652 2175 mt 3652 2247 L
3616 2172 mt 3688 2172 L
3652 2136 mt 3652 2208 L
3616 2132 mt 3688 2132 L
3652 2096 mt 3652 2168 L
3644 2132 mt 3716 2132 L
3680 2096 mt 3680 2168 L
3644 2093 mt 3716 2093 L
3680 2057 mt 3680 2129 L
3670 2093 mt 3742 2093 L
3706 2057 mt 3706 2129 L
3670 2053 mt 3742 2053 L
3706 2017 mt 3706 2089 L
3673 2053 mt 3745 2053 L
3709 2017 mt 3709 2089 L
3673 2014 mt 3745 2014 L
3709 1978 mt 3709 2050 L
3674 2014 mt 3746 2014 L
3710 1978 mt 3710 2050 L
3674 1974 mt 3746 1974 L
3710 1938 mt 3710 2010 L
3692 1974 mt 3764 1974 L
3728 1938 mt 3728 2010 L
3692 1935 mt 3764 1935 L
3728 1899 mt 3728 1971 L
3696 1935 mt 3768 1935 L
3732 1899 mt 3732 1971 L
3696 1896 mt 3768 1896 L
3732 1860 mt 3732 1932 L
3697 1896 mt 3769 1896 L
3733 1860 mt 3733 1932 L
3697 1856 mt 3769 1856 L
3733 1820 mt 3733 1892 L
3697 1817 mt 3769 1817 L
3733 1781 mt 3733 1853 L
3716 1817 mt 3788 1817 L
3752 1781 mt 3752 1853 L
3716 1777 mt 3788 1777 L
3752 1741 mt 3752 1813 L
3721 1777 mt 3793 1777 L
3757 1741 mt 3757 1813 L
3721 1738 mt 3793 1738 L
3757 1702 mt 3757 1774 L
3724 1738 mt 3796 1738 L
3760 1702 mt 3760 1774 L
3724 1699 mt 3796 1699 L
3760 1663 mt 3760 1735 L
3727 1699 mt 3799 1699 L
3763 1663 mt 3763 1735 L
3727 1659 mt 3799 1659 L
3763 1623 mt 3763 1695 L
3748 1659 mt 3820 1659 L
3784 1623 mt 3784 1695 L
3748 1620 mt 3820 1620 L
3784 1584 mt 3784 1656 L
3749 1620 mt 3821 1620 L
3785 1584 mt 3785 1656 L
3749 1580 mt 3821 1580 L
3785 1544 mt 3785 1616 L
3750 1580 mt 3822 1580 L
3786 1544 mt 3786 1616 L
3750 1541 mt 3822 1541 L
3786 1505 mt 3786 1577 L
3753 1541 mt 3825 1541 L
3789 1505 mt 3789 1577 L
3753 1502 mt 3825 1502 L
3789 1466 mt 3789 1538 L
3782 1502 mt 3854 1502 L
3818 1466 mt 3818 1538 L
3782 1462 mt 3854 1462 L
3818 1426 mt 3818 1498 L
3802 1462 mt 3874 1462 L
3838 1426 mt 3838 1498 L
3802 1423 mt 3874 1423 L
3838 1387 mt 3838 1459 L
3812 1423 mt 3884 1423 L
3848 1387 mt 3848 1459 L
3812 1383 mt 3884 1383 L
3848 1347 mt 3848 1419 L
3826 1383 mt 3898 1383 L
3862 1347 mt 3862 1419 L
3826 1344 mt 3898 1344 L
3862 1308 mt 3862 1380 L
3878 1344 mt 3950 1344 L
3914 1308 mt 3914 1380 L
3878 1304 mt 3950 1304 L
3914 1268 mt 3914 1340 L
3885 1304 mt 3957 1304 L
3921 1268 mt 3921 1340 L
3885 1265 mt 3957 1265 L
3921 1229 mt 3921 1301 L
3888 1265 mt 3960 1265 L
3924 1229 mt 3924 1301 L
3888 1226 mt 3960 1226 L
3924 1190 mt 3924 1262 L
3890 1226 mt 3962 1226 L
3926 1190 mt 3926 1262 L
3890 1186 mt 3962 1186 L
3926 1150 mt 3926 1222 L
3912 1186 mt 3984 1186 L
3948 1150 mt 3948 1222 L
3912 1147 mt 3984 1147 L
3948 1111 mt 3948 1183 L
3920 1147 mt 3992 1147 L
3956 1111 mt 3956 1183 L
3920 1107 mt 3992 1107 L
3956 1071 mt 3956 1143 L
3923 1107 mt 3995 1107 L
3959 1071 mt 3959 1143 L
3923 1068 mt 3995 1068 L
3959 1032 mt 3959 1104 L
3927 1068 mt 3999 1068 L
3963 1032 mt 3963 1104 L
3927 1029 mt 3999 1029 L
3963  993 mt 3963 1065 L
3931 1029 mt 4003 1029 L
3967  993 mt 3967 1065 L
3931  989 mt 4003  989 L
3967  953 mt 3967 1025 L
3961  989 mt 4033  989 L
3997  953 mt 3997 1025 L
3961  910 mt 4033  910 L
3997  874 mt 3997  946 L
3963  910 mt 4035  910 L
3999  874 mt 3999  946 L
3963  871 mt 4035  871 L
3999  835 mt 3999  907 L
3969  871 mt 4041  871 L
4005  835 mt 4005  907 L
3969  831 mt 4041  831 L
4005  795 mt 4005  867 L
4021  831 mt 4093  831 L
4057  795 mt 4057  867 L
4021  792 mt 4093  792 L
4057  756 mt 4057  828 L
4028  792 mt 4100  792 L
4064  756 mt 4064  828 L
4028  753 mt 4100  753 L
4064  717 mt 4064  789 L
4029  753 mt 4101  753 L
4065  717 mt 4065  789 L
4029  713 mt 4101  713 L
4065  677 mt 4065  749 L
4042  713 mt 4114  713 L
4078  677 mt 4078  749 L
4042  674 mt 4114  674 L
4078  638 mt 4078  710 L
4141  674 mt 4213  674 L
4177  638 mt 4177  710 L
4141  634 mt 4213  634 L
4177  598 mt 4177  670 L
4161  634 mt 4233  634 L
4197  598 mt 4197  670 L
4161  595 mt 4233  595 L
4197  559 mt 4197  631 L
4182  595 mt 4254  595 L
4218  559 mt 4218  631 L
4182  556 mt 4254  556 L
4218  520 mt 4218  592 L
4188  556 mt 4260  556 L
4224  520 mt 4224  592 L
4188  516 mt 4260  516 L
4224  480 mt 4224  552 L
4206  516 mt 4278  516 L
4242  480 mt 4242  552 L
4206  477 mt 4278  477 L
4242  441 mt 4242  513 L
4223  477 mt 4295  477 L
4259  441 mt 4259  513 L
4223  437 mt 4295  437 L
4259  401 mt 4259  473 L
4274  437 mt 4346  437 L
4310  401 mt 4310  473 L
4274  398 mt 4346  398 L
4310  362 mt 4310  434 L
4304  398 mt 4376  398 L
4340  362 mt 4340  434 L
4304  359 mt 4376  359 L
4340  323 mt 4340  395 L
gs 792 359 4726 3903 rc
gr

0 sg
%%IncludeResource: font Helvetica
/Helvetica /ISOLatin1Encoding 120 FMSR

 775 4304 mt 
( ) s
5501  401 mt 
( ) s
1 sg
0 743 2278 0 0 -743 924 1264 4 MP
PP
-2278 0 0 743 2278 0 0 -743 924 1264 5 MP stroke
4 w
DO
SO
6 w
0 sg
 924 1264 mt 3202 1264 L
 924  521 mt 3202  521 L
 924 1264 mt  924  521 L
3202 1264 mt 3202  521 L
 924 1264 mt 3202 1264 L
 924 1264 mt  924  521 L
 924 1264 mt 3202 1264 L
 924  521 mt 3202  521 L
 924 1264 mt  924  521 L
3202 1264 mt 3202  521 L
%%IncludeResource: font Helvetica
/Helvetica /ISOLatin1Encoding 168 FMSR

1392  719 mt 
(Block-wise Assignment) s
gs 924 521 2279 744 rc
c8
360 0 995 658 2 MP stroke
gr

c8
0 sg
1392  953 mt 
(Sequential OP) s
gs 924 521 2279 744 rc
c9
360 0 995 892 2 MP stroke
gs 1102 819 147 147 rc
1150  867 mt 1200  917 L
1200  867 mt 1150  917 L
gr

gr

c9
0 sg
1392 1187 mt 
(Novel OP) s
gs 924 521 2279 744 rc
c10
360 0 995 1126 2 MP stroke
gs 1102 1053 147 147 rc
1139 1126 mt 1211 1126 L
1175 1090 mt 1175 1162 L
gr

gr

c10

end %%Color Dict

eplot
%%EndObject

epage
end

showpage

%%Trailer
%%EOF
