%!PS-Adobe-3.0 EPSF-3.0
%%Creator: MATLAB, The MathWorks, Inc. Version 8.1.0.604 (R2013a). Operating System: Darwin 13.4.0 Darwin Kernel Version 13.4.0: Sun Aug 17 19:50:11 PDT 2014; root:xnu-2422.115.4~1/RELEASE_X86_64 x86_64.
%%Title: /Users/le/Work/project3/Figures/Results/0925/w20/comparison_gopU016_UT3.eps
%%CreationDate: 09/25/2014  22:42:47
%%DocumentNeededFonts: Helvetica
%%DocumentProcessColors: Cyan Magenta Yellow Black
%%LanguageLevel: 2
%%Pages: 1
%%BoundingBox:    51   209   559   582
%%EndComments

%%BeginProlog
% MathWorks dictionary
/MathWorks 160 dict begin
% definition operators
/bdef {bind def} bind def
/ldef {load def} bind def
/xdef {exch def} bdef
/xstore {exch store} bdef
% operator abbreviations
/c  /clip ldef
/cc /concat ldef
/cp /closepath ldef
/gr /grestore ldef
/gs /gsave ldef
/mt /moveto ldef
/np /newpath ldef
/cm /currentmatrix ldef
/sm /setmatrix ldef
/rm /rmoveto ldef
/rl /rlineto ldef
/s {show newpath} bdef
/sc {setcmykcolor} bdef
/sr /setrgbcolor ldef
/sg /setgray ldef
/w /setlinewidth ldef
/j /setlinejoin ldef
/cap /setlinecap ldef
/rc {rectclip} bdef
/rf {rectfill} bdef
% page state control
/pgsv () def
/bpage {/pgsv save def} bdef
/epage {pgsv restore} bdef
/bplot /gsave ldef
/eplot {stroke grestore} bdef
% orientation switch
/portraitMode 0 def /landscapeMode 1 def /rotateMode 2 def
% coordinate system mappings
/dpi2point 0 def
% font control
/FontSize 0 def
/FMS {/FontSize xstore findfont [FontSize 0 0 FontSize neg 0 0]
  makefont setfont} bdef
/reencode {exch dup where {pop load} {pop StandardEncoding} ifelse
  exch dup 3 1 roll findfont dup length dict begin
  { 1 index /FID ne {def}{pop pop} ifelse } forall
  /Encoding exch def currentdict end definefont pop} bdef
/isroman {findfont /CharStrings get /Agrave known} bdef
/FMSR {3 1 roll 1 index dup isroman {reencode} {pop pop} ifelse
  exch FMS} bdef
/csm {1 dpi2point div -1 dpi2point div scale neg translate
 dup landscapeMode eq {pop -90 rotate}
  {rotateMode eq {90 rotate} if} ifelse} bdef
% line types: solid, dotted, dashed, dotdash
/SO { [] 0 setdash } bdef
/DO { [.5 dpi2point mul 4 dpi2point mul] 0 setdash } bdef
/DA { [6 dpi2point mul] 0 setdash } bdef
/DD { [.5 dpi2point mul 4 dpi2point mul 6 dpi2point mul 4
  dpi2point mul] 0 setdash } bdef
% macros for lines and objects
/L {lineto stroke} bdef
/MP {3 1 roll moveto 1 sub {rlineto} repeat} bdef
/AP {{rlineto} repeat} bdef
/PDlw -1 def
/W {/PDlw currentlinewidth def setlinewidth} def
/PP {closepath eofill} bdef
/DP {closepath stroke} bdef
/MR {4 -2 roll moveto dup  0 exch rlineto exch 0 rlineto
  neg 0 exch rlineto closepath} bdef
/FR {MR stroke} bdef
/PR {MR fill} bdef
/L1i {{currentfile picstr readhexstring pop} image} bdef
/tMatrix matrix def
/MakeOval {newpath tMatrix currentmatrix pop translate scale
0 0 1 0 360 arc tMatrix setmatrix} bdef
/FO {MakeOval stroke} bdef
/PO {MakeOval fill} bdef
/PD {currentlinewidth 2 div 0 360 arc fill
   PDlw -1 eq not {PDlw w /PDlw -1 def} if} def
/FA {newpath tMatrix currentmatrix pop translate scale
  0 0 1 5 -2 roll arc tMatrix setmatrix stroke} bdef
/PA {newpath tMatrix currentmatrix pop	translate 0 0 moveto scale
  0 0 1 5 -2 roll arc closepath tMatrix setmatrix fill} bdef
/FAn {newpath tMatrix currentmatrix pop translate scale
  0 0 1 5 -2 roll arcn tMatrix setmatrix stroke} bdef
/PAn {newpath tMatrix currentmatrix pop translate 0 0 moveto scale
  0 0 1 5 -2 roll arcn closepath tMatrix setmatrix fill} bdef
/vradius 0 def /hradius 0 def /lry 0 def
/lrx 0 def /uly 0 def /ulx 0 def /rad 0 def
/MRR {/vradius xdef /hradius xdef /lry xdef /lrx xdef /uly xdef
  /ulx xdef newpath tMatrix currentmatrix pop ulx hradius add uly
  vradius add translate hradius vradius scale 0 0 1 180 270 arc 
  tMatrix setmatrix lrx hradius sub uly vradius add translate
  hradius vradius scale 0 0 1 270 360 arc tMatrix setmatrix
  lrx hradius sub lry vradius sub translate hradius vradius scale
  0 0 1 0 90 arc tMatrix setmatrix ulx hradius add lry vradius sub
  translate hradius vradius scale 0 0 1 90 180 arc tMatrix setmatrix
  closepath} bdef
/FRR {MRR stroke } bdef
/PRR {MRR fill } bdef
/MlrRR {/lry xdef /lrx xdef /uly xdef /ulx xdef /rad lry uly sub 2 div def
  newpath tMatrix currentmatrix pop ulx rad add uly rad add translate
  rad rad scale 0 0 1 90 270 arc tMatrix setmatrix lrx rad sub lry rad
  sub translate rad rad scale 0 0 1 270 90 arc tMatrix setmatrix
  closepath} bdef
/FlrRR {MlrRR stroke } bdef
/PlrRR {MlrRR fill } bdef
/MtbRR {/lry xdef /lrx xdef /uly xdef /ulx xdef /rad lrx ulx sub 2 div def
  newpath tMatrix currentmatrix pop ulx rad add uly rad add translate
  rad rad scale 0 0 1 180 360 arc tMatrix setmatrix lrx rad sub lry rad
  sub translate rad rad scale 0 0 1 0 180 arc tMatrix setmatrix
  closepath} bdef
/FtbRR {MtbRR stroke } bdef
/PtbRR {MtbRR fill } bdef
/stri 6 array def /dtri 6 array def
/smat 6 array def /dmat 6 array def
/tmat1 6 array def /tmat2 6 array def /dif 3 array def
/asub {/ind2 exch def /ind1 exch def dup dup
  ind1 get exch ind2 get sub exch } bdef
/tri_to_matrix {
  2 0 asub 3 1 asub 4 0 asub 5 1 asub
  dup 0 get exch 1 get 7 -1 roll astore } bdef
/compute_transform {
  dmat dtri tri_to_matrix tmat1 invertmatrix 
  smat stri tri_to_matrix tmat2 concatmatrix } bdef
/ds {stri astore pop} bdef
/dt {dtri astore pop} bdef
/db {2 copy /cols xdef /rows xdef mul dup 3 mul string
  currentfile 
  3 index 0 eq {/ASCIIHexDecode filter}
  {/ASCII85Decode filter 3 index 2 eq {/RunLengthDecode filter} if }
  ifelse exch readstring pop
  dup 0 3 index getinterval /rbmap xdef
  dup 2 index dup getinterval /gbmap xdef
  1 index dup 2 mul exch getinterval /bbmap xdef pop pop}bdef
/it {gs np dtri aload pop moveto lineto lineto cp c
  cols rows 8 compute_transform 
  rbmap gbmap bbmap true 3 colorimage gr}bdef
/il {newpath moveto lineto stroke}bdef
currentdict end def
%%EndProlog

%%BeginSetup
MathWorks begin

0 cap

end
%%EndSetup

%%Page: 1 1
%%BeginPageSetup
%%PageBoundingBox:    51   209   559   582
MathWorks begin
bpage
%%EndPageSetup

%%BeginObject: obj1
bplot

/dpi2point 12 def
portraitMode 0612 6984 csm

    0     0  6096  4476 rc
86 dict begin %Colortable dictionary
/c0 { 0.000000 0.000000 0.000000 sr} bdef
/c1 { 1.000000 1.000000 1.000000 sr} bdef
/c2 { 0.900000 0.000000 0.000000 sr} bdef
/c3 { 0.000000 0.820000 0.000000 sr} bdef
/c4 { 0.000000 0.000000 0.800000 sr} bdef
/c5 { 0.910000 0.820000 0.320000 sr} bdef
/c6 { 1.000000 0.260000 0.820000 sr} bdef
/c7 { 0.000000 0.820000 0.820000 sr} bdef
c0
1 j
1 sg
   0    0 6097 4477 rf
6 w
0 3648 4629 0 0 -3648 864 3959 4 MP
PP
-4629 0 0 3648 4629 0 0 -3648 864 3959 5 MP stroke
4 w
DO
0 sg
 864 3959 mt  864  311 L
 864  311 mt  864  311 L
1789 3959 mt 1789  311 L
1789  311 mt 1789  311 L
2715 3959 mt 2715  311 L
2715  311 mt 2715  311 L
3641 3959 mt 3641  311 L
3641  311 mt 3641  311 L
4567 3959 mt 4567  311 L
4567  311 mt 4567  311 L
5493 3959 mt 5493  311 L
5493  311 mt 5493  311 L
 864 3959 mt 5493 3959 L
5493 3959 mt 5493 3959 L
 864 3331 mt 5493 3331 L
5493 3331 mt 5493 3331 L
 864 2702 mt 5493 2702 L
5493 2702 mt 5493 2702 L
 864 2073 mt 5493 2073 L
5493 2073 mt 5493 2073 L
 864 1444 mt 5493 1444 L
5493 1444 mt 5493 1444 L
 864  815 mt 5493  815 L
5493  815 mt 5493  815 L
SO
6 w
 864 3959 mt 5493 3959 L
 864  311 mt 5493  311 L
 864 3959 mt  864  311 L
5493 3959 mt 5493  311 L
 864 3959 mt 5493 3959 L
 864 3959 mt  864  311 L
 864 3959 mt  864 3913 L
 864  311 mt  864  358 L
%%IncludeResource: font Helvetica
/Helvetica /ISOLatin1Encoding 168 FMSR

 818 4150 mt 
(0) s
1789 3959 mt 1789 3913 L
1789  311 mt 1789  358 L
1696 4150 mt 
(20) s
2715 3959 mt 2715 3913 L
2715  311 mt 2715  358 L
2622 4150 mt 
(40) s
3641 3959 mt 3641 3913 L
3641  311 mt 3641  358 L
3548 4150 mt 
(60) s
4567 3959 mt 4567 3913 L
4567  311 mt 4567  358 L
4474 4150 mt 
(80) s
5493 3959 mt 5493 3913 L
5493  311 mt 5493  358 L
5353 4150 mt 
(100) s
 864 3959 mt  910 3959 L
5493 3959 mt 5446 3959 L
 643 4021 mt 
(12) s
 864 3331 mt  910 3331 L
5493 3331 mt 5446 3331 L
 503 3393 mt 
(12.5) s
 864 2702 mt  910 2702 L
5493 2702 mt 5446 2702 L
 643 2764 mt 
(13) s
 864 2073 mt  910 2073 L
5493 2073 mt 5446 2073 L
 503 2135 mt 
(13.5) s
 864 1444 mt  910 1444 L
5493 1444 mt 5446 1444 L
 643 1506 mt 
(14) s
 864  815 mt  910  815 L
5493  815 mt 5446  815 L
 503  877 mt 
(14.5) s
 864 3959 mt 5493 3959 L
 864  311 mt 5493  311 L
 864 3959 mt  864  311 L
5493 3959 mt 5493  311 L
2990 4328 mt 
(GOP) s
 411 2542 mt  -90 rotate
(PSNR [dB]) s
90 rotate
1699  179 mt 
(Comparison of UT3 delivered Utilization) s
%%IncludeResource: font Helvetica
/Helvetica /ISOLatin1Encoding 120 FMSR

 847 4002 mt 
( ) s
5477  353 mt 
( ) s
gs 864 311 4630 3649 rc
DA
/c8 { 0.000000 0.000000 1.000000 sr} bdef
c8
47 -308 46 -1069 46 1235 47 21 46 506 46 -547 47 -318 46 -290 
46 1023 46 -273 47 -61 46 238 46 -572 47 149 46 83 46 -564 
46 1113 47 -1206 46 1055 46 -460 47 -479 46 -353 46 120 46 1191 
47 -757 46 -270 46 712 47 -621 46 373 46 733 46 73 47 -378 
46 -666 46 131 47 64 46 1082 46 -1146 47 1164 46 -994 46 -811 
46 832 47 704 46 -895 46 416 47 -525 46 525 46 -101 46 -672 
47 136 46 1098 46 -877 47 107 46 187 46 -359 46 -246 47 523 
46 263 46 -809 47 290 46 1102 46 -350 46 -1112 47 939 46 -492 
46 569 47 -236 46 -530 46 345 47 -502 46 846 46 230 46 -1008 
47 -161 46 -117 46 1075 47 154 46 -517 46 363 46 -426 47 -107 
46 375 46 -247 47 1237 46 -1451 46 277 46 -321 47 741 46 -358 
46 261 47 -557 46 596 46 -321 46 -41 47 143 46 140 46 -875 
47 -141 46 815 46 -984 910 3284 100 MP stroke
gr

c8
DA
gs 837 1135 4730 2474 rc
SO
  36   36  910 3284 FO
  36   36  956 2300 FO
  36   36 1002 3115 FO
  36   36 1049 2974 FO
  36   36 1095 2099 FO
  36   36 1141 2239 FO
  36   36 1188 2382 FO
  36   36 1234 2341 FO
  36   36 1280 2020 FO
  36   36 1326 2616 FO
  36   36 1373 2059 FO
  36   36 1419 2320 FO
  36   36 1465 1962 FO
  36   36 1512 2703 FO
  36   36 1558 2382 FO
  36   36 1604 2659 FO
  36   36 1650 1208 FO
  36   36 1697 2445 FO
  36   36 1743 2198 FO
  36   36 1789 2573 FO
  36   36 1836 2466 FO
  36   36 1882 2040 FO
  36   36 1928 2403 FO
  36   36 1974 1886 FO
  36   36 2021 2040 FO
  36   36 2067 3115 FO
  36   36 2113 2998 FO
  36   36 2160 2837 FO
  36   36 2206 1829 FO
  36   36 2252 2059 FO
  36   36 2298 2905 FO
  36   36 2345 2403 FO
  36   36 2391 2748 FO
  36   36 2437 2218 FO
  36   36 2484 1982 FO
  36   36 2530 2551 FO
  36   36 2576 2059 FO
  36   36 2623 2998 FO
  36   36 2669 1886 FO
  36   36 2715 1536 FO
  36   36 2761 2638 FO
  36   36 2808 2928 FO
  36   36 2854 2119 FO
  36   36 2900 2382 FO
  36   36 2947 2905 FO
  36   36 2993 2659 FO
  36   36 3039 2300 FO
  36   36 3085 2487 FO
  36   36 3132 2594 FO
  36   36 3178 1717 FO
  36   36 3224 2815 FO
  36   36 3271 2951 FO
  36   36 3317 2279 FO
  36   36 3363 2178 FO
  36   36 3409 2703 FO
  36   36 3456 2178 FO
  36   36 3502 2594 FO
  36   36 3548 1699 FO
  36   36 3595 2403 FO
  36   36 3641 3235 FO
  36   36 3687 2424 FO
  36   36 3733 1430 FO
  36   36 3780 2594 FO
  36   36 3826 1448 FO
  36   36 3872 2530 FO
  36   36 3919 2594 FO
  36   36 3965 2725 FO
  36   36 4011 2059 FO
  36   36 4058 1681 FO
  36   36 4104 1754 FO
  36   36 4150 2487 FO
  36   36 4196 2860 FO
  36   36 4243 2239 FO
  36   36 4289 2951 FO
  36   36 4335 2681 FO
  36   36 4382 1924 FO
  36   36 4428 3115 FO
  36   36 4474 3235 FO
  36   36 4520 2882 FO
  36   36 4567 2403 FO
  36   36 4613 1943 FO
  36   36 4659 2998 FO
  36   36 4706 1792 FO
  36   36 4752 2905 FO
  36   36 4798 2341 FO
  36   36 4844 2424 FO
  36   36 4891 2573 FO
  36   36 4937 2001 FO
  36   36 4983 2239 FO
  36   36 5030 2178 FO
  36   36 5076 1905 FO
  36   36 5122 2928 FO
  36   36 5168 2638 FO
  36   36 5215 2320 FO
  36   36 5261 1773 FO
  36   36 5307 2279 FO
  36   36 5354 2300 FO
  36   36 5400 3535 FO
  36   36 5446 2466 FO
  36   36 5493 2158 FO
DA
gr

gs 864 311 4630 3649 rc
SO
/c9 { 0.000000 0.498039 0.000000 sr} bdef
c9
47 -312 46 79 46 369 47 -729 46 639 46 -742 47 -34 46 320 
46 98 46 -98 47 426 46 -123 46 0 47 15 46 -334 46 288 
46 -174 47 -33 46 451 46 -649 47 -50 46 33 46 -84 46 396 
47 457 46 -819 46 731 47 -151 46 -631 46 752 46 -403 47 -82 
46 -182 46 -207 47 324 46 0 46 -237 47 432 46 234 46 -266 
46 79 47 32 46 140 46 0 47 -880 46 399 46 -204 46 497 
47 48 46 -545 46 529 47 277 46 -168 46 -621 46 401 47 -114 
46 442 46 -328 47 -613 46 740 46 -408 46 199 47 -336 46 482 
46 -64 47 -418 46 51 46 525 47 -272 46 241 46 93 46 -587 
47 334 46 49 46 -98 47 -371 46 -53 46 457 46 -766 47 733 
46 49 46 -282 47 51 46 -85 46 365 46 -365 47 -122 46 173 
46 298 47 -298 46 409 46 -291 46 -326 47 -53 46 -36 46 -109 
47 389 46 -52 46 -485 910 1829 100 MP stroke
gr

c9
SO
gs 837 383 4730 1520 rc
24 W
910 1829 PD
24 W
956 1344 PD
24 W
1002 1292 PD
24 W
1049 1681 PD
24 W
1095 1572 PD
24 W
1141 1536 PD
24 W
1188 1483 PD
24 W
1234 1157 PD
24 W
1280 866 PD
24 W
1326 1275 PD
24 W
1373 977 PD
24 W
1419 1275 PD
24 W
1465 1448 PD
24 W
1512 1326 PD
24 W
1558 961 PD
24 W
1604 1326 PD
24 W
1650 1241 PD
24 W
1697 1292 PD
24 W
1743 1010 PD
24 W
1789 1059 PD
24 W
1836 1792 PD
24 W
1882 1026 PD
24 W
1928 1483 PD
24 W
1974 1430 PD
24 W
2021 1059 PD
24 W
2067 961 PD
24 W
2113 1010 PD
24 W
2160 1344 PD
24 W
2206 757 PD
24 W
2252 850 PD
24 W
2298 1091 PD
24 W
2345 819 PD
24 W
2391 1344 PD
24 W
2437 1395 PD
24 W
2484 977 PD
24 W
2530 913 PD
24 W
2576 1395 PD
24 W
2623 1059 PD
24 W
2669 1258 PD
24 W
2715 850 PD
24 W
2761 1590 PD
24 W
2808 977 PD
24 W
2854 649 PD
24 W
2900 1091 PD
24 W
2947 977 PD
24 W
2993 1378 PD
24 W
3039 757 PD
24 W
3085 589 PD
24 W
3132 866 PD
24 W
3178 1395 PD
24 W
3224 850 PD
24 W
3271 898 PD
24 W
3317 1395 PD
24 W
3363 1191 PD
24 W
3409 1590 PD
24 W
3456 710 PD
24 W
3502 710 PD
24 W
3548 850 PD
24 W
3595 882 PD
24 W
3641 961 PD
24 W
3687 695 PD
24 W
3733 929 PD
24 W
3780 1361 PD
24 W
3826 1124 PD
24 W
3872 1124 PD
24 W
3919 1448 PD
24 W
3965 1241 PD
24 W
4011 1059 PD
24 W
4058 977 PD
24 W
4104 574 PD
24 W
4150 1326 PD
24 W
4196 695 PD
24 W
4243 544 PD
24 W
4289 1275 PD
24 W
4335 456 PD
24 W
4382 913 PD
24 W
4428 1309 PD
24 W
4474 1225 PD
24 W
4520 1258 PD
24 W
4567 1208 PD
24 W
4613 559 PD
24 W
4659 1010 PD
24 W
4706 977 PD
24 W
4752 803 PD
24 W
4798 1091 PD
24 W
4844 757 PD
24 W
4891 772 PD
24 W
4937 772 PD
24 W
4983 649 PD
24 W
5030 1075 PD
24 W
5076 977 PD
24 W
5122 1075 PD
24 W
5168 1395 PD
24 W
5215 1361 PD
24 W
5261 619 PD
24 W
5307 1258 PD
24 W
5354 529 PD
24 W
5400 898 PD
24 W
5446 977 PD
24 W
5493 665 PD
gr

gs 864 311 4630 3649 rc
DA
/c10 { 1.000000 0.000000 0.000000 sr} bdef
c10
47 198 46 -339 46 203 47 -172 46 338 46 -531 47 49 46 16 
46 97 46 125 47 -353 46 567 46 -183 47 0 46 -46 46 -16 
46 78 47 -188 46 16 46 110 47 -174 46 251 46 -140 46 262 
47 -91 46 -77 46 -287 47 17 46 223 46 230 46 104 47 -476 
46 32 46 16 47 413 46 -210 46 -267 47 236 46 -109 46 365 
46 -287 47 302 46 -287 46 31 47 -300 46 128 46 79 46 -126 
47 -16 46 204 46 272 47 -444 46 188 46 -285 46 -49 47 98 
46 507 46 -256 47 -172 46 279 46 30 46 -214 47 -191 46 284 
46 166 47 -151 46 -331 46 81 47 63 46 156 46 92 46 -457 
47 146 46 -32 46 -33 47 160 46 -225 46 349 46 -108 47 124 
46 -203 46 -228 47 275 46 232 46 -658 46 489 47 -256 46 410 
46 -233 47 -112 46 175 46 62 46 -285 47 -33 46 -16 46 -150 
47 231 46 112 46 -428 910 1326 100 MP stroke
gr

c10
DA
gs 837 397 4730 1003 rc
SO
 885 1301 mt  935 1351 L
 935 1301 mt  885 1351 L
 931  873 mt  981  923 L
 981  873 mt  931  923 L
 977  985 mt 1027 1035 L
1027  985 mt  977 1035 L
1024 1216 mt 1074 1266 L
1074 1216 mt 1024 1266 L
1070 1066 mt 1120 1116 L
1120 1066 mt 1070 1116 L
1116 1050 mt 1166 1100 L
1166 1050 mt 1116 1100 L
1163 1017 mt 1213 1067 L
1213 1017 mt 1163 1067 L
1209  732 mt 1259  782 L
1259  732 mt 1209  782 L
1255  794 mt 1305  844 L
1305  794 mt 1255  844 L
1301  969 mt 1351 1019 L
1351  969 mt 1301 1019 L
1348  857 mt 1398  907 L
1398  857 mt 1348  907 L
1394  624 mt 1444  674 L
1444  624 mt 1394  674 L
1440 1034 mt 1490 1084 L
1490 1034 mt 1440 1084 L
1487  778 mt 1537  828 L
1537  778 mt 1487  828 L
1533 1267 mt 1583 1317 L
1583 1267 mt 1533 1317 L
1579  609 mt 1629  659 L
1629  609 mt 1579  659 L
1625  841 mt 1675  891 L
1675  841 mt 1625  891 L
1672 1116 mt 1722 1166 L
1722 1116 mt 1672 1166 L
1718  888 mt 1768  938 L
1768  888 mt 1718  938 L
1764  685 mt 1814  735 L
1814  685 mt 1764  735 L
1811  809 mt 1861  859 L
1861  809 mt 1811  859 L
1857  701 mt 1907  751 L
1907  701 mt 1857  751 L
1903 1050 mt 1953 1100 L
1953 1050 mt 1903 1100 L
1949  825 mt 1999  875 L
1999  825 mt 1949  875 L
1996  985 mt 2046 1035 L
2046  985 mt 1996 1035 L
2042  952 mt 2092 1002 L
2092  952 mt 2042 1002 L
2088  920 mt 2138  970 L
2138  920 mt 2088  970 L
2135 1066 mt 2185 1116 L
2185 1066 mt 2135 1116 L
2181  609 mt 2231  659 L
2231  609 mt 2181  659 L
2227  701 mt 2277  751 L
2277  701 mt 2227  751 L
2273  857 mt 2323  907 L
2323  857 mt 2273  907 L
2320  920 mt 2370  970 L
2370  920 mt 2320  970 L
2366 1001 mt 2416 1051 L
2416 1001 mt 2366 1051 L
2412  670 mt 2462  720 L
2462  670 mt 2412  720 L
2459  519 mt 2509  569 L
2509  519 mt 2459  569 L
2505  685 mt 2555  735 L
2555  685 mt 2505  735 L
2551  969 mt 2601 1019 L
2601  969 mt 2551 1019 L
2598  778 mt 2648  828 L
2648  778 mt 2598  828 L
2644  564 mt 2694  614 L
2694  564 mt 2644  614 L
2690  594 mt 2740  644 L
2740  594 mt 2690  644 L
2736  873 mt 2786  923 L
2786  873 mt 2736  923 L
2783  701 mt 2833  751 L
2833  701 mt 2783  751 L
2829  445 mt 2879  495 L
2879  445 mt 2829  495 L
2875  952 mt 2925 1002 L
2925  952 mt 2875 1002 L
2922 1050 mt 2972 1100 L
2972 1050 mt 2922 1100 L
2968 1001 mt 3018 1051 L
3018 1001 mt 2968 1051 L
3014  716 mt 3064  766 L
3064  716 mt 3014  766 L
3060  904 mt 3110  954 L
3110  904 mt 3060  954 L
3107  460 mt 3157  510 L
3157  460 mt 3107  510 L
3153  732 mt 3203  782 L
3203  732 mt 3153  782 L
3199  936 mt 3249  986 L
3249  936 mt 3199  986 L
3246  920 mt 3296  970 L
3296  920 mt 3246  970 L
3292  794 mt 3342  844 L
3342  794 mt 3292  844 L
3338  873 mt 3388  923 L
3388  873 mt 3338  923 L
3384 1001 mt 3434 1051 L
3434 1001 mt 3384 1051 L
3431  701 mt 3481  751 L
3481  701 mt 3431  751 L
3477  732 mt 3527  782 L
3527  732 mt 3477  782 L
3523  445 mt 3573  495 L
3573  445 mt 3523  495 L
3570  747 mt 3620  797 L
3620  747 mt 3570  797 L
3616  460 mt 3666  510 L
3666  460 mt 3616  510 L
3662  825 mt 3712  875 L
3712  825 mt 3662  875 L
3708  716 mt 3758  766 L
3758  716 mt 3708  766 L
3755  952 mt 3805 1002 L
3805  952 mt 3755 1002 L
3801  685 mt 3851  735 L
3851  685 mt 3801  735 L
3847  475 mt 3897  525 L
3897  475 mt 3847  525 L
3894  888 mt 3944  938 L
3944  888 mt 3894  938 L
3940  904 mt 3990  954 L
3990  904 mt 3940  954 L
3986  936 mt 4036  986 L
4036  936 mt 3986  986 L
4033  460 mt 4083  510 L
4083  460 mt 4033  510 L
4079  564 mt 4129  614 L
4129  564 mt 4079  614 L
4125  794 mt 4175  844 L
4175  794 mt 4125  844 L
4171 1017 mt 4221 1067 L
4221 1017 mt 4171 1067 L
4218 1034 mt 4268 1084 L
4268 1034 mt 4218 1084 L
4264  747 mt 4314  797 L
4314  747 mt 4264  797 L
4310  670 mt 4360  720 L
4360  670 mt 4310  720 L
4357  579 mt 4407  629 L
4407  579 mt 4357  629 L
4403  841 mt 4453  891 L
4453  841 mt 4403  891 L
4449  701 mt 4499  751 L
4499  701 mt 4449  751 L
4495  952 mt 4545 1002 L
4545  952 mt 4495 1002 L
4542  778 mt 4592  828 L
4592  778 mt 4542  828 L
4588  888 mt 4638  938 L
4638  888 mt 4588  938 L
4634  904 mt 4684  954 L
4684  904 mt 4634  954 L
4681  716 mt 4731  766 L
4731  716 mt 4681  766 L
4727  794 mt 4777  844 L
4777  794 mt 4727  844 L
4773  778 mt 4823  828 L
4823  778 mt 4773  828 L
4819  732 mt 4869  782 L
4869  732 mt 4819  782 L
4866  732 mt 4916  782 L
4916  732 mt 4866  782 L
4912  549 mt 4962  599 L
4962  549 mt 4912  599 L
4958 1116 mt 5008 1166 L
5008 1116 mt 4958 1166 L
5005  763 mt 5055  813 L
5055  763 mt 5005  813 L
5051  888 mt 5101  938 L
5101  888 mt 5051  938 L
5097  985 mt 5147 1035 L
5147  985 mt 5097 1035 L
5143 1001 mt 5193 1051 L
5193 1001 mt 5143 1051 L
5190 1050 mt 5240 1100 L
5240 1050 mt 5190 1100 L
5236  519 mt 5286  569 L
5286  519 mt 5236  569 L
5282  857 mt 5332  907 L
5332  857 mt 5282  907 L
5329  685 mt 5379  735 L
5379  685 mt 5329  735 L
5375  888 mt 5425  938 L
5425  888 mt 5375  938 L
5421  549 mt 5471  599 L
5471  549 mt 5421  599 L
5468  747 mt 5518  797 L
5518  747 mt 5468  797 L
DA
gr

gs 864 311 4630 3649 rc
SO
gr

SO
1 sg
0 623 1799 0 0 -623 1321 3863 4 MP
PP
-1799 0 0 623 1799 0 0 -623 1321 3863 5 MP stroke
4 w
DO
SO
6 w
0 sg
1321 3863 mt 3120 3863 L
1321 3240 mt 3120 3240 L
1321 3863 mt 1321 3240 L
3120 3863 mt 3120 3240 L
1321 3863 mt 3120 3863 L
1321 3863 mt 1321 3240 L
1321 3863 mt 3120 3863 L
1321 3240 mt 3120 3240 L
1321 3863 mt 1321 3240 L
3120 3863 mt 3120 3240 L
1789 3402 mt 
(Block-wise Assignment) s
gs 1321 3240 1800 624 rc
DA
c8
360 0 1393 3359 2 MP stroke
SO
gs 1500 3286 147 147 rc
  36   36 1573 3359 FO
gr

gr

c8
0 sg
1789 3594 mt 
(Sequential OP) s
gs 1321 3240 1800 624 rc
DA
/c11 { 0.000000 0.500000 0.000000 sr} bdef
c11
360 0 1393 3551 2 MP stroke
SO
gs 1500 3478 147 147 rc
24 W
1573 3551 PD
gr

gr

c11
0 sg
1789 3786 mt 
(Novel OP) s
gs 1321 3240 1800 624 rc
DA
c10
360 0 1393 3743 2 MP stroke
1573 3743 PD
SO
gr

c10

end %%Color Dict

eplot
%%EndObject

epage
end

showpage

%%Trailer
%%EOF
