%!PS-Adobe-3.0 EPSF-3.0
%%Creator: MATLAB, The MathWorks, Inc. Version 8.1.0.604 (R2013a). Operating System: Darwin 13.4.0 Darwin Kernel Version 13.4.0: Sun Aug 17 19:50:11 PDT 2014; root:xnu-2422.115.4~1/RELEASE_X86_64 x86_64.
%%Title: /Users/le/Work/project3/Figures/Results/0925/w20/comparison_jitter016_u2_r0.eps
%%CreationDate: 09/26/2014  13:56:21
%%DocumentNeededFonts: Helvetica
%%DocumentProcessColors: Cyan Magenta Yellow Black
%%LanguageLevel: 2
%%Pages: 1
%%BoundingBox:    51   196   559   595
%%EndComments

%%BeginProlog
% MathWorks dictionary
/MathWorks 160 dict begin
% definition operators
/bdef {bind def} bind def
/ldef {load def} bind def
/xdef {exch def} bdef
/xstore {exch store} bdef
% operator abbreviations
/c  /clip ldef
/cc /concat ldef
/cp /closepath ldef
/gr /grestore ldef
/gs /gsave ldef
/mt /moveto ldef
/np /newpath ldef
/cm /currentmatrix ldef
/sm /setmatrix ldef
/rm /rmoveto ldef
/rl /rlineto ldef
/s {show newpath} bdef
/sc {setcmykcolor} bdef
/sr /setrgbcolor ldef
/sg /setgray ldef
/w /setlinewidth ldef
/j /setlinejoin ldef
/cap /setlinecap ldef
/rc {rectclip} bdef
/rf {rectfill} bdef
% page state control
/pgsv () def
/bpage {/pgsv save def} bdef
/epage {pgsv restore} bdef
/bplot /gsave ldef
/eplot {stroke grestore} bdef
% orientation switch
/portraitMode 0 def /landscapeMode 1 def /rotateMode 2 def
% coordinate system mappings
/dpi2point 0 def
% font control
/FontSize 0 def
/FMS {/FontSize xstore findfont [FontSize 0 0 FontSize neg 0 0]
  makefont setfont} bdef
/reencode {exch dup where {pop load} {pop StandardEncoding} ifelse
  exch dup 3 1 roll findfont dup length dict begin
  { 1 index /FID ne {def}{pop pop} ifelse } forall
  /Encoding exch def currentdict end definefont pop} bdef
/isroman {findfont /CharStrings get /Agrave known} bdef
/FMSR {3 1 roll 1 index dup isroman {reencode} {pop pop} ifelse
  exch FMS} bdef
/csm {1 dpi2point div -1 dpi2point div scale neg translate
 dup landscapeMode eq {pop -90 rotate}
  {rotateMode eq {90 rotate} if} ifelse} bdef
% line types: solid, dotted, dashed, dotdash
/SO { [] 0 setdash } bdef
/DO { [.5 dpi2point mul 4 dpi2point mul] 0 setdash } bdef
/DA { [6 dpi2point mul] 0 setdash } bdef
/DD { [.5 dpi2point mul 4 dpi2point mul 6 dpi2point mul 4
  dpi2point mul] 0 setdash } bdef
% macros for lines and objects
/L {lineto stroke} bdef
/MP {3 1 roll moveto 1 sub {rlineto} repeat} bdef
/AP {{rlineto} repeat} bdef
/PDlw -1 def
/W {/PDlw currentlinewidth def setlinewidth} def
/PP {closepath eofill} bdef
/DP {closepath stroke} bdef
/MR {4 -2 roll moveto dup  0 exch rlineto exch 0 rlineto
  neg 0 exch rlineto closepath} bdef
/FR {MR stroke} bdef
/PR {MR fill} bdef
/L1i {{currentfile picstr readhexstring pop} image} bdef
/tMatrix matrix def
/MakeOval {newpath tMatrix currentmatrix pop translate scale
0 0 1 0 360 arc tMatrix setmatrix} bdef
/FO {MakeOval stroke} bdef
/PO {MakeOval fill} bdef
/PD {currentlinewidth 2 div 0 360 arc fill
   PDlw -1 eq not {PDlw w /PDlw -1 def} if} def
/FA {newpath tMatrix currentmatrix pop translate scale
  0 0 1 5 -2 roll arc tMatrix setmatrix stroke} bdef
/PA {newpath tMatrix currentmatrix pop	translate 0 0 moveto scale
  0 0 1 5 -2 roll arc closepath tMatrix setmatrix fill} bdef
/FAn {newpath tMatrix currentmatrix pop translate scale
  0 0 1 5 -2 roll arcn tMatrix setmatrix stroke} bdef
/PAn {newpath tMatrix currentmatrix pop translate 0 0 moveto scale
  0 0 1 5 -2 roll arcn closepath tMatrix setmatrix fill} bdef
/vradius 0 def /hradius 0 def /lry 0 def
/lrx 0 def /uly 0 def /ulx 0 def /rad 0 def
/MRR {/vradius xdef /hradius xdef /lry xdef /lrx xdef /uly xdef
  /ulx xdef newpath tMatrix currentmatrix pop ulx hradius add uly
  vradius add translate hradius vradius scale 0 0 1 180 270 arc 
  tMatrix setmatrix lrx hradius sub uly vradius add translate
  hradius vradius scale 0 0 1 270 360 arc tMatrix setmatrix
  lrx hradius sub lry vradius sub translate hradius vradius scale
  0 0 1 0 90 arc tMatrix setmatrix ulx hradius add lry vradius sub
  translate hradius vradius scale 0 0 1 90 180 arc tMatrix setmatrix
  closepath} bdef
/FRR {MRR stroke } bdef
/PRR {MRR fill } bdef
/MlrRR {/lry xdef /lrx xdef /uly xdef /ulx xdef /rad lry uly sub 2 div def
  newpath tMatrix currentmatrix pop ulx rad add uly rad add translate
  rad rad scale 0 0 1 90 270 arc tMatrix setmatrix lrx rad sub lry rad
  sub translate rad rad scale 0 0 1 270 90 arc tMatrix setmatrix
  closepath} bdef
/FlrRR {MlrRR stroke } bdef
/PlrRR {MlrRR fill } bdef
/MtbRR {/lry xdef /lrx xdef /uly xdef /ulx xdef /rad lrx ulx sub 2 div def
  newpath tMatrix currentmatrix pop ulx rad add uly rad add translate
  rad rad scale 0 0 1 180 360 arc tMatrix setmatrix lrx rad sub lry rad
  sub translate rad rad scale 0 0 1 0 180 arc tMatrix setmatrix
  closepath} bdef
/FtbRR {MtbRR stroke } bdef
/PtbRR {MtbRR fill } bdef
/stri 6 array def /dtri 6 array def
/smat 6 array def /dmat 6 array def
/tmat1 6 array def /tmat2 6 array def /dif 3 array def
/asub {/ind2 exch def /ind1 exch def dup dup
  ind1 get exch ind2 get sub exch } bdef
/tri_to_matrix {
  2 0 asub 3 1 asub 4 0 asub 5 1 asub
  dup 0 get exch 1 get 7 -1 roll astore } bdef
/compute_transform {
  dmat dtri tri_to_matrix tmat1 invertmatrix 
  smat stri tri_to_matrix tmat2 concatmatrix } bdef
/ds {stri astore pop} bdef
/dt {dtri astore pop} bdef
/db {2 copy /cols xdef /rows xdef mul dup 3 mul string
  currentfile 
  3 index 0 eq {/ASCIIHexDecode filter}
  {/ASCII85Decode filter 3 index 2 eq {/RunLengthDecode filter} if }
  ifelse exch readstring pop
  dup 0 3 index getinterval /rbmap xdef
  dup 2 index dup getinterval /gbmap xdef
  1 index dup 2 mul exch getinterval /bbmap xdef pop pop}bdef
/it {gs np dtri aload pop moveto lineto lineto cp c
  cols rows 8 compute_transform 
  rbmap gbmap bbmap true 3 colorimage gr}bdef
/il {newpath moveto lineto stroke}bdef
currentdict end def
%%EndProlog

%%BeginSetup
MathWorks begin

0 cap

end
%%EndSetup

%%Page: 1 1
%%BeginPageSetup
%%PageBoundingBox:    51   196   559   595
MathWorks begin
bpage
%%EndPageSetup

%%BeginObject: obj1
bplot

/dpi2point 12 def
portraitMode 0612 7140 csm

    0     0  6096  4788 rc
85 dict begin %Colortable dictionary
/c0 { 0.000000 0.000000 0.000000 sr} bdef
/c1 { 1.000000 1.000000 1.000000 sr} bdef
/c2 { 0.900000 0.000000 0.000000 sr} bdef
/c3 { 0.000000 0.820000 0.000000 sr} bdef
/c4 { 0.000000 0.000000 0.800000 sr} bdef
/c5 { 0.910000 0.820000 0.320000 sr} bdef
/c6 { 1.000000 0.260000 0.820000 sr} bdef
/c7 { 0.000000 0.820000 0.820000 sr} bdef
c0
1 j
1 sg
   0    0 6097 4789 rf
6 w
0 3902 4725 0 0 -3902 792 4261 4 MP
PP
-4725 0 0 3902 4725 0 0 -3902 792 4261 5 MP stroke
4 w
DO
0 sg
 792 4261 mt  792  359 L
 792  359 mt  792  359 L
1382 4261 mt 1382  359 L
1382  359 mt 1382  359 L
1973 4261 mt 1973  359 L
1973  359 mt 1973  359 L
2563 4261 mt 2563  359 L
2563  359 mt 2563  359 L
3154 4261 mt 3154  359 L
3154  359 mt 3154  359 L
3745 4261 mt 3745  359 L
3745  359 mt 3745  359 L
4335 4261 mt 4335  359 L
4335  359 mt 4335  359 L
4926 4261 mt 4926  359 L
4926  359 mt 4926  359 L
5517 4261 mt 5517  359 L
5517  359 mt 5517  359 L
 792 4261 mt 5517 4261 L
5517 4261 mt 5517 4261 L
 792 3870 mt 5517 3870 L
5517 3870 mt 5517 3870 L
 792 3480 mt 5517 3480 L
5517 3480 mt 5517 3480 L
 792 3090 mt 5517 3090 L
5517 3090 mt 5517 3090 L
 792 2700 mt 5517 2700 L
5517 2700 mt 5517 2700 L
 792 2310 mt 5517 2310 L
5517 2310 mt 5517 2310 L
 792 1919 mt 5517 1919 L
5517 1919 mt 5517 1919 L
 792 1529 mt 5517 1529 L
5517 1529 mt 5517 1529 L
 792 1139 mt 5517 1139 L
5517 1139 mt 5517 1139 L
 792  749 mt 5517  749 L
5517  749 mt 5517  749 L
 792  359 mt 5517  359 L
5517  359 mt 5517  359 L
SO
6 w
 792 4261 mt 5517 4261 L
 792  359 mt 5517  359 L
 792 4261 mt  792  359 L
5517 4261 mt 5517  359 L
 792 4261 mt 5517 4261 L
 792 4261 mt  792  359 L
 792 4261 mt  792 4213 L
 792  359 mt  792  406 L
%%IncludeResource: font Helvetica
/Helvetica /ISOLatin1Encoding 120 FMSR

 639 4406 mt 
(-0.8) s
1382 4261 mt 1382 4213 L
1382  359 mt 1382  406 L
1229 4406 mt 
(-0.6) s
1973 4261 mt 1973 4213 L
1973  359 mt 1973  406 L
1820 4406 mt 
(-0.4) s
2563 4261 mt 2563 4213 L
2563  359 mt 2563  406 L
2410 4406 mt 
(-0.2) s
3154 4261 mt 3154 4213 L
3154  359 mt 3154  406 L
3121 4406 mt 
(0) s
3745 4261 mt 3745 4213 L
3745  359 mt 3745  406 L
3662 4406 mt 
(0.2) s
4335 4261 mt 4335 4213 L
4335  359 mt 4335  406 L
4252 4406 mt 
(0.4) s
4926 4261 mt 4926 4213 L
4926  359 mt 4926  406 L
4843 4406 mt 
(0.6) s
5517 4261 mt 5517 4213 L
5517  359 mt 5517  406 L
5434 4406 mt 
(0.8) s
 792 4261 mt  839 4261 L
5517 4261 mt 5469 4261 L
 691 4305 mt 
(0) s
 792 3870 mt  839 3870 L
5517 3870 mt 5469 3870 L
 591 3914 mt 
(0.1) s
 792 3480 mt  839 3480 L
5517 3480 mt 5469 3480 L
 591 3524 mt 
(0.2) s
 792 3090 mt  839 3090 L
5517 3090 mt 5469 3090 L
 591 3134 mt 
(0.3) s
 792 2700 mt  839 2700 L
5517 2700 mt 5469 2700 L
 591 2744 mt 
(0.4) s
 792 2310 mt  839 2310 L
5517 2310 mt 5469 2310 L
 591 2354 mt 
(0.5) s
 792 1919 mt  839 1919 L
5517 1919 mt 5469 1919 L
 591 1963 mt 
(0.6) s
 792 1529 mt  839 1529 L
5517 1529 mt 5469 1529 L
 591 1573 mt 
(0.7) s
 792 1139 mt  839 1139 L
5517 1139 mt 5469 1139 L
 591 1183 mt 
(0.8) s
 792  749 mt  839  749 L
5517  749 mt 5469  749 L
 591  793 mt 
(0.9) s
 792  359 mt  839  359 L
5517  359 mt 5469  359 L
 691  403 mt 
(1) s
 792 4261 mt 5517 4261 L
 792  359 mt 5517  359 L
 792 4261 mt  792  359 L
5517 4261 mt 5517  359 L
gs 792 359 4726 3903 rc
/c8 { 0.000000 0.000000 1.000000 sr} bdef
c8
0 -39 104 0 0 -3823 104 0 0 -40 3050 4261 6 MP stroke
gr

c8
0 sg
%%IncludeResource: font Helvetica
/Helvetica /ISOLatin1Encoding 168 FMSR

3111 4584 mt 
(x) s
 461 2458 mt  -90 rotate
(F\(x\)) s
90 rotate
 895  254 mt 
(Empirical CDF of utilization jitter between GOP for UT2, ru\
n0) s
gs 792 359 4726 3903 rc
/c9 { 0.000000 0.500000 0.000000 sr} bdef
c9
0 -39 81 0 0 -39 293 0 0 -40 111 0 0 -79 134 0 
0 -39 61 0 0 -39 78 0 0 -40 68 0 0 -39 37 0 
0 -40 89 0 0 -39 101 0 0 -39 32 0 0 -40 66 0 
0 -39 67 0 0 -40 34 0 0 -39 16 0 0 -118 50 0 
0 -40 74 0 0 -39 7 0 0 -40 6 0 0 -39 25 0 
0 -79 5 0 0 -39 11 0 0 -40 114 0 0 -39 13 0 
0 -40 8 0 0 -39 4 0 0 -79 4 0 0 -79 3 0 
0 -39 4 0 0 -39 3 0 0 -79 132 0 0 -40 3 0 
0 -39 4 0 0 -39 2 0 0 -79 2 0 0 -40 4 0 
0 -118 4 0 0 -79 151 0 0 -236 143 0 0 -40 8 0 
0 -39 4 0 0 -79 2 0 0 -118 2 0 0 -79 2 0 
0 -39 4 0 0 -40 130 0 0 -39 7 0 0 -40 7 0 
0 -118 24 0 0 -39 117 0 0 -79 5 0 0 -40 16 0 
0 -39 38 0 0 -39 80 0 0 -40 7 0 0 -39 14 0 
0 -40 15 0 0 -39 8 0 0 -39 16 0 0 -40 34 0 
0 -39 50 0 0 -40 43 0 0 -79 20 0 0 -78 142 0 
0 -40 23 0 0 -39 24 0 0 -40 103 0 0 -39 194 0 
0 -39 187 0 0 -40 20 0 0 -39 176 0 0 -40 88 0 
0 -39 439 0 0 -40 962 4261 148 MP stroke
gr

c9
gs 889 286 4240 4049 rc
 937 4236 mt  987 4286 L
 987 4236 mt  937 4286 L
 937 4196 mt  987 4246 L
 987 4196 mt  937 4246 L
1376 4196 mt 1426 4246 L
1426 4196 mt 1376 4246 L
1376 4157 mt 1426 4207 L
1426 4157 mt 1376 4207 L
1464 4157 mt 1514 4207 L
1514 4157 mt 1464 4207 L
1464 4117 mt 1514 4167 L
1514 4117 mt 1464 4167 L
1640 4117 mt 1690 4167 L
1690 4117 mt 1640 4167 L
1640 4078 mt 1690 4128 L
1690 4078 mt 1640 4128 L
1660 4078 mt 1710 4128 L
1710 4078 mt 1660 4128 L
1660 4038 mt 1710 4088 L
1710 4038 mt 1660 4088 L
1847 4038 mt 1897 4088 L
1897 4038 mt 1847 4088 L
1847 3999 mt 1897 4049 L
1897 3999 mt 1847 4049 L
2041 3999 mt 2091 4049 L
2091 3999 mt 2041 4049 L
2041 3960 mt 2091 4010 L
2091 3960 mt 2041 4010 L
2144 3960 mt 2194 4010 L
2194 3960 mt 2144 4010 L
2144 3920 mt 2194 3970 L
2194 3920 mt 2144 3970 L
2168 3920 mt 2218 3970 L
2218 3920 mt 2168 3970 L
2168 3881 mt 2218 3931 L
2218 3881 mt 2168 3931 L
2191 3881 mt 2241 3931 L
2241 3881 mt 2191 3931 L
2191 3841 mt 2241 3891 L
2241 3841 mt 2191 3891 L
2333 3841 mt 2383 3891 L
2383 3841 mt 2333 3891 L
2333 3763 mt 2383 3813 L
2383 3763 mt 2333 3813 L
2353 3763 mt 2403 3813 L
2403 3763 mt 2353 3813 L
2353 3684 mt 2403 3734 L
2403 3684 mt 2353 3734 L
2396 3684 mt 2446 3734 L
2446 3684 mt 2396 3734 L
2396 3644 mt 2446 3694 L
2446 3644 mt 2396 3694 L
2446 3644 mt 2496 3694 L
2496 3644 mt 2446 3694 L
2446 3605 mt 2496 3655 L
2496 3605 mt 2446 3655 L
2480 3605 mt 2530 3655 L
2530 3605 mt 2480 3655 L
2480 3565 mt 2530 3615 L
2530 3565 mt 2480 3615 L
2496 3565 mt 2546 3615 L
2546 3565 mt 2496 3615 L
2496 3526 mt 2546 3576 L
2546 3526 mt 2496 3576 L
2504 3526 mt 2554 3576 L
2554 3526 mt 2504 3576 L
2504 3487 mt 2554 3537 L
2554 3487 mt 2504 3537 L
2519 3487 mt 2569 3537 L
2569 3487 mt 2519 3537 L
2519 3447 mt 2569 3497 L
2569 3447 mt 2519 3497 L
2533 3447 mt 2583 3497 L
2583 3447 mt 2533 3497 L
2533 3408 mt 2583 3458 L
2583 3408 mt 2533 3458 L
2540 3408 mt 2590 3458 L
2590 3408 mt 2540 3458 L
2540 3368 mt 2590 3418 L
2590 3368 mt 2540 3418 L
2620 3368 mt 2670 3418 L
2670 3368 mt 2620 3418 L
2620 3329 mt 2670 3379 L
2670 3329 mt 2620 3379 L
2658 3329 mt 2708 3379 L
2708 3329 mt 2658 3379 L
2658 3290 mt 2708 3340 L
2708 3290 mt 2658 3340 L
2674 3290 mt 2724 3340 L
2724 3290 mt 2674 3340 L
2674 3250 mt 2724 3300 L
2724 3250 mt 2674 3300 L
2679 3250 mt 2729 3300 L
2729 3250 mt 2679 3300 L
2679 3171 mt 2729 3221 L
2729 3171 mt 2679 3221 L
2796 3171 mt 2846 3221 L
2846 3171 mt 2796 3221 L
2796 3132 mt 2846 3182 L
2846 3132 mt 2796 3182 L
2820 3132 mt 2870 3182 L
2870 3132 mt 2820 3182 L
2820 3014 mt 2870 3064 L
2870 3014 mt 2820 3064 L
2827 3014 mt 2877 3064 L
2877 3014 mt 2827 3064 L
2827 2974 mt 2877 3024 L
2877 2974 mt 2827 3024 L
2834 2974 mt 2884 3024 L
2884 2974 mt 2834 3024 L
2834 2935 mt 2884 2985 L
2884 2935 mt 2834 2985 L
2964 2935 mt 3014 2985 L
3014 2935 mt 2964 2985 L
2964 2895 mt 3014 2945 L
3014 2895 mt 2964 2945 L
2968 2895 mt 3018 2945 L
3018 2895 mt 2968 2945 L
2968 2856 mt 3018 2906 L
3018 2856 mt 2968 2906 L
2970 2856 mt 3020 2906 L
3020 2856 mt 2970 2906 L
2970 2777 mt 3020 2827 L
3020 2777 mt 2970 2827 L
2972 2777 mt 3022 2827 L
3022 2777 mt 2972 2827 L
2972 2659 mt 3022 2709 L
3022 2659 mt 2972 2709 L
2974 2659 mt 3024 2709 L
3024 2659 mt 2974 2709 L
2974 2580 mt 3024 2630 L
3024 2580 mt 2974 2630 L
2978 2580 mt 3028 2630 L
3028 2580 mt 2978 2630 L
2978 2541 mt 3028 2591 L
3028 2541 mt 2978 2591 L
2986 2541 mt 3036 2591 L
3036 2541 mt 2986 2591 L
2986 2501 mt 3036 2551 L
3036 2501 mt 2986 2551 L
3129 2501 mt 3179 2551 L
3179 2501 mt 3129 2551 L
3129 2265 mt 3179 2315 L
3179 2265 mt 3129 2315 L
3280 2265 mt 3330 2315 L
3330 2265 mt 3280 2315 L
3280 2186 mt 3330 2236 L
3330 2186 mt 3280 2236 L
3284 2186 mt 3334 2236 L
3334 2186 mt 3284 2236 L
3284 2068 mt 3334 2118 L
3334 2068 mt 3284 2118 L
3288 2068 mt 3338 2118 L
3338 2068 mt 3288 2118 L
3288 2028 mt 3338 2078 L
3338 2028 mt 3288 2078 L
3290 2028 mt 3340 2078 L
3340 2028 mt 3290 2078 L
3290 1949 mt 3340 1999 L
3340 1949 mt 3290 1999 L
3292 1949 mt 3342 1999 L
3342 1949 mt 3292 1999 L
3292 1910 mt 3342 1960 L
3342 1910 mt 3292 1960 L
3296 1910 mt 3346 1960 L
3346 1910 mt 3296 1960 L
3296 1871 mt 3346 1921 L
3346 1871 mt 3296 1921 L
3299 1871 mt 3349 1921 L
3349 1871 mt 3299 1921 L
3299 1831 mt 3349 1881 L
3349 1831 mt 3299 1881 L
3431 1831 mt 3481 1881 L
3481 1831 mt 3431 1881 L
3431 1752 mt 3481 1802 L
3481 1752 mt 3431 1802 L
3434 1752 mt 3484 1802 L
3484 1752 mt 3434 1802 L
3434 1713 mt 3484 1763 L
3484 1713 mt 3434 1763 L
3438 1713 mt 3488 1763 L
3488 1713 mt 3438 1763 L
3438 1674 mt 3488 1724 L
3488 1674 mt 3438 1724 L
3441 1674 mt 3491 1724 L
3491 1674 mt 3441 1724 L
3441 1595 mt 3491 1645 L
3491 1595 mt 3441 1645 L
3445 1595 mt 3495 1645 L
3495 1595 mt 3445 1645 L
3445 1516 mt 3495 1566 L
3495 1516 mt 3445 1566 L
3449 1516 mt 3499 1566 L
3499 1516 mt 3449 1566 L
3449 1477 mt 3499 1527 L
3499 1477 mt 3449 1527 L
3457 1477 mt 3507 1527 L
3507 1477 mt 3457 1527 L
3457 1437 mt 3507 1487 L
3507 1437 mt 3457 1487 L
3470 1437 mt 3520 1487 L
3520 1437 mt 3470 1487 L
3470 1398 mt 3520 1448 L
3520 1398 mt 3470 1448 L
3584 1398 mt 3634 1448 L
3634 1398 mt 3584 1448 L
3584 1358 mt 3634 1408 L
3634 1358 mt 3584 1408 L
3595 1358 mt 3645 1408 L
3645 1358 mt 3595 1408 L
3595 1319 mt 3645 1369 L
3645 1319 mt 3595 1369 L
3600 1319 mt 3650 1369 L
3650 1319 mt 3600 1369 L
3600 1240 mt 3650 1290 L
3650 1240 mt 3600 1290 L
3625 1240 mt 3675 1290 L
3675 1240 mt 3625 1290 L
3625 1201 mt 3675 1251 L
3675 1201 mt 3625 1251 L
3631 1201 mt 3681 1251 L
3681 1201 mt 3631 1251 L
3631 1161 mt 3681 1211 L
3681 1161 mt 3631 1211 L
3638 1161 mt 3688 1211 L
3688 1161 mt 3638 1211 L
3638 1122 mt 3688 1172 L
3688 1122 mt 3638 1172 L
3712 1122 mt 3762 1172 L
3762 1122 mt 3712 1172 L
3712 1082 mt 3762 1132 L
3762 1082 mt 3712 1132 L
3762 1082 mt 3812 1132 L
3812 1082 mt 3762 1132 L
3762  964 mt 3812 1014 L
3812  964 mt 3762 1014 L
3778  964 mt 3828 1014 L
3828  964 mt 3778 1014 L
3778  925 mt 3828  975 L
3828  925 mt 3778  975 L
3812  925 mt 3862  975 L
3862  925 mt 3812  975 L
3812  885 mt 3862  935 L
3862  885 mt 3812  935 L
3879  885 mt 3929  935 L
3929  885 mt 3879  935 L
3879  846 mt 3929  896 L
3929  846 mt 3879  896 L
3945  846 mt 3995  896 L
3995  846 mt 3945  896 L
3945  806 mt 3995  856 L
3995  806 mt 3945  856 L
3977  806 mt 4027  856 L
4027  806 mt 3977  856 L
3977  767 mt 4027  817 L
4027  767 mt 3977  817 L
4078  767 mt 4128  817 L
4128  767 mt 4078  817 L
4078  728 mt 4128  778 L
4128  728 mt 4078  778 L
4167  728 mt 4217  778 L
4217  728 mt 4167  778 L
4167  688 mt 4217  738 L
4217  688 mt 4167  738 L
4204  688 mt 4254  738 L
4254  688 mt 4204  738 L
4204  649 mt 4254  699 L
4254  649 mt 4204  699 L
4272  649 mt 4322  699 L
4322  649 mt 4272  699 L
4272  609 mt 4322  659 L
4322  609 mt 4272  659 L
4350  609 mt 4400  659 L
4400  609 mt 4350  659 L
4350  570 mt 4400  620 L
4400  570 mt 4350  620 L
4411  570 mt 4461  620 L
4461  570 mt 4411  620 L
4411  531 mt 4461  581 L
4461  531 mt 4411  581 L
4545  531 mt 4595  581 L
4595  531 mt 4545  581 L
4545  452 mt 4595  502 L
4595  452 mt 4545  502 L
4656  452 mt 4706  502 L
4706  452 mt 4656  502 L
4656  412 mt 4706  462 L
4706  412 mt 4656  462 L
4949  412 mt 4999  462 L
4999  412 mt 4949  462 L
4949  373 mt 4999  423 L
4999  373 mt 4949  423 L
5030  373 mt 5080  423 L
5080  373 mt 5030  423 L
5030  334 mt 5080  384 L
5080  334 mt 5030  384 L
gr

gs 792 359 4726 3903 rc
/c10 { 1.000000 0.000000 0.000000 sr} bdef
c10
0 -39 103 0 0 -39 238 0 0 -40 203 0 0 -39 176 0 
0 -40 69 0 0 -39 17 0 0 -39 19 0 0 -40 49 0 
0 -79 38 0 0 -39 145 0 0 -39 30 0 0 -40 67 0 
0 -39 26 0 0 -40 63 0 0 -39 41 0 0 -40 14 0 
0 -39 43 0 0 -39 11 0 0 -40 16 0 0 -39 24 0 
0 -40 5 0 0 -39 72 0 0 -39 13 0 0 -40 34 0 
0 -39 63 0 0 -40 32 0 0 -39 25 0 0 -79 5 0 
0 -39 2 0 0 -40 2 0 0 -79 3 0 0 -39 2 0 
0 -39 85 0 0 -40 4 0 0 -39 13 0 0 -40 1 0 
0 -39 3 0 0 -39 5 0 0 -79 1 0 0 -40 1 0 
0 -39 57 0 0 -40 61 0 0 -315 116 0 0 -39 6 0 
0 -79 1 0 0 -40 7 0 0 -39 13 0 0 -39 93 0 
0 -40 2 0 0 -79 4 0 0 -39 5 0 0 -39 2 0 
0 -40 10 0 0 -39 8 0 0 -79 81 0 0 -39 7 0 
0 -79 10 0 0 -79 18 0 0 -40 38 0 0 -39 54 0 
0 -39 5 0 0 -40 4 0 0 -39 19 0 0 -40 43 0 
0 -39 50 0 0 -39 7 0 0 -40 5 0 0 -39 6 0 
0 -40 24 0 0 -118 20 0 0 -39 14 0 0 -40 22 0 
0 -39 61 0 0 -40 44 0 0 -39 3 0 0 -39 42 0 
0 -40 77 0 0 -39 171 0 0 -40 167 0 0 -39 281 0 
0 -40 1614 4261 162 MP stroke
gr

c10
gs 1541 286 3568 4049 rc
1578 4261 mt 1650 4261 L
1614 4225 mt 1614 4297 L
1578 4221 mt 1650 4221 L
1614 4185 mt 1614 4257 L
1859 4221 mt 1931 4221 L
1895 4185 mt 1895 4257 L
1859 4182 mt 1931 4182 L
1895 4146 mt 1895 4218 L
2026 4182 mt 2098 4182 L
2062 4146 mt 2062 4218 L
2026 4142 mt 2098 4142 L
2062 4106 mt 2062 4178 L
2197 4142 mt 2269 4142 L
2233 4106 mt 2233 4178 L
2197 4103 mt 2269 4103 L
2233 4067 mt 2233 4139 L
2274 4103 mt 2346 4103 L
2310 4067 mt 2310 4139 L
2274 4063 mt 2346 4063 L
2310 4027 mt 2310 4099 L
2316 4063 mt 2388 4063 L
2352 4027 mt 2352 4099 L
2316 4024 mt 2388 4024 L
2352 3988 mt 2352 4060 L
2319 4024 mt 2391 4024 L
2355 3988 mt 2355 4060 L
2319 3985 mt 2391 3985 L
2355 3949 mt 2355 4021 L
2363 3985 mt 2435 3985 L
2399 3949 mt 2399 4021 L
2363 3945 mt 2435 3945 L
2399 3909 mt 2399 3981 L
2424 3945 mt 2496 3945 L
2460 3909 mt 2460 3981 L
2424 3906 mt 2496 3906 L
2460 3870 mt 2460 3942 L
2446 3906 mt 2518 3906 L
2482 3870 mt 2482 3942 L
2446 3866 mt 2518 3866 L
2482 3830 mt 2482 3902 L
2460 3866 mt 2532 3866 L
2496 3830 mt 2496 3902 L
2460 3827 mt 2532 3827 L
2496 3791 mt 2496 3863 L
2480 3827 mt 2552 3827 L
2516 3791 mt 2516 3863 L
2480 3709 mt 2552 3709 L
2516 3673 mt 2516 3745 L
2504 3709 mt 2576 3709 L
2540 3673 mt 2540 3745 L
2504 3669 mt 2576 3669 L
2540 3633 mt 2540 3705 L
2510 3669 mt 2582 3669 L
2546 3633 mt 2546 3705 L
2510 3630 mt 2582 3630 L
2546 3594 mt 2546 3666 L
2515 3630 mt 2587 3630 L
2551 3594 mt 2551 3666 L
2515 3590 mt 2587 3590 L
2551 3554 mt 2551 3626 L
2522 3590 mt 2594 3590 L
2558 3554 mt 2558 3626 L
2522 3551 mt 2594 3551 L
2558 3515 mt 2558 3587 L
2572 3551 mt 2644 3551 L
2608 3515 mt 2608 3587 L
2572 3512 mt 2644 3512 L
2608 3476 mt 2608 3548 L
2615 3512 mt 2687 3512 L
2651 3476 mt 2651 3548 L
2615 3472 mt 2687 3472 L
2651 3436 mt 2651 3508 L
2634 3472 mt 2706 3472 L
2670 3436 mt 2670 3508 L
2634 3433 mt 2706 3433 L
2670 3397 mt 2670 3469 L
2638 3433 mt 2710 3433 L
2674 3397 mt 2674 3469 L
2638 3393 mt 2710 3393 L
2674 3357 mt 2674 3429 L
2643 3393 mt 2715 3393 L
2679 3357 mt 2679 3429 L
2643 3354 mt 2715 3354 L
2679 3318 mt 2679 3390 L
2697 3354 mt 2769 3354 L
2733 3318 mt 2733 3390 L
2697 3315 mt 2769 3315 L
2733 3279 mt 2733 3351 L
2735 3315 mt 2807 3315 L
2771 3279 mt 2771 3351 L
2735 3275 mt 2807 3275 L
2771 3239 mt 2771 3311 L
2753 3275 mt 2825 3275 L
2789 3239 mt 2789 3311 L
2753 3196 mt 2825 3196 L
2789 3160 mt 2789 3232 L
2763 3196 mt 2835 3196 L
2799 3160 mt 2799 3232 L
2763 3117 mt 2835 3117 L
2799 3081 mt 2799 3153 L
2770 3117 mt 2842 3117 L
2806 3081 mt 2806 3153 L
2770 3078 mt 2842 3078 L
2806 3042 mt 2806 3114 L
2851 3078 mt 2923 3078 L
2887 3042 mt 2887 3114 L
2851 2999 mt 2923 2999 L
2887 2963 mt 2887 3035 L
2859 2999 mt 2931 2999 L
2895 2963 mt 2895 3035 L
2859 2960 mt 2931 2960 L
2895 2924 mt 2895 2996 L
2869 2960 mt 2941 2960 L
2905 2924 mt 2905 2996 L
2869 2920 mt 2941 2920 L
2905 2884 mt 2905 2956 L
2871 2920 mt 2943 2920 L
2907 2884 mt 2907 2956 L
2871 2881 mt 2943 2881 L
2907 2845 mt 2907 2917 L
2876 2881 mt 2948 2881 L
2912 2845 mt 2912 2917 L
2876 2842 mt 2948 2842 L
2912 2806 mt 2912 2878 L
2880 2842 mt 2952 2842 L
2916 2806 mt 2916 2878 L
2880 2763 mt 2952 2763 L
2916 2727 mt 2916 2799 L
2882 2763 mt 2954 2763 L
2918 2727 mt 2918 2799 L
2882 2723 mt 2954 2723 L
2918 2687 mt 2918 2759 L
2975 2723 mt 3047 2723 L
3011 2687 mt 3011 2759 L
2975 2684 mt 3047 2684 L
3011 2648 mt 3011 2720 L
2988 2684 mt 3060 2684 L
3024 2648 mt 3024 2720 L
2988 2645 mt 3060 2645 L
3024 2609 mt 3024 2681 L
2995 2645 mt 3067 2645 L
3031 2609 mt 3031 2681 L
2995 2605 mt 3067 2605 L
3031 2569 mt 3031 2641 L
2996 2605 mt 3068 2605 L
3032 2569 mt 3032 2641 L
2996 2526 mt 3068 2526 L
3032 2490 mt 3032 2562 L
3002 2526 mt 3074 2526 L
3038 2490 mt 3038 2562 L
3002 2487 mt 3074 2487 L
3038 2451 mt 3038 2523 L
3118 2487 mt 3190 2487 L
3154 2451 mt 3154 2523 L
3118 2172 mt 3190 2172 L
3154 2136 mt 3154 2208 L
3179 2172 mt 3251 2172 L
3215 2136 mt 3215 2208 L
3179 2132 mt 3251 2132 L
3215 2096 mt 3215 2168 L
3236 2132 mt 3308 2132 L
3272 2096 mt 3272 2168 L
3236 2093 mt 3308 2093 L
3272 2057 mt 3272 2129 L
3237 2093 mt 3309 2093 L
3273 2057 mt 3273 2129 L
3237 2053 mt 3309 2053 L
3273 2017 mt 3273 2089 L
3238 2053 mt 3310 2053 L
3274 2017 mt 3274 2089 L
3238 1974 mt 3310 1974 L
3274 1938 mt 3274 2010 L
3243 1974 mt 3315 1974 L
3279 1938 mt 3279 2010 L
3243 1935 mt 3315 1935 L
3279 1899 mt 3279 1971 L
3246 1935 mt 3318 1935 L
3282 1899 mt 3282 1971 L
3246 1896 mt 3318 1896 L
3282 1860 mt 3282 1932 L
3247 1896 mt 3319 1896 L
3283 1860 mt 3283 1932 L
3247 1856 mt 3319 1856 L
3283 1820 mt 3283 1892 L
3260 1856 mt 3332 1856 L
3296 1820 mt 3296 1892 L
3260 1817 mt 3332 1817 L
3296 1781 mt 3296 1853 L
3264 1817 mt 3336 1817 L
3300 1781 mt 3300 1853 L
3264 1777 mt 3336 1777 L
3300 1741 mt 3300 1813 L
3349 1777 mt 3421 1777 L
3385 1741 mt 3385 1813 L
3349 1738 mt 3421 1738 L
3385 1702 mt 3385 1774 L
3351 1738 mt 3423 1738 L
3387 1702 mt 3387 1774 L
3351 1699 mt 3423 1699 L
3387 1663 mt 3387 1735 L
3354 1699 mt 3426 1699 L
3390 1663 mt 3390 1735 L
3354 1620 mt 3426 1620 L
3390 1584 mt 3390 1656 L
3356 1620 mt 3428 1620 L
3392 1584 mt 3392 1656 L
3356 1580 mt 3428 1580 L
3392 1544 mt 3392 1616 L
3358 1580 mt 3430 1580 L
3394 1544 mt 3394 1616 L
3358 1541 mt 3430 1541 L
3394 1505 mt 3394 1577 L
3363 1541 mt 3435 1541 L
3399 1505 mt 3399 1577 L
3363 1462 mt 3435 1462 L
3399 1426 mt 3399 1498 L
3388 1462 mt 3460 1462 L
3424 1426 mt 3424 1498 L
3388 1423 mt 3460 1423 L
3424 1387 mt 3424 1459 L
3420 1423 mt 3492 1423 L
3456 1387 mt 3456 1459 L
3420 1383 mt 3492 1383 L
3456 1347 mt 3456 1419 L
3483 1383 mt 3555 1383 L
3519 1347 mt 3519 1419 L
3483 1344 mt 3555 1344 L
3519 1308 mt 3519 1380 L
3517 1344 mt 3589 1344 L
3553 1308 mt 3553 1380 L
3517 1304 mt 3589 1304 L
3553 1268 mt 3553 1340 L
3530 1304 mt 3602 1304 L
3566 1268 mt 3566 1340 L
3530 1265 mt 3602 1265 L
3566 1229 mt 3566 1301 L
3602 1265 mt 3674 1265 L
3638 1229 mt 3638 1301 L
3602 1226 mt 3674 1226 L
3638 1190 mt 3638 1262 L
3607 1226 mt 3679 1226 L
3643 1190 mt 3643 1262 L
3607 1186 mt 3679 1186 L
3643 1150 mt 3643 1222 L
3631 1186 mt 3703 1186 L
3667 1150 mt 3667 1222 L
3631 1147 mt 3703 1147 L
3667 1111 mt 3667 1183 L
3647 1147 mt 3719 1147 L
3683 1111 mt 3683 1183 L
3647 1107 mt 3719 1107 L
3683 1071 mt 3683 1143 L
3658 1107 mt 3730 1107 L
3694 1071 mt 3694 1143 L
3658 1068 mt 3730 1068 L
3694 1032 mt 3694 1104 L
3701 1068 mt 3773 1068 L
3737 1032 mt 3737 1104 L
3701 1029 mt 3773 1029 L
3737  993 mt 3737 1065 L
3715 1029 mt 3787 1029 L
3751  993 mt 3751 1065 L
3715  989 mt 3787  989 L
3751  953 mt 3751 1025 L
3756  989 mt 3828  989 L
3792  953 mt 3792 1025 L
3756  950 mt 3828  950 L
3792  914 mt 3792  986 L
3819  950 mt 3891  950 L
3855  914 mt 3855  986 L
3819  910 mt 3891  910 L
3855  874 mt 3855  946 L
3845  910 mt 3917  910 L
3881  874 mt 3881  946 L
3845  871 mt 3917  871 L
3881  835 mt 3881  907 L
3912  871 mt 3984  871 L
3948  835 mt 3948  907 L
3912  831 mt 3984  831 L
3948  795 mt 3948  867 L
3942  831 mt 4014  831 L
3978  795 mt 3978  867 L
3942  792 mt 4014  792 L
3978  756 mt 3978  828 L
4087  792 mt 4159  792 L
4123  756 mt 4123  828 L
4087  753 mt 4159  753 L
4123  717 mt 4123  789 L
4125  753 mt 4197  753 L
4161  717 mt 4161  789 L
4125  674 mt 4197  674 L
4161  638 mt 4161  710 L
4174  674 mt 4246  674 L
4210  638 mt 4210  710 L
4174  634 mt 4246  634 L
4210  598 mt 4210  670 L
4193  634 mt 4265  634 L
4229  598 mt 4229  670 L
4193  595 mt 4265  595 L
4229  559 mt 4229  631 L
4210  595 mt 4282  595 L
4246  559 mt 4246  631 L
4210  556 mt 4282  556 L
4246  520 mt 4246  592 L
4279  556 mt 4351  556 L
4315  520 mt 4315  592 L
4279  516 mt 4351  516 L
4315  480 mt 4315  552 L
4455  516 mt 4527  516 L
4491  480 mt 4491  552 L
4455  477 mt 4527  477 L
4491  441 mt 4491  513 L
4658  477 mt 4730  477 L
4694  441 mt 4694  513 L
4658  437 mt 4730  437 L
4694  401 mt 4694  473 L
4896  437 mt 4968  437 L
4932  401 mt 4932  473 L
4896  398 mt 4968  398 L
4932  362 mt 4932  434 L
4999  398 mt 5071  398 L
5035  362 mt 5035  434 L
4999  359 mt 5071  359 L
5035  323 mt 5035  395 L
gr

gs 792 359 4726 3903 rc
gr


end %%Color Dict

eplot
%%EndObject

epage
end

showpage

%%Trailer
%%EOF
