%!PS-Adobe-3.0 EPSF-3.0
%%Creator: MATLAB, The MathWorks, Inc. Version 8.1.0.604 (R2013a). Operating System: Darwin 13.4.0 Darwin Kernel Version 13.4.0: Sun Aug 17 19:50:11 PDT 2014; root:xnu-2422.115.4~1/RELEASE_X86_64 x86_64.
%%Title: /Users/le/Work/project3/Figures/Results/0925/w20/comparison_jitter016_u3_r0.eps
%%CreationDate: 09/26/2014  13:58:36
%%DocumentNeededFonts: Helvetica
%%DocumentProcessColors: Cyan Magenta Yellow Black
%%LanguageLevel: 2
%%Pages: 1
%%BoundingBox:    51   196   559   595
%%EndComments

%%BeginProlog
% MathWorks dictionary
/MathWorks 160 dict begin
% definition operators
/bdef {bind def} bind def
/ldef {load def} bind def
/xdef {exch def} bdef
/xstore {exch store} bdef
% operator abbreviations
/c  /clip ldef
/cc /concat ldef
/cp /closepath ldef
/gr /grestore ldef
/gs /gsave ldef
/mt /moveto ldef
/np /newpath ldef
/cm /currentmatrix ldef
/sm /setmatrix ldef
/rm /rmoveto ldef
/rl /rlineto ldef
/s {show newpath} bdef
/sc {setcmykcolor} bdef
/sr /setrgbcolor ldef
/sg /setgray ldef
/w /setlinewidth ldef
/j /setlinejoin ldef
/cap /setlinecap ldef
/rc {rectclip} bdef
/rf {rectfill} bdef
% page state control
/pgsv () def
/bpage {/pgsv save def} bdef
/epage {pgsv restore} bdef
/bplot /gsave ldef
/eplot {stroke grestore} bdef
% orientation switch
/portraitMode 0 def /landscapeMode 1 def /rotateMode 2 def
% coordinate system mappings
/dpi2point 0 def
% font control
/FontSize 0 def
/FMS {/FontSize xstore findfont [FontSize 0 0 FontSize neg 0 0]
  makefont setfont} bdef
/reencode {exch dup where {pop load} {pop StandardEncoding} ifelse
  exch dup 3 1 roll findfont dup length dict begin
  { 1 index /FID ne {def}{pop pop} ifelse } forall
  /Encoding exch def currentdict end definefont pop} bdef
/isroman {findfont /CharStrings get /Agrave known} bdef
/FMSR {3 1 roll 1 index dup isroman {reencode} {pop pop} ifelse
  exch FMS} bdef
/csm {1 dpi2point div -1 dpi2point div scale neg translate
 dup landscapeMode eq {pop -90 rotate}
  {rotateMode eq {90 rotate} if} ifelse} bdef
% line types: solid, dotted, dashed, dotdash
/SO { [] 0 setdash } bdef
/DO { [.5 dpi2point mul 4 dpi2point mul] 0 setdash } bdef
/DA { [6 dpi2point mul] 0 setdash } bdef
/DD { [.5 dpi2point mul 4 dpi2point mul 6 dpi2point mul 4
  dpi2point mul] 0 setdash } bdef
% macros for lines and objects
/L {lineto stroke} bdef
/MP {3 1 roll moveto 1 sub {rlineto} repeat} bdef
/AP {{rlineto} repeat} bdef
/PDlw -1 def
/W {/PDlw currentlinewidth def setlinewidth} def
/PP {closepath eofill} bdef
/DP {closepath stroke} bdef
/MR {4 -2 roll moveto dup  0 exch rlineto exch 0 rlineto
  neg 0 exch rlineto closepath} bdef
/FR {MR stroke} bdef
/PR {MR fill} bdef
/L1i {{currentfile picstr readhexstring pop} image} bdef
/tMatrix matrix def
/MakeOval {newpath tMatrix currentmatrix pop translate scale
0 0 1 0 360 arc tMatrix setmatrix} bdef
/FO {MakeOval stroke} bdef
/PO {MakeOval fill} bdef
/PD {currentlinewidth 2 div 0 360 arc fill
   PDlw -1 eq not {PDlw w /PDlw -1 def} if} def
/FA {newpath tMatrix currentmatrix pop translate scale
  0 0 1 5 -2 roll arc tMatrix setmatrix stroke} bdef
/PA {newpath tMatrix currentmatrix pop	translate 0 0 moveto scale
  0 0 1 5 -2 roll arc closepath tMatrix setmatrix fill} bdef
/FAn {newpath tMatrix currentmatrix pop translate scale
  0 0 1 5 -2 roll arcn tMatrix setmatrix stroke} bdef
/PAn {newpath tMatrix currentmatrix pop translate 0 0 moveto scale
  0 0 1 5 -2 roll arcn closepath tMatrix setmatrix fill} bdef
/vradius 0 def /hradius 0 def /lry 0 def
/lrx 0 def /uly 0 def /ulx 0 def /rad 0 def
/MRR {/vradius xdef /hradius xdef /lry xdef /lrx xdef /uly xdef
  /ulx xdef newpath tMatrix currentmatrix pop ulx hradius add uly
  vradius add translate hradius vradius scale 0 0 1 180 270 arc 
  tMatrix setmatrix lrx hradius sub uly vradius add translate
  hradius vradius scale 0 0 1 270 360 arc tMatrix setmatrix
  lrx hradius sub lry vradius sub translate hradius vradius scale
  0 0 1 0 90 arc tMatrix setmatrix ulx hradius add lry vradius sub
  translate hradius vradius scale 0 0 1 90 180 arc tMatrix setmatrix
  closepath} bdef
/FRR {MRR stroke } bdef
/PRR {MRR fill } bdef
/MlrRR {/lry xdef /lrx xdef /uly xdef /ulx xdef /rad lry uly sub 2 div def
  newpath tMatrix currentmatrix pop ulx rad add uly rad add translate
  rad rad scale 0 0 1 90 270 arc tMatrix setmatrix lrx rad sub lry rad
  sub translate rad rad scale 0 0 1 270 90 arc tMatrix setmatrix
  closepath} bdef
/FlrRR {MlrRR stroke } bdef
/PlrRR {MlrRR fill } bdef
/MtbRR {/lry xdef /lrx xdef /uly xdef /ulx xdef /rad lrx ulx sub 2 div def
  newpath tMatrix currentmatrix pop ulx rad add uly rad add translate
  rad rad scale 0 0 1 180 360 arc tMatrix setmatrix lrx rad sub lry rad
  sub translate rad rad scale 0 0 1 0 180 arc tMatrix setmatrix
  closepath} bdef
/FtbRR {MtbRR stroke } bdef
/PtbRR {MtbRR fill } bdef
/stri 6 array def /dtri 6 array def
/smat 6 array def /dmat 6 array def
/tmat1 6 array def /tmat2 6 array def /dif 3 array def
/asub {/ind2 exch def /ind1 exch def dup dup
  ind1 get exch ind2 get sub exch } bdef
/tri_to_matrix {
  2 0 asub 3 1 asub 4 0 asub 5 1 asub
  dup 0 get exch 1 get 7 -1 roll astore } bdef
/compute_transform {
  dmat dtri tri_to_matrix tmat1 invertmatrix 
  smat stri tri_to_matrix tmat2 concatmatrix } bdef
/ds {stri astore pop} bdef
/dt {dtri astore pop} bdef
/db {2 copy /cols xdef /rows xdef mul dup 3 mul string
  currentfile 
  3 index 0 eq {/ASCIIHexDecode filter}
  {/ASCII85Decode filter 3 index 2 eq {/RunLengthDecode filter} if }
  ifelse exch readstring pop
  dup 0 3 index getinterval /rbmap xdef
  dup 2 index dup getinterval /gbmap xdef
  1 index dup 2 mul exch getinterval /bbmap xdef pop pop}bdef
/it {gs np dtri aload pop moveto lineto lineto cp c
  cols rows 8 compute_transform 
  rbmap gbmap bbmap true 3 colorimage gr}bdef
/il {newpath moveto lineto stroke}bdef
currentdict end def
%%EndProlog

%%BeginSetup
MathWorks begin

0 cap

end
%%EndSetup

%%Page: 1 1
%%BeginPageSetup
%%PageBoundingBox:    51   196   559   595
MathWorks begin
bpage
%%EndPageSetup

%%BeginObject: obj1
bplot

/dpi2point 12 def
portraitMode 0612 7140 csm

    0     0  6096  4788 rc
85 dict begin %Colortable dictionary
/c0 { 0.000000 0.000000 0.000000 sr} bdef
/c1 { 1.000000 1.000000 1.000000 sr} bdef
/c2 { 0.900000 0.000000 0.000000 sr} bdef
/c3 { 0.000000 0.820000 0.000000 sr} bdef
/c4 { 0.000000 0.000000 0.800000 sr} bdef
/c5 { 0.910000 0.820000 0.320000 sr} bdef
/c6 { 1.000000 0.260000 0.820000 sr} bdef
/c7 { 0.000000 0.820000 0.820000 sr} bdef
c0
1 j
1 sg
   0    0 6097 4789 rf
6 w
0 3902 4725 0 0 -3902 792 4261 4 MP
PP
-4725 0 0 3902 4725 0 0 -3902 792 4261 5 MP stroke
4 w
DO
0 sg
 792 4261 mt  792  359 L
 792  359 mt  792  359 L
1737 4261 mt 1737  359 L
1737  359 mt 1737  359 L
2682 4261 mt 2682  359 L
2682  359 mt 2682  359 L
3627 4261 mt 3627  359 L
3627  359 mt 3627  359 L
4572 4261 mt 4572  359 L
4572  359 mt 4572  359 L
5517 4261 mt 5517  359 L
5517  359 mt 5517  359 L
 792 4261 mt 5517 4261 L
5517 4261 mt 5517 4261 L
 792 3870 mt 5517 3870 L
5517 3870 mt 5517 3870 L
 792 3480 mt 5517 3480 L
5517 3480 mt 5517 3480 L
 792 3090 mt 5517 3090 L
5517 3090 mt 5517 3090 L
 792 2700 mt 5517 2700 L
5517 2700 mt 5517 2700 L
 792 2310 mt 5517 2310 L
5517 2310 mt 5517 2310 L
 792 1919 mt 5517 1919 L
5517 1919 mt 5517 1919 L
 792 1529 mt 5517 1529 L
5517 1529 mt 5517 1529 L
 792 1139 mt 5517 1139 L
5517 1139 mt 5517 1139 L
 792  749 mt 5517  749 L
5517  749 mt 5517  749 L
 792  359 mt 5517  359 L
5517  359 mt 5517  359 L
SO
6 w
 792 4261 mt 5517 4261 L
 792  359 mt 5517  359 L
 792 4261 mt  792  359 L
5517 4261 mt 5517  359 L
 792 4261 mt 5517 4261 L
 792 4261 mt  792  359 L
 792 4261 mt  792 4213 L
 792  359 mt  792  406 L
%%IncludeResource: font Helvetica
/Helvetica /ISOLatin1Encoding 168 FMSR

 648 4451 mt 
(-1) s
1737 4261 mt 1737 4213 L
1737  359 mt 1737  406 L
1523 4451 mt 
(-0.5) s
2682 4261 mt 2682 4213 L
2682  359 mt 2682  406 L
2636 4451 mt 
(0) s
3627 4261 mt 3627 4213 L
3627  359 mt 3627  406 L
3511 4451 mt 
(0.5) s
4572 4261 mt 4572 4213 L
4572  359 mt 4572  406 L
4526 4451 mt 
(1) s
5517 4261 mt 5517 4213 L
5517  359 mt 5517  406 L
5401 4451 mt 
(1.5) s
 792 4261 mt  839 4261 L
5517 4261 mt 5469 4261 L
 664 4323 mt 
(0) s
 792 3870 mt  839 3870 L
5517 3870 mt 5469 3870 L
 524 3932 mt 
(0.1) s
 792 3480 mt  839 3480 L
5517 3480 mt 5469 3480 L
 524 3542 mt 
(0.2) s
 792 3090 mt  839 3090 L
5517 3090 mt 5469 3090 L
 524 3152 mt 
(0.3) s
 792 2700 mt  839 2700 L
5517 2700 mt 5469 2700 L
 524 2762 mt 
(0.4) s
 792 2310 mt  839 2310 L
5517 2310 mt 5469 2310 L
 524 2372 mt 
(0.5) s
 792 1919 mt  839 1919 L
5517 1919 mt 5469 1919 L
 524 1981 mt 
(0.6) s
 792 1529 mt  839 1529 L
5517 1529 mt 5469 1529 L
 524 1591 mt 
(0.7) s
 792 1139 mt  839 1139 L
5517 1139 mt 5469 1139 L
 524 1201 mt 
(0.8) s
 792  749 mt  839  749 L
5517  749 mt 5469  749 L
 524  811 mt 
(0.9) s
 792  359 mt  839  359 L
5517  359 mt 5469  359 L
 664  421 mt 
(1) s
 792 4261 mt 5517 4261 L
 792  359 mt 5517  359 L
 792 4261 mt  792  359 L
5517 4261 mt 5517  359 L
gs 792 359 4726 3903 rc
/c8 { 0.000000 0.000000 1.000000 sr} bdef
c8
0 -39 370 0 0 -39 89 0 0 -40 52 0 0 -39 65 0 
0 -40 91 0 0 -39 21 0 0 -39 15 0 0 -40 134 0 
0 -39 27 0 0 -40 2 0 0 -39 97 0 0 -39 2 0 
0 -40 78 0 0 -39 129 0 0 -40 9 0 0 -39 67 0 
0 -40 74 0 0 -39 11 0 0 -39 12 0 0 -40 14 0 
0 -39 27 0 0 -40 7 0 0 -39 11 0 0 -39 23 0 
0 -40 16 0 0 -39 18 0 0 -40 29 0 0 -39 51 0 
0 -40 71 0 0 -39 29 0 0 -39 2 0 0 -40 9 0 
0 -39 4 0 0 -40 43 0 0 -39 1 0 0 -39 5 0 
0 -40 14 0 0 -39 26 0 0 -40 26 0 0 -39 5 0 
0 -39 35 0 0 -40 1 0 0 -39 14 0 0 -40 115 0 
0 -39 29 0 0 -40 35 0 0 -39 16 0 0 -39 9 0 
0 -40 61 0 0 -39 28 0 0 -40 93 0 0 -39 66 0 
0 -39 14 0 0 -40 14 0 0 -39 36 0 0 -40 20 0 
0 -39 17 0 0 -40 8 0 0 -39 5 0 0 -39 5 0 
0 -40 8 0 0 -39 8 0 0 -40 50 0 0 -39 65 0 
0 -39 11 0 0 -40 34 0 0 -39 5 0 0 -40 20 0 
0 -39 20 0 0 -39 81 0 0 -40 28 0 0 -39 14 0 
0 -40 3 0 0 -39 62 0 0 -40 136 0 0 -39 25 0 
0 -39 3 0 0 -40 67 0 0 -39 39 0 0 -40 163 0 
0 -39 13 0 0 -39 31 0 0 -40 12 0 0 -39 111 0 
0 -40 26 0 0 -39 21 0 0 -40 138 0 0 -39 128 0 
0 -39 47 0 0 -40 31 0 0 -39 10 0 0 -40 23 0 
0 -39 6 0 0 -39 19 0 0 -40 75 0 0 -39 41 0 
0 -40 66 0 0 -39 4 0 0 -40 822 4261 198 MP stroke
gr

c8
0 sg
3111 4629 mt 
(x) s
 432 2460 mt  -90 rotate
(F\(x\)) s
90 rotate
 824  219 mt 
(Empirical CDF of utilization jitter between GOPs for UT 3, \
run0) s
gs 792 359 4726 3903 rc
/c9 { 0.000000 0.500000 0.000000 sr} bdef
c9
0 -39 90 0 0 -39 81 0 0 -40 36 0 0 -39 19 0 
0 -40 121 0 0 -39 26 0 0 -39 15 0 0 -40 13 0 
0 -39 38 0 0 -40 63 0 0 -39 90 0 0 -39 101 0 
0 -40 15 0 0 -39 7 0 0 -40 48 0 0 -39 10 0 
0 -40 42 0 0 -39 3 0 0 -39 11 0 0 -40 3 0 
0 -39 19 0 0 -40 23 0 0 -39 9 0 0 -39 14 0 
0 -40 15 0 0 -39 9 0 0 -40 45 0 0 -39 45 0 
0 -40 3 0 0 -39 33 0 0 -39 13 0 0 -40 10 0 
0 -39 25 0 0 -40 42 0 0 -39 2 0 0 -39 11 0 
0 -40 8 0 0 -39 17 0 0 -40 1 0 0 -39 18 0 
0 -39 0 -40 6 0 0 -39 25 0 0 -40 17 0 0 -39 
0 -40 2 0 0 -39 2 0 0 -39 22 0 0 -40 2 0 
0 -39 3 0 0 -40 48 0 0 -118 24 0 0 -39 24 0 
0 -40 3 0 0 -39 21 0 0 -40 1 0 0 -39 1 0 
0 -39 3 0 0 -40 1 0 0 -39 42 0 0 -40 1 0 
0 -39 20 0 0 -39 6 0 0 -40 63 0 0 -39 50 0 
0 -40 40 0 0 -39 53 0 0 -39 10 0 0 -40 53 0 
0 -39 17 0 0 -40 15 0 0 -39 34 0 0 -40 4 0 
0 -39 16 0 0 -39 47 0 0 -40 5 0 0 -39 30 0 
0 -40 11 0 0 -39 5 0 0 -39 2 0 0 -40 14 0 
0 -39 24 0 0 -40 9 0 0 -39 16 0 0 -40 13 0 
0 -39 9 0 0 -39 1 0 0 -40 37 0 0 -39 24 0 
0 -40 40 0 0 -39 7 0 0 -39 165 0 0 -40 138 0 
0 -39 3 0 0 -40 10 0 0 -39 19 0 0 -40 1551 4261 192 MP stroke
gr

c9
1526 4236 mt 1576 4286 L
1576 4236 mt 1526 4286 L
1526 4196 mt 1576 4246 L
1576 4196 mt 1526 4246 L
1545 4196 mt 1595 4246 L
1595 4196 mt 1545 4246 L
1545 4157 mt 1595 4207 L
1595 4157 mt 1545 4207 L
1555 4157 mt 1605 4207 L
1605 4157 mt 1555 4207 L
1555 4117 mt 1605 4167 L
1605 4117 mt 1555 4167 L
1558 4117 mt 1608 4167 L
1608 4117 mt 1558 4167 L
1558 4078 mt 1608 4128 L
1608 4078 mt 1558 4128 L
1696 4078 mt 1746 4128 L
1746 4078 mt 1696 4128 L
1696 4038 mt 1746 4088 L
1746 4038 mt 1696 4088 L
1861 4038 mt 1911 4088 L
1911 4038 mt 1861 4088 L
1861 3999 mt 1911 4049 L
1911 3999 mt 1861 4049 L
1868 3999 mt 1918 4049 L
1918 3999 mt 1868 4049 L
1868 3960 mt 1918 4010 L
1918 3960 mt 1868 4010 L
1908 3960 mt 1958 4010 L
1958 3960 mt 1908 4010 L
1908 3920 mt 1958 3970 L
1958 3920 mt 1908 3970 L
1932 3920 mt 1982 3970 L
1982 3920 mt 1932 3970 L
1932 3881 mt 1982 3931 L
1982 3881 mt 1932 3931 L
1969 3881 mt 2019 3931 L
2019 3881 mt 1969 3931 L
1969 3841 mt 2019 3891 L
2019 3841 mt 1969 3891 L
1970 3841 mt 2020 3891 L
2020 3841 mt 1970 3891 L
1970 3802 mt 2020 3852 L
2020 3802 mt 1970 3852 L
1979 3802 mt 2029 3852 L
2029 3802 mt 1979 3852 L
1979 3763 mt 2029 3813 L
2029 3763 mt 1979 3813 L
1992 3763 mt 2042 3813 L
2042 3763 mt 1992 3813 L
1992 3723 mt 2042 3773 L
2042 3723 mt 1992 3773 L
2008 3723 mt 2058 3773 L
2058 3723 mt 2008 3773 L
2008 3684 mt 2058 3734 L
2058 3684 mt 2008 3734 L
2017 3684 mt 2067 3734 L
2067 3684 mt 2017 3734 L
2017 3644 mt 2067 3694 L
2067 3644 mt 2017 3694 L
2041 3644 mt 2091 3694 L
2091 3644 mt 2041 3694 L
2041 3605 mt 2091 3655 L
2091 3605 mt 2041 3655 L
2055 3605 mt 2105 3655 L
2105 3605 mt 2055 3655 L
2055 3565 mt 2105 3615 L
2105 3565 mt 2055 3615 L
2057 3565 mt 2107 3615 L
2107 3565 mt 2057 3615 L
2057 3526 mt 2107 3576 L
2107 3526 mt 2057 3576 L
2062 3526 mt 2112 3576 L
2112 3526 mt 2062 3576 L
2062 3487 mt 2112 3537 L
2112 3487 mt 2062 3537 L
2073 3487 mt 2123 3537 L
2123 3487 mt 2073 3537 L
2073 3447 mt 2123 3497 L
2123 3447 mt 2073 3497 L
2103 3447 mt 2153 3497 L
2153 3447 mt 2103 3497 L
2103 3408 mt 2153 3458 L
2153 3408 mt 2103 3458 L
2108 3408 mt 2158 3458 L
2158 3408 mt 2108 3458 L
2108 3368 mt 2158 3418 L
2158 3368 mt 2108 3418 L
2155 3368 mt 2205 3418 L
2205 3368 mt 2155 3418 L
2155 3329 mt 2205 3379 L
2205 3329 mt 2155 3379 L
2171 3329 mt 2221 3379 L
2221 3329 mt 2171 3379 L
2171 3290 mt 2221 3340 L
2221 3290 mt 2171 3340 L
2175 3290 mt 2225 3340 L
2225 3290 mt 2175 3340 L
2175 3250 mt 2225 3300 L
2225 3250 mt 2175 3300 L
2209 3250 mt 2259 3300 L
2259 3250 mt 2209 3300 L
2209 3211 mt 2259 3261 L
2259 3211 mt 2209 3261 L
2224 3211 mt 2274 3261 L
2274 3211 mt 2224 3261 L
2224 3171 mt 2274 3221 L
2274 3171 mt 2224 3221 L
2241 3171 mt 2291 3221 L
2291 3171 mt 2241 3221 L
2241 3132 mt 2291 3182 L
2291 3132 mt 2241 3182 L
2294 3132 mt 2344 3182 L
2344 3132 mt 2294 3182 L
2294 3092 mt 2344 3142 L
2344 3092 mt 2294 3142 L
2304 3092 mt 2354 3142 L
2354 3092 mt 2304 3142 L
2304 3053 mt 2354 3103 L
2354 3053 mt 2304 3103 L
2357 3053 mt 2407 3103 L
2407 3053 mt 2357 3103 L
2357 3014 mt 2407 3064 L
2407 3014 mt 2357 3064 L
2397 3014 mt 2447 3064 L
2447 3014 mt 2397 3064 L
2397 2974 mt 2447 3024 L
2447 2974 mt 2397 3024 L
2447 2974 mt 2497 3024 L
2497 2974 mt 2447 3024 L
2447 2935 mt 2497 2985 L
2497 2935 mt 2447 2985 L
2510 2935 mt 2560 2985 L
2560 2935 mt 2510 2985 L
2510 2895 mt 2560 2945 L
2560 2895 mt 2510 2945 L
2516 2895 mt 2566 2945 L
2566 2895 mt 2516 2945 L
2516 2856 mt 2566 2906 L
2566 2856 mt 2516 2906 L
2536 2856 mt 2586 2906 L
2586 2856 mt 2536 2906 L
2536 2817 mt 2586 2867 L
2586 2817 mt 2536 2867 L
2537 2817 mt 2587 2867 L
2587 2817 mt 2537 2867 L
2537 2777 mt 2587 2827 L
2587 2777 mt 2537 2827 L
2579 2777 mt 2629 2827 L
2629 2777 mt 2579 2827 L
2579 2738 mt 2629 2788 L
2629 2738 mt 2579 2788 L
2580 2738 mt 2630 2788 L
2630 2738 mt 2580 2788 L
2580 2698 mt 2630 2748 L
2630 2698 mt 2580 2748 L
2583 2698 mt 2633 2748 L
2633 2698 mt 2583 2748 L
2583 2659 mt 2633 2709 L
2633 2659 mt 2583 2709 L
2584 2659 mt 2634 2709 L
2634 2659 mt 2584 2709 L
2584 2620 mt 2634 2670 L
2634 2620 mt 2584 2670 L
2585 2620 mt 2635 2670 L
2635 2620 mt 2585 2670 L
2585 2580 mt 2635 2630 L
2635 2580 mt 2585 2630 L
2606 2580 mt 2656 2630 L
2656 2580 mt 2606 2630 L
2606 2541 mt 2656 2591 L
2656 2541 mt 2606 2591 L
2609 2541 mt 2659 2591 L
2659 2541 mt 2609 2591 L
2609 2501 mt 2659 2551 L
2659 2501 mt 2609 2551 L
2633 2501 mt 2683 2551 L
2683 2501 mt 2633 2551 L
2633 2462 mt 2683 2512 L
2683 2462 mt 2633 2512 L
2657 2462 mt 2707 2512 L
2707 2462 mt 2657 2512 L
2657 2344 mt 2707 2394 L
2707 2344 mt 2657 2394 L
2705 2344 mt 2755 2394 L
2755 2344 mt 2705 2394 L
2705 2304 mt 2755 2354 L
2755 2304 mt 2705 2354 L
2708 2304 mt 2758 2354 L
2758 2304 mt 2708 2354 L
2708 2265 mt 2758 2315 L
2758 2265 mt 2708 2315 L
2710 2265 mt 2760 2315 L
2760 2265 mt 2710 2315 L
2710 2225 mt 2760 2275 L
2760 2225 mt 2710 2275 L
2732 2225 mt 2782 2275 L
2782 2225 mt 2732 2275 L
2732 2186 mt 2782 2236 L
2782 2186 mt 2732 2236 L
2734 2186 mt 2784 2236 L
2784 2186 mt 2734 2236 L
2734 2147 mt 2784 2197 L
2784 2147 mt 2734 2197 L
2736 2147 mt 2786 2197 L
2786 2147 mt 2736 2197 L
2736 2107 mt 2786 2157 L
2786 2107 mt 2736 2157 L
2736 2068 mt 2786 2118 L
2786 2068 mt 2736 2118 L
2753 2068 mt 2803 2118 L
2803 2068 mt 2753 2118 L
2753 2028 mt 2803 2078 L
2803 2028 mt 2753 2078 L
2778 2028 mt 2828 2078 L
2828 2028 mt 2778 2078 L
2778 1989 mt 2828 2039 L
2828 1989 mt 2778 2039 L
2784 1989 mt 2834 2039 L
2834 1989 mt 2784 2039 L
2784 1949 mt 2834 1999 L
2834 1949 mt 2784 1999 L
2784 1910 mt 2834 1960 L
2834 1910 mt 2784 1960 L
2802 1910 mt 2852 1960 L
2852 1910 mt 2802 1960 L
2802 1871 mt 2852 1921 L
2852 1871 mt 2802 1921 L
2803 1871 mt 2853 1921 L
2853 1871 mt 2803 1921 L
2803 1831 mt 2853 1881 L
2853 1831 mt 2803 1881 L
2820 1831 mt 2870 1881 L
2870 1831 mt 2820 1881 L
2820 1792 mt 2870 1842 L
2870 1792 mt 2820 1842 L
2828 1792 mt 2878 1842 L
2878 1792 mt 2828 1842 L
2828 1752 mt 2878 1802 L
2878 1752 mt 2828 1802 L
2839 1752 mt 2889 1802 L
2889 1752 mt 2839 1802 L
2839 1713 mt 2889 1763 L
2889 1713 mt 2839 1763 L
2841 1713 mt 2891 1763 L
2891 1713 mt 2841 1763 L
2841 1674 mt 2891 1724 L
2891 1674 mt 2841 1724 L
2883 1674 mt 2933 1724 L
2933 1674 mt 2883 1724 L
2883 1634 mt 2933 1684 L
2933 1634 mt 2883 1684 L
2908 1634 mt 2958 1684 L
2958 1634 mt 2908 1684 L
2908 1595 mt 2958 1645 L
2958 1595 mt 2908 1645 L
2918 1595 mt 2968 1645 L
2968 1595 mt 2918 1645 L
2918 1555 mt 2968 1605 L
2968 1555 mt 2918 1605 L
2931 1555 mt 2981 1605 L
2981 1555 mt 2931 1605 L
2931 1516 mt 2981 1566 L
2981 1516 mt 2931 1566 L
2964 1516 mt 3014 1566 L
3014 1516 mt 2964 1566 L
2964 1477 mt 3014 1527 L
3014 1477 mt 2964 1527 L
2967 1477 mt 3017 1527 L
3017 1477 mt 2967 1527 L
2967 1437 mt 3017 1487 L
3017 1437 mt 2967 1487 L
3012 1437 mt 3062 1487 L
3062 1437 mt 3012 1487 L
3012 1398 mt 3062 1448 L
3062 1398 mt 3012 1448 L
3057 1398 mt 3107 1448 L
3107 1398 mt 3057 1448 L
3057 1358 mt 3107 1408 L
3107 1358 mt 3057 1408 L
3066 1358 mt 3116 1408 L
3116 1358 mt 3066 1408 L
3066 1319 mt 3116 1369 L
3116 1319 mt 3066 1369 L
3081 1319 mt 3131 1369 L
3131 1319 mt 3081 1369 L
3081 1279 mt 3131 1329 L
3131 1279 mt 3081 1329 L
3095 1279 mt 3145 1329 L
3145 1279 mt 3095 1329 L
3095 1240 mt 3145 1290 L
3145 1240 mt 3095 1290 L
3104 1240 mt 3154 1290 L
3154 1240 mt 3104 1290 L
3104 1201 mt 3154 1251 L
3154 1201 mt 3104 1251 L
3127 1201 mt 3177 1251 L
3177 1201 mt 3127 1251 L
3127 1161 mt 3177 1211 L
3177 1161 mt 3127 1211 L
3146 1161 mt 3196 1211 L
3196 1161 mt 3146 1211 L
3146 1122 mt 3196 1172 L
3196 1122 mt 3146 1172 L
3149 1122 mt 3199 1172 L
3199 1122 mt 3149 1172 L
3149 1082 mt 3199 1132 L
3199 1082 mt 3149 1132 L
3160 1082 mt 3210 1132 L
3210 1082 mt 3160 1132 L
3160 1043 mt 3210 1093 L
3210 1043 mt 3160 1093 L
3163 1043 mt 3213 1093 L
3213 1043 mt 3163 1093 L
3163 1004 mt 3213 1054 L
3213 1004 mt 3163 1054 L
3205 1004 mt 3255 1054 L
3255 1004 mt 3205 1054 L
3205  964 mt 3255 1014 L
3255  964 mt 3205 1014 L
3215  964 mt 3265 1014 L
3265  964 mt 3215 1014 L
3215  925 mt 3265  975 L
3265  925 mt 3215  975 L
3263  925 mt 3313  975 L
3313  925 mt 3263  975 L
3263  885 mt 3313  935 L
3313  885 mt 3263  935 L
3270  885 mt 3320  935 L
3320  885 mt 3270  935 L
3270  846 mt 3320  896 L
3320  846 mt 3270  896 L
3285  846 mt 3335  896 L
3335  846 mt 3285  896 L
3285  806 mt 3335  856 L
3335  806 mt 3285  856 L
3386  806 mt 3436  856 L
3436  806 mt 3386  856 L
3386  767 mt 3436  817 L
3436  767 mt 3386  817 L
3476  767 mt 3526  817 L
3526  767 mt 3476  817 L
3476  728 mt 3526  778 L
3526  728 mt 3476  778 L
3539  728 mt 3589  778 L
3589  728 mt 3539  778 L
3539  688 mt 3589  738 L
3589  688 mt 3539  738 L
3577  688 mt 3627  738 L
3627  688 mt 3577  738 L
3577  649 mt 3627  699 L
3627  649 mt 3577  699 L
3590  649 mt 3640  699 L
3640  649 mt 3590  699 L
3590  609 mt 3640  659 L
3640  609 mt 3590  659 L
3605  609 mt 3655  659 L
3655  609 mt 3605  659 L
3605  570 mt 3655  620 L
3655  570 mt 3605  620 L
3631  570 mt 3681  620 L
3681  570 mt 3631  620 L
3631  531 mt 3681  581 L
3681  531 mt 3631  581 L
3752  531 mt 3802  581 L
3802  531 mt 3752  581 L
3752  491 mt 3802  541 L
3802  491 mt 3752  541 L
3771  491 mt 3821  541 L
3821  491 mt 3771  541 L
3771  452 mt 3821  502 L
3821  452 mt 3771  502 L
3807  452 mt 3857  502 L
3857  452 mt 3807  502 L
3807  412 mt 3857  462 L
3857  412 mt 3807  462 L
3888  412 mt 3938  462 L
3938  412 mt 3888  462 L
3888  373 mt 3938  423 L
3938  373 mt 3888  423 L
3978  373 mt 4028  423 L
4028  373 mt 3978  423 L
3978  334 mt 4028  384 L
4028  334 mt 3978  384 L
gs 792 359 4726 3903 rc
/c10 { 1.000000 0.000000 0.000000 sr} bdef
c10
0 -39 191 0 0 -39 82 0 0 -40 29 0 0 -39 19 0 
0 -40 23 0 0 -39 114 0 0 -39 21 0 0 -40 12 0 
0 -39 46 0 0 -40 20 0 0 -39 1 0 0 -39 0 -40 
1 0 0 -39 1 0 0 -40 27 0 0 -39 18 0 0 -40 
0 -39 34 0 0 -39 8 0 0 -40 4 0 0 -39 16 0 
0 -40 5 0 0 -39 11 0 0 -39 19 0 0 -40 4 0 
0 -39 8 0 0 -40 13 0 0 -39 3 0 0 -40 1 0 
0 -39 31 0 0 -39 1 0 0 -40 15 0 0 -39 20 0 
0 -40 22 0 0 -39 5 0 0 -39 0 -40 27 0 0 -39 
21 0 0 -40 42 0 0 -39 3 0 0 -39 21 0 0 -40 
1 0 0 -39 0 -40 24 0 0 -39 0 -40 1 0 0 -39 
23 0 0 -39 25 0 0 -79 0 -40 0 -39 21 0 0 -39 
1 0 0 -40 2 0 0 -39 25 0 0 -40 20 0 0 -39 
2 0 0 -40 21 0 0 -39 2 0 0 -39 3 0 0 -40 
16 0 0 -39 7 0 0 -40 2 0 0 -39 10 0 0 -39 
9 0 0 -40 3 0 0 -39 18 0 0 -40 2 0 0 -39 
4 0 0 -39 27 0 0 -40 15 0 0 -39 5 0 0 -40 
10 0 0 -39 13 0 0 -40 20 0 0 -39 15 0 0 -39 
8 0 0 -40 2 0 0 -39 28 0 0 -40 10 0 0 -39 
2 0 0 -39 0 -40 8 0 0 -39 23 0 0 -40 15 0 
0 -39 15 0 0 -40 5 0 0 -39 5 0 0 -39 7 0 
0 -40 28 0 0 -39 54 0 0 -40 17 0 0 -39 24 0 
0 -39 66 0 0 -40 7 0 0 -39 113 0 0 -40 28 0 
0 -39 89 0 0 -40 1830 4261 188 MP stroke
gr

c10
1794 4261 mt 1866 4261 L
1830 4225 mt 1830 4297 L
1794 4221 mt 1866 4221 L
1830 4185 mt 1830 4257 L
1883 4221 mt 1955 4221 L
1919 4185 mt 1919 4257 L
1883 4182 mt 1955 4182 L
1919 4146 mt 1919 4218 L
1911 4182 mt 1983 4182 L
1947 4146 mt 1947 4218 L
1911 4142 mt 1983 4142 L
1947 4106 mt 1947 4178 L
2024 4142 mt 2096 4142 L
2060 4106 mt 2060 4178 L
2024 4103 mt 2096 4103 L
2060 4067 mt 2060 4139 L
2031 4103 mt 2103 4103 L
2067 4067 mt 2067 4139 L
2031 4063 mt 2103 4063 L
2067 4027 mt 2067 4099 L
2097 4063 mt 2169 4063 L
2133 4027 mt 2133 4099 L
2097 4024 mt 2169 4024 L
2133 3988 mt 2133 4060 L
2121 4024 mt 2193 4024 L
2157 3988 mt 2157 4060 L
2121 3985 mt 2193 3985 L
2157 3949 mt 2157 4021 L
2138 3985 mt 2210 3985 L
2174 3949 mt 2174 4021 L
2138 3945 mt 2210 3945 L
2174 3909 mt 2174 3981 L
2192 3945 mt 2264 3945 L
2228 3909 mt 2228 3981 L
2192 3906 mt 2264 3906 L
2228 3870 mt 2228 3942 L
2220 3906 mt 2292 3906 L
2256 3870 mt 2256 3942 L
2220 3866 mt 2292 3866 L
2256 3830 mt 2256 3902 L
2227 3866 mt 2299 3866 L
2263 3830 mt 2263 3902 L
2227 3827 mt 2299 3827 L
2263 3791 mt 2263 3863 L
2232 3827 mt 2304 3827 L
2268 3791 mt 2268 3863 L
2232 3788 mt 2304 3788 L
2268 3752 mt 2268 3824 L
2237 3788 mt 2309 3788 L
2273 3752 mt 2273 3824 L
2237 3748 mt 2309 3748 L
2273 3712 mt 2273 3784 L
2252 3748 mt 2324 3748 L
2288 3712 mt 2288 3784 L
2252 3709 mt 2324 3709 L
2288 3673 mt 2288 3745 L
2267 3709 mt 2339 3709 L
2303 3673 mt 2303 3745 L
2267 3669 mt 2339 3669 L
2303 3633 mt 2303 3705 L
2290 3669 mt 2362 3669 L
2326 3633 mt 2326 3705 L
2290 3630 mt 2362 3630 L
2326 3594 mt 2326 3666 L
2298 3630 mt 2370 3630 L
2334 3594 mt 2334 3666 L
2298 3590 mt 2370 3590 L
2334 3554 mt 2334 3626 L
2298 3551 mt 2370 3551 L
2334 3515 mt 2334 3587 L
2300 3551 mt 2372 3551 L
2336 3515 mt 2336 3587 L
2300 3512 mt 2372 3512 L
2336 3476 mt 2336 3548 L
2310 3512 mt 2382 3512 L
2346 3476 mt 2346 3548 L
2310 3472 mt 2382 3472 L
2346 3436 mt 2346 3508 L
2338 3472 mt 2410 3472 L
2374 3436 mt 2374 3508 L
2338 3433 mt 2410 3433 L
2374 3397 mt 2374 3469 L
2340 3433 mt 2412 3433 L
2376 3397 mt 2376 3469 L
2340 3393 mt 2412 3393 L
2376 3357 mt 2376 3429 L
2348 3393 mt 2420 3393 L
2384 3357 mt 2384 3429 L
2348 3354 mt 2420 3354 L
2384 3318 mt 2384 3390 L
2363 3354 mt 2435 3354 L
2399 3318 mt 2399 3390 L
2363 3315 mt 2435 3315 L
2399 3279 mt 2399 3351 L
2383 3315 mt 2455 3315 L
2419 3279 mt 2419 3351 L
2383 3275 mt 2455 3275 L
2419 3239 mt 2419 3311 L
2396 3275 mt 2468 3275 L
2432 3239 mt 2432 3311 L
2396 3236 mt 2468 3236 L
2432 3200 mt 2432 3272 L
2406 3236 mt 2478 3236 L
2442 3200 mt 2442 3272 L
2406 3196 mt 2478 3196 L
2442 3160 mt 2442 3232 L
2411 3196 mt 2483 3196 L
2447 3160 mt 2447 3232 L
2411 3157 mt 2483 3157 L
2447 3121 mt 2447 3193 L
2426 3157 mt 2498 3157 L
2462 3121 mt 2462 3193 L
2426 3117 mt 2498 3117 L
2462 3081 mt 2462 3153 L
2453 3117 mt 2525 3117 L
2489 3081 mt 2489 3153 L
2453 3078 mt 2525 3078 L
2489 3042 mt 2489 3114 L
2457 3078 mt 2529 3078 L
2493 3042 mt 2493 3114 L
2457 3039 mt 2529 3039 L
2493 3003 mt 2493 3075 L
2459 3039 mt 2531 3039 L
2495 3003 mt 2495 3075 L
2459 2999 mt 2531 2999 L
2495 2963 mt 2495 3035 L
2477 2999 mt 2549 2999 L
2513 2963 mt 2513 3035 L
2477 2960 mt 2549 2960 L
2513 2924 mt 2513 2996 L
2480 2960 mt 2552 2960 L
2516 2924 mt 2516 2996 L
2480 2920 mt 2552 2920 L
2516 2884 mt 2516 2956 L
2489 2920 mt 2561 2920 L
2525 2884 mt 2525 2956 L
2489 2881 mt 2561 2881 L
2525 2845 mt 2525 2917 L
2499 2881 mt 2571 2881 L
2535 2845 mt 2535 2917 L
2499 2842 mt 2571 2842 L
2535 2806 mt 2535 2878 L
2501 2842 mt 2573 2842 L
2537 2806 mt 2537 2878 L
2501 2802 mt 2573 2802 L
2537 2766 mt 2537 2838 L
2508 2802 mt 2580 2802 L
2544 2766 mt 2544 2838 L
2508 2763 mt 2580 2763 L
2544 2727 mt 2544 2799 L
2524 2763 mt 2596 2763 L
2560 2727 mt 2560 2799 L
2524 2723 mt 2596 2723 L
2560 2687 mt 2560 2759 L
2527 2723 mt 2599 2723 L
2563 2687 mt 2563 2759 L
2527 2684 mt 2599 2684 L
2563 2648 mt 2563 2720 L
2529 2684 mt 2601 2684 L
2565 2648 mt 2565 2720 L
2529 2645 mt 2601 2645 L
2565 2609 mt 2565 2681 L
2550 2645 mt 2622 2645 L
2586 2609 mt 2586 2681 L
2550 2605 mt 2622 2605 L
2586 2569 mt 2586 2641 L
2552 2605 mt 2624 2605 L
2588 2569 mt 2588 2641 L
2552 2566 mt 2624 2566 L
2588 2530 mt 2588 2602 L
2572 2566 mt 2644 2566 L
2608 2530 mt 2608 2602 L
2572 2526 mt 2644 2526 L
2608 2490 mt 2608 2562 L
2597 2526 mt 2669 2526 L
2633 2490 mt 2633 2562 L
2597 2487 mt 2669 2487 L
2633 2451 mt 2633 2523 L
2599 2487 mt 2671 2487 L
2635 2451 mt 2635 2523 L
2599 2447 mt 2671 2447 L
2635 2411 mt 2635 2483 L
2600 2447 mt 2672 2447 L
2636 2411 mt 2636 2483 L
2600 2408 mt 2672 2408 L
2636 2372 mt 2636 2444 L
2621 2408 mt 2693 2408 L
2657 2372 mt 2657 2444 L
2621 2369 mt 2693 2369 L
2657 2333 mt 2657 2405 L
2621 2329 mt 2693 2329 L
2657 2293 mt 2657 2365 L
2621 2250 mt 2693 2250 L
2657 2214 mt 2657 2286 L
2646 2250 mt 2718 2250 L
2682 2214 mt 2682 2286 L
2646 2211 mt 2718 2211 L
2682 2175 mt 2682 2247 L
2669 2211 mt 2741 2211 L
2705 2175 mt 2705 2247 L
2669 2172 mt 2741 2172 L
2705 2136 mt 2705 2208 L
2670 2172 mt 2742 2172 L
2706 2136 mt 2706 2208 L
2670 2132 mt 2742 2132 L
2706 2096 mt 2706 2168 L
2670 2093 mt 2742 2093 L
2706 2057 mt 2706 2129 L
2694 2093 mt 2766 2093 L
2730 2057 mt 2730 2129 L
2694 2053 mt 2766 2053 L
2730 2017 mt 2730 2089 L
2694 2014 mt 2766 2014 L
2730 1978 mt 2730 2050 L
2695 2014 mt 2767 2014 L
2731 1978 mt 2731 2050 L
2695 1974 mt 2767 1974 L
2731 1938 mt 2731 2010 L
2716 1974 mt 2788 1974 L
2752 1938 mt 2752 2010 L
2716 1935 mt 2788 1935 L
2752 1899 mt 2752 1971 L
2719 1935 mt 2791 1935 L
2755 1899 mt 2755 1971 L
2719 1896 mt 2791 1896 L
2755 1860 mt 2755 1932 L
2761 1896 mt 2833 1896 L
2797 1860 mt 2797 1932 L
2761 1856 mt 2833 1856 L
2797 1820 mt 2797 1892 L
2782 1856 mt 2854 1856 L
2818 1820 mt 2818 1892 L
2782 1817 mt 2854 1817 L
2818 1781 mt 2818 1853 L
2809 1817 mt 2881 1817 L
2845 1781 mt 2845 1853 L
2809 1777 mt 2881 1777 L
2845 1741 mt 2845 1813 L
2809 1738 mt 2881 1738 L
2845 1702 mt 2845 1774 L
2814 1738 mt 2886 1738 L
2850 1702 mt 2850 1774 L
2814 1699 mt 2886 1699 L
2850 1663 mt 2850 1735 L
2836 1699 mt 2908 1699 L
2872 1663 mt 2872 1735 L
2836 1659 mt 2908 1659 L
2872 1623 mt 2872 1695 L
2856 1659 mt 2928 1659 L
2892 1623 mt 2892 1695 L
2856 1620 mt 2928 1620 L
2892 1584 mt 2892 1656 L
2871 1620 mt 2943 1620 L
2907 1584 mt 2907 1656 L
2871 1580 mt 2943 1580 L
2907 1544 mt 2907 1616 L
2872 1580 mt 2944 1580 L
2908 1544 mt 2908 1616 L
2872 1541 mt 2944 1541 L
2908 1505 mt 2908 1577 L
2903 1541 mt 2975 1541 L
2939 1505 mt 2939 1577 L
2903 1502 mt 2975 1502 L
2939 1466 mt 2939 1538 L
2904 1502 mt 2976 1502 L
2940 1466 mt 2940 1538 L
2904 1462 mt 2976 1462 L
2940 1426 mt 2940 1498 L
2907 1462 mt 2979 1462 L
2943 1426 mt 2943 1498 L
2907 1423 mt 2979 1423 L
2943 1387 mt 2943 1459 L
2920 1423 mt 2992 1423 L
2956 1387 mt 2956 1459 L
2920 1383 mt 2992 1383 L
2956 1347 mt 2956 1419 L
2928 1383 mt 3000 1383 L
2964 1347 mt 2964 1419 L
2928 1344 mt 3000 1344 L
2964 1308 mt 2964 1380 L
2932 1344 mt 3004 1344 L
2968 1308 mt 2968 1380 L
2932 1304 mt 3004 1304 L
2968 1268 mt 2968 1340 L
2951 1304 mt 3023 1304 L
2987 1268 mt 2987 1340 L
2951 1265 mt 3023 1265 L
2987 1229 mt 2987 1301 L
2962 1265 mt 3034 1265 L
2998 1229 mt 2998 1301 L
2962 1226 mt 3034 1226 L
2998 1190 mt 2998 1262 L
2967 1226 mt 3039 1226 L
3003 1190 mt 3003 1262 L
2967 1186 mt 3039 1186 L
3003 1150 mt 3003 1222 L
2983 1186 mt 3055 1186 L
3019 1150 mt 3019 1222 L
2983 1147 mt 3055 1147 L
3019 1111 mt 3019 1183 L
2987 1147 mt 3059 1147 L
3023 1111 mt 3023 1183 L
2987 1107 mt 3059 1107 L
3023 1071 mt 3023 1143 L
2995 1107 mt 3067 1107 L
3031 1071 mt 3031 1143 L
2995 1068 mt 3067 1068 L
3031 1032 mt 3031 1104 L
3029 1068 mt 3101 1068 L
3065 1032 mt 3065 1104 L
3029 1029 mt 3101 1029 L
3065  993 mt 3065 1065 L
3029  989 mt 3101  989 L
3065  953 mt 3065 1025 L
3047  989 mt 3119  989 L
3083  953 mt 3083 1025 L
3047  950 mt 3119  950 L
3083  914 mt 3083  986 L
3074  950 mt 3146  950 L
3110  914 mt 3110  986 L
3074  910 mt 3146  910 L
3110  874 mt 3110  946 L
3075  910 mt 3147  910 L
3111  874 mt 3111  946 L
3075  871 mt 3147  871 L
3111  835 mt 3111  907 L
3076  871 mt 3148  871 L
3112  835 mt 3112  907 L
3076  831 mt 3148  831 L
3112  795 mt 3112  867 L
3076  792 mt 3148  792 L
3112  756 mt 3112  828 L
3077  792 mt 3149  792 L
3113  756 mt 3113  828 L
3077  753 mt 3149  753 L
3113  717 mt 3113  789 L
3097  753 mt 3169  753 L
3133  717 mt 3133  789 L
3097  713 mt 3169  713 L
3133  677 mt 3133  749 L
3143  713 mt 3215  713 L
3179  677 mt 3179  749 L
3143  674 mt 3215  674 L
3179  638 mt 3179  710 L
3155  674 mt 3227  674 L
3191  638 mt 3191  710 L
3155  634 mt 3227  634 L
3191  598 mt 3191  670 L
3176  634 mt 3248  634 L
3212  598 mt 3212  670 L
3176  595 mt 3248  595 L
3212  559 mt 3212  631 L
3290  595 mt 3362  595 L
3326  559 mt 3326  631 L
3290  556 mt 3362  556 L
3326  520 mt 3326  592 L
3313  556 mt 3385  556 L
3349  520 mt 3349  592 L
3313  516 mt 3385  516 L
3349  480 mt 3349  552 L
3332  516 mt 3404  516 L
3368  480 mt 3368  552 L
3332  477 mt 3404  477 L
3368  441 mt 3368  513 L
3361  477 mt 3433  477 L
3397  441 mt 3397  513 L
3361  437 mt 3433  437 L
3397  401 mt 3397  473 L
3443  437 mt 3515  437 L
3479  401 mt 3479  473 L
3443  398 mt 3515  398 L
3479  362 mt 3479  434 L
3634  398 mt 3706  398 L
3670  362 mt 3670  434 L
3634  359 mt 3706  359 L
3670  323 mt 3670  395 L
gs 792 359 4726 3903 rc
gr

0 sg
%%IncludeResource: font Helvetica
/Helvetica /ISOLatin1Encoding 120 FMSR

 775 4304 mt 
( ) s
5501  401 mt 
( ) s
1 sg
0 744 2279 0 0 -744 3012 3996 4 MP
PP
-2279 0 0 744 2279 0 0 -744 3012 3996 5 MP stroke
4 w
DO
SO
6 w
0 sg
3012 3996 mt 5291 3996 L
3012 3252 mt 5291 3252 L
3012 3996 mt 3012 3252 L
5291 3996 mt 5291 3252 L
3012 3996 mt 5291 3996 L
3012 3996 mt 3012 3252 L
3012 3996 mt 5291 3996 L
3012 3252 mt 5291 3252 L
3012 3996 mt 3012 3252 L
5291 3996 mt 5291 3252 L
%%IncludeResource: font Helvetica
/Helvetica /ISOLatin1Encoding 168 FMSR

3480 3450 mt 
(Block-wise Assignment) s
gs 3012 3252 2280 745 rc
c8
360 0 3084 3390 2 MP stroke
gr

c8
0 sg
3480 3685 mt 
(Sequential OP) s
gs 3012 3252 2280 745 rc
c9
360 0 3084 3624 2 MP stroke
gs 3191 3551 147 147 rc
3239 3599 mt 3289 3649 L
3289 3599 mt 3239 3649 L
gr

gr

c9
0 sg
3480 3919 mt 
(Novel OP) s
gs 3012 3252 2280 745 rc
c10
360 0 3084 3857 2 MP stroke
gs 3191 3784 147 147 rc
3228 3857 mt 3300 3857 L
3264 3821 mt 3264 3893 L
gr

gr

c10

end %%Color Dict

eplot
%%EndObject

epage
end

showpage

%%Trailer
%%EOF
