%!PS-Adobe-3.0 EPSF-3.0
%%Creator: MATLAB, The MathWorks, Inc. Version 8.1.0.604 (R2013a). Operating System: Darwin 13.4.0 Darwin Kernel Version 13.4.0: Sun Aug 17 19:50:11 PDT 2014; root:xnu-2422.115.4~1/RELEASE_X86_64 x86_64.
%%Title: /Users/le/Work/project3/Figures/Results/0925/w20/comparison_gopU016_UT4.eps
%%CreationDate: 09/25/2014  22:40:50
%%DocumentNeededFonts: Helvetica
%%DocumentProcessColors: Cyan Magenta Yellow Black
%%LanguageLevel: 2
%%Pages: 1
%%BoundingBox:    51   209   559   582
%%EndComments

%%BeginProlog
% MathWorks dictionary
/MathWorks 160 dict begin
% definition operators
/bdef {bind def} bind def
/ldef {load def} bind def
/xdef {exch def} bdef
/xstore {exch store} bdef
% operator abbreviations
/c  /clip ldef
/cc /concat ldef
/cp /closepath ldef
/gr /grestore ldef
/gs /gsave ldef
/mt /moveto ldef
/np /newpath ldef
/cm /currentmatrix ldef
/sm /setmatrix ldef
/rm /rmoveto ldef
/rl /rlineto ldef
/s {show newpath} bdef
/sc {setcmykcolor} bdef
/sr /setrgbcolor ldef
/sg /setgray ldef
/w /setlinewidth ldef
/j /setlinejoin ldef
/cap /setlinecap ldef
/rc {rectclip} bdef
/rf {rectfill} bdef
% page state control
/pgsv () def
/bpage {/pgsv save def} bdef
/epage {pgsv restore} bdef
/bplot /gsave ldef
/eplot {stroke grestore} bdef
% orientation switch
/portraitMode 0 def /landscapeMode 1 def /rotateMode 2 def
% coordinate system mappings
/dpi2point 0 def
% font control
/FontSize 0 def
/FMS {/FontSize xstore findfont [FontSize 0 0 FontSize neg 0 0]
  makefont setfont} bdef
/reencode {exch dup where {pop load} {pop StandardEncoding} ifelse
  exch dup 3 1 roll findfont dup length dict begin
  { 1 index /FID ne {def}{pop pop} ifelse } forall
  /Encoding exch def currentdict end definefont pop} bdef
/isroman {findfont /CharStrings get /Agrave known} bdef
/FMSR {3 1 roll 1 index dup isroman {reencode} {pop pop} ifelse
  exch FMS} bdef
/csm {1 dpi2point div -1 dpi2point div scale neg translate
 dup landscapeMode eq {pop -90 rotate}
  {rotateMode eq {90 rotate} if} ifelse} bdef
% line types: solid, dotted, dashed, dotdash
/SO { [] 0 setdash } bdef
/DO { [.5 dpi2point mul 4 dpi2point mul] 0 setdash } bdef
/DA { [6 dpi2point mul] 0 setdash } bdef
/DD { [.5 dpi2point mul 4 dpi2point mul 6 dpi2point mul 4
  dpi2point mul] 0 setdash } bdef
% macros for lines and objects
/L {lineto stroke} bdef
/MP {3 1 roll moveto 1 sub {rlineto} repeat} bdef
/AP {{rlineto} repeat} bdef
/PDlw -1 def
/W {/PDlw currentlinewidth def setlinewidth} def
/PP {closepath eofill} bdef
/DP {closepath stroke} bdef
/MR {4 -2 roll moveto dup  0 exch rlineto exch 0 rlineto
  neg 0 exch rlineto closepath} bdef
/FR {MR stroke} bdef
/PR {MR fill} bdef
/L1i {{currentfile picstr readhexstring pop} image} bdef
/tMatrix matrix def
/MakeOval {newpath tMatrix currentmatrix pop translate scale
0 0 1 0 360 arc tMatrix setmatrix} bdef
/FO {MakeOval stroke} bdef
/PO {MakeOval fill} bdef
/PD {currentlinewidth 2 div 0 360 arc fill
   PDlw -1 eq not {PDlw w /PDlw -1 def} if} def
/FA {newpath tMatrix currentmatrix pop translate scale
  0 0 1 5 -2 roll arc tMatrix setmatrix stroke} bdef
/PA {newpath tMatrix currentmatrix pop	translate 0 0 moveto scale
  0 0 1 5 -2 roll arc closepath tMatrix setmatrix fill} bdef
/FAn {newpath tMatrix currentmatrix pop translate scale
  0 0 1 5 -2 roll arcn tMatrix setmatrix stroke} bdef
/PAn {newpath tMatrix currentmatrix pop translate 0 0 moveto scale
  0 0 1 5 -2 roll arcn closepath tMatrix setmatrix fill} bdef
/vradius 0 def /hradius 0 def /lry 0 def
/lrx 0 def /uly 0 def /ulx 0 def /rad 0 def
/MRR {/vradius xdef /hradius xdef /lry xdef /lrx xdef /uly xdef
  /ulx xdef newpath tMatrix currentmatrix pop ulx hradius add uly
  vradius add translate hradius vradius scale 0 0 1 180 270 arc 
  tMatrix setmatrix lrx hradius sub uly vradius add translate
  hradius vradius scale 0 0 1 270 360 arc tMatrix setmatrix
  lrx hradius sub lry vradius sub translate hradius vradius scale
  0 0 1 0 90 arc tMatrix setmatrix ulx hradius add lry vradius sub
  translate hradius vradius scale 0 0 1 90 180 arc tMatrix setmatrix
  closepath} bdef
/FRR {MRR stroke } bdef
/PRR {MRR fill } bdef
/MlrRR {/lry xdef /lrx xdef /uly xdef /ulx xdef /rad lry uly sub 2 div def
  newpath tMatrix currentmatrix pop ulx rad add uly rad add translate
  rad rad scale 0 0 1 90 270 arc tMatrix setmatrix lrx rad sub lry rad
  sub translate rad rad scale 0 0 1 270 90 arc tMatrix setmatrix
  closepath} bdef
/FlrRR {MlrRR stroke } bdef
/PlrRR {MlrRR fill } bdef
/MtbRR {/lry xdef /lrx xdef /uly xdef /ulx xdef /rad lrx ulx sub 2 div def
  newpath tMatrix currentmatrix pop ulx rad add uly rad add translate
  rad rad scale 0 0 1 180 360 arc tMatrix setmatrix lrx rad sub lry rad
  sub translate rad rad scale 0 0 1 0 180 arc tMatrix setmatrix
  closepath} bdef
/FtbRR {MtbRR stroke } bdef
/PtbRR {MtbRR fill } bdef
/stri 6 array def /dtri 6 array def
/smat 6 array def /dmat 6 array def
/tmat1 6 array def /tmat2 6 array def /dif 3 array def
/asub {/ind2 exch def /ind1 exch def dup dup
  ind1 get exch ind2 get sub exch } bdef
/tri_to_matrix {
  2 0 asub 3 1 asub 4 0 asub 5 1 asub
  dup 0 get exch 1 get 7 -1 roll astore } bdef
/compute_transform {
  dmat dtri tri_to_matrix tmat1 invertmatrix 
  smat stri tri_to_matrix tmat2 concatmatrix } bdef
/ds {stri astore pop} bdef
/dt {dtri astore pop} bdef
/db {2 copy /cols xdef /rows xdef mul dup 3 mul string
  currentfile 
  3 index 0 eq {/ASCIIHexDecode filter}
  {/ASCII85Decode filter 3 index 2 eq {/RunLengthDecode filter} if }
  ifelse exch readstring pop
  dup 0 3 index getinterval /rbmap xdef
  dup 2 index dup getinterval /gbmap xdef
  1 index dup 2 mul exch getinterval /bbmap xdef pop pop}bdef
/it {gs np dtri aload pop moveto lineto lineto cp c
  cols rows 8 compute_transform 
  rbmap gbmap bbmap true 3 colorimage gr}bdef
/il {newpath moveto lineto stroke}bdef
currentdict end def
%%EndProlog

%%BeginSetup
MathWorks begin

0 cap

end
%%EndSetup

%%Page: 1 1
%%BeginPageSetup
%%PageBoundingBox:    51   209   559   582
MathWorks begin
bpage
%%EndPageSetup

%%BeginObject: obj1
bplot

/dpi2point 12 def
portraitMode 0612 6984 csm

    0     0  6096  4476 rc
86 dict begin %Colortable dictionary
/c0 { 0.000000 0.000000 0.000000 sr} bdef
/c1 { 1.000000 1.000000 1.000000 sr} bdef
/c2 { 0.900000 0.000000 0.000000 sr} bdef
/c3 { 0.000000 0.820000 0.000000 sr} bdef
/c4 { 0.000000 0.000000 0.800000 sr} bdef
/c5 { 0.910000 0.820000 0.320000 sr} bdef
/c6 { 1.000000 0.260000 0.820000 sr} bdef
/c7 { 0.000000 0.820000 0.820000 sr} bdef
c0
1 j
1 sg
   0    0 6097 4477 rf
6 w
0 3648 4629 0 0 -3648 864 3959 4 MP
PP
-4629 0 0 3648 4629 0 0 -3648 864 3959 5 MP stroke
4 w
DO
0 sg
 864 3959 mt  864  311 L
 864  311 mt  864  311 L
1789 3959 mt 1789  311 L
1789  311 mt 1789  311 L
2715 3959 mt 2715  311 L
2715  311 mt 2715  311 L
3641 3959 mt 3641  311 L
3641  311 mt 3641  311 L
4567 3959 mt 4567  311 L
4567  311 mt 4567  311 L
5493 3959 mt 5493  311 L
5493  311 mt 5493  311 L
 864 3959 mt 5493 3959 L
5493 3959 mt 5493 3959 L
 864 3575 mt 5493 3575 L
5493 3575 mt 5493 3575 L
 864 3191 mt 5493 3191 L
5493 3191 mt 5493 3191 L
 864 2807 mt 5493 2807 L
5493 2807 mt 5493 2807 L
 864 2423 mt 5493 2423 L
5493 2423 mt 5493 2423 L
 864 2039 mt 5493 2039 L
5493 2039 mt 5493 2039 L
 864 1655 mt 5493 1655 L
5493 1655 mt 5493 1655 L
 864 1271 mt 5493 1271 L
5493 1271 mt 5493 1271 L
 864  887 mt 5493  887 L
5493  887 mt 5493  887 L
 864  503 mt 5493  503 L
5493  503 mt 5493  503 L
SO
6 w
 864 3959 mt 5493 3959 L
 864  311 mt 5493  311 L
 864 3959 mt  864  311 L
5493 3959 mt 5493  311 L
 864 3959 mt 5493 3959 L
 864 3959 mt  864  311 L
 864 3959 mt  864 3913 L
 864  311 mt  864  358 L
%%IncludeResource: font Helvetica
/Helvetica /ISOLatin1Encoding 168 FMSR

 818 4150 mt 
(0) s
1789 3959 mt 1789 3913 L
1789  311 mt 1789  358 L
1696 4150 mt 
(20) s
2715 3959 mt 2715 3913 L
2715  311 mt 2715  358 L
2622 4150 mt 
(40) s
3641 3959 mt 3641 3913 L
3641  311 mt 3641  358 L
3548 4150 mt 
(60) s
4567 3959 mt 4567 3913 L
4567  311 mt 4567  358 L
4474 4150 mt 
(80) s
5493 3959 mt 5493 3913 L
5493  311 mt 5493  358 L
5353 4150 mt 
(100) s
 864 3959 mt  910 3959 L
5493 3959 mt 5446 3959 L
 643 4021 mt 
(13) s
 864 3575 mt  910 3575 L
5493 3575 mt 5446 3575 L
 503 3637 mt 
(13.2) s
 864 3191 mt  910 3191 L
5493 3191 mt 5446 3191 L
 503 3253 mt 
(13.4) s
 864 2807 mt  910 2807 L
5493 2807 mt 5446 2807 L
 503 2869 mt 
(13.6) s
 864 2423 mt  910 2423 L
5493 2423 mt 5446 2423 L
 503 2485 mt 
(13.8) s
 864 2039 mt  910 2039 L
5493 2039 mt 5446 2039 L
 643 2101 mt 
(14) s
 864 1655 mt  910 1655 L
5493 1655 mt 5446 1655 L
 503 1717 mt 
(14.2) s
 864 1271 mt  910 1271 L
5493 1271 mt 5446 1271 L
 503 1333 mt 
(14.4) s
 864  887 mt  910  887 L
5493  887 mt 5446  887 L
 503  949 mt 
(14.6) s
 864  503 mt  910  503 L
5493  503 mt 5446  503 L
 503  565 mt 
(14.8) s
 864 3959 mt 5493 3959 L
 864  311 mt 5493  311 L
 864 3959 mt  864  311 L
5493 3959 mt 5493  311 L
2990 4328 mt 
(GOP) s
 411 2542 mt  -90 rotate
(PSNR [dB]) s
90 rotate
1699  179 mt 
(Comparison of UT4 delivered Utilization) s
%%IncludeResource: font Helvetica
/Helvetica /ISOLatin1Encoding 120 FMSR

 847 4002 mt 
( ) s
5477  353 mt 
( ) s
gs 864 311 4630 3649 rc
DA
/c8 { 0.000000 0.000000 1.000000 sr} bdef
c8
47 -315 46 258 46 279 47 81 46 398 46 -263 47 -382 46 409 
46 -522 46 306 47 -110 46 379 46 -134 47 -245 46 -224 46 -711 
46 153 47 727 46 871 46 -126 47 -801 46 775 46 -1206 46 2171 
47 -138 46 -827 46 -803 47 465 46 131 46 1011 46 -1223 47 -1149 
46 1335 46 -159 47 -272 46 484 46 -880 47 906 46 -346 46 727 
46 -227 47 472 46 -523 46 -156 47 -999 46 597 46 -166 46 194 
47 427 46 -649 46 701 47 179 46 -604 46 754 46 -278 47 -234 
46 537 46 -354 47 -872 46 -844 46 1237 46 427 47 -131 46 757 
46 -784 47 -161 46 0 46 -81 47 -506 46 -727 46 1813 46 -499 
47 -163 46 244 46 -411 47 84 46 -399 46 343 46 775 47 -312 
46 439 46 -281 47 -1023 46 1454 46 -804 46 -739 47 434 46 1059 
46 -1673 47 1623 46 -650 46 575 46 -1133 47 422 46 -166 46 902 
47 -50 46 -1769 46 690 910 2656 100 MP stroke
gr

c8
DA
gs 837 616 4730 2930 rc
SO
  36   36  910 2656 FO
  36   36  956 3346 FO
  36   36 1002 1577 FO
  36   36 1049 1527 FO
  36   36 1095 2429 FO
  36   36 1141 2263 FO
  36   36 1188 2685 FO
  36   36 1234 1552 FO
  36   36 1280 2127 FO
  36   36 1326 1477 FO
  36   36 1373 3100 FO
  36   36 1419 1427 FO
  36   36 1465 2486 FO
  36   36 1512 2920 FO
  36   36 1558 2181 FO
  36   36 1604 1377 FO
  36   36 1650 2831 FO
  36   36 1697 1808 FO
  36   36 1743 1527 FO
  36   36 1789 1966 FO
  36   36 1836 1654 FO
  36   36 1882 2429 FO
  36   36 1928 2772 FO
  36   36 1974 2373 FO
  36   36 2021 2457 FO
  36   36 2067 2046 FO
  36   36 2113 2290 FO
  36   36 2160 2127 FO
  36   36 2206 1628 FO
  36   36 2252 3441 FO
  36   36 2298 2714 FO
  36   36 2345 2208 FO
  36   36 2391 2127 FO
  36   36 2437 2127 FO
  36   36 2484 1966 FO
  36   36 2530 1182 FO
  36   36 2576 1939 FO
  36   36 2623 1808 FO
  36   36 2669 2235 FO
  36   36 2715 3472 FO
  36   36 2761 2628 FO
  36   36 2808 1756 FO
  36   36 2854 1402 FO
  36   36 2900 1939 FO
  36   36 2947 1705 FO
  36   36 2993 1427 FO
  36   36 3039 2181 FO
  36   36 3085 1577 FO
  36   36 3132 1756 FO
  36   36 3178 2457 FO
  36   36 3224 1808 FO
  36   36 3271 2235 FO
  36   36 3317 2429 FO
  36   36 3363 2263 FO
  36   36 3409 2860 FO
  36   36 3456 1861 FO
  36   36 3502 1705 FO
  36   36 3548 1182 FO
  36   36 3595 1654 FO
  36   36 3641 1427 FO
  36   36 3687 2154 FO
  36   36 3733 1808 FO
  36   36 3780 2714 FO
  36   36 3826 1834 FO
  36   36 3872 2318 FO
  36   36 3919 2046 FO
  36   36 3965 1887 FO
  36   36 4011 3222 FO
  36   36 4058 2073 FO
  36   36 4104  850 FO
  36   36 4150 1861 FO
  36   36 4196 1992 FO
  36   36 4243 2457 FO
  36   36 4289 1654 FO
  36   36 4335  827 FO
  36   36 4382  689 FO
  36   36 4428 2860 FO
  36   36 4474 1654 FO
  36   36 4520 2429 FO
  36   36 4567 1628 FO
  36   36 4613 1502 FO
  36   36 4659 2373 FO
  36   36 4706 3100 FO
  36   36 4752 3253 FO
  36   36 4798 2542 FO
  36   36 4844 2318 FO
  36   36 4891 2073 FO
  36   36 4937 1939 FO
  36   36 4983 2318 FO
  36   36 5030 2208 FO
  36   36 5076 2514 FO
  36   36 5122 1992 FO
  36   36 5168 2401 FO
  36   36 5215 2019 FO
  36   36 5261 1756 FO
  36   36 5307 2154 FO
  36   36 5354 2235 FO
  36   36 5400 2514 FO
  36   36 5446 2772 FO
  36   36 5493 2457 FO
DA
gr

gs 864 311 4630 3649 rc
/c9 { 0.000000 0.498039 0.000000 sr} bdef
c9
47 -277 46 -1129 46 696 47 410 46 117 46 -906 47 -157 46 52 
46 309 46 -179 47 -615 46 1042 46 -98 47 -175 46 -102 46 277 
46 -725 47 240 46 681 46 -550 47 -131 46 410 46 -542 46 617 
47 -617 46 1099 46 -862 47 51 46 -130 46 53 46 1276 47 -1096 
46 -233 46 508 47 526 46 -1034 46 79 47 624 46 -344 46 100 
46 74 47 290 46 24 46 -538 47 50 46 223 46 97 46 -421 
47 -231 46 382 46 -50 47 -254 46 428 46 -275 46 -258 47 -52 
46 105 46 626 47 -345 46 223 46 -98 46 316 47 -619 46 595 
46 -467 47 586 46 -791 46 128 47 -259 46 234 46 351 46 -664 
47 0 46 415 46 50 47 -152 46 -1006 46 1108 46 75 47 511 
46 -511 46 -490 47 590 46 -201 46 -76 46 -234 47 -187 46 187 
46 -295 47 605 46 324 46 -452 46 -698 47 166 46 1551 46 -1175 
47 -741 46 949 46 -1181 910 2860 100 MP stroke
gr

c9
gs 837 459 4730 2475 rc
SO
24 W
910 2860 PD
24 W
956 1679 PD
24 W
1002 2628 PD
24 W
1049 1887 PD
24 W
1095 712 PD
24 W
1141 2263 PD
24 W
1188 2429 PD
24 W
1234 1731 PD
24 W
1280 1279 PD
24 W
1326 1603 PD
24 W
1373 2208 PD
24 W
1419 1913 PD
24 W
1465 2100 PD
24 W
1512 1913 PD
24 W
1558 1679 PD
24 W
1604 1603 PD
24 W
1650 1402 PD
24 W
1697 1992 PD
24 W
1743 1502 PD
24 W
1789 991 PD
24 W
1836 1502 PD
24 W
1882 1577 PD
24 W
1928 2685 PD
24 W
1974 1679 PD
24 W
2021 1527 PD
24 W
2067 1577 PD
24 W
2113 1992 PD
24 W
2160 1992 PD
24 W
2206 1328 PD
24 W
2252 1679 PD
24 W
2298 1913 PD
24 W
2345 1654 PD
24 W
2391 1782 PD
24 W
2437 991 PD
24 W
2484 1577 PD
24 W
2530 1110 PD
24 W
2576 1705 PD
24 W
2623 1086 PD
24 W
2669 1402 PD
24 W
2715 1304 PD
24 W
2761 1527 PD
24 W
2808 1182 PD
24 W
2854 1808 PD
24 W
2900 1913 PD
24 W
2947 1861 PD
24 W
2993 1603 PD
24 W
3039 1328 PD
24 W
3085 1756 PD
24 W
3132 1502 PD
24 W
3178 1452 PD
24 W
3224 1834 PD
24 W
3271 1603 PD
24 W
3317 1182 PD
24 W
3363 1279 PD
24 W
3409 1502 PD
24 W
3456 1552 PD
24 W
3502 1014 PD
24 W
3548 1038 PD
24 W
3595 1328 PD
24 W
3641 1402 PD
24 W
3687 1502 PD
24 W
3733 1158 PD
24 W
3780 1782 PD
24 W
3826 1861 PD
24 W
3872 827 PD
24 W
3919 1353 PD
24 W
3965 1861 PD
24 W
4011 1628 PD
24 W
4058 532 PD
24 W
4104 1808 PD
24 W
4150 1861 PD
24 W
4196 1731 PD
24 W
4243 1782 PD
24 W
4289 920 PD
24 W
4335 2019 PD
24 W
4382 1402 PD
24 W
4428 2019 PD
24 W
4474 1477 PD
24 W
4520 1887 PD
24 W
4567 1756 PD
24 W
4613 1206 PD
24 W
4659 1887 PD
24 W
4706 2127 PD
24 W
4752 1402 PD
24 W
4798 1679 PD
24 W
4844 1577 PD
24 W
4891 1402 PD
24 W
4937 1304 PD
24 W
4983 2346 PD
24 W
5030 1731 PD
24 W
5076 1552 PD
24 W
5122 1861 PD
24 W
5168 1913 PD
24 W
5215 1756 PD
24 W
5261 850 PD
24 W
5307 967 PD
24 W
5354 1377 PD
24 W
5400 2073 PD
24 W
5446 944 PD
24 W
5493 667 PD
DA
gr

gs 864 311 4630 3649 rc
/c10 { 1.000000 0.000000 0.000000 sr} bdef
c10
47 81 46 -607 46 281 47 -83 46 382 46 -299 47 0 46 245 
46 0 46 54 47 -580 46 472 46 396 47 -342 46 -108 46 162 
46 -162 47 -305 46 494 46 -108 47 -135 46 348 46 -459 46 354 
47 26 46 -215 46 -165 47 -225 46 498 46 -81 46 293 47 -625 
46 332 46 -445 47 712 46 -376 46 -194 47 56 46 382 46 617 
46 -725 47 319 46 -26 46 -347 47 -54 46 -336 46 605 46 -161 
47 -302 46 221 46 321 47 -376 46 190 46 -384 46 -85 47 334 
46 162 46 27 47 -327 46 219 46 81 46 212 47 -293 46 188 
46 -161 47 369 46 -559 46 163 47 266 46 -239 46 421 46 -694 
47 83 46 0 46 -139 47 516 46 -601 46 601 46 26 47 385 
46 -437 46 -379 47 352 46 235 46 -642 46 460 47 -26 46 311 
46 -338 47 27 46 208 46 103 46 -445 47 160 46 -133 46 -108 
47 577 46 -128 46 -103 910 1808 100 MP stroke
gr

c10
gs 837 1329 4730 1344 rc
SO
 885 1783 mt  935 1833 L
 935 1783 mt  885 1833 L
 931 1680 mt  981 1730 L
 981 1680 mt  931 1730 L
 977 1552 mt 1027 1602 L
1027 1552 mt  977 1602 L
1024 2129 mt 1074 2179 L
1074 2129 mt 1024 2179 L
1070 2021 mt 1120 2071 L
1120 2021 mt 1070 2071 L
1116 1888 mt 1166 1938 L
1166 1888 mt 1116 1938 L
1163 2048 mt 1213 2098 L
1213 2048 mt 1163 2098 L
1209 1603 mt 1259 1653 L
1259 1603 mt 1209 1653 L
1255 1706 mt 1305 1756 L
1305 1706 mt 1255 1756 L
1301 1914 mt 1351 1964 L
1351 1914 mt 1301 1964 L
1348 1941 mt 1398 1991 L
1398 1941 mt 1348 1991 L
1394 1603 mt 1444 1653 L
1444 1603 mt 1394 1653 L
1440 1914 mt 1490 1964 L
1490 1914 mt 1440 1964 L
1487 1888 mt 1537 1938 L
1537 1888 mt 1487 1938 L
1533 2348 mt 1583 2398 L
1583 2348 mt 1533 2398 L
1579 1706 mt 1629 1756 L
1629 1706 mt 1579 1756 L
1625 1941 mt 1675 1991 L
1675 1941 mt 1625 1991 L
1672 2293 mt 1722 2343 L
1722 2293 mt 1672 2343 L
1718 1914 mt 1768 1964 L
1768 1914 mt 1718 1964 L
1764 1477 mt 1814 1527 L
1814 1477 mt 1764 1527 L
1811 1862 mt 1861 1912 L
1861 1862 mt 1811 1912 L
1857 1888 mt 1907 1938 L
1907 1888 mt 1857 1938 L
1903 2489 mt 1953 2539 L
1953 2489 mt 1903 2539 L
1949 1888 mt 1999 1938 L
1999 1888 mt 1949 1938 L
1996 2404 mt 2046 2454 L
2046 2404 mt 1996 2454 L
2042 2265 mt 2092 2315 L
2092 2265 mt 2042 2315 L
2088 2265 mt 2138 2315 L
2138 2265 mt 2088 2315 L
2135 2348 mt 2185 2398 L
2185 2348 mt 2135 2398 L
2181 1654 mt 2231 1704 L
2231 1654 mt 2181 1704 L
2227 2075 mt 2277 2125 L
2277 2075 mt 2227 2125 L
2273 1836 mt 2323 1886 L
2323 1836 mt 2273 1886 L
2320 2102 mt 2370 2152 L
2370 2102 mt 2320 2152 L
2366 2265 mt 2416 2315 L
2416 2265 mt 2366 2315 L
2412 1706 mt 2462 1756 L
2462 1706 mt 2412 1756 L
2459 2075 mt 2509 2125 L
2509 2075 mt 2459 2125 L
2505 1914 mt 2555 1964 L
2555 1914 mt 2505 1964 L
2551 2102 mt 2601 2152 L
2601 2102 mt 2551 2152 L
2598 1809 mt 2648 1859 L
2648 1809 mt 2598 1859 L
2644 2021 mt 2694 2071 L
2694 2021 mt 2644 2071 L
2690 2102 mt 2740 2152 L
2740 2102 mt 2690 2152 L
2736 2321 mt 2786 2371 L
2786 2321 mt 2736 2371 L
2783 1994 mt 2833 2044 L
2833 1994 mt 2783 2044 L
2829 2021 mt 2879 2071 L
2879 2021 mt 2829 2071 L
2875 2183 mt 2925 2233 L
2925 2183 mt 2875 2233 L
2922 2517 mt 2972 2567 L
2972 2517 mt 2922 2567 L
2968 2432 mt 3018 2482 L
3018 2432 mt 2968 2482 L
3014 2048 mt 3064 2098 L
3064 2048 mt 3014 2098 L
3060 2238 mt 3110 2288 L
3110 2238 mt 3060 2288 L
3107 1862 mt 3157 1912 L
3157 1862 mt 3107 1912 L
3153 2183 mt 3203 2233 L
3203 2183 mt 3153 2233 L
3199 2404 mt 3249 2454 L
3249 2404 mt 3199 2454 L
3246 2102 mt 3296 2152 L
3296 2102 mt 3246 2152 L
3292 1941 mt 3342 1991 L
3342 1941 mt 3292 1991 L
3338 2546 mt 3388 2596 L
3388 2546 mt 3338 2596 L
3384 2210 mt 3434 2260 L
3434 2210 mt 3384 2260 L
3431 2156 mt 3481 2206 L
3481 2156 mt 3431 2206 L
3477 1809 mt 3527 1859 L
3527 1809 mt 3477 1859 L
3523 1783 mt 3573 1833 L
3573 1783 mt 3523 1833 L
3570 2102 mt 3620 2152 L
3620 2102 mt 3570 2152 L
3616 1377 mt 3666 1427 L
3666 1377 mt 3616 1427 L
3662 1994 mt 3712 2044 L
3712 1994 mt 3662 2044 L
3708 2376 mt 3758 2426 L
3758 2376 mt 3708 2426 L
3755 2432 mt 3805 2482 L
3805 2432 mt 3755 2482 L
3801 2238 mt 3851 2288 L
3851 2238 mt 3801 2288 L
3847 1862 mt 3897 1912 L
3897 1862 mt 3847 1912 L
3894 2574 mt 3944 2624 L
3944 2574 mt 3894 2624 L
3940 2129 mt 3990 2179 L
3990 2129 mt 3940 2179 L
3986 2461 mt 4036 2511 L
4036 2461 mt 3986 2511 L
4033 1836 mt 4083 1886 L
4083 1836 mt 4033 1886 L
4079 2129 mt 4129 2179 L
4129 2129 mt 4079 2179 L
4125 2048 mt 4175 2098 L
4175 2048 mt 4125 2098 L
4171 2546 mt 4221 2596 L
4221 2546 mt 4171 2596 L
4218 2321 mt 4268 2371 L
4268 2321 mt 4218 2371 L
4264 2156 mt 4314 2206 L
4314 2156 mt 4264 2206 L
4310 1941 mt 4360 1991 L
4360 1941 mt 4310 1991 L
4357 1967 mt 4407 2017 L
4407 1967 mt 4357 2017 L
4403 2321 mt 4453 2371 L
4453 2321 mt 4403 2371 L
4449 1862 mt 4499 1912 L
4499 1862 mt 4449 1912 L
4495 2210 mt 4545 2260 L
4545 2210 mt 4495 2260 L
4542 2075 mt 4592 2125 L
4592 2075 mt 4542 2125 L
4588 1967 mt 4638 2017 L
4638 1967 mt 4588 2017 L
4634 2461 mt 4684 2511 L
4684 2461 mt 4634 2511 L
4681 2156 mt 4731 2206 L
4731 2156 mt 4681 2206 L
4727 1994 mt 4777 2044 L
4777 1994 mt 4727 2044 L
4773 2156 mt 4823 2206 L
4823 2156 mt 4773 2206 L
4819 2048 mt 4869 2098 L
4869 2048 mt 4819 2098 L
4866 1706 mt 4916 1756 L
4916 1706 mt 4866 1756 L
4912 2102 mt 4962 2152 L
4962 2102 mt 4912 2152 L
4958 2574 mt 5008 2624 L
5008 2574 mt 4958 2624 L
5005 1994 mt 5055 2044 L
5055 1994 mt 5005 2044 L
5051 2048 mt 5101 2098 L
5101 2048 mt 5051 2098 L
5097 2048 mt 5147 2098 L
5147 2048 mt 5097 2098 L
5143 2293 mt 5193 2343 L
5193 2293 mt 5143 2343 L
5190 2293 mt 5240 2343 L
5240 2293 mt 5190 2343 L
5236 1994 mt 5286 2044 L
5286 1994 mt 5236 2044 L
5282 2376 mt 5332 2426 L
5332 2376 mt 5282 2426 L
5329 2293 mt 5379 2343 L
5379 2293 mt 5329 2343 L
5375 2574 mt 5425 2624 L
5425 2574 mt 5375 2624 L
5421 1967 mt 5471 2017 L
5471 1967 mt 5421 2017 L
5468 2048 mt 5518 2098 L
5518 2048 mt 5468 2098 L
DA
gr

gs 864 311 4630 3649 rc
SO
gr

SO
1 sg
0 623 1799 0 0 -623 2821 3911 4 MP
PP
-1799 0 0 623 1799 0 0 -623 2821 3911 5 MP stroke
4 w
DO
SO
6 w
0 sg
2821 3911 mt 4620 3911 L
2821 3288 mt 4620 3288 L
2821 3911 mt 2821 3288 L
4620 3911 mt 4620 3288 L
2821 3911 mt 4620 3911 L
2821 3911 mt 2821 3288 L
2821 3911 mt 4620 3911 L
2821 3288 mt 4620 3288 L
2821 3911 mt 2821 3288 L
4620 3911 mt 4620 3288 L
3289 3450 mt 
(Block-wise Assignment) s
gs 2821 3288 1800 624 rc
DA
c8
360 0 2893 3407 2 MP stroke
SO
gs 3000 3334 147 147 rc
  36   36 3073 3407 FO
gr

gr

c8
0 sg
3289 3642 mt 
(Sequential OP) s
gs 2821 3288 1800 624 rc
DA
/c11 { 0.000000 0.500000 0.000000 sr} bdef
c11
360 0 2893 3599 2 MP stroke
SO
gs 3000 3526 147 147 rc
24 W
3073 3599 PD
gr

gr

c11
0 sg
3289 3834 mt 
(Novel OP) s
gs 2821 3288 1800 624 rc
DA
c10
360 0 2893 3791 2 MP stroke
3073 3791 PD
SO
gr

c10

end %%Color Dict

eplot
%%EndObject

epage
end

showpage

%%Trailer
%%EOF
