%!PS-Adobe-3.0 EPSF-3.0
%%Creator: MATLAB, The MathWorks, Inc. Version 8.1.0.604 (R2013a). Operating System: Darwin 13.4.0 Darwin Kernel Version 13.4.0: Sun Aug 17 19:50:11 PDT 2014; root:xnu-2422.115.4~1/RELEASE_X86_64 x86_64.
%%Title: /Users/le/Work/project3/Figures/Results/0925/w20/comparison_jitter016_u1_r0.eps
%%CreationDate: 09/26/2014  13:52:15
%%DocumentNeededFonts: Helvetica
%%DocumentProcessColors: Cyan Magenta Yellow Black
%%LanguageLevel: 2
%%Pages: 1
%%BoundingBox:    51   196   559   595
%%EndComments

%%BeginProlog
% MathWorks dictionary
/MathWorks 160 dict begin
% definition operators
/bdef {bind def} bind def
/ldef {load def} bind def
/xdef {exch def} bdef
/xstore {exch store} bdef
% operator abbreviations
/c  /clip ldef
/cc /concat ldef
/cp /closepath ldef
/gr /grestore ldef
/gs /gsave ldef
/mt /moveto ldef
/np /newpath ldef
/cm /currentmatrix ldef
/sm /setmatrix ldef
/rm /rmoveto ldef
/rl /rlineto ldef
/s {show newpath} bdef
/sc {setcmykcolor} bdef
/sr /setrgbcolor ldef
/sg /setgray ldef
/w /setlinewidth ldef
/j /setlinejoin ldef
/cap /setlinecap ldef
/rc {rectclip} bdef
/rf {rectfill} bdef
% page state control
/pgsv () def
/bpage {/pgsv save def} bdef
/epage {pgsv restore} bdef
/bplot /gsave ldef
/eplot {stroke grestore} bdef
% orientation switch
/portraitMode 0 def /landscapeMode 1 def /rotateMode 2 def
% coordinate system mappings
/dpi2point 0 def
% font control
/FontSize 0 def
/FMS {/FontSize xstore findfont [FontSize 0 0 FontSize neg 0 0]
  makefont setfont} bdef
/reencode {exch dup where {pop load} {pop StandardEncoding} ifelse
  exch dup 3 1 roll findfont dup length dict begin
  { 1 index /FID ne {def}{pop pop} ifelse } forall
  /Encoding exch def currentdict end definefont pop} bdef
/isroman {findfont /CharStrings get /Agrave known} bdef
/FMSR {3 1 roll 1 index dup isroman {reencode} {pop pop} ifelse
  exch FMS} bdef
/csm {1 dpi2point div -1 dpi2point div scale neg translate
 dup landscapeMode eq {pop -90 rotate}
  {rotateMode eq {90 rotate} if} ifelse} bdef
% line types: solid, dotted, dashed, dotdash
/SO { [] 0 setdash } bdef
/DO { [.5 dpi2point mul 4 dpi2point mul] 0 setdash } bdef
/DA { [6 dpi2point mul] 0 setdash } bdef
/DD { [.5 dpi2point mul 4 dpi2point mul 6 dpi2point mul 4
  dpi2point mul] 0 setdash } bdef
% macros for lines and objects
/L {lineto stroke} bdef
/MP {3 1 roll moveto 1 sub {rlineto} repeat} bdef
/AP {{rlineto} repeat} bdef
/PDlw -1 def
/W {/PDlw currentlinewidth def setlinewidth} def
/PP {closepath eofill} bdef
/DP {closepath stroke} bdef
/MR {4 -2 roll moveto dup  0 exch rlineto exch 0 rlineto
  neg 0 exch rlineto closepath} bdef
/FR {MR stroke} bdef
/PR {MR fill} bdef
/L1i {{currentfile picstr readhexstring pop} image} bdef
/tMatrix matrix def
/MakeOval {newpath tMatrix currentmatrix pop translate scale
0 0 1 0 360 arc tMatrix setmatrix} bdef
/FO {MakeOval stroke} bdef
/PO {MakeOval fill} bdef
/PD {currentlinewidth 2 div 0 360 arc fill
   PDlw -1 eq not {PDlw w /PDlw -1 def} if} def
/FA {newpath tMatrix currentmatrix pop translate scale
  0 0 1 5 -2 roll arc tMatrix setmatrix stroke} bdef
/PA {newpath tMatrix currentmatrix pop	translate 0 0 moveto scale
  0 0 1 5 -2 roll arc closepath tMatrix setmatrix fill} bdef
/FAn {newpath tMatrix currentmatrix pop translate scale
  0 0 1 5 -2 roll arcn tMatrix setmatrix stroke} bdef
/PAn {newpath tMatrix currentmatrix pop translate 0 0 moveto scale
  0 0 1 5 -2 roll arcn closepath tMatrix setmatrix fill} bdef
/vradius 0 def /hradius 0 def /lry 0 def
/lrx 0 def /uly 0 def /ulx 0 def /rad 0 def
/MRR {/vradius xdef /hradius xdef /lry xdef /lrx xdef /uly xdef
  /ulx xdef newpath tMatrix currentmatrix pop ulx hradius add uly
  vradius add translate hradius vradius scale 0 0 1 180 270 arc 
  tMatrix setmatrix lrx hradius sub uly vradius add translate
  hradius vradius scale 0 0 1 270 360 arc tMatrix setmatrix
  lrx hradius sub lry vradius sub translate hradius vradius scale
  0 0 1 0 90 arc tMatrix setmatrix ulx hradius add lry vradius sub
  translate hradius vradius scale 0 0 1 90 180 arc tMatrix setmatrix
  closepath} bdef
/FRR {MRR stroke } bdef
/PRR {MRR fill } bdef
/MlrRR {/lry xdef /lrx xdef /uly xdef /ulx xdef /rad lry uly sub 2 div def
  newpath tMatrix currentmatrix pop ulx rad add uly rad add translate
  rad rad scale 0 0 1 90 270 arc tMatrix setmatrix lrx rad sub lry rad
  sub translate rad rad scale 0 0 1 270 90 arc tMatrix setmatrix
  closepath} bdef
/FlrRR {MlrRR stroke } bdef
/PlrRR {MlrRR fill } bdef
/MtbRR {/lry xdef /lrx xdef /uly xdef /ulx xdef /rad lrx ulx sub 2 div def
  newpath tMatrix currentmatrix pop ulx rad add uly rad add translate
  rad rad scale 0 0 1 180 360 arc tMatrix setmatrix lrx rad sub lry rad
  sub translate rad rad scale 0 0 1 0 180 arc tMatrix setmatrix
  closepath} bdef
/FtbRR {MtbRR stroke } bdef
/PtbRR {MtbRR fill } bdef
/stri 6 array def /dtri 6 array def
/smat 6 array def /dmat 6 array def
/tmat1 6 array def /tmat2 6 array def /dif 3 array def
/asub {/ind2 exch def /ind1 exch def dup dup
  ind1 get exch ind2 get sub exch } bdef
/tri_to_matrix {
  2 0 asub 3 1 asub 4 0 asub 5 1 asub
  dup 0 get exch 1 get 7 -1 roll astore } bdef
/compute_transform {
  dmat dtri tri_to_matrix tmat1 invertmatrix 
  smat stri tri_to_matrix tmat2 concatmatrix } bdef
/ds {stri astore pop} bdef
/dt {dtri astore pop} bdef
/db {2 copy /cols xdef /rows xdef mul dup 3 mul string
  currentfile 
  3 index 0 eq {/ASCIIHexDecode filter}
  {/ASCII85Decode filter 3 index 2 eq {/RunLengthDecode filter} if }
  ifelse exch readstring pop
  dup 0 3 index getinterval /rbmap xdef
  dup 2 index dup getinterval /gbmap xdef
  1 index dup 2 mul exch getinterval /bbmap xdef pop pop}bdef
/it {gs np dtri aload pop moveto lineto lineto cp c
  cols rows 8 compute_transform 
  rbmap gbmap bbmap true 3 colorimage gr}bdef
/il {newpath moveto lineto stroke}bdef
currentdict end def
%%EndProlog

%%BeginSetup
MathWorks begin

0 cap

end
%%EndSetup

%%Page: 1 1
%%BeginPageSetup
%%PageBoundingBox:    51   196   559   595
MathWorks begin
bpage
%%EndPageSetup

%%BeginObject: obj1
bplot

/dpi2point 12 def
portraitMode 0612 7140 csm

    0     0  6096  4788 rc
85 dict begin %Colortable dictionary
/c0 { 0.000000 0.000000 0.000000 sr} bdef
/c1 { 1.000000 1.000000 1.000000 sr} bdef
/c2 { 0.900000 0.000000 0.000000 sr} bdef
/c3 { 0.000000 0.820000 0.000000 sr} bdef
/c4 { 0.000000 0.000000 0.800000 sr} bdef
/c5 { 0.910000 0.820000 0.320000 sr} bdef
/c6 { 1.000000 0.260000 0.820000 sr} bdef
/c7 { 0.000000 0.820000 0.820000 sr} bdef
c0
1 j
1 sg
   0    0 6097 4789 rf
6 w
0 3902 4725 0 0 -3902 792 4261 4 MP
PP
-4725 0 0 3902 4725 0 0 -3902 792 4261 5 MP stroke
4 w
DO
0 sg
 792 4261 mt  792  359 L
 792  359 mt  792  359 L
1579 4261 mt 1579  359 L
1579  359 mt 1579  359 L
2367 4261 mt 2367  359 L
2367  359 mt 2367  359 L
3154 4261 mt 3154  359 L
3154  359 mt 3154  359 L
3942 4261 mt 3942  359 L
3942  359 mt 3942  359 L
4729 4261 mt 4729  359 L
4729  359 mt 4729  359 L
5517 4261 mt 5517  359 L
5517  359 mt 5517  359 L
 792 4261 mt 5517 4261 L
5517 4261 mt 5517 4261 L
 792 3870 mt 5517 3870 L
5517 3870 mt 5517 3870 L
 792 3480 mt 5517 3480 L
5517 3480 mt 5517 3480 L
 792 3090 mt 5517 3090 L
5517 3090 mt 5517 3090 L
 792 2700 mt 5517 2700 L
5517 2700 mt 5517 2700 L
 792 2310 mt 5517 2310 L
5517 2310 mt 5517 2310 L
 792 1919 mt 5517 1919 L
5517 1919 mt 5517 1919 L
 792 1529 mt 5517 1529 L
5517 1529 mt 5517 1529 L
 792 1139 mt 5517 1139 L
5517 1139 mt 5517 1139 L
 792  749 mt 5517  749 L
5517  749 mt 5517  749 L
 792  359 mt 5517  359 L
5517  359 mt 5517  359 L
SO
6 w
 792 4261 mt 5517 4261 L
 792  359 mt 5517  359 L
 792 4261 mt  792  359 L
5517 4261 mt 5517  359 L
 792 4261 mt 5517 4261 L
 792 4261 mt  792  359 L
 792 4261 mt  792 4213 L
 792  359 mt  792  406 L
%%IncludeResource: font Helvetica
/Helvetica /ISOLatin1Encoding 168 FMSR

 578 4451 mt 
(-1.5) s
1579 4261 mt 1579 4213 L
1579  359 mt 1579  406 L
1435 4451 mt 
(-1) s
2367 4261 mt 2367 4213 L
2367  359 mt 2367  406 L
2153 4451 mt 
(-0.5) s
3154 4261 mt 3154 4213 L
3154  359 mt 3154  406 L
3108 4451 mt 
(0) s
3942 4261 mt 3942 4213 L
3942  359 mt 3942  406 L
3826 4451 mt 
(0.5) s
4729 4261 mt 4729 4213 L
4729  359 mt 4729  406 L
4683 4451 mt 
(1) s
5517 4261 mt 5517 4213 L
5517  359 mt 5517  406 L
5401 4451 mt 
(1.5) s
 792 4261 mt  839 4261 L
5517 4261 mt 5469 4261 L
 664 4323 mt 
(0) s
 792 3870 mt  839 3870 L
5517 3870 mt 5469 3870 L
 524 3932 mt 
(0.1) s
 792 3480 mt  839 3480 L
5517 3480 mt 5469 3480 L
 524 3542 mt 
(0.2) s
 792 3090 mt  839 3090 L
5517 3090 mt 5469 3090 L
 524 3152 mt 
(0.3) s
 792 2700 mt  839 2700 L
5517 2700 mt 5469 2700 L
 524 2762 mt 
(0.4) s
 792 2310 mt  839 2310 L
5517 2310 mt 5469 2310 L
 524 2372 mt 
(0.5) s
 792 1919 mt  839 1919 L
5517 1919 mt 5469 1919 L
 524 1981 mt 
(0.6) s
 792 1529 mt  839 1529 L
5517 1529 mt 5469 1529 L
 524 1591 mt 
(0.7) s
 792 1139 mt  839 1139 L
5517 1139 mt 5469 1139 L
 524 1201 mt 
(0.8) s
 792  749 mt  839  749 L
5517  749 mt 5469  749 L
 524  811 mt 
(0.9) s
 792  359 mt  839  359 L
5517  359 mt 5469  359 L
 664  421 mt 
(1) s
 792 4261 mt 5517 4261 L
 792  359 mt 5517  359 L
 792 4261 mt  792  359 L
5517 4261 mt 5517  359 L
gs 792 359 4726 3903 rc
/c8 { 0.000000 0.000000 1.000000 sr} bdef
c8
0 -39 568 0 0 -39 17 0 0 -40 101 0 0 -39 33 0 
0 -40 31 0 0 -39 33 0 0 -39 52 0 0 -40 2 0 
0 -39 70 0 0 -40 49 0 0 -39 56 0 0 -39 14 0 
0 -40 5 0 0 -39 24 0 0 -40 9 0 0 -39 55 0 
0 -40 68 0 0 -39 15 0 0 -39 36 0 0 -40 26 0 
0 -39 24 0 0 -40 1 0 0 -39 52 0 0 -39 5 0 
0 -40 60 0 0 -39 14 0 0 -40 108 0 0 -39 11 0 
0 -40 47 0 0 -39 43 0 0 -39 9 0 0 -40 31 0 
0 -39 6 0 0 -40 6 0 0 -39 20 0 0 -39 3 0 
0 -40 1 0 0 -39 34 0 0 -40 6 0 0 -39 4 0 
0 -39 20 0 0 -40 19 0 0 -39 25 0 0 -40 25 0 
0 -39 1 0 0 -40 3 0 0 -39 23 0 0 -39 2 0 
0 -79 25 0 0 -40 27 0 0 -39 24 0 0 -39 3 0 
0 -40 27 0 0 -39 3 0 0 -40 20 0 0 -39 1 0 
0 -40 3 0 0 -39 3 0 0 -39 80 0 0 -40 20 0 
0 -39 38 0 0 -40 16 0 0 -39 29 0 0 -39 18 0 
0 -40 6 0 0 -39 78 0 0 -40 54 0 0 -39 12 0 
0 -39 17 0 0 -40 1 0 0 -39 32 0 0 -40 34 0 
0 -39 22 0 0 -40 7 0 0 -39 22 0 0 -39 48 0 
0 -40 49 0 0 -39 17 0 0 -40 15 0 0 -39 6 0 
0 -39 2 0 0 -40 3 0 0 -39 53 0 0 -40 97 0 
0 -39 37 0 0 -40 9 0 0 -39 58 0 0 -39 9 0 
0 -40 6 0 0 -39 142 0 0 -40 19 0 0 -39 16 0 
0 -39 20 0 0 -40 203 0 0 -39 29 0 0 -40 577 0 
0 -39 16 0 0 -40 1153 4261 196 MP stroke
gr

c8
0 sg
3111 4629 mt 
(x) s
 432 2460 mt  -90 rotate
(F\(x\)) s
90 rotate
 872  227 mt 
(Empirical CDF of utilization jitter between GOP for  UT1, r\
un0) s
gs 792 359 4726 3903 rc
/c9 { 0.000000 0.500000 0.000000 sr} bdef
c9
0 -39 221 0 0 -39 24 0 0 -40 19 0 0 -39 40 0 
0 -40 33 0 0 -39 20 0 0 -39 53 0 0 -40 66 0 
0 -39 45 0 0 -40 16 0 0 -39 10 0 0 -39 22 0 
0 -40 7 0 0 -39 26 0 0 -40 22 0 0 -39 11 0 
0 -40 3 0 0 -39 28 0 0 -39 9 0 0 -40 2 0 
0 -39 1 0 0 -40 41 0 0 -39 3 0 0 -39 1 0 
0 -40 11 0 0 -39 1 0 0 -40 11 0 0 -39 15 0 
0 -40 9 0 0 -39 3 0 0 -39 4 0 0 -40 26 0 
0 -39 44 0 0 -40 10 0 0 -39 23 0 0 -39 9 0 
0 -40 7 0 0 -39 29 0 0 -40 14 0 0 -39 11 0 
0 -39 46 0 0 -40 18 0 0 -39 1 0 0 -40 5 0 
0 -39 19 0 0 -40 18 0 0 -39 1 0 0 -39 1 0 
0 -40 20 0 0 -79 22 0 0 -39 18 0 0 -39 2 0 
0 -40 1 0 0 -39 21 0 0 -40 5 0 0 -39 14 0 
0 -40 1 0 0 -39 7 0 0 -39 17 0 0 -40 7 0 
0 -39 14 0 0 -40 2 0 0 -39 16 0 0 -39 1 0 
0 -40 9 0 0 -39 6 0 0 -40 42 0 0 -39 41 0 
0 -39 14 0 0 -40 3 0 0 -39 13 0 0 -40 4 0 
0 -39 7 0 0 -40 13 0 0 -39 39 0 0 -39 7 0 
0 -40 11 0 0 -39 0 -40 52 0 0 -39 39 0 0 -39 
10 0 0 -40 23 0 0 -39 28 0 0 -40 25 0 0 -39 
37 0 0 -40 47 0 0 -39 2 0 0 -39 41 0 0 -40 
4 0 0 -39 89 0 0 -79 15 0 0 -39 16 0 0 -40 
12 0 0 -39 42 0 0 -40 27 0 0 -39 69 0 0 -40 
2219 4261 193 MP stroke
gr

c9
gs 2146 286 2161 4049 rc
2194 4236 mt 2244 4286 L
2244 4236 mt 2194 4286 L
2194 4196 mt 2244 4246 L
2244 4196 mt 2194 4246 L
2263 4196 mt 2313 4246 L
2313 4196 mt 2263 4246 L
2263 4157 mt 2313 4207 L
2313 4157 mt 2263 4207 L
2290 4157 mt 2340 4207 L
2340 4157 mt 2290 4207 L
2290 4117 mt 2340 4167 L
2340 4117 mt 2290 4167 L
2332 4117 mt 2382 4167 L
2382 4117 mt 2332 4167 L
2332 4078 mt 2382 4128 L
2382 4078 mt 2332 4128 L
2344 4078 mt 2394 4128 L
2394 4078 mt 2344 4128 L
2344 4038 mt 2394 4088 L
2394 4038 mt 2344 4088 L
2360 4038 mt 2410 4088 L
2410 4038 mt 2360 4088 L
2360 3999 mt 2410 4049 L
2410 3999 mt 2360 4049 L
2375 3999 mt 2425 4049 L
2425 3999 mt 2375 4049 L
2375 3920 mt 2425 3970 L
2425 3920 mt 2375 3970 L
2464 3920 mt 2514 3970 L
2514 3920 mt 2464 3970 L
2464 3881 mt 2514 3931 L
2514 3881 mt 2464 3931 L
2468 3881 mt 2518 3931 L
2518 3881 mt 2468 3931 L
2468 3841 mt 2518 3891 L
2518 3841 mt 2468 3891 L
2509 3841 mt 2559 3891 L
2559 3841 mt 2509 3891 L
2509 3802 mt 2559 3852 L
2559 3802 mt 2509 3852 L
2511 3802 mt 2561 3852 L
2561 3802 mt 2511 3852 L
2511 3763 mt 2561 3813 L
2561 3763 mt 2511 3813 L
2558 3763 mt 2608 3813 L
2608 3763 mt 2558 3813 L
2558 3723 mt 2608 3773 L
2608 3723 mt 2558 3773 L
2595 3723 mt 2645 3773 L
2645 3723 mt 2595 3773 L
2595 3684 mt 2645 3734 L
2645 3684 mt 2595 3734 L
2620 3684 mt 2670 3734 L
2670 3684 mt 2620 3734 L
2620 3644 mt 2670 3694 L
2670 3644 mt 2620 3694 L
2648 3644 mt 2698 3694 L
2698 3644 mt 2648 3694 L
2648 3605 mt 2698 3655 L
2698 3605 mt 2648 3655 L
2671 3605 mt 2721 3655 L
2721 3605 mt 2671 3655 L
2671 3565 mt 2721 3615 L
2721 3565 mt 2671 3615 L
2681 3565 mt 2731 3615 L
2731 3565 mt 2681 3615 L
2681 3526 mt 2731 3576 L
2731 3526 mt 2681 3576 L
2720 3526 mt 2770 3576 L
2770 3526 mt 2720 3576 L
2720 3487 mt 2770 3537 L
2770 3487 mt 2720 3537 L
2772 3487 mt 2822 3537 L
2822 3487 mt 2772 3537 L
2772 3447 mt 2822 3497 L
2822 3447 mt 2772 3497 L
2772 3408 mt 2822 3458 L
2822 3408 mt 2772 3458 L
2783 3408 mt 2833 3458 L
2833 3408 mt 2783 3458 L
2783 3368 mt 2833 3418 L
2833 3368 mt 2783 3418 L
2790 3368 mt 2840 3418 L
2840 3368 mt 2790 3418 L
2790 3329 mt 2840 3379 L
2840 3329 mt 2790 3379 L
2829 3329 mt 2879 3379 L
2879 3329 mt 2829 3379 L
2829 3290 mt 2879 3340 L
2879 3290 mt 2829 3340 L
2842 3290 mt 2892 3340 L
2892 3290 mt 2842 3340 L
2842 3250 mt 2892 3300 L
2892 3250 mt 2842 3300 L
2849 3250 mt 2899 3300 L
2899 3250 mt 2849 3300 L
2849 3211 mt 2899 3261 L
2899 3211 mt 2849 3261 L
2853 3211 mt 2903 3261 L
2903 3211 mt 2853 3261 L
2853 3171 mt 2903 3221 L
2903 3171 mt 2853 3221 L
2866 3171 mt 2916 3221 L
2916 3171 mt 2866 3221 L
2866 3132 mt 2916 3182 L
2916 3132 mt 2866 3182 L
2869 3132 mt 2919 3182 L
2919 3132 mt 2869 3182 L
2869 3092 mt 2919 3142 L
2919 3092 mt 2869 3142 L
2883 3092 mt 2933 3142 L
2933 3092 mt 2883 3142 L
2883 3053 mt 2933 3103 L
2933 3053 mt 2883 3103 L
2924 3053 mt 2974 3103 L
2974 3053 mt 2924 3103 L
2924 3014 mt 2974 3064 L
2974 3014 mt 2924 3064 L
2966 3014 mt 3016 3064 L
3016 3014 mt 2966 3064 L
2966 2974 mt 3016 3024 L
3016 2974 mt 2966 3024 L
2972 2974 mt 3022 3024 L
3022 2974 mt 2972 3024 L
2972 2935 mt 3022 2985 L
3022 2935 mt 2972 2985 L
2981 2935 mt 3031 2985 L
3031 2935 mt 2981 2985 L
2981 2895 mt 3031 2945 L
3031 2895 mt 2981 2945 L
2982 2895 mt 3032 2945 L
3032 2895 mt 2982 2945 L
2982 2856 mt 3032 2906 L
3032 2856 mt 2982 2906 L
2998 2856 mt 3048 2906 L
3048 2856 mt 2998 2906 L
2998 2817 mt 3048 2867 L
3048 2817 mt 2998 2867 L
3000 2817 mt 3050 2867 L
3050 2817 mt 3000 2867 L
3000 2777 mt 3050 2827 L
3050 2777 mt 3000 2827 L
3014 2777 mt 3064 2827 L
3064 2777 mt 3014 2827 L
3014 2738 mt 3064 2788 L
3064 2738 mt 3014 2788 L
3021 2738 mt 3071 2788 L
3071 2738 mt 3021 2788 L
3021 2698 mt 3071 2748 L
3071 2698 mt 3021 2748 L
3038 2698 mt 3088 2748 L
3088 2698 mt 3038 2748 L
3038 2659 mt 3088 2709 L
3088 2659 mt 3038 2709 L
3045 2659 mt 3095 2709 L
3095 2659 mt 3045 2709 L
3045 2620 mt 3095 2670 L
3095 2620 mt 3045 2670 L
3046 2620 mt 3096 2670 L
3096 2620 mt 3046 2670 L
3046 2580 mt 3096 2630 L
3096 2580 mt 3046 2630 L
3060 2580 mt 3110 2630 L
3110 2580 mt 3060 2630 L
3060 2541 mt 3110 2591 L
3110 2541 mt 3060 2591 L
3065 2541 mt 3115 2591 L
3115 2541 mt 3065 2591 L
3065 2501 mt 3115 2551 L
3115 2501 mt 3065 2551 L
3086 2501 mt 3136 2551 L
3136 2501 mt 3086 2551 L
3086 2462 mt 3136 2512 L
3136 2462 mt 3086 2512 L
3087 2462 mt 3137 2512 L
3137 2462 mt 3087 2512 L
3087 2422 mt 3137 2472 L
3137 2422 mt 3087 2472 L
3089 2422 mt 3139 2472 L
3139 2422 mt 3089 2472 L
3089 2383 mt 3139 2433 L
3139 2383 mt 3089 2433 L
3107 2383 mt 3157 2433 L
3157 2383 mt 3107 2433 L
3107 2344 mt 3157 2394 L
3157 2344 mt 3107 2394 L
3129 2344 mt 3179 2394 L
3179 2344 mt 3129 2394 L
3129 2265 mt 3179 2315 L
3179 2265 mt 3129 2315 L
3149 2265 mt 3199 2315 L
3199 2265 mt 3149 2315 L
3149 2225 mt 3199 2275 L
3199 2225 mt 3149 2275 L
3150 2225 mt 3200 2275 L
3200 2225 mt 3150 2275 L
3150 2186 mt 3200 2236 L
3200 2186 mt 3150 2236 L
3151 2186 mt 3201 2236 L
3201 2186 mt 3151 2236 L
3151 2147 mt 3201 2197 L
3201 2147 mt 3151 2197 L
3169 2147 mt 3219 2197 L
3219 2147 mt 3169 2197 L
3169 2107 mt 3219 2157 L
3219 2107 mt 3169 2157 L
3188 2107 mt 3238 2157 L
3238 2107 mt 3188 2157 L
3188 2068 mt 3238 2118 L
3238 2068 mt 3188 2118 L
3193 2068 mt 3243 2118 L
3243 2068 mt 3193 2118 L
3193 2028 mt 3243 2078 L
3243 2028 mt 3193 2078 L
3194 2028 mt 3244 2078 L
3244 2028 mt 3194 2078 L
3194 1989 mt 3244 2039 L
3244 1989 mt 3194 2039 L
3212 1989 mt 3262 2039 L
3262 1989 mt 3212 2039 L
3212 1949 mt 3262 1999 L
3262 1949 mt 3212 1999 L
3258 1949 mt 3308 1999 L
3308 1949 mt 3258 1999 L
3258 1910 mt 3308 1960 L
3308 1910 mt 3258 1960 L
3269 1910 mt 3319 1960 L
3319 1910 mt 3269 1960 L
3269 1871 mt 3319 1921 L
3319 1871 mt 3269 1921 L
3283 1871 mt 3333 1921 L
3333 1871 mt 3283 1921 L
3283 1831 mt 3333 1881 L
3333 1831 mt 3283 1881 L
3312 1831 mt 3362 1881 L
3362 1831 mt 3312 1881 L
3312 1792 mt 3362 1842 L
3362 1792 mt 3312 1842 L
3319 1792 mt 3369 1842 L
3369 1792 mt 3319 1842 L
3319 1752 mt 3369 1802 L
3369 1752 mt 3319 1802 L
3328 1752 mt 3378 1802 L
3378 1752 mt 3328 1802 L
3328 1713 mt 3378 1763 L
3378 1713 mt 3328 1763 L
3351 1713 mt 3401 1763 L
3401 1713 mt 3351 1763 L
3351 1674 mt 3401 1724 L
3401 1674 mt 3351 1724 L
3361 1674 mt 3411 1724 L
3411 1674 mt 3361 1724 L
3361 1634 mt 3411 1684 L
3411 1634 mt 3361 1684 L
3405 1634 mt 3455 1684 L
3455 1634 mt 3405 1684 L
3405 1595 mt 3455 1645 L
3455 1595 mt 3405 1645 L
3431 1595 mt 3481 1645 L
3481 1595 mt 3431 1645 L
3431 1555 mt 3481 1605 L
3481 1555 mt 3431 1605 L
3435 1555 mt 3485 1605 L
3485 1555 mt 3435 1605 L
3435 1516 mt 3485 1566 L
3485 1516 mt 3435 1566 L
3438 1516 mt 3488 1566 L
3488 1516 mt 3438 1566 L
3438 1477 mt 3488 1527 L
3488 1477 mt 3438 1527 L
3447 1477 mt 3497 1527 L
3497 1477 mt 3447 1527 L
3447 1437 mt 3497 1487 L
3497 1437 mt 3447 1487 L
3462 1437 mt 3512 1487 L
3512 1437 mt 3462 1487 L
3462 1398 mt 3512 1448 L
3512 1398 mt 3462 1448 L
3473 1398 mt 3523 1448 L
3523 1398 mt 3473 1448 L
3473 1358 mt 3523 1408 L
3523 1358 mt 3473 1408 L
3474 1358 mt 3524 1408 L
3524 1358 mt 3474 1408 L
3474 1319 mt 3524 1369 L
3524 1319 mt 3474 1369 L
3485 1319 mt 3535 1369 L
3535 1319 mt 3485 1369 L
3485 1279 mt 3535 1329 L
3535 1279 mt 3485 1329 L
3486 1279 mt 3536 1329 L
3536 1279 mt 3486 1329 L
3486 1240 mt 3536 1290 L
3536 1240 mt 3486 1290 L
3489 1240 mt 3539 1290 L
3539 1240 mt 3489 1290 L
3489 1201 mt 3539 1251 L
3539 1201 mt 3489 1251 L
3530 1201 mt 3580 1251 L
3580 1201 mt 3530 1251 L
3530 1161 mt 3580 1211 L
3580 1161 mt 3530 1211 L
3531 1161 mt 3581 1211 L
3581 1161 mt 3531 1211 L
3531 1122 mt 3581 1172 L
3581 1122 mt 3531 1172 L
3533 1122 mt 3583 1172 L
3583 1122 mt 3533 1172 L
3533 1082 mt 3583 1132 L
3583 1082 mt 3533 1132 L
3542 1082 mt 3592 1132 L
3592 1082 mt 3542 1132 L
3542 1043 mt 3592 1093 L
3592 1043 mt 3542 1093 L
3570 1043 mt 3620 1093 L
3620 1043 mt 3570 1093 L
3570 1004 mt 3620 1054 L
3620 1004 mt 3570 1054 L
3573 1004 mt 3623 1054 L
3623 1004 mt 3573 1054 L
3573  964 mt 3623 1014 L
3623  964 mt 3573 1014 L
3584  964 mt 3634 1014 L
3634  964 mt 3584 1014 L
3584  925 mt 3634  975 L
3634  925 mt 3584  975 L
3606  925 mt 3656  975 L
3656  925 mt 3606  975 L
3606  885 mt 3656  935 L
3656  885 mt 3606  935 L
3632  885 mt 3682  935 L
3682  885 mt 3632  935 L
3632  846 mt 3682  896 L
3682  846 mt 3632  896 L
3639  846 mt 3689  896 L
3689  846 mt 3639  896 L
3639  806 mt 3689  856 L
3689  806 mt 3639  856 L
3661  806 mt 3711  856 L
3711  806 mt 3661  856 L
3661  767 mt 3711  817 L
3711  767 mt 3661  817 L
3671  767 mt 3721  817 L
3721  767 mt 3671  817 L
3671  728 mt 3721  778 L
3721  728 mt 3671  778 L
3687  728 mt 3737  778 L
3737  728 mt 3687  778 L
3687  688 mt 3737  738 L
3737  688 mt 3687  738 L
3732  688 mt 3782  738 L
3782  688 mt 3732  738 L
3732  649 mt 3782  699 L
3782  649 mt 3732  699 L
3798  649 mt 3848  699 L
3848  649 mt 3798  699 L
3798  609 mt 3848  659 L
3848  609 mt 3798  659 L
3851  609 mt 3901  659 L
3901  609 mt 3851  659 L
3851  570 mt 3901  620 L
3901  570 mt 3851  620 L
3871  570 mt 3921  620 L
3921  570 mt 3871  620 L
3871  531 mt 3921  581 L
3921  531 mt 3871  581 L
3904  531 mt 3954  581 L
3954  531 mt 3904  581 L
3904  491 mt 3954  541 L
3954  491 mt 3904  541 L
3944  491 mt 3994  541 L
3994  491 mt 3944  541 L
3944  452 mt 3994  502 L
3994  452 mt 3944  502 L
3963  452 mt 4013  502 L
4013  452 mt 3963  502 L
3963  412 mt 4013  462 L
4013  412 mt 3963  462 L
3987  412 mt 4037  462 L
4037  412 mt 3987  462 L
3987  373 mt 4037  423 L
4037  373 mt 3987  423 L
4208  373 mt 4258  423 L
4258  373 mt 4208  423 L
4208  334 mt 4258  384 L
4258  334 mt 4208  384 L
gr

gs 792 359 4726 3903 rc
/c10 { 1.000000 0.000000 0.000000 sr} bdef
c10
0 -39 40 0 0 -39 24 0 0 -40 57 0 0 -39 53 0 
0 -40 11 0 0 -39 45 0 0 -39 74 0 0 -40 1 0 
0 -39 6 0 0 -40 19 0 0 -39 9 0 0 -39 10 0 
0 -40 9 0 0 -39 4 0 0 -40 33 0 0 -39 53 0 
0 -40 30 0 0 -39 3 0 0 -39 2 0 0 -40 6 0 
0 -39 11 0 0 -40 17 0 0 -39 15 0 0 -39 30 0 
0 -40 1 0 0 -39 44 0 0 -40 19 0 0 -39 2 0 
0 -40 0 -39 3 0 0 -39 2 0 0 -40 8 0 0 -39 
1 0 0 -40 3 0 0 -39 5 0 0 -39 2 0 0 -40 
12 0 0 -39 19 0 0 -40 1 0 0 -39 5 0 0 -39 
17 0 0 -79 17 0 0 -40 1 0 0 -39 38 0 0 -158 
20 0 0 -39 0 -40 18 0 0 -39 0 -39 18 0 0 -40 
1 0 0 -39 19 0 0 -40 1 0 0 -39 0 -40 16 0 
0 -39 3 0 0 -39 17 0 0 -40 2 0 0 -39 0 -40 
25 0 0 -78 9 0 0 -40 1 0 0 -39 4 0 0 -40 
6 0 0 -39 14 0 0 -39 1 0 0 -40 20 0 0 -39 
0 -40 17 0 0 -39 16 0 0 -40 31 0 0 -39 5 0 
0 -39 12 0 0 -40 5 0 0 -39 2 0 0 -40 7 0 
0 -78 5 0 0 -40 3 0 0 -39 0 -40 10 0 0 -39 
5 0 0 -40 4 0 0 -39 10 0 0 -39 9 0 0 -40 
13 0 0 -39 66 0 0 -40 9 0 0 -39 31 0 0 -39 
26 0 0 -40 30 0 0 -39 38 0 0 -40 21 0 0 -39 
130 0 0 -40 2454 4261 179 MP stroke
gr

c10
gs 2333 238 1705 4145 rc
40 W
2454 4261 PD
40 W
2454 4221 PD
40 W
2584 4221 PD
40 W
2584 4182 PD
40 W
2605 4182 PD
40 W
2605 4142 PD
40 W
2643 4142 PD
40 W
2643 4103 PD
40 W
2673 4103 PD
40 W
2673 4063 PD
40 W
2699 4063 PD
40 W
2699 4024 PD
40 W
2730 4024 PD
40 W
2730 3985 PD
40 W
2739 3985 PD
40 W
2739 3945 PD
40 W
2805 3945 PD
40 W
2805 3906 PD
40 W
2818 3906 PD
40 W
2818 3866 PD
40 W
2827 3866 PD
40 W
2827 3827 PD
40 W
2837 3827 PD
40 W
2837 3788 PD
40 W
2841 3788 PD
40 W
2841 3748 PD
40 W
2846 3748 PD
40 W
2846 3709 PD
40 W
2856 3709 PD
40 W
2856 3669 PD
40 W
2856 3630 PD
40 W
2859 3630 PD
40 W
2859 3590 PD
40 W
2864 3590 PD
40 W
2864 3512 PD
40 W
2871 3512 PD
40 W
2871 3472 PD
40 W
2873 3472 PD
40 W
2873 3433 PD
40 W
2878 3433 PD
40 W
2878 3393 PD
40 W
2890 3393 PD
40 W
2890 3354 PD
40 W
2895 3354 PD
40 W
2895 3315 PD
40 W
2926 3315 PD
40 W
2926 3275 PD
40 W
2942 3275 PD
40 W
2942 3236 PD
40 W
2959 3236 PD
40 W
2959 3196 PD
40 W
2959 3157 PD
40 W
2979 3157 PD
40 W
2979 3117 PD
40 W
2980 3117 PD
40 W
2980 3078 PD
40 W
2994 3078 PD
40 W
2994 3039 PD
40 W
3000 3039 PD
40 W
3000 2999 PD
40 W
3004 2999 PD
40 W
3004 2960 PD
40 W
3005 2960 PD
40 W
3005 2920 PD
40 W
3014 2920 PD
40 W
3014 2842 PD
40 W
3039 2842 PD
40 W
3039 2802 PD
40 W
3039 2763 PD
40 W
3041 2763 PD
40 W
3041 2723 PD
40 W
3058 2723 PD
40 W
3058 2684 PD
40 W
3061 2684 PD
40 W
3061 2645 PD
40 W
3077 2645 PD
40 W
3077 2605 PD
40 W
3077 2566 PD
40 W
3078 2566 PD
40 W
3078 2526 PD
40 W
3097 2526 PD
40 W
3097 2487 PD
40 W
3098 2487 PD
40 W
3098 2447 PD
40 W
3116 2447 PD
40 W
3116 2408 PD
40 W
3116 2369 PD
40 W
3134 2369 PD
40 W
3134 2329 PD
40 W
3134 2290 PD
40 W
3154 2290 PD
40 W
3154 2132 PD
40 W
3192 2132 PD
40 W
3192 2093 PD
40 W
3193 2093 PD
40 W
3193 2053 PD
40 W
3210 2053 PD
40 W
3210 1974 PD
40 W
3227 1974 PD
40 W
3227 1935 PD
40 W
3232 1935 PD
40 W
3232 1896 PD
40 W
3233 1896 PD
40 W
3233 1856 PD
40 W
3252 1856 PD
40 W
3252 1817 PD
40 W
3264 1817 PD
40 W
3264 1777 PD
40 W
3266 1777 PD
40 W
3266 1738 PD
40 W
3271 1738 PD
40 W
3271 1699 PD
40 W
3274 1699 PD
40 W
3274 1659 PD
40 W
3275 1659 PD
40 W
3275 1620 PD
40 W
3283 1620 PD
40 W
3283 1580 PD
40 W
3285 1580 PD
40 W
3285 1541 PD
40 W
3288 1541 PD
40 W
3288 1502 PD
40 W
3288 1462 PD
40 W
3290 1462 PD
40 W
3290 1423 PD
40 W
3309 1423 PD
40 W
3309 1383 PD
40 W
3353 1383 PD
40 W
3353 1344 PD
40 W
3354 1344 PD
40 W
3354 1304 PD
40 W
3384 1304 PD
40 W
3384 1265 PD
40 W
3399 1265 PD
40 W
3399 1226 PD
40 W
3416 1226 PD
40 W
3416 1186 PD
40 W
3427 1186 PD
40 W
3427 1147 PD
40 W
3433 1147 PD
40 W
3433 1107 PD
40 W
3435 1107 PD
40 W
3435 1068 PD
40 W
3438 1068 PD
40 W
3438 1029 PD
40 W
3468 1029 PD
40 W
3468 989 PD
40 W
3521 989 PD
40 W
3521 950 PD
40 W
3554 950 PD
40 W
3554 910 PD
40 W
3558 910 PD
40 W
3558 871 PD
40 W
3567 871 PD
40 W
3567 831 PD
40 W
3577 831 PD
40 W
3577 792 PD
40 W
3586 792 PD
40 W
3586 753 PD
40 W
3605 753 PD
40 W
3605 713 PD
40 W
3611 713 PD
40 W
3611 674 PD
40 W
3612 674 PD
40 W
3612 634 PD
40 W
3686 634 PD
40 W
3686 595 PD
40 W
3731 595 PD
40 W
3731 556 PD
40 W
3742 556 PD
40 W
3742 516 PD
40 W
3795 516 PD
40 W
3795 477 PD
40 W
3852 477 PD
40 W
3852 437 PD
40 W
3876 437 PD
40 W
3876 398 PD
40 W
3916 398 PD
40 W
3916 359 PD
gr

gs 792 359 4726 3903 rc
gr

0 sg
%%IncludeResource: font Helvetica
/Helvetica /ISOLatin1Encoding 120 FMSR

 775 4304 mt 
( ) s
5501  401 mt 
( ) s
1 sg
0 744 2279 0 0 -744 876 1164 4 MP
PP
-2279 0 0 744 2279 0 0 -744 876 1164 5 MP stroke
4 w
DO
SO
6 w
0 sg
 876 1164 mt 3155 1164 L
 876  420 mt 3155  420 L
 876 1164 mt  876  420 L
3155 1164 mt 3155  420 L
 876 1164 mt 3155 1164 L
 876 1164 mt  876  420 L
 876 1164 mt 3155 1164 L
 876  420 mt 3155  420 L
 876 1164 mt  876  420 L
3155 1164 mt 3155  420 L
%%IncludeResource: font Helvetica
/Helvetica /ISOLatin1Encoding 168 FMSR

1344  618 mt 
(Block-wise Assignment) s
gs 876 420 2280 745 rc
c8
360 0 948 558 2 MP stroke
gr

c8
0 sg
1344  853 mt 
(Sequential OP) s
gs 876 420 2280 745 rc
c9
360 0 948 792 2 MP stroke
gs 1055 719 147 147 rc
1103  767 mt 1153  817 L
1153  767 mt 1103  817 L
gr

gr

c9
0 sg
1344 1087 mt 
(Novel OP) s
gs 876 420 2280 745 rc
c10
360 0 948 1025 2 MP stroke
gs 1007 904 243 243 rc
40 W
1128 1025 PD
gr

gr

c10

end %%Color Dict

eplot
%%EndObject

epage
end

showpage

%%Trailer
%%EOF
